MA6813400180,h_OCHCTP,10-L1-1,2019-01-25 00:15:00.0,Qmin,9.4,CHCGILDTO6Y
MA6813400180,h_OCHCTP,10-L1-1,2019-01-25 00:15:00.0,PhaseCorrectionAve,-0.061,CHCGILDTO6Y
MA6813400180,h_OCHCTP,10-L1-1,2019-01-25 00:15:00.0,BerPreFecMax,0.00159,CHCGILDTO6Y
MA6813400180,h_OCHCTP,10-L1-1,2019-01-25 00:15:00.0,PmdMin,2.88,CHCGILDTO6Y
MA6813400180,h_OCHCTP,10-L1-1,2019-01-25 00:15:00.0,SoPmdAve,3336.0,CHCGILDTO6Y
MA6813400180,h_OCHCTP,10-L1-1,2019-01-25 00:30:00.0,Qmin,9.41,CHCGILDTO6Y
MA6813400180,h_OCHCTP,10-L1-1,2019-01-25 00:30:00.0,PhaseCorrectionAve,4.17e-07,CHCGILDTO6Y
MA6813400180,h_OCHCTP,10-L1-1,2019-01-25 00:30:00.0,BerPreFecMax,0.00156,CHCGILDTO6Y
MA6813400180,h_OCHCTP,10-L1-1,2019-01-25 00:30:00.0,PmdMin,2.72,CHCGILDTO6Y
MA6813400180,h_OCHCTP,10-L1-1,2019-01-25 00:30:00.0,SoPmdAve,3342.64,CHCGILDTO6Y
MA6813400180,h_OCHCTP,10-L1-1,2019-01-25 00:45:00.0,Qmin,9.4,CHCGILDTO6Y
MA6813400180,h_OCHCTP,10-L1-1,2019-01-25 00:45:00.0,PhaseCorrectionAve,4.09e-07,CHCGILDTO6Y
MA6813400180,h_OCHCTP,10-L1-1,2019-01-25 00:45:00.0,BerPreFecMax,0.00158,CHCGILDTO6Y
MA6813400180,h_OCHCTP,10-L1-1,2019-01-25 00:45:00.0,PmdMin,2.38,CHCGILDTO6Y
MA6813400180,h_OCHCTP,10-L1-1,2019-01-25 00:45:00.0,SoPmdAve,3217.43,CHCGILDTO6Y
MA6813400180,h_OCHCTP,10-L1-2,2019-01-25 00:15:00.0,Qmin,9.09,CHCGILDTO6Y
MA6813400180,h_OCHCTP,10-L1-2,2019-01-25 00:15:00.0,PhaseCorrectionAve,-0.061,CHCGILDTO6Y
MA6813400180,h_OCHCTP,10-L1-2,2019-01-25 00:15:00.0,BerPreFecMax,0.00221,CHCGILDTO6Y
MA6813400180,h_OCHCTP,10-L1-2,2019-01-25 00:15:00.0,PmdMin,1.14,CHCGILDTO6Y
MA6813400180,h_OCHCTP,10-L1-2,2019-01-25 00:15:00.0,SoPmdAve,3407.17,CHCGILDTO6Y
MA6813400180,h_OCHCTP,10-L1-2,2019-01-25 00:30:00.0,Qmin,9.09,CHCGILDTO6Y
MA6813400180,h_OCHCTP,10-L1-2,2019-01-25 00:30:00.0,PhaseCorrectionAve,3.67e-07,CHCGILDTO6Y
MA6813400180,h_OCHCTP,10-L1-2,2019-01-25 00:30:00.0,BerPreFecMax,0.00221,CHCGILDTO6Y
MA6813400180,h_OCHCTP,10-L1-2,2019-01-25 00:30:00.0,PmdMin,0.998,CHCGILDTO6Y
MA6813400180,h_OCHCTP,10-L1-2,2019-01-25 00:30:00.0,SoPmdAve,3439.48,CHCGILDTO6Y
MA6813400180,h_OCHCTP,10-L1-2,2019-01-25 00:45:00.0,Qmin,9.06,CHCGILDTO6Y
MA6813400180,h_OCHCTP,10-L1-2,2019-01-25 00:45:00.0,PhaseCorrectionAve,3.67e-07,CHCGILDTO6Y
MA6813400180,h_OCHCTP,10-L1-2,2019-01-25 00:45:00.0,BerPreFecMax,0.00226,CHCGILDTO6Y
MA6813400180,h_OCHCTP,10-L1-2,2019-01-25 00:45:00.0,PmdMin,1.36,CHCGILDTO6Y
MA6813400180,h_OCHCTP,10-L1-2,2019-01-25 00:45:00.0,SoPmdAve,3342.02,CHCGILDTO6Y
MA6813400180,h_OCHCTP,10-L1-3,2019-01-25 00:15:00.0,Qmin,8.8,CHCGILDTO6Y
MA6813400180,h_OCHCTP,10-L1-3,2019-01-25 00:15:00.0,PhaseCorrectionAve,-0.061,CHCGILDTO6Y
MA6813400180,h_OCHCTP,10-L1-3,2019-01-25 00:15:00.0,BerPreFecMax,0.00295,CHCGILDTO6Y
MA6813400180,h_OCHCTP,10-L1-3,2019-01-25 00:15:00.0,PmdMin,1.98,CHCGILDTO6Y
MA6813400180,h_OCHCTP,10-L1-3,2019-01-25 00:15:00.0,SoPmdAve,2816.54,CHCGILDTO6Y
MA6813400180,h_OCHCTP,10-L1-3,2019-01-25 00:30:00.0,Qmin,8.8,CHCGILDTO6Y
MA6813400180,h_OCHCTP,10-L1-3,2019-01-25 00:30:00.0,PhaseCorrectionAve,6.47e-07,CHCGILDTO6Y
MA6813400180,h_OCHCTP,10-L1-3,2019-01-25 00:30:00.0,BerPreFecMax,0.00295,CHCGILDTO6Y
MA6813400180,h_OCHCTP,10-L1-3,2019-01-25 00:30:00.0,PmdMin,1.2,CHCGILDTO6Y
MA6813400180,h_OCHCTP,10-L1-3,2019-01-25 00:30:00.0,SoPmdAve,2824.13,CHCGILDTO6Y
MA6813400180,h_OCHCTP,10-L1-3,2019-01-25 00:45:00.0,Qmin,8.78,CHCGILDTO6Y
MA6813400180,h_OCHCTP,10-L1-3,2019-01-25 00:45:00.0,PhaseCorrectionAve,6.83e-07,CHCGILDTO6Y
MA6813400180,h_OCHCTP,10-L1-3,2019-01-25 00:45:00.0,BerPreFecMax,0.003,CHCGILDTO6Y
MA6813400180,h_OCHCTP,10-L1-3,2019-01-25 00:45:00.0,PmdMin,2.37,CHCGILDTO6Y
MA6813400180,h_OCHCTP,10-L1-3,2019-01-25 00:45:00.0,SoPmdAve,2825.99,CHCGILDTO6Y
MA6813400180,h_OCHCTP,10-L1-4,2019-01-25 00:15:00.0,Qmin,8.22,CHCGILDTO6Y
MA6813400180,h_OCHCTP,10-L1-4,2019-01-25 00:15:00.0,PhaseCorrectionAve,-0.122,CHCGILDTO6Y
MA6813400180,h_OCHCTP,10-L1-4,2019-01-25 00:15:00.0,BerPreFecMax,0.005,CHCGILDTO6Y
MA6813400180,h_OCHCTP,10-L1-4,2019-01-25 00:15:00.0,PmdMin,2.25,CHCGILDTO6Y
MA6813400180,h_OCHCTP,10-L1-4,2019-01-25 00:15:00.0,SoPmdAve,3130.75,CHCGILDTO6Y
MA6813400180,h_OCHCTP,10-L1-4,2019-01-25 00:30:00.0,Qmin,8.24,CHCGILDTO6Y
MA6813400180,h_OCHCTP,10-L1-4,2019-01-25 00:30:00.0,PhaseCorrectionAve,3.64e-06,CHCGILDTO6Y
MA6813400180,h_OCHCTP,10-L1-4,2019-01-25 00:30:00.0,BerPreFecMax,0.0049,CHCGILDTO6Y
MA6813400180,h_OCHCTP,10-L1-4,2019-01-25 00:30:00.0,PmdMin,1.67,CHCGILDTO6Y
MA6813400180,h_OCHCTP,10-L1-4,2019-01-25 00:30:00.0,SoPmdAve,3033.17,CHCGILDTO6Y
MA6813400180,h_OCHCTP,10-L1-4,2019-01-25 00:45:00.0,Qmin,8.23,CHCGILDTO6Y
MA6813400180,h_OCHCTP,10-L1-4,2019-01-25 00:45:00.0,PhaseCorrectionAve,-0.061,CHCGILDTO6Y
MA6813400180,h_OCHCTP,10-L1-4,2019-01-25 00:45:00.0,BerPreFecMax,0.00496,CHCGILDTO6Y
MA6813400180,h_OCHCTP,10-L1-4,2019-01-25 00:45:00.0,PmdMin,1.28,CHCGILDTO6Y
MA6813400180,h_OCHCTP,10-L1-4,2019-01-25 00:45:00.0,SoPmdAve,3050.07,CHCGILDTO6Y
MA6813400180,h_OCHCTP,10-L1-5,2019-01-25 00:15:00.0,Qmin,8.42,CHCGILDTO6Y
MA6813400180,h_OCHCTP,10-L1-5,2019-01-25 00:15:00.0,PhaseCorrectionAve,-0.122,CHCGILDTO6Y
MA6813400180,h_OCHCTP,10-L1-5,2019-01-25 00:15:00.0,BerPreFecMax,0.0042,CHCGILDTO6Y
MA6813400180,h_OCHCTP,10-L1-5,2019-01-25 00:15:00.0,PmdMin,1.34,CHCGILDTO6Y
MA6813400180,h_OCHCTP,10-L1-5,2019-01-25 00:15:00.0,SoPmdAve,2961.89,CHCGILDTO6Y
MA6813400180,h_OCHCTP,10-L1-5,2019-01-25 00:30:00.0,Qmin,8.42,CHCGILDTO6Y
MA6813400180,h_OCHCTP,10-L1-5,2019-01-25 00:30:00.0,PhaseCorrectionAve,-0.061,CHCGILDTO6Y
MA6813400180,h_OCHCTP,10-L1-5,2019-01-25 00:30:00.0,BerPreFecMax,0.00417,CHCGILDTO6Y
MA6813400180,h_OCHCTP,10-L1-5,2019-01-25 00:30:00.0,PmdMin,0.677,CHCGILDTO6Y
MA6813400180,h_OCHCTP,10-L1-5,2019-01-25 00:30:00.0,SoPmdAve,2920.64,CHCGILDTO6Y
MA6813400180,h_OCHCTP,10-L1-5,2019-01-25 00:45:00.0,Qmin,8.42,CHCGILDTO6Y
MA6813400180,h_OCHCTP,10-L1-5,2019-01-25 00:45:00.0,PhaseCorrectionAve,-0.122,CHCGILDTO6Y
MA6813400180,h_OCHCTP,10-L1-5,2019-01-25 00:45:00.0,BerPreFecMax,0.00419,CHCGILDTO6Y
MA6813400180,h_OCHCTP,10-L1-5,2019-01-25 00:45:00.0,PmdMin,0.722,CHCGILDTO6Y
MA6813400180,h_OCHCTP,10-L1-5,2019-01-25 00:45:00.0,SoPmdAve,2843.25,CHCGILDTO6Y
MA6813400180,h_OCHCTP,10-L1-6,2019-01-25 00:15:00.0,Qmin,8.65,CHCGILDTO6Y
MA6813400180,h_OCHCTP,10-L1-6,2019-01-25 00:15:00.0,PhaseCorrectionAve,-0.122,CHCGILDTO6Y
MA6813400180,h_OCHCTP,10-L1-6,2019-01-25 00:15:00.0,BerPreFecMax,0.0034,CHCGILDTO6Y
MA6813400180,h_OCHCTP,10-L1-6,2019-01-25 00:15:00.0,PmdMin,2.01,CHCGILDTO6Y
MA6813400180,h_OCHCTP,10-L1-6,2019-01-25 00:15:00.0,SoPmdAve,2753.56,CHCGILDTO6Y
MA6813400180,h_OCHCTP,10-L1-6,2019-01-25 00:30:00.0,Qmin,8.66,CHCGILDTO6Y
MA6813400180,h_OCHCTP,10-L1-6,2019-01-25 00:30:00.0,PhaseCorrectionAve,-0.122,CHCGILDTO6Y
MA6813400180,h_OCHCTP,10-L1-6,2019-01-25 00:30:00.0,BerPreFecMax,0.00336,CHCGILDTO6Y
MA6813400180,h_OCHCTP,10-L1-6,2019-01-25 00:30:00.0,PmdMin,2.79,CHCGILDTO6Y
MA6813400180,h_OCHCTP,10-L1-6,2019-01-25 00:30:00.0,SoPmdAve,2765.6,CHCGILDTO6Y
MA6813400180,h_OCHCTP,10-L1-6,2019-01-25 00:45:00.0,Qmin,8.66,CHCGILDTO6Y
MA6813400180,h_OCHCTP,10-L1-6,2019-01-25 00:45:00.0,PhaseCorrectionAve,-0.122,CHCGILDTO6Y
MA6813400180,h_OCHCTP,10-L1-6,2019-01-25 00:45:00.0,BerPreFecMax,0.00335,CHCGILDTO6Y
MA6813400180,h_OCHCTP,10-L1-6,2019-01-25 00:45:00.0,PmdMin,1.86,CHCGILDTO6Y
MA6813400180,h_OCHCTP,10-L1-6,2019-01-25 00:45:00.0,SoPmdAve,2820.52,CHCGILDTO6Y
MA6813400180,h_OCHCTP,10-L1-7,2019-01-25 00:15:00.0,Qmin,8.75,CHCGILDTO6Y
MA6813400180,h_OCHCTP,10-L1-7,2019-01-25 00:15:00.0,PhaseCorrectionAve,-0.122,CHCGILDTO6Y
MA6813400180,h_OCHCTP,10-L1-7,2019-01-25 00:15:00.0,BerPreFecMax,0.00309,CHCGILDTO6Y
MA6813400180,h_OCHCTP,10-L1-7,2019-01-25 00:15:00.0,PmdMin,5.21,CHCGILDTO6Y
MA6813400180,h_OCHCTP,10-L1-7,2019-01-25 00:15:00.0,SoPmdAve,3388.47,CHCGILDTO6Y
MA6813400180,h_OCHCTP,10-L1-7,2019-01-25 00:30:00.0,Qmin,8.75,CHCGILDTO6Y
MA6813400180,h_OCHCTP,10-L1-7,2019-01-25 00:30:00.0,PhaseCorrectionAve,-0.122,CHCGILDTO6Y
MA6813400180,h_OCHCTP,10-L1-7,2019-01-25 00:30:00.0,BerPreFecMax,0.00307,CHCGILDTO6Y
MA6813400180,h_OCHCTP,10-L1-7,2019-01-25 00:30:00.0,PmdMin,3.99,CHCGILDTO6Y
MA6813400180,h_OCHCTP,10-L1-7,2019-01-25 00:30:00.0,SoPmdAve,3357.89,CHCGILDTO6Y
MA6813400180,h_OCHCTP,10-L1-7,2019-01-25 00:45:00.0,Qmin,8.77,CHCGILDTO6Y
MA6813400180,h_OCHCTP,10-L1-7,2019-01-25 00:45:00.0,PhaseCorrectionAve,-0.122,CHCGILDTO6Y
MA6813400180,h_OCHCTP,10-L1-7,2019-01-25 00:45:00.0,BerPreFecMax,0.00304,CHCGILDTO6Y
MA6813400180,h_OCHCTP,10-L1-7,2019-01-25 00:45:00.0,PmdMin,4.73,CHCGILDTO6Y
MA6813400180,h_OCHCTP,10-L1-7,2019-01-25 00:45:00.0,SoPmdAve,3455.7,CHCGILDTO6Y
MA6813400180,h_OCHCTP,10-L1-8,2019-01-25 00:15:00.0,Qmin,9.28,CHCGILDTO6Y
MA6813400180,h_OCHCTP,10-L1-8,2019-01-25 00:15:00.0,PhaseCorrectionAve,-0.183,CHCGILDTO6Y
MA6813400180,h_OCHCTP,10-L1-8,2019-01-25 00:15:00.0,BerPreFecMax,0.0018,CHCGILDTO6Y
MA6813400180,h_OCHCTP,10-L1-8,2019-01-25 00:15:00.0,PmdMin,1.62,CHCGILDTO6Y
MA6813400180,h_OCHCTP,10-L1-8,2019-01-25 00:15:00.0,SoPmdAve,3483.62,CHCGILDTO6Y
MA6813400180,h_OCHCTP,10-L1-8,2019-01-25 00:30:00.0,Qmin,9.28,CHCGILDTO6Y
MA6813400180,h_OCHCTP,10-L1-8,2019-01-25 00:30:00.0,PhaseCorrectionAve,-0.183,CHCGILDTO6Y
MA6813400180,h_OCHCTP,10-L1-8,2019-01-25 00:30:00.0,BerPreFecMax,0.0018,CHCGILDTO6Y
MA6813400180,h_OCHCTP,10-L1-8,2019-01-25 00:30:00.0,PmdMin,1.18,CHCGILDTO6Y
MA6813400180,h_OCHCTP,10-L1-8,2019-01-25 00:30:00.0,SoPmdAve,3438.74,CHCGILDTO6Y
MA6813400180,h_OCHCTP,10-L1-8,2019-01-25 00:45:00.0,Qmin,9.28,CHCGILDTO6Y
MA6813400180,h_OCHCTP,10-L1-8,2019-01-25 00:45:00.0,PhaseCorrectionAve,-0.122,CHCGILDTO6Y
MA6813400180,h_OCHCTP,10-L1-8,2019-01-25 00:45:00.0,BerPreFecMax,0.00179,CHCGILDTO6Y
MA6813400180,h_OCHCTP,10-L1-8,2019-01-25 00:45:00.0,PmdMin,0.944,CHCGILDTO6Y
MA6813400180,h_OCHCTP,10-L1-8,2019-01-25 00:45:00.0,SoPmdAve,3479.86,CHCGILDTO6Y
MA6813400180,h_OCHCTP,10-L1-9,2019-01-25 00:15:00.0,Qmin,9.31,CHCGILDTO6Y
MA6813400180,h_OCHCTP,10-L1-9,2019-01-25 00:15:00.0,PhaseCorrectionAve,-0.183,CHCGILDTO6Y
MA6813400180,h_OCHCTP,10-L1-9,2019-01-25 00:15:00.0,BerPreFecMax,0.00174,CHCGILDTO6Y
MA6813400180,h_OCHCTP,10-L1-9,2019-01-25 00:15:00.0,PmdMin,1.39,CHCGILDTO6Y
MA6813400180,h_OCHCTP,10-L1-9,2019-01-25 00:15:00.0,SoPmdAve,3413.03,CHCGILDTO6Y
MA6813400180,h_OCHCTP,10-L1-9,2019-01-25 00:30:00.0,Qmin,9.32,CHCGILDTO6Y
MA6813400180,h_OCHCTP,10-L1-9,2019-01-25 00:30:00.0,PhaseCorrectionAve,-0.183,CHCGILDTO6Y
MA6813400180,h_OCHCTP,10-L1-9,2019-01-25 00:30:00.0,BerPreFecMax,0.00173,CHCGILDTO6Y
MA6813400180,h_OCHCTP,10-L1-9,2019-01-25 00:30:00.0,PmdMin,1.32,CHCGILDTO6Y
MA6813400180,h_OCHCTP,10-L1-9,2019-01-25 00:30:00.0,SoPmdAve,3465.34,CHCGILDTO6Y
MA6813400180,h_OCHCTP,10-L1-9,2019-01-25 00:45:00.0,Qmin,9.3,CHCGILDTO6Y
MA6813400180,h_OCHCTP,10-L1-9,2019-01-25 00:45:00.0,PhaseCorrectionAve,-0.122,CHCGILDTO6Y
MA6813400180,h_OCHCTP,10-L1-9,2019-01-25 00:45:00.0,BerPreFecMax,0.00176,CHCGILDTO6Y
MA6813400180,h_OCHCTP,10-L1-9,2019-01-25 00:45:00.0,PmdMin,1.93,CHCGILDTO6Y
MA6813400180,h_OCHCTP,10-L1-9,2019-01-25 00:45:00.0,SoPmdAve,3578.28,CHCGILDTO6Y
MA6813400180,h_OCHCTP,10-L1-10,2019-01-25 00:15:00.0,Qmin,9.35,CHCGILDTO6Y
MA6813400180,h_OCHCTP,10-L1-10,2019-01-25 00:15:00.0,PhaseCorrectionAve,-0.244,CHCGILDTO6Y
MA6813400180,h_OCHCTP,10-L1-10,2019-01-25 00:15:00.0,BerPreFecMax,0.00167,CHCGILDTO6Y
MA6813400180,h_OCHCTP,10-L1-10,2019-01-25 00:15:00.0,PmdMin,3.99,CHCGILDTO6Y
MA6813400180,h_OCHCTP,10-L1-10,2019-01-25 00:15:00.0,SoPmdAve,3275.35,CHCGILDTO6Y
MA6813400180,h_OCHCTP,10-L1-10,2019-01-25 00:30:00.0,Qmin,9.36,CHCGILDTO6Y
MA6813400180,h_OCHCTP,10-L1-10,2019-01-25 00:30:00.0,PhaseCorrectionAve,-0.183,CHCGILDTO6Y
MA6813400180,h_OCHCTP,10-L1-10,2019-01-25 00:30:00.0,BerPreFecMax,0.00166,CHCGILDTO6Y
MA6813400180,h_OCHCTP,10-L1-10,2019-01-25 00:30:00.0,PmdMin,3.95,CHCGILDTO6Y
MA6813400180,h_OCHCTP,10-L1-10,2019-01-25 00:30:00.0,SoPmdAve,3159.2,CHCGILDTO6Y
MA6813400180,h_OCHCTP,10-L1-10,2019-01-25 00:45:00.0,Qmin,9.33,CHCGILDTO6Y
MA6813400180,h_OCHCTP,10-L1-10,2019-01-25 00:45:00.0,PhaseCorrectionAve,-0.122,CHCGILDTO6Y
MA6813400180,h_OCHCTP,10-L1-10,2019-01-25 00:45:00.0,BerPreFecMax,0.00171,CHCGILDTO6Y
MA6813400180,h_OCHCTP,10-L1-10,2019-01-25 00:45:00.0,PmdMin,1.46,CHCGILDTO6Y
MA6813400180,h_OCHCTP,10-L1-10,2019-01-25 00:45:00.0,SoPmdAve,3251.69,CHCGILDTO6Y
MA6813400180,h_OCHCTP,11-L1-1,2019-01-25 00:15:00.0,Qmin,9.13,CHCGILDTO6Y
MA6813400180,h_OCHCTP,11-L1-1,2019-01-25 00:15:00.0,PhaseCorrectionAve,1.53e-07,CHCGILDTO6Y
MA6813400180,h_OCHCTP,11-L1-1,2019-01-25 00:15:00.0,BerPreFecMax,0.00211,CHCGILDTO6Y
MA6813400180,h_OCHCTP,11-L1-1,2019-01-25 00:15:00.0,PmdMin,1.27,CHCGILDTO6Y
MA6813400180,h_OCHCTP,11-L1-1,2019-01-25 00:15:00.0,SoPmdAve,3337.02,CHCGILDTO6Y
MA6813400180,h_OCHCTP,11-L1-1,2019-01-25 00:30:00.0,Qmin,9.1,CHCGILDTO6Y
MA6813400180,h_OCHCTP,11-L1-1,2019-01-25 00:30:00.0,PhaseCorrectionAve,1.41e-07,CHCGILDTO6Y
MA6813400180,h_OCHCTP,11-L1-1,2019-01-25 00:30:00.0,BerPreFecMax,0.00218,CHCGILDTO6Y
MA6813400180,h_OCHCTP,11-L1-1,2019-01-25 00:30:00.0,PmdMin,0.846,CHCGILDTO6Y
MA6813400180,h_OCHCTP,11-L1-1,2019-01-25 00:30:00.0,SoPmdAve,3439.32,CHCGILDTO6Y
MA6813400180,h_OCHCTP,11-L1-1,2019-01-25 00:45:00.0,Qmin,9.15,CHCGILDTO6Y
MA6813400180,h_OCHCTP,11-L1-1,2019-01-25 00:45:00.0,PhaseCorrectionAve,1.16e-07,CHCGILDTO6Y
MA6813400180,h_OCHCTP,11-L1-1,2019-01-25 00:45:00.0,BerPreFecMax,0.00207,CHCGILDTO6Y
MA6813400180,h_OCHCTP,11-L1-1,2019-01-25 00:45:00.0,PmdMin,0.367,CHCGILDTO6Y
MA6813400180,h_OCHCTP,11-L1-1,2019-01-25 00:45:00.0,SoPmdAve,3414.0,CHCGILDTO6Y
MA6813400180,h_OCHCTP,11-L1-2,2019-01-25 00:15:00.0,Qmin,9.14,CHCGILDTO6Y
MA6813400180,h_OCHCTP,11-L1-2,2019-01-25 00:15:00.0,PhaseCorrectionAve,-0.061,CHCGILDTO6Y
MA6813400180,h_OCHCTP,11-L1-2,2019-01-25 00:15:00.0,BerPreFecMax,0.0021,CHCGILDTO6Y
MA6813400180,h_OCHCTP,11-L1-2,2019-01-25 00:15:00.0,PmdMin,0.914,CHCGILDTO6Y
MA6813400180,h_OCHCTP,11-L1-2,2019-01-25 00:15:00.0,SoPmdAve,3084.76,CHCGILDTO6Y
MA6813400180,h_OCHCTP,11-L1-2,2019-01-25 00:30:00.0,Qmin,9.11,CHCGILDTO6Y
MA6813400180,h_OCHCTP,11-L1-2,2019-01-25 00:30:00.0,PhaseCorrectionAve,-0.183,CHCGILDTO6Y
MA6813400180,h_OCHCTP,11-L1-2,2019-01-25 00:30:00.0,BerPreFecMax,0.00215,CHCGILDTO6Y
MA6813400180,h_OCHCTP,11-L1-2,2019-01-25 00:30:00.0,PmdMin,0.712,CHCGILDTO6Y
MA6813400180,h_OCHCTP,11-L1-2,2019-01-25 00:30:00.0,SoPmdAve,3144.75,CHCGILDTO6Y
MA6813400180,h_OCHCTP,11-L1-2,2019-01-25 00:45:00.0,Qmin,9.1,CHCGILDTO6Y
MA6813400180,h_OCHCTP,11-L1-2,2019-01-25 00:45:00.0,PhaseCorrectionAve,2.94e-07,CHCGILDTO6Y
MA6813400180,h_OCHCTP,11-L1-2,2019-01-25 00:45:00.0,BerPreFecMax,0.00219,CHCGILDTO6Y
MA6813400180,h_OCHCTP,11-L1-2,2019-01-25 00:45:00.0,PmdMin,1.32,CHCGILDTO6Y
MA6813400180,h_OCHCTP,11-L1-2,2019-01-25 00:45:00.0,SoPmdAve,3200.96,CHCGILDTO6Y
MA6813400180,h_OCHCTP,11-L1-3,2019-01-25 00:15:00.0,Qmin,9.06,CHCGILDTO6Y
MA6813400180,h_OCHCTP,11-L1-3,2019-01-25 00:15:00.0,PhaseCorrectionAve,-0.061,CHCGILDTO6Y
MA6813400180,h_OCHCTP,11-L1-3,2019-01-25 00:15:00.0,BerPreFecMax,0.00228,CHCGILDTO6Y
MA6813400180,h_OCHCTP,11-L1-3,2019-01-25 00:15:00.0,PmdMin,0.759,CHCGILDTO6Y
MA6813400180,h_OCHCTP,11-L1-3,2019-01-25 00:15:00.0,SoPmdAve,2790.87,CHCGILDTO6Y
MA6813400180,h_OCHCTP,11-L1-3,2019-01-25 00:30:00.0,Qmin,9.0,CHCGILDTO6Y
MA6813400180,h_OCHCTP,11-L1-3,2019-01-25 00:30:00.0,PhaseCorrectionAve,-0.244,CHCGILDTO6Y
MA6813400180,h_OCHCTP,11-L1-3,2019-01-25 00:30:00.0,BerPreFecMax,0.00242,CHCGILDTO6Y
MA6813400180,h_OCHCTP,11-L1-3,2019-01-25 00:30:00.0,PmdMin,1.1,CHCGILDTO6Y
MA6813400180,h_OCHCTP,11-L1-3,2019-01-25 00:30:00.0,SoPmdAve,2799.58,CHCGILDTO6Y
MA6813400180,h_OCHCTP,11-L1-3,2019-01-25 00:45:00.0,Qmin,8.97,CHCGILDTO6Y
MA6813400180,h_OCHCTP,11-L1-3,2019-01-25 00:45:00.0,PhaseCorrectionAve,-0.061,CHCGILDTO6Y
MA6813400180,h_OCHCTP,11-L1-3,2019-01-25 00:45:00.0,BerPreFecMax,0.00249,CHCGILDTO6Y
MA6813400180,h_OCHCTP,11-L1-3,2019-01-25 00:45:00.0,PmdMin,0.668,CHCGILDTO6Y
MA6813400180,h_OCHCTP,11-L1-3,2019-01-25 00:45:00.0,SoPmdAve,2699.86,CHCGILDTO6Y
MA6813400180,h_OCHCTP,11-L1-4,2019-01-25 00:15:00.0,Qmin,8.86,CHCGILDTO6Y
MA6813400180,h_OCHCTP,11-L1-4,2019-01-25 00:15:00.0,PhaseCorrectionAve,-0.183,CHCGILDTO6Y
MA6813400180,h_OCHCTP,11-L1-4,2019-01-25 00:15:00.0,BerPreFecMax,0.00278,CHCGILDTO6Y
MA6813400180,h_OCHCTP,11-L1-4,2019-01-25 00:15:00.0,PmdMin,0.696,CHCGILDTO6Y
MA6813400180,h_OCHCTP,11-L1-4,2019-01-25 00:15:00.0,SoPmdAve,2956.67,CHCGILDTO6Y
MA6813400180,h_OCHCTP,11-L1-4,2019-01-25 00:30:00.0,Qmin,8.79,CHCGILDTO6Y
MA6813400180,h_OCHCTP,11-L1-4,2019-01-25 00:30:00.0,PhaseCorrectionAve,-0.244,CHCGILDTO6Y
MA6813400180,h_OCHCTP,11-L1-4,2019-01-25 00:30:00.0,BerPreFecMax,0.00298,CHCGILDTO6Y
MA6813400180,h_OCHCTP,11-L1-4,2019-01-25 00:30:00.0,PmdMin,0.425,CHCGILDTO6Y
MA6813400180,h_OCHCTP,11-L1-4,2019-01-25 00:30:00.0,SoPmdAve,2991.76,CHCGILDTO6Y
MA6813400180,h_OCHCTP,11-L1-4,2019-01-25 00:45:00.0,Qmin,8.73,CHCGILDTO6Y
MA6813400180,h_OCHCTP,11-L1-4,2019-01-25 00:45:00.0,PhaseCorrectionAve,-0.061,CHCGILDTO6Y
MA6813400180,h_OCHCTP,11-L1-4,2019-01-25 00:45:00.0,BerPreFecMax,0.00316,CHCGILDTO6Y
MA6813400180,h_OCHCTP,11-L1-4,2019-01-25 00:45:00.0,PmdMin,0.439,CHCGILDTO6Y
MA6813400180,h_OCHCTP,11-L1-4,2019-01-25 00:45:00.0,SoPmdAve,3021.59,CHCGILDTO6Y
MA6813400180,h_OCHCTP,11-L1-5,2019-01-25 00:15:00.0,Qmin,8.9,CHCGILDTO6Y
MA6813400180,h_OCHCTP,11-L1-5,2019-01-25 00:15:00.0,PhaseCorrectionAve,-0.183,CHCGILDTO6Y
MA6813400180,h_OCHCTP,11-L1-5,2019-01-25 00:15:00.0,BerPreFecMax,0.00267,CHCGILDTO6Y
MA6813400180,h_OCHCTP,11-L1-5,2019-01-25 00:15:00.0,PmdMin,0.633,CHCGILDTO6Y
MA6813400180,h_OCHCTP,11-L1-5,2019-01-25 00:15:00.0,SoPmdAve,2548.12,CHCGILDTO6Y
MA6813400180,h_OCHCTP,11-L1-5,2019-01-25 00:30:00.0,Qmin,8.82,CHCGILDTO6Y
MA6813400180,h_OCHCTP,11-L1-5,2019-01-25 00:30:00.0,PhaseCorrectionAve,-0.244,CHCGILDTO6Y
MA6813400180,h_OCHCTP,11-L1-5,2019-01-25 00:30:00.0,BerPreFecMax,0.00288,CHCGILDTO6Y
MA6813400180,h_OCHCTP,11-L1-5,2019-01-25 00:30:00.0,PmdMin,0.654,CHCGILDTO6Y
MA6813400180,h_OCHCTP,11-L1-5,2019-01-25 00:30:00.0,SoPmdAve,2612.03,CHCGILDTO6Y
MA6813400180,h_OCHCTP,11-L1-5,2019-01-25 00:45:00.0,Qmin,8.77,CHCGILDTO6Y
MA6813400180,h_OCHCTP,11-L1-5,2019-01-25 00:45:00.0,PhaseCorrectionAve,-0.061,CHCGILDTO6Y
MA6813400180,h_OCHCTP,11-L1-5,2019-01-25 00:45:00.0,BerPreFecMax,0.00303,CHCGILDTO6Y
MA6813400180,h_OCHCTP,11-L1-5,2019-01-25 00:45:00.0,PmdMin,0.435,CHCGILDTO6Y
MA6813400180,h_OCHCTP,11-L1-5,2019-01-25 00:45:00.0,SoPmdAve,2518.97,CHCGILDTO6Y
MA6813400180,h_OCHCTP,11-L1-6,2019-01-25 00:15:00.0,Qmin,8.69,CHCGILDTO6Y
MA6813400180,h_OCHCTP,11-L1-6,2019-01-25 00:15:00.0,PhaseCorrectionAve,-0.183,CHCGILDTO6Y
MA6813400180,h_OCHCTP,11-L1-6,2019-01-25 00:15:00.0,BerPreFecMax,0.00328,CHCGILDTO6Y
MA6813400180,h_OCHCTP,11-L1-6,2019-01-25 00:15:00.0,PmdMin,1.04,CHCGILDTO6Y
MA6813400180,h_OCHCTP,11-L1-6,2019-01-25 00:15:00.0,SoPmdAve,2551.57,CHCGILDTO6Y
MA6813400180,h_OCHCTP,11-L1-6,2019-01-25 00:30:00.0,Qmin,8.69,CHCGILDTO6Y
MA6813400180,h_OCHCTP,11-L1-6,2019-01-25 00:30:00.0,PhaseCorrectionAve,-0.244,CHCGILDTO6Y
MA6813400180,h_OCHCTP,11-L1-6,2019-01-25 00:30:00.0,BerPreFecMax,0.00328,CHCGILDTO6Y
MA6813400180,h_OCHCTP,11-L1-6,2019-01-25 00:30:00.0,PmdMin,0.838,CHCGILDTO6Y
MA6813400180,h_OCHCTP,11-L1-6,2019-01-25 00:30:00.0,SoPmdAve,2487.87,CHCGILDTO6Y
MA6813400180,h_OCHCTP,11-L1-6,2019-01-25 00:45:00.0,Qmin,8.72,CHCGILDTO6Y
MA6813400180,h_OCHCTP,11-L1-6,2019-01-25 00:45:00.0,PhaseCorrectionAve,-0.061,CHCGILDTO6Y
MA6813400180,h_OCHCTP,11-L1-6,2019-01-25 00:45:00.0,BerPreFecMax,0.00317,CHCGILDTO6Y
MA6813400180,h_OCHCTP,11-L1-6,2019-01-25 00:45:00.0,PmdMin,0.87,CHCGILDTO6Y
MA6813400180,h_OCHCTP,11-L1-6,2019-01-25 00:45:00.0,SoPmdAve,2497.82,CHCGILDTO6Y
MA6813400180,h_OCHCTP,11-L1-7,2019-01-25 00:15:00.0,Qmin,8.74,CHCGILDTO6Y
MA6813400180,h_OCHCTP,11-L1-7,2019-01-25 00:15:00.0,PhaseCorrectionAve,-0.183,CHCGILDTO6Y
MA6813400180,h_OCHCTP,11-L1-7,2019-01-25 00:15:00.0,BerPreFecMax,0.00311,CHCGILDTO6Y
MA6813400180,h_OCHCTP,11-L1-7,2019-01-25 00:15:00.0,PmdMin,0.428,CHCGILDTO6Y
MA6813400180,h_OCHCTP,11-L1-7,2019-01-25 00:15:00.0,SoPmdAve,3069.92,CHCGILDTO6Y
MA6813400180,h_OCHCTP,11-L1-7,2019-01-25 00:30:00.0,Qmin,8.74,CHCGILDTO6Y
MA6813400180,h_OCHCTP,11-L1-7,2019-01-25 00:30:00.0,PhaseCorrectionAve,-0.244,CHCGILDTO6Y
MA6813400180,h_OCHCTP,11-L1-7,2019-01-25 00:30:00.0,BerPreFecMax,0.00312,CHCGILDTO6Y
MA6813400180,h_OCHCTP,11-L1-7,2019-01-25 00:30:00.0,PmdMin,0.726,CHCGILDTO6Y
MA6813400180,h_OCHCTP,11-L1-7,2019-01-25 00:30:00.0,SoPmdAve,2999.11,CHCGILDTO6Y
MA6813400180,h_OCHCTP,11-L1-7,2019-01-25 00:45:00.0,Qmin,8.82,CHCGILDTO6Y
MA6813400180,h_OCHCTP,11-L1-7,2019-01-25 00:45:00.0,PhaseCorrectionAve,-0.122,CHCGILDTO6Y
MA6813400180,h_OCHCTP,11-L1-7,2019-01-25 00:45:00.0,BerPreFecMax,0.00289,CHCGILDTO6Y
MA6813400180,h_OCHCTP,11-L1-7,2019-01-25 00:45:00.0,PmdMin,0.785,CHCGILDTO6Y
MA6813400180,h_OCHCTP,11-L1-7,2019-01-25 00:45:00.0,SoPmdAve,2937.75,CHCGILDTO6Y
MA6813400180,h_OCHCTP,11-L1-8,2019-01-25 00:15:00.0,Qmin,8.9,CHCGILDTO6Y
MA6813400180,h_OCHCTP,11-L1-8,2019-01-25 00:15:00.0,PhaseCorrectionAve,-0.244,CHCGILDTO6Y
MA6813400180,h_OCHCTP,11-L1-8,2019-01-25 00:15:00.0,BerPreFecMax,0.00266,CHCGILDTO6Y
MA6813400180,h_OCHCTP,11-L1-8,2019-01-25 00:15:00.0,PmdMin,0.765,CHCGILDTO6Y
MA6813400180,h_OCHCTP,11-L1-8,2019-01-25 00:15:00.0,SoPmdAve,3132.27,CHCGILDTO6Y
MA6813400180,h_OCHCTP,11-L1-8,2019-01-25 00:30:00.0,Qmin,8.92,CHCGILDTO6Y
MA6813400180,h_OCHCTP,11-L1-8,2019-01-25 00:30:00.0,PhaseCorrectionAve,-0.244,CHCGILDTO6Y
MA6813400180,h_OCHCTP,11-L1-8,2019-01-25 00:30:00.0,BerPreFecMax,0.00262,CHCGILDTO6Y
MA6813400180,h_OCHCTP,11-L1-8,2019-01-25 00:30:00.0,PmdMin,0.554,CHCGILDTO6Y
MA6813400180,h_OCHCTP,11-L1-8,2019-01-25 00:30:00.0,SoPmdAve,3149.62,CHCGILDTO6Y
MA6813400180,h_OCHCTP,11-L1-8,2019-01-25 00:45:00.0,Qmin,8.96,CHCGILDTO6Y
MA6813400180,h_OCHCTP,11-L1-8,2019-01-25 00:45:00.0,PhaseCorrectionAve,-0.122,CHCGILDTO6Y
MA6813400180,h_OCHCTP,11-L1-8,2019-01-25 00:45:00.0,BerPreFecMax,0.00251,CHCGILDTO6Y
MA6813400180,h_OCHCTP,11-L1-8,2019-01-25 00:45:00.0,PmdMin,1.1,CHCGILDTO6Y
MA6813400180,h_OCHCTP,11-L1-8,2019-01-25 00:45:00.0,SoPmdAve,3088.47,CHCGILDTO6Y
MA6813400180,h_OCHCTP,11-L1-9,2019-01-25 00:15:00.0,Qmin,8.99,CHCGILDTO6Y
MA6813400180,h_OCHCTP,11-L1-9,2019-01-25 00:15:00.0,PhaseCorrectionAve,-0.305,CHCGILDTO6Y
MA6813400180,h_OCHCTP,11-L1-9,2019-01-25 00:15:00.0,BerPreFecMax,0.00244,CHCGILDTO6Y
MA6813400180,h_OCHCTP,11-L1-9,2019-01-25 00:15:00.0,PmdMin,0.865,CHCGILDTO6Y
MA6813400180,h_OCHCTP,11-L1-9,2019-01-25 00:15:00.0,SoPmdAve,3035.44,CHCGILDTO6Y
MA6813400180,h_OCHCTP,11-L1-9,2019-01-25 00:30:00.0,Qmin,8.92,CHCGILDTO6Y
MA6813400180,h_OCHCTP,11-L1-9,2019-01-25 00:30:00.0,PhaseCorrectionAve,-0.244,CHCGILDTO6Y
MA6813400180,h_OCHCTP,11-L1-9,2019-01-25 00:30:00.0,BerPreFecMax,0.0026,CHCGILDTO6Y
MA6813400180,h_OCHCTP,11-L1-9,2019-01-25 00:30:00.0,PmdMin,0.99,CHCGILDTO6Y
MA6813400180,h_OCHCTP,11-L1-9,2019-01-25 00:30:00.0,SoPmdAve,3136.17,CHCGILDTO6Y
MA6813400180,h_OCHCTP,11-L1-9,2019-01-25 00:45:00.0,Qmin,8.9,CHCGILDTO6Y
MA6813400180,h_OCHCTP,11-L1-9,2019-01-25 00:45:00.0,PhaseCorrectionAve,-0.122,CHCGILDTO6Y
MA6813400180,h_OCHCTP,11-L1-9,2019-01-25 00:45:00.0,BerPreFecMax,0.00267,CHCGILDTO6Y
MA6813400180,h_OCHCTP,11-L1-9,2019-01-25 00:45:00.0,PmdMin,0.849,CHCGILDTO6Y
MA6813400180,h_OCHCTP,11-L1-9,2019-01-25 00:45:00.0,SoPmdAve,3099.88,CHCGILDTO6Y
MA6813400180,h_OCHCTP,11-L1-10,2019-01-25 00:15:00.0,Qmin,9.07,CHCGILDTO6Y
MA6813400180,h_OCHCTP,11-L1-10,2019-01-25 00:15:00.0,PhaseCorrectionAve,-0.305,CHCGILDTO6Y
MA6813400180,h_OCHCTP,11-L1-10,2019-01-25 00:15:00.0,BerPreFecMax,0.00224,CHCGILDTO6Y
MA6813400180,h_OCHCTP,11-L1-10,2019-01-25 00:15:00.0,PmdMin,1.58,CHCGILDTO6Y
MA6813400180,h_OCHCTP,11-L1-10,2019-01-25 00:15:00.0,SoPmdAve,3158.44,CHCGILDTO6Y
MA6813400180,h_OCHCTP,11-L1-10,2019-01-25 00:30:00.0,Qmin,9.02,CHCGILDTO6Y
MA6813400180,h_OCHCTP,11-L1-10,2019-01-25 00:30:00.0,PhaseCorrectionAve,-0.244,CHCGILDTO6Y
MA6813400180,h_OCHCTP,11-L1-10,2019-01-25 00:30:00.0,BerPreFecMax,0.00236,CHCGILDTO6Y
MA6813400180,h_OCHCTP,11-L1-10,2019-01-25 00:30:00.0,PmdMin,1.25,CHCGILDTO6Y
MA6813400180,h_OCHCTP,11-L1-10,2019-01-25 00:30:00.0,SoPmdAve,3120.02,CHCGILDTO6Y
MA6813400180,h_OCHCTP,11-L1-10,2019-01-25 00:45:00.0,Qmin,8.93,CHCGILDTO6Y
MA6813400180,h_OCHCTP,11-L1-10,2019-01-25 00:45:00.0,PhaseCorrectionAve,-0.183,CHCGILDTO6Y
MA6813400180,h_OCHCTP,11-L1-10,2019-01-25 00:45:00.0,BerPreFecMax,0.00258,CHCGILDTO6Y
MA6813400180,h_OCHCTP,11-L1-10,2019-01-25 00:45:00.0,PmdMin,1.12,CHCGILDTO6Y
MA6813400180,h_OCHCTP,11-L1-10,2019-01-25 00:45:00.0,SoPmdAve,2984.21,CHCGILDTO6Y
MA6813400180,h_OCHCTP,13-L1-1,2019-01-25 00:15:00.0,Qmin,9.16,CHCGILDTO6Y
MA6813400180,h_OCHCTP,13-L1-1,2019-01-25 00:15:00.0,PhaseCorrectionAve,3.03e-07,CHCGILDTO6Y
MA6813400180,h_OCHCTP,13-L1-1,2019-01-25 00:15:00.0,BerPreFecMax,0.00205,CHCGILDTO6Y
MA6813400180,h_OCHCTP,13-L1-1,2019-01-25 00:15:00.0,PmdMin,0.805,CHCGILDTO6Y
MA6813400180,h_OCHCTP,13-L1-1,2019-01-25 00:15:00.0,SoPmdAve,3554.58,CHCGILDTO6Y
MA6813400180,h_OCHCTP,13-L1-1,2019-01-25 00:30:00.0,Qmin,9.13,CHCGILDTO6Y
MA6813400180,h_OCHCTP,13-L1-1,2019-01-25 00:30:00.0,PhaseCorrectionAve,2.58e-07,CHCGILDTO6Y
MA6813400180,h_OCHCTP,13-L1-1,2019-01-25 00:30:00.0,BerPreFecMax,0.00211,CHCGILDTO6Y
MA6813400180,h_OCHCTP,13-L1-1,2019-01-25 00:30:00.0,PmdMin,1.35,CHCGILDTO6Y
MA6813400180,h_OCHCTP,13-L1-1,2019-01-25 00:30:00.0,SoPmdAve,3611.29,CHCGILDTO6Y
MA6813400180,h_OCHCTP,13-L1-1,2019-01-25 00:45:00.0,Qmin,9.17,CHCGILDTO6Y
MA6813400180,h_OCHCTP,13-L1-1,2019-01-25 00:45:00.0,PhaseCorrectionAve,1.99e-07,CHCGILDTO6Y
MA6813400180,h_OCHCTP,13-L1-1,2019-01-25 00:45:00.0,BerPreFecMax,0.00202,CHCGILDTO6Y
MA6813400180,h_OCHCTP,13-L1-1,2019-01-25 00:45:00.0,PmdMin,0.809,CHCGILDTO6Y
MA6813400180,h_OCHCTP,13-L1-1,2019-01-25 00:45:00.0,SoPmdAve,3491.02,CHCGILDTO6Y
MA6813400180,h_OCHCTP,13-L1-2,2019-01-25 00:15:00.0,Qmin,9.22,CHCGILDTO6Y
MA6813400180,h_OCHCTP,13-L1-2,2019-01-25 00:15:00.0,PhaseCorrectionAve,2.77e-07,CHCGILDTO6Y
MA6813400180,h_OCHCTP,13-L1-2,2019-01-25 00:15:00.0,BerPreFecMax,0.00192,CHCGILDTO6Y
MA6813400180,h_OCHCTP,13-L1-2,2019-01-25 00:15:00.0,PmdMin,0.871,CHCGILDTO6Y
MA6813400180,h_OCHCTP,13-L1-2,2019-01-25 00:15:00.0,SoPmdAve,3522.72,CHCGILDTO6Y
MA6813400180,h_OCHCTP,13-L1-2,2019-01-25 00:30:00.0,Qmin,9.22,CHCGILDTO6Y
MA6813400180,h_OCHCTP,13-L1-2,2019-01-25 00:30:00.0,PhaseCorrectionAve,2.59e-07,CHCGILDTO6Y
MA6813400180,h_OCHCTP,13-L1-2,2019-01-25 00:30:00.0,BerPreFecMax,0.00192,CHCGILDTO6Y
MA6813400180,h_OCHCTP,13-L1-2,2019-01-25 00:30:00.0,PmdMin,0.943,CHCGILDTO6Y
MA6813400180,h_OCHCTP,13-L1-2,2019-01-25 00:30:00.0,SoPmdAve,3568.29,CHCGILDTO6Y
MA6813400180,h_OCHCTP,13-L1-2,2019-01-25 00:45:00.0,Qmin,9.18,CHCGILDTO6Y
MA6813400180,h_OCHCTP,13-L1-2,2019-01-25 00:45:00.0,PhaseCorrectionAve,-0.061,CHCGILDTO6Y
MA6813400180,h_OCHCTP,13-L1-2,2019-01-25 00:45:00.0,BerPreFecMax,0.00202,CHCGILDTO6Y
MA6813400180,h_OCHCTP,13-L1-2,2019-01-25 00:45:00.0,PmdMin,0.924,CHCGILDTO6Y
MA6813400180,h_OCHCTP,13-L1-2,2019-01-25 00:45:00.0,SoPmdAve,3451.18,CHCGILDTO6Y
MA6813400180,h_OCHCTP,13-L1-3,2019-01-25 00:15:00.0,Qmin,9.04,CHCGILDTO6Y
MA6813400180,h_OCHCTP,13-L1-3,2019-01-25 00:15:00.0,PhaseCorrectionAve,3.99e-07,CHCGILDTO6Y
MA6813400180,h_OCHCTP,13-L1-3,2019-01-25 00:15:00.0,BerPreFecMax,0.00231,CHCGILDTO6Y
MA6813400180,h_OCHCTP,13-L1-3,2019-01-25 00:15:00.0,PmdMin,1.19,CHCGILDTO6Y
MA6813400180,h_OCHCTP,13-L1-3,2019-01-25 00:15:00.0,SoPmdAve,2955.36,CHCGILDTO6Y
MA6813400180,h_OCHCTP,13-L1-3,2019-01-25 00:30:00.0,Qmin,9.01,CHCGILDTO6Y
MA6813400180,h_OCHCTP,13-L1-3,2019-01-25 00:30:00.0,PhaseCorrectionAve,-0.061,CHCGILDTO6Y
MA6813400180,h_OCHCTP,13-L1-3,2019-01-25 00:30:00.0,BerPreFecMax,0.00239,CHCGILDTO6Y
MA6813400180,h_OCHCTP,13-L1-3,2019-01-25 00:30:00.0,PmdMin,0.381,CHCGILDTO6Y
MA6813400180,h_OCHCTP,13-L1-3,2019-01-25 00:30:00.0,SoPmdAve,2941.97,CHCGILDTO6Y
MA6813400180,h_OCHCTP,13-L1-3,2019-01-25 00:45:00.0,Qmin,8.98,CHCGILDTO6Y
MA6813400180,h_OCHCTP,13-L1-3,2019-01-25 00:45:00.0,PhaseCorrectionAve,-0.122,CHCGILDTO6Y
MA6813400180,h_OCHCTP,13-L1-3,2019-01-25 00:45:00.0,BerPreFecMax,0.00246,CHCGILDTO6Y
MA6813400180,h_OCHCTP,13-L1-3,2019-01-25 00:45:00.0,PmdMin,0.703,CHCGILDTO6Y
MA6813400180,h_OCHCTP,13-L1-3,2019-01-25 00:45:00.0,SoPmdAve,2980.46,CHCGILDTO6Y
MA6813400180,h_OCHCTP,13-L1-4,2019-01-25 00:15:00.0,Qmin,8.79,CHCGILDTO6Y
MA6813400180,h_OCHCTP,13-L1-4,2019-01-25 00:15:00.0,PhaseCorrectionAve,3.98e-07,CHCGILDTO6Y
MA6813400180,h_OCHCTP,13-L1-4,2019-01-25 00:15:00.0,BerPreFecMax,0.00298,CHCGILDTO6Y
MA6813400180,h_OCHCTP,13-L1-4,2019-01-25 00:15:00.0,PmdMin,0.65,CHCGILDTO6Y
MA6813400180,h_OCHCTP,13-L1-4,2019-01-25 00:15:00.0,SoPmdAve,3433.62,CHCGILDTO6Y
MA6813400180,h_OCHCTP,13-L1-4,2019-01-25 00:30:00.0,Qmin,8.73,CHCGILDTO6Y
MA6813400180,h_OCHCTP,13-L1-4,2019-01-25 00:30:00.0,PhaseCorrectionAve,-0.061,CHCGILDTO6Y
MA6813400180,h_OCHCTP,13-L1-4,2019-01-25 00:30:00.0,BerPreFecMax,0.00315,CHCGILDTO6Y
MA6813400180,h_OCHCTP,13-L1-4,2019-01-25 00:30:00.0,PmdMin,0.637,CHCGILDTO6Y
MA6813400180,h_OCHCTP,13-L1-4,2019-01-25 00:30:00.0,SoPmdAve,3532.27,CHCGILDTO6Y
MA6813400180,h_OCHCTP,13-L1-4,2019-01-25 00:45:00.0,Qmin,8.69,CHCGILDTO6Y
MA6813400180,h_OCHCTP,13-L1-4,2019-01-25 00:45:00.0,PhaseCorrectionAve,-0.122,CHCGILDTO6Y
MA6813400180,h_OCHCTP,13-L1-4,2019-01-25 00:45:00.0,BerPreFecMax,0.00326,CHCGILDTO6Y
MA6813400180,h_OCHCTP,13-L1-4,2019-01-25 00:45:00.0,PmdMin,0.593,CHCGILDTO6Y
MA6813400180,h_OCHCTP,13-L1-4,2019-01-25 00:45:00.0,SoPmdAve,3455.13,CHCGILDTO6Y
MA6813400180,h_OCHCTP,13-L1-5,2019-01-25 00:15:00.0,Qmin,8.76,CHCGILDTO6Y
MA6813400180,h_OCHCTP,13-L1-5,2019-01-25 00:15:00.0,PhaseCorrectionAve,-0.061,CHCGILDTO6Y
MA6813400180,h_OCHCTP,13-L1-5,2019-01-25 00:15:00.0,BerPreFecMax,0.00305,CHCGILDTO6Y
MA6813400180,h_OCHCTP,13-L1-5,2019-01-25 00:15:00.0,PmdMin,1.45,CHCGILDTO6Y
MA6813400180,h_OCHCTP,13-L1-5,2019-01-25 00:15:00.0,SoPmdAve,2848.32,CHCGILDTO6Y
MA6813400180,h_OCHCTP,13-L1-5,2019-01-25 00:30:00.0,Qmin,8.72,CHCGILDTO6Y
MA6813400180,h_OCHCTP,13-L1-5,2019-01-25 00:30:00.0,PhaseCorrectionAve,-0.061,CHCGILDTO6Y
MA6813400180,h_OCHCTP,13-L1-5,2019-01-25 00:30:00.0,BerPreFecMax,0.00318,CHCGILDTO6Y
MA6813400180,h_OCHCTP,13-L1-5,2019-01-25 00:30:00.0,PmdMin,1.12,CHCGILDTO6Y
MA6813400180,h_OCHCTP,13-L1-5,2019-01-25 00:30:00.0,SoPmdAve,2818.49,CHCGILDTO6Y
MA6813400180,h_OCHCTP,13-L1-5,2019-01-25 00:45:00.0,Qmin,8.65,CHCGILDTO6Y
MA6813400180,h_OCHCTP,13-L1-5,2019-01-25 00:45:00.0,PhaseCorrectionAve,-0.122,CHCGILDTO6Y
MA6813400180,h_OCHCTP,13-L1-5,2019-01-25 00:45:00.0,BerPreFecMax,0.00339,CHCGILDTO6Y
MA6813400180,h_OCHCTP,13-L1-5,2019-01-25 00:45:00.0,PmdMin,1.08,CHCGILDTO6Y
MA6813400180,h_OCHCTP,13-L1-5,2019-01-25 00:45:00.0,SoPmdAve,2839.58,CHCGILDTO6Y
MA6813400180,h_OCHCTP,13-L1-6,2019-01-25 00:15:00.0,Qmin,8.73,CHCGILDTO6Y
MA6813400180,h_OCHCTP,13-L1-6,2019-01-25 00:15:00.0,PhaseCorrectionAve,-0.061,CHCGILDTO6Y
MA6813400180,h_OCHCTP,13-L1-6,2019-01-25 00:15:00.0,BerPreFecMax,0.00314,CHCGILDTO6Y
MA6813400180,h_OCHCTP,13-L1-6,2019-01-25 00:15:00.0,PmdMin,1.55,CHCGILDTO6Y
MA6813400180,h_OCHCTP,13-L1-6,2019-01-25 00:15:00.0,SoPmdAve,3044.9,CHCGILDTO6Y
MA6813400180,h_OCHCTP,13-L1-6,2019-01-25 00:30:00.0,Qmin,8.73,CHCGILDTO6Y
MA6813400180,h_OCHCTP,13-L1-6,2019-01-25 00:30:00.0,PhaseCorrectionAve,-0.061,CHCGILDTO6Y
MA6813400180,h_OCHCTP,13-L1-6,2019-01-25 00:30:00.0,BerPreFecMax,0.00313,CHCGILDTO6Y
MA6813400180,h_OCHCTP,13-L1-6,2019-01-25 00:30:00.0,PmdMin,0.593,CHCGILDTO6Y
MA6813400180,h_OCHCTP,13-L1-6,2019-01-25 00:30:00.0,SoPmdAve,2959.88,CHCGILDTO6Y
MA6813400180,h_OCHCTP,13-L1-6,2019-01-25 00:45:00.0,Qmin,8.72,CHCGILDTO6Y
MA6813400180,h_OCHCTP,13-L1-6,2019-01-25 00:45:00.0,PhaseCorrectionAve,-0.122,CHCGILDTO6Y
MA6813400180,h_OCHCTP,13-L1-6,2019-01-25 00:45:00.0,BerPreFecMax,0.00319,CHCGILDTO6Y
MA6813400180,h_OCHCTP,13-L1-6,2019-01-25 00:45:00.0,PmdMin,1.04,CHCGILDTO6Y
MA6813400180,h_OCHCTP,13-L1-6,2019-01-25 00:45:00.0,SoPmdAve,2970.28,CHCGILDTO6Y
MA6813400180,h_OCHCTP,13-L1-7,2019-01-25 00:15:00.0,Qmin,8.72,CHCGILDTO6Y
MA6813400180,h_OCHCTP,13-L1-7,2019-01-25 00:15:00.0,PhaseCorrectionAve,-0.061,CHCGILDTO6Y
MA6813400180,h_OCHCTP,13-L1-7,2019-01-25 00:15:00.0,BerPreFecMax,0.00318,CHCGILDTO6Y
MA6813400180,h_OCHCTP,13-L1-7,2019-01-25 00:15:00.0,PmdMin,1.27,CHCGILDTO6Y
MA6813400180,h_OCHCTP,13-L1-7,2019-01-25 00:15:00.0,SoPmdAve,3767.87,CHCGILDTO6Y
MA6813400180,h_OCHCTP,13-L1-7,2019-01-25 00:30:00.0,Qmin,8.68,CHCGILDTO6Y
MA6813400180,h_OCHCTP,13-L1-7,2019-01-25 00:30:00.0,PhaseCorrectionAve,-0.183,CHCGILDTO6Y
MA6813400180,h_OCHCTP,13-L1-7,2019-01-25 00:30:00.0,BerPreFecMax,0.0033,CHCGILDTO6Y
MA6813400180,h_OCHCTP,13-L1-7,2019-01-25 00:30:00.0,PmdMin,1.22,CHCGILDTO6Y
MA6813400180,h_OCHCTP,13-L1-7,2019-01-25 00:30:00.0,SoPmdAve,3677.6,CHCGILDTO6Y
MA6813400180,h_OCHCTP,13-L1-7,2019-01-25 00:45:00.0,Qmin,8.81,CHCGILDTO6Y
MA6813400180,h_OCHCTP,13-L1-7,2019-01-25 00:45:00.0,PhaseCorrectionAve,-0.122,CHCGILDTO6Y
MA6813400180,h_OCHCTP,13-L1-7,2019-01-25 00:45:00.0,BerPreFecMax,0.00292,CHCGILDTO6Y
MA6813400180,h_OCHCTP,13-L1-7,2019-01-25 00:45:00.0,PmdMin,0.903,CHCGILDTO6Y
MA6813400180,h_OCHCTP,13-L1-7,2019-01-25 00:45:00.0,SoPmdAve,3853.17,CHCGILDTO6Y
MA6813400180,h_OCHCTP,13-L1-8,2019-01-25 00:15:00.0,Qmin,8.85,CHCGILDTO6Y
MA6813400180,h_OCHCTP,13-L1-8,2019-01-25 00:15:00.0,PhaseCorrectionAve,-0.122,CHCGILDTO6Y
MA6813400180,h_OCHCTP,13-L1-8,2019-01-25 00:15:00.0,BerPreFecMax,0.0028,CHCGILDTO6Y
MA6813400180,h_OCHCTP,13-L1-8,2019-01-25 00:15:00.0,PmdMin,0.811,CHCGILDTO6Y
MA6813400180,h_OCHCTP,13-L1-8,2019-01-25 00:15:00.0,SoPmdAve,4009.22,CHCGILDTO6Y
MA6813400180,h_OCHCTP,13-L1-8,2019-01-25 00:30:00.0,Qmin,8.87,CHCGILDTO6Y
MA6813400180,h_OCHCTP,13-L1-8,2019-01-25 00:30:00.0,PhaseCorrectionAve,-0.183,CHCGILDTO6Y
MA6813400180,h_OCHCTP,13-L1-8,2019-01-25 00:30:00.0,BerPreFecMax,0.00276,CHCGILDTO6Y
MA6813400180,h_OCHCTP,13-L1-8,2019-01-25 00:30:00.0,PmdMin,0.733,CHCGILDTO6Y
MA6813400180,h_OCHCTP,13-L1-8,2019-01-25 00:30:00.0,SoPmdAve,3895.91,CHCGILDTO6Y
MA6813400180,h_OCHCTP,13-L1-8,2019-01-25 00:45:00.0,Qmin,8.92,CHCGILDTO6Y
MA6813400180,h_OCHCTP,13-L1-8,2019-01-25 00:45:00.0,PhaseCorrectionAve,-0.183,CHCGILDTO6Y
MA6813400180,h_OCHCTP,13-L1-8,2019-01-25 00:45:00.0,BerPreFecMax,0.00262,CHCGILDTO6Y
MA6813400180,h_OCHCTP,13-L1-8,2019-01-25 00:45:00.0,PmdMin,1.19,CHCGILDTO6Y
MA6813400180,h_OCHCTP,13-L1-8,2019-01-25 00:45:00.0,SoPmdAve,3808.76,CHCGILDTO6Y
MA6813400180,h_OCHCTP,13-L1-9,2019-01-25 00:15:00.0,Qmin,8.94,CHCGILDTO6Y
MA6813400180,h_OCHCTP,13-L1-9,2019-01-25 00:15:00.0,PhaseCorrectionAve,-0.122,CHCGILDTO6Y
MA6813400180,h_OCHCTP,13-L1-9,2019-01-25 00:15:00.0,BerPreFecMax,0.00258,CHCGILDTO6Y
MA6813400180,h_OCHCTP,13-L1-9,2019-01-25 00:15:00.0,PmdMin,1.01,CHCGILDTO6Y
MA6813400180,h_OCHCTP,13-L1-9,2019-01-25 00:15:00.0,SoPmdAve,3625.77,CHCGILDTO6Y
MA6813400180,h_OCHCTP,13-L1-9,2019-01-25 00:30:00.0,Qmin,8.85,CHCGILDTO6Y
MA6813400180,h_OCHCTP,13-L1-9,2019-01-25 00:30:00.0,PhaseCorrectionAve,-0.183,CHCGILDTO6Y
MA6813400180,h_OCHCTP,13-L1-9,2019-01-25 00:30:00.0,BerPreFecMax,0.00281,CHCGILDTO6Y
MA6813400180,h_OCHCTP,13-L1-9,2019-01-25 00:30:00.0,PmdMin,0.992,CHCGILDTO6Y
MA6813400180,h_OCHCTP,13-L1-9,2019-01-25 00:30:00.0,SoPmdAve,3448.55,CHCGILDTO6Y
MA6813400180,h_OCHCTP,13-L1-9,2019-01-25 00:45:00.0,Qmin,8.81,CHCGILDTO6Y
MA6813400180,h_OCHCTP,13-L1-9,2019-01-25 00:45:00.0,PhaseCorrectionAve,-0.183,CHCGILDTO6Y
MA6813400180,h_OCHCTP,13-L1-9,2019-01-25 00:45:00.0,BerPreFecMax,0.0029,CHCGILDTO6Y
MA6813400180,h_OCHCTP,13-L1-9,2019-01-25 00:45:00.0,PmdMin,1.39,CHCGILDTO6Y
MA6813400180,h_OCHCTP,13-L1-9,2019-01-25 00:45:00.0,SoPmdAve,3515.38,CHCGILDTO6Y
MA6813400180,h_OCHCTP,13-L1-10,2019-01-25 00:15:00.0,Qmin,8.79,CHCGILDTO6Y
MA6813400180,h_OCHCTP,13-L1-10,2019-01-25 00:15:00.0,PhaseCorrectionAve,-0.122,CHCGILDTO6Y
MA6813400180,h_OCHCTP,13-L1-10,2019-01-25 00:15:00.0,BerPreFecMax,0.00296,CHCGILDTO6Y
MA6813400180,h_OCHCTP,13-L1-10,2019-01-25 00:15:00.0,PmdMin,0.864,CHCGILDTO6Y
MA6813400180,h_OCHCTP,13-L1-10,2019-01-25 00:15:00.0,SoPmdAve,3774.05,CHCGILDTO6Y
MA6813400180,h_OCHCTP,13-L1-10,2019-01-25 00:30:00.0,Qmin,8.75,CHCGILDTO6Y
MA6813400180,h_OCHCTP,13-L1-10,2019-01-25 00:30:00.0,PhaseCorrectionAve,-0.183,CHCGILDTO6Y
MA6813400180,h_OCHCTP,13-L1-10,2019-01-25 00:30:00.0,BerPreFecMax,0.00307,CHCGILDTO6Y
MA6813400180,h_OCHCTP,13-L1-10,2019-01-25 00:30:00.0,PmdMin,0.841,CHCGILDTO6Y
MA6813400180,h_OCHCTP,13-L1-10,2019-01-25 00:30:00.0,SoPmdAve,3765.34,CHCGILDTO6Y
MA6813400180,h_OCHCTP,13-L1-10,2019-01-25 00:45:00.0,Qmin,8.63,CHCGILDTO6Y
MA6813400180,h_OCHCTP,13-L1-10,2019-01-25 00:45:00.0,PhaseCorrectionAve,-0.183,CHCGILDTO6Y
MA6813400180,h_OCHCTP,13-L1-10,2019-01-25 00:45:00.0,BerPreFecMax,0.00346,CHCGILDTO6Y
MA6813400180,h_OCHCTP,13-L1-10,2019-01-25 00:45:00.0,PmdMin,1.12,CHCGILDTO6Y
MA6813400180,h_OCHCTP,13-L1-10,2019-01-25 00:45:00.0,SoPmdAve,3777.88,CHCGILDTO6Y
