MA6813400180,h_OCHCTP,11-L1-1,2019-01-22 20:15:00.0,Qmin,9.16,CHCGILDTO6Y
MA6813400180,h_OCHCTP,11-L1-1,2019-01-22 20:15:00.0,PhaseCorrectionAve,1.91e-07,CHCGILDTO6Y
MA6813400180,h_OCHCTP,11-L1-1,2019-01-22 20:15:00.0,BerPreFecMax,0.00205,CHCGILDTO6Y
MA6813400180,h_OCHCTP,11-L1-1,2019-01-22 20:15:00.0,PmdMin,0.577,CHCGILDTO6Y
MA6813400180,h_OCHCTP,11-L1-1,2019-01-22 20:15:00.0,SoPmdAve,3321.01,CHCGILDTO6Y
MA6813400180,h_OCHCTP,11-L1-1,2019-01-22 20:30:00.0,Qmin,9.15,CHCGILDTO6Y
MA6813400180,h_OCHCTP,11-L1-1,2019-01-22 20:30:00.0,PhaseCorrectionAve,2.08e-07,CHCGILDTO6Y
MA6813400180,h_OCHCTP,11-L1-1,2019-01-22 20:30:00.0,BerPreFecMax,0.00207,CHCGILDTO6Y
MA6813400180,h_OCHCTP,11-L1-1,2019-01-22 20:30:00.0,PmdMin,0.939,CHCGILDTO6Y
MA6813400180,h_OCHCTP,11-L1-1,2019-01-22 20:30:00.0,SoPmdAve,3348.21,CHCGILDTO6Y
MA6813400180,h_OCHCTP,11-L1-1,2019-01-22 20:45:00.0,Qmin,9.12,CHCGILDTO6Y
MA6813400180,h_OCHCTP,11-L1-1,2019-01-22 20:45:00.0,PhaseCorrectionAve,1.85e-07,CHCGILDTO6Y
MA6813400180,h_OCHCTP,11-L1-1,2019-01-22 20:45:00.0,BerPreFecMax,0.00214,CHCGILDTO6Y
MA6813400180,h_OCHCTP,11-L1-1,2019-01-22 20:45:00.0,PmdMin,0.542,CHCGILDTO6Y
MA6813400180,h_OCHCTP,11-L1-1,2019-01-22 20:45:00.0,SoPmdAve,3382.4,CHCGILDTO6Y
MA6813400180,h_OCHCTP,11-L1-2,2019-01-22 20:15:00.0,Qmin,9.09,CHCGILDTO6Y
MA6813400180,h_OCHCTP,11-L1-2,2019-01-22 20:15:00.0,PhaseCorrectionAve,5.01e-07,CHCGILDTO6Y
MA6813400180,h_OCHCTP,11-L1-2,2019-01-22 20:15:00.0,BerPreFecMax,0.00221,CHCGILDTO6Y
MA6813400180,h_OCHCTP,11-L1-2,2019-01-22 20:15:00.0,PmdMin,0.606,CHCGILDTO6Y
MA6813400180,h_OCHCTP,11-L1-2,2019-01-22 20:15:00.0,SoPmdAve,3208.38,CHCGILDTO6Y
MA6813400180,h_OCHCTP,11-L1-2,2019-01-22 20:30:00.0,Qmin,9.06,CHCGILDTO6Y
MA6813400180,h_OCHCTP,11-L1-2,2019-01-22 20:30:00.0,PhaseCorrectionAve,5.52e-07,CHCGILDTO6Y
MA6813400180,h_OCHCTP,11-L1-2,2019-01-22 20:30:00.0,BerPreFecMax,0.00226,CHCGILDTO6Y
MA6813400180,h_OCHCTP,11-L1-2,2019-01-22 20:30:00.0,PmdMin,0.294,CHCGILDTO6Y
MA6813400180,h_OCHCTP,11-L1-2,2019-01-22 20:30:00.0,SoPmdAve,3166.6,CHCGILDTO6Y
MA6813400180,h_OCHCTP,11-L1-2,2019-01-22 20:45:00.0,Qmin,9.11,CHCGILDTO6Y
MA6813400180,h_OCHCTP,11-L1-2,2019-01-22 20:45:00.0,PhaseCorrectionAve,5.23e-07,CHCGILDTO6Y
MA6813400180,h_OCHCTP,11-L1-2,2019-01-22 20:45:00.0,BerPreFecMax,0.00216,CHCGILDTO6Y
MA6813400180,h_OCHCTP,11-L1-2,2019-01-22 20:45:00.0,PmdMin,0.996,CHCGILDTO6Y
MA6813400180,h_OCHCTP,11-L1-2,2019-01-22 20:45:00.0,SoPmdAve,3177.47,CHCGILDTO6Y
MA6813400180,h_OCHCTP,11-L1-3,2019-01-22 20:15:00.0,Qmin,8.98,CHCGILDTO6Y
MA6813400180,h_OCHCTP,11-L1-3,2019-01-22 20:15:00.0,PhaseCorrectionAve,3.57e-07,CHCGILDTO6Y
MA6813400180,h_OCHCTP,11-L1-3,2019-01-22 20:15:00.0,BerPreFecMax,0.00246,CHCGILDTO6Y
MA6813400180,h_OCHCTP,11-L1-3,2019-01-22 20:15:00.0,PmdMin,1.37,CHCGILDTO6Y
MA6813400180,h_OCHCTP,11-L1-3,2019-01-22 20:15:00.0,SoPmdAve,2772.91,CHCGILDTO6Y
MA6813400180,h_OCHCTP,11-L1-3,2019-01-22 20:30:00.0,Qmin,9.01,CHCGILDTO6Y
MA6813400180,h_OCHCTP,11-L1-3,2019-01-22 20:30:00.0,PhaseCorrectionAve,-0.061,CHCGILDTO6Y
MA6813400180,h_OCHCTP,11-L1-3,2019-01-22 20:30:00.0,BerPreFecMax,0.0024,CHCGILDTO6Y
MA6813400180,h_OCHCTP,11-L1-3,2019-01-22 20:30:00.0,PmdMin,1.0,CHCGILDTO6Y
MA6813400180,h_OCHCTP,11-L1-3,2019-01-22 20:30:00.0,SoPmdAve,2754.09,CHCGILDTO6Y
MA6813400180,h_OCHCTP,11-L1-3,2019-01-22 20:45:00.0,Qmin,9.04,CHCGILDTO6Y
MA6813400180,h_OCHCTP,11-L1-3,2019-01-22 20:45:00.0,PhaseCorrectionAve,3.49e-07,CHCGILDTO6Y
MA6813400180,h_OCHCTP,11-L1-3,2019-01-22 20:45:00.0,BerPreFecMax,0.00231,CHCGILDTO6Y
MA6813400180,h_OCHCTP,11-L1-3,2019-01-22 20:45:00.0,PmdMin,0.966,CHCGILDTO6Y
MA6813400180,h_OCHCTP,11-L1-3,2019-01-22 20:45:00.0,SoPmdAve,2714.94,CHCGILDTO6Y
MA6813400180,h_OCHCTP,11-L1-4,2019-01-22 20:15:00.0,Qmin,8.83,CHCGILDTO6Y
MA6813400180,h_OCHCTP,11-L1-4,2019-01-22 20:15:00.0,PhaseCorrectionAve,4.58e-07,CHCGILDTO6Y
MA6813400180,h_OCHCTP,11-L1-4,2019-01-22 20:15:00.0,BerPreFecMax,0.00287,CHCGILDTO6Y
MA6813400180,h_OCHCTP,11-L1-4,2019-01-22 20:15:00.0,PmdMin,1.0,CHCGILDTO6Y
MA6813400180,h_OCHCTP,11-L1-4,2019-01-22 20:15:00.0,SoPmdAve,2927.87,CHCGILDTO6Y
MA6813400180,h_OCHCTP,11-L1-4,2019-01-22 20:30:00.0,Qmin,8.86,CHCGILDTO6Y
MA6813400180,h_OCHCTP,11-L1-4,2019-01-22 20:30:00.0,PhaseCorrectionAve,-0.061,CHCGILDTO6Y
MA6813400180,h_OCHCTP,11-L1-4,2019-01-22 20:30:00.0,BerPreFecMax,0.00277,CHCGILDTO6Y
MA6813400180,h_OCHCTP,11-L1-4,2019-01-22 20:30:00.0,PmdMin,1.02,CHCGILDTO6Y
MA6813400180,h_OCHCTP,11-L1-4,2019-01-22 20:30:00.0,SoPmdAve,2910.24,CHCGILDTO6Y
MA6813400180,h_OCHCTP,11-L1-4,2019-01-22 20:45:00.0,Qmin,8.83,CHCGILDTO6Y
MA6813400180,h_OCHCTP,11-L1-4,2019-01-22 20:45:00.0,PhaseCorrectionAve,4.63e-07,CHCGILDTO6Y
MA6813400180,h_OCHCTP,11-L1-4,2019-01-22 20:45:00.0,BerPreFecMax,0.00287,CHCGILDTO6Y
MA6813400180,h_OCHCTP,11-L1-4,2019-01-22 20:45:00.0,PmdMin,1.08,CHCGILDTO6Y
MA6813400180,h_OCHCTP,11-L1-4,2019-01-22 20:45:00.0,SoPmdAve,2941.48,CHCGILDTO6Y
MA6813400180,h_OCHCTP,11-L1-5,2019-01-22 20:15:00.0,Qmin,8.86,CHCGILDTO6Y
MA6813400180,h_OCHCTP,11-L1-5,2019-01-22 20:15:00.0,PhaseCorrectionAve,1.79e-07,CHCGILDTO6Y
MA6813400180,h_OCHCTP,11-L1-5,2019-01-22 20:15:00.0,BerPreFecMax,0.00276,CHCGILDTO6Y
MA6813400180,h_OCHCTP,11-L1-5,2019-01-22 20:15:00.0,PmdMin,0.7,CHCGILDTO6Y
MA6813400180,h_OCHCTP,11-L1-5,2019-01-22 20:15:00.0,SoPmdAve,2564.5,CHCGILDTO6Y
MA6813400180,h_OCHCTP,11-L1-5,2019-01-22 20:30:00.0,Qmin,8.92,CHCGILDTO6Y
MA6813400180,h_OCHCTP,11-L1-5,2019-01-22 20:30:00.0,PhaseCorrectionAve,-0.061,CHCGILDTO6Y
MA6813400180,h_OCHCTP,11-L1-5,2019-01-22 20:30:00.0,BerPreFecMax,0.00261,CHCGILDTO6Y
MA6813400180,h_OCHCTP,11-L1-5,2019-01-22 20:30:00.0,PmdMin,0.905,CHCGILDTO6Y
MA6813400180,h_OCHCTP,11-L1-5,2019-01-22 20:30:00.0,SoPmdAve,2515.96,CHCGILDTO6Y
MA6813400180,h_OCHCTP,11-L1-5,2019-01-22 20:45:00.0,Qmin,8.89,CHCGILDTO6Y
MA6813400180,h_OCHCTP,11-L1-5,2019-01-22 20:45:00.0,PhaseCorrectionAve,1.92e-07,CHCGILDTO6Y
MA6813400180,h_OCHCTP,11-L1-5,2019-01-22 20:45:00.0,BerPreFecMax,0.0027,CHCGILDTO6Y
MA6813400180,h_OCHCTP,11-L1-5,2019-01-22 20:45:00.0,PmdMin,0.763,CHCGILDTO6Y
MA6813400180,h_OCHCTP,11-L1-5,2019-01-22 20:45:00.0,SoPmdAve,2503.59,CHCGILDTO6Y
MA6813400180,h_OCHCTP,11-L1-6,2019-01-22 20:15:00.0,Qmin,8.75,CHCGILDTO6Y
MA6813400180,h_OCHCTP,11-L1-6,2019-01-22 20:15:00.0,PhaseCorrectionAve,-0.061,CHCGILDTO6Y
MA6813400180,h_OCHCTP,11-L1-6,2019-01-22 20:15:00.0,BerPreFecMax,0.00308,CHCGILDTO6Y
MA6813400180,h_OCHCTP,11-L1-6,2019-01-22 20:15:00.0,PmdMin,1.25,CHCGILDTO6Y
MA6813400180,h_OCHCTP,11-L1-6,2019-01-22 20:15:00.0,SoPmdAve,2415.07,CHCGILDTO6Y
MA6813400180,h_OCHCTP,11-L1-6,2019-01-22 20:30:00.0,Qmin,8.81,CHCGILDTO6Y
MA6813400180,h_OCHCTP,11-L1-6,2019-01-22 20:30:00.0,PhaseCorrectionAve,-0.061,CHCGILDTO6Y
MA6813400180,h_OCHCTP,11-L1-6,2019-01-22 20:30:00.0,BerPreFecMax,0.00292,CHCGILDTO6Y
MA6813400180,h_OCHCTP,11-L1-6,2019-01-22 20:30:00.0,PmdMin,1.41,CHCGILDTO6Y
MA6813400180,h_OCHCTP,11-L1-6,2019-01-22 20:30:00.0,SoPmdAve,2514.59,CHCGILDTO6Y
MA6813400180,h_OCHCTP,11-L1-6,2019-01-22 20:45:00.0,Qmin,8.79,CHCGILDTO6Y
MA6813400180,h_OCHCTP,11-L1-6,2019-01-22 20:45:00.0,PhaseCorrectionAve,5.01e-07,CHCGILDTO6Y
MA6813400180,h_OCHCTP,11-L1-6,2019-01-22 20:45:00.0,BerPreFecMax,0.00297,CHCGILDTO6Y
MA6813400180,h_OCHCTP,11-L1-6,2019-01-22 20:45:00.0,PmdMin,0.295,CHCGILDTO6Y
MA6813400180,h_OCHCTP,11-L1-6,2019-01-22 20:45:00.0,SoPmdAve,2496.49,CHCGILDTO6Y
MA6813400180,h_OCHCTP,11-L1-7,2019-01-22 20:15:00.0,Qmin,8.78,CHCGILDTO6Y
MA6813400180,h_OCHCTP,11-L1-7,2019-01-22 20:15:00.0,PhaseCorrectionAve,-0.122,CHCGILDTO6Y
MA6813400180,h_OCHCTP,11-L1-7,2019-01-22 20:15:00.0,BerPreFecMax,0.00299,CHCGILDTO6Y
MA6813400180,h_OCHCTP,11-L1-7,2019-01-22 20:15:00.0,PmdMin,0.753,CHCGILDTO6Y
MA6813400180,h_OCHCTP,11-L1-7,2019-01-22 20:15:00.0,SoPmdAve,3000.91,CHCGILDTO6Y
MA6813400180,h_OCHCTP,11-L1-7,2019-01-22 20:30:00.0,Qmin,8.88,CHCGILDTO6Y
MA6813400180,h_OCHCTP,11-L1-7,2019-01-22 20:30:00.0,PhaseCorrectionAve,-0.061,CHCGILDTO6Y
MA6813400180,h_OCHCTP,11-L1-7,2019-01-22 20:30:00.0,BerPreFecMax,0.00273,CHCGILDTO6Y
MA6813400180,h_OCHCTP,11-L1-7,2019-01-22 20:30:00.0,PmdMin,0.558,CHCGILDTO6Y
MA6813400180,h_OCHCTP,11-L1-7,2019-01-22 20:30:00.0,SoPmdAve,2998.96,CHCGILDTO6Y
MA6813400180,h_OCHCTP,11-L1-7,2019-01-22 20:45:00.0,Qmin,8.85,CHCGILDTO6Y
MA6813400180,h_OCHCTP,11-L1-7,2019-01-22 20:45:00.0,PhaseCorrectionAve,3.14e-07,CHCGILDTO6Y
MA6813400180,h_OCHCTP,11-L1-7,2019-01-22 20:45:00.0,BerPreFecMax,0.00281,CHCGILDTO6Y
MA6813400180,h_OCHCTP,11-L1-7,2019-01-22 20:45:00.0,PmdMin,1.45,CHCGILDTO6Y
MA6813400180,h_OCHCTP,11-L1-7,2019-01-22 20:45:00.0,SoPmdAve,2980.19,CHCGILDTO6Y
MA6813400180,h_OCHCTP,11-L1-8,2019-01-22 20:15:00.0,Qmin,8.89,CHCGILDTO6Y
MA6813400180,h_OCHCTP,11-L1-8,2019-01-22 20:15:00.0,PhaseCorrectionAve,-0.122,CHCGILDTO6Y
MA6813400180,h_OCHCTP,11-L1-8,2019-01-22 20:15:00.0,BerPreFecMax,0.00268,CHCGILDTO6Y
MA6813400180,h_OCHCTP,11-L1-8,2019-01-22 20:15:00.0,PmdMin,1.34,CHCGILDTO6Y
MA6813400180,h_OCHCTP,11-L1-8,2019-01-22 20:15:00.0,SoPmdAve,3071.73,CHCGILDTO6Y
MA6813400180,h_OCHCTP,11-L1-8,2019-01-22 20:30:00.0,Qmin,8.92,CHCGILDTO6Y
MA6813400180,h_OCHCTP,11-L1-8,2019-01-22 20:30:00.0,PhaseCorrectionAve,-0.061,CHCGILDTO6Y
MA6813400180,h_OCHCTP,11-L1-8,2019-01-22 20:30:00.0,BerPreFecMax,0.00262,CHCGILDTO6Y
MA6813400180,h_OCHCTP,11-L1-8,2019-01-22 20:30:00.0,PmdMin,1.24,CHCGILDTO6Y
MA6813400180,h_OCHCTP,11-L1-8,2019-01-22 20:30:00.0,SoPmdAve,3113.74,CHCGILDTO6Y
MA6813400180,h_OCHCTP,11-L1-8,2019-01-22 20:45:00.0,Qmin,8.92,CHCGILDTO6Y
MA6813400180,h_OCHCTP,11-L1-8,2019-01-22 20:45:00.0,PhaseCorrectionAve,1.24e-06,CHCGILDTO6Y
MA6813400180,h_OCHCTP,11-L1-8,2019-01-22 20:45:00.0,BerPreFecMax,0.00261,CHCGILDTO6Y
MA6813400180,h_OCHCTP,11-L1-8,2019-01-22 20:45:00.0,PmdMin,0.99,CHCGILDTO6Y
MA6813400180,h_OCHCTP,11-L1-8,2019-01-22 20:45:00.0,SoPmdAve,3097.25,CHCGILDTO6Y
MA6813400180,h_OCHCTP,11-L1-9,2019-01-22 20:15:00.0,Qmin,8.83,CHCGILDTO6Y
MA6813400180,h_OCHCTP,11-L1-9,2019-01-22 20:15:00.0,PhaseCorrectionAve,-0.122,CHCGILDTO6Y
MA6813400180,h_OCHCTP,11-L1-9,2019-01-22 20:15:00.0,BerPreFecMax,0.00286,CHCGILDTO6Y
MA6813400180,h_OCHCTP,11-L1-9,2019-01-22 20:15:00.0,PmdMin,1.08,CHCGILDTO6Y
MA6813400180,h_OCHCTP,11-L1-9,2019-01-22 20:15:00.0,SoPmdAve,3123.38,CHCGILDTO6Y
MA6813400180,h_OCHCTP,11-L1-9,2019-01-22 20:30:00.0,Qmin,8.82,CHCGILDTO6Y
MA6813400180,h_OCHCTP,11-L1-9,2019-01-22 20:30:00.0,PhaseCorrectionAve,-0.061,CHCGILDTO6Y
MA6813400180,h_OCHCTP,11-L1-9,2019-01-22 20:30:00.0,BerPreFecMax,0.00287,CHCGILDTO6Y
MA6813400180,h_OCHCTP,11-L1-9,2019-01-22 20:30:00.0,PmdMin,0.846,CHCGILDTO6Y
MA6813400180,h_OCHCTP,11-L1-9,2019-01-22 20:30:00.0,SoPmdAve,3099.2,CHCGILDTO6Y
MA6813400180,h_OCHCTP,11-L1-9,2019-01-22 20:45:00.0,Qmin,8.84,CHCGILDTO6Y
MA6813400180,h_OCHCTP,11-L1-9,2019-01-22 20:45:00.0,PhaseCorrectionAve,2.69e-06,CHCGILDTO6Y
MA6813400180,h_OCHCTP,11-L1-9,2019-01-22 20:45:00.0,BerPreFecMax,0.00282,CHCGILDTO6Y
MA6813400180,h_OCHCTP,11-L1-9,2019-01-22 20:45:00.0,PmdMin,0.727,CHCGILDTO6Y
MA6813400180,h_OCHCTP,11-L1-9,2019-01-22 20:45:00.0,SoPmdAve,3110.18,CHCGILDTO6Y
MA6813400180,h_OCHCTP,11-L1-10,2019-01-22 20:15:00.0,Qmin,8.94,CHCGILDTO6Y
MA6813400180,h_OCHCTP,11-L1-10,2019-01-22 20:15:00.0,PhaseCorrectionAve,-0.122,CHCGILDTO6Y
MA6813400180,h_OCHCTP,11-L1-10,2019-01-22 20:15:00.0,BerPreFecMax,0.00256,CHCGILDTO6Y
MA6813400180,h_OCHCTP,11-L1-10,2019-01-22 20:15:00.0,PmdMin,1.02,CHCGILDTO6Y
MA6813400180,h_OCHCTP,11-L1-10,2019-01-22 20:15:00.0,SoPmdAve,3201.11,CHCGILDTO6Y
MA6813400180,h_OCHCTP,11-L1-10,2019-01-22 20:30:00.0,Qmin,8.95,CHCGILDTO6Y
MA6813400180,h_OCHCTP,11-L1-10,2019-01-22 20:30:00.0,PhaseCorrectionAve,-0.183,CHCGILDTO6Y
MA6813400180,h_OCHCTP,11-L1-10,2019-01-22 20:30:00.0,BerPreFecMax,0.00253,CHCGILDTO6Y
MA6813400180,h_OCHCTP,11-L1-10,2019-01-22 20:30:00.0,PmdMin,0.624,CHCGILDTO6Y
MA6813400180,h_OCHCTP,11-L1-10,2019-01-22 20:30:00.0,SoPmdAve,3045.27,CHCGILDTO6Y
MA6813400180,h_OCHCTP,11-L1-10,2019-01-22 20:45:00.0,Qmin,8.86,CHCGILDTO6Y
MA6813400180,h_OCHCTP,11-L1-10,2019-01-22 20:45:00.0,PhaseCorrectionAve,4.23e-06,CHCGILDTO6Y
MA6813400180,h_OCHCTP,11-L1-10,2019-01-22 20:45:00.0,BerPreFecMax,0.00276,CHCGILDTO6Y
MA6813400180,h_OCHCTP,11-L1-10,2019-01-22 20:45:00.0,PmdMin,0.809,CHCGILDTO6Y
MA6813400180,h_OCHCTP,11-L1-10,2019-01-22 20:45:00.0,SoPmdAve,3087.2,CHCGILDTO6Y
MA6813400180,h_OCHCTP,10-L1-1,2019-01-22 20:15:00.0,Qmin,9.51,CHCGILDTO6Y
MA6813400180,h_OCHCTP,10-L1-1,2019-01-22 20:15:00.0,PhaseCorrectionAve,5.24e-07,CHCGILDTO6Y
MA6813400180,h_OCHCTP,10-L1-1,2019-01-22 20:15:00.0,BerPreFecMax,0.00139,CHCGILDTO6Y
MA6813400180,h_OCHCTP,10-L1-1,2019-01-22 20:15:00.0,PmdMin,3.78,CHCGILDTO6Y
MA6813400180,h_OCHCTP,10-L1-1,2019-01-22 20:15:00.0,SoPmdAve,3324.88,CHCGILDTO6Y
MA6813400180,h_OCHCTP,10-L1-1,2019-01-22 20:30:00.0,Qmin,9.51,CHCGILDTO6Y
MA6813400180,h_OCHCTP,10-L1-1,2019-01-22 20:30:00.0,PhaseCorrectionAve,5.32e-07,CHCGILDTO6Y
MA6813400180,h_OCHCTP,10-L1-1,2019-01-22 20:30:00.0,BerPreFecMax,0.00139,CHCGILDTO6Y
MA6813400180,h_OCHCTP,10-L1-1,2019-01-22 20:30:00.0,PmdMin,6.48,CHCGILDTO6Y
MA6813400180,h_OCHCTP,10-L1-1,2019-01-22 20:30:00.0,SoPmdAve,3334.22,CHCGILDTO6Y
MA6813400180,h_OCHCTP,10-L1-1,2019-01-22 20:45:00.0,Qmin,9.52,CHCGILDTO6Y
MA6813400180,h_OCHCTP,10-L1-1,2019-01-22 20:45:00.0,PhaseCorrectionAve,4.68e-07,CHCGILDTO6Y
MA6813400180,h_OCHCTP,10-L1-1,2019-01-22 20:45:00.0,BerPreFecMax,0.00138,CHCGILDTO6Y
MA6813400180,h_OCHCTP,10-L1-1,2019-01-22 20:45:00.0,PmdMin,4.33,CHCGILDTO6Y
MA6813400180,h_OCHCTP,10-L1-1,2019-01-22 20:45:00.0,SoPmdAve,3318.34,CHCGILDTO6Y
MA6813400180,h_OCHCTP,10-L1-2,2019-01-22 20:15:00.0,Qmin,9.22,CHCGILDTO6Y
MA6813400180,h_OCHCTP,10-L1-2,2019-01-22 20:15:00.0,PhaseCorrectionAve,3.52e-07,CHCGILDTO6Y
MA6813400180,h_OCHCTP,10-L1-2,2019-01-22 20:15:00.0,BerPreFecMax,0.00191,CHCGILDTO6Y
MA6813400180,h_OCHCTP,10-L1-2,2019-01-22 20:15:00.0,PmdMin,2.14,CHCGILDTO6Y
MA6813400180,h_OCHCTP,10-L1-2,2019-01-22 20:15:00.0,SoPmdAve,3347.13,CHCGILDTO6Y
MA6813400180,h_OCHCTP,10-L1-2,2019-01-22 20:30:00.0,Qmin,9.22,CHCGILDTO6Y
MA6813400180,h_OCHCTP,10-L1-2,2019-01-22 20:30:00.0,PhaseCorrectionAve,3.73e-07,CHCGILDTO6Y
MA6813400180,h_OCHCTP,10-L1-2,2019-01-22 20:30:00.0,BerPreFecMax,0.00192,CHCGILDTO6Y
MA6813400180,h_OCHCTP,10-L1-2,2019-01-22 20:30:00.0,PmdMin,2.22,CHCGILDTO6Y
MA6813400180,h_OCHCTP,10-L1-2,2019-01-22 20:30:00.0,SoPmdAve,3421.32,CHCGILDTO6Y
MA6813400180,h_OCHCTP,10-L1-2,2019-01-22 20:45:00.0,Qmin,9.22,CHCGILDTO6Y
MA6813400180,h_OCHCTP,10-L1-2,2019-01-22 20:45:00.0,PhaseCorrectionAve,3.38e-07,CHCGILDTO6Y
MA6813400180,h_OCHCTP,10-L1-2,2019-01-22 20:45:00.0,BerPreFecMax,0.00191,CHCGILDTO6Y
MA6813400180,h_OCHCTP,10-L1-2,2019-01-22 20:45:00.0,PmdMin,1.98,CHCGILDTO6Y
MA6813400180,h_OCHCTP,10-L1-2,2019-01-22 20:45:00.0,SoPmdAve,3372.19,CHCGILDTO6Y
MA6813400180,h_OCHCTP,10-L1-3,2019-01-22 20:15:00.0,Qmin,9.02,CHCGILDTO6Y
MA6813400180,h_OCHCTP,10-L1-3,2019-01-22 20:15:00.0,PhaseCorrectionAve,-0.0611,CHCGILDTO6Y
MA6813400180,h_OCHCTP,10-L1-3,2019-01-22 20:15:00.0,BerPreFecMax,0.00237,CHCGILDTO6Y
MA6813400180,h_OCHCTP,10-L1-3,2019-01-22 20:15:00.0,PmdMin,1.61,CHCGILDTO6Y
MA6813400180,h_OCHCTP,10-L1-3,2019-01-22 20:15:00.0,SoPmdAve,2871.77,CHCGILDTO6Y
MA6813400180,h_OCHCTP,10-L1-3,2019-01-22 20:30:00.0,Qmin,9.01,CHCGILDTO6Y
MA6813400180,h_OCHCTP,10-L1-3,2019-01-22 20:30:00.0,PhaseCorrectionAve,4.94e-07,CHCGILDTO6Y
MA6813400180,h_OCHCTP,10-L1-3,2019-01-22 20:30:00.0,BerPreFecMax,0.00239,CHCGILDTO6Y
MA6813400180,h_OCHCTP,10-L1-3,2019-01-22 20:30:00.0,PmdMin,2.06,CHCGILDTO6Y
MA6813400180,h_OCHCTP,10-L1-3,2019-01-22 20:30:00.0,SoPmdAve,2788.48,CHCGILDTO6Y
MA6813400180,h_OCHCTP,10-L1-3,2019-01-22 20:45:00.0,Qmin,8.98,CHCGILDTO6Y
MA6813400180,h_OCHCTP,10-L1-3,2019-01-22 20:45:00.0,PhaseCorrectionAve,5.12e-07,CHCGILDTO6Y
MA6813400180,h_OCHCTP,10-L1-3,2019-01-22 20:45:00.0,BerPreFecMax,0.00247,CHCGILDTO6Y
MA6813400180,h_OCHCTP,10-L1-3,2019-01-22 20:45:00.0,PmdMin,1.7,CHCGILDTO6Y
MA6813400180,h_OCHCTP,10-L1-3,2019-01-22 20:45:00.0,SoPmdAve,2847.53,CHCGILDTO6Y
MA6813400180,h_OCHCTP,10-L1-4,2019-01-22 20:15:00.0,Qmin,8.53,CHCGILDTO6Y
MA6813400180,h_OCHCTP,10-L1-4,2019-01-22 20:15:00.0,PhaseCorrectionAve,-0.0611,CHCGILDTO6Y
MA6813400180,h_OCHCTP,10-L1-4,2019-01-22 20:15:00.0,BerPreFecMax,0.0038,CHCGILDTO6Y
MA6813400180,h_OCHCTP,10-L1-4,2019-01-22 20:15:00.0,PmdMin,3.94,CHCGILDTO6Y
MA6813400180,h_OCHCTP,10-L1-4,2019-01-22 20:15:00.0,SoPmdAve,2947.33,CHCGILDTO6Y
MA6813400180,h_OCHCTP,10-L1-4,2019-01-22 20:30:00.0,Qmin,8.51,CHCGILDTO6Y
MA6813400180,h_OCHCTP,10-L1-4,2019-01-22 20:30:00.0,PhaseCorrectionAve,1.65e-06,CHCGILDTO6Y
MA6813400180,h_OCHCTP,10-L1-4,2019-01-22 20:30:00.0,BerPreFecMax,0.00385,CHCGILDTO6Y
MA6813400180,h_OCHCTP,10-L1-4,2019-01-22 20:30:00.0,PmdMin,4.09,CHCGILDTO6Y
MA6813400180,h_OCHCTP,10-L1-4,2019-01-22 20:30:00.0,SoPmdAve,2947.87,CHCGILDTO6Y
MA6813400180,h_OCHCTP,10-L1-4,2019-01-22 20:45:00.0,Qmin,8.48,CHCGILDTO6Y
MA6813400180,h_OCHCTP,10-L1-4,2019-01-22 20:45:00.0,PhaseCorrectionAve,-0.061,CHCGILDTO6Y
MA6813400180,h_OCHCTP,10-L1-4,2019-01-22 20:45:00.0,BerPreFecMax,0.00397,CHCGILDTO6Y
MA6813400180,h_OCHCTP,10-L1-4,2019-01-22 20:45:00.0,PmdMin,3.13,CHCGILDTO6Y
MA6813400180,h_OCHCTP,10-L1-4,2019-01-22 20:45:00.0,SoPmdAve,2993.69,CHCGILDTO6Y
MA6813400180,h_OCHCTP,10-L1-5,2019-01-22 20:15:00.0,Qmin,8.69,CHCGILDTO6Y
MA6813400180,h_OCHCTP,10-L1-5,2019-01-22 20:15:00.0,PhaseCorrectionAve,-0.0611,CHCGILDTO6Y
MA6813400180,h_OCHCTP,10-L1-5,2019-01-22 20:15:00.0,BerPreFecMax,0.00325,CHCGILDTO6Y
MA6813400180,h_OCHCTP,10-L1-5,2019-01-22 20:15:00.0,PmdMin,7.6,CHCGILDTO6Y
MA6813400180,h_OCHCTP,10-L1-5,2019-01-22 20:15:00.0,SoPmdAve,2876.76,CHCGILDTO6Y
MA6813400180,h_OCHCTP,10-L1-5,2019-01-22 20:30:00.0,Qmin,8.67,CHCGILDTO6Y
MA6813400180,h_OCHCTP,10-L1-5,2019-01-22 20:30:00.0,PhaseCorrectionAve,9.21e-07,CHCGILDTO6Y
MA6813400180,h_OCHCTP,10-L1-5,2019-01-22 20:30:00.0,BerPreFecMax,0.00332,CHCGILDTO6Y
MA6813400180,h_OCHCTP,10-L1-5,2019-01-22 20:30:00.0,PmdMin,6.11,CHCGILDTO6Y
MA6813400180,h_OCHCTP,10-L1-5,2019-01-22 20:30:00.0,SoPmdAve,2892.66,CHCGILDTO6Y
MA6813400180,h_OCHCTP,10-L1-5,2019-01-22 20:45:00.0,Qmin,8.66,CHCGILDTO6Y
MA6813400180,h_OCHCTP,10-L1-5,2019-01-22 20:45:00.0,PhaseCorrectionAve,-0.061,CHCGILDTO6Y
MA6813400180,h_OCHCTP,10-L1-5,2019-01-22 20:45:00.0,BerPreFecMax,0.00336,CHCGILDTO6Y
MA6813400180,h_OCHCTP,10-L1-5,2019-01-22 20:45:00.0,PmdMin,6.3,CHCGILDTO6Y
MA6813400180,h_OCHCTP,10-L1-5,2019-01-22 20:45:00.0,SoPmdAve,2880.18,CHCGILDTO6Y
MA6813400180,h_OCHCTP,10-L1-6,2019-01-22 20:15:00.0,Qmin,8.86,CHCGILDTO6Y
MA6813400180,h_OCHCTP,10-L1-6,2019-01-22 20:15:00.0,PhaseCorrectionAve,-0.122,CHCGILDTO6Y
MA6813400180,h_OCHCTP,10-L1-6,2019-01-22 20:15:00.0,BerPreFecMax,0.00277,CHCGILDTO6Y
MA6813400180,h_OCHCTP,10-L1-6,2019-01-22 20:15:00.0,PmdMin,0.603,CHCGILDTO6Y
MA6813400180,h_OCHCTP,10-L1-6,2019-01-22 20:15:00.0,SoPmdAve,2928.55,CHCGILDTO6Y
MA6813400180,h_OCHCTP,10-L1-6,2019-01-22 20:30:00.0,Qmin,8.85,CHCGILDTO6Y
MA6813400180,h_OCHCTP,10-L1-6,2019-01-22 20:30:00.0,PhaseCorrectionAve,-0.061,CHCGILDTO6Y
MA6813400180,h_OCHCTP,10-L1-6,2019-01-22 20:30:00.0,BerPreFecMax,0.00279,CHCGILDTO6Y
MA6813400180,h_OCHCTP,10-L1-6,2019-01-22 20:30:00.0,PmdMin,0.853,CHCGILDTO6Y
MA6813400180,h_OCHCTP,10-L1-6,2019-01-22 20:30:00.0,SoPmdAve,2802.45,CHCGILDTO6Y
MA6813400180,h_OCHCTP,10-L1-6,2019-01-22 20:45:00.0,Qmin,8.85,CHCGILDTO6Y
MA6813400180,h_OCHCTP,10-L1-6,2019-01-22 20:45:00.0,PhaseCorrectionAve,-0.061,CHCGILDTO6Y
MA6813400180,h_OCHCTP,10-L1-6,2019-01-22 20:45:00.0,BerPreFecMax,0.00279,CHCGILDTO6Y
MA6813400180,h_OCHCTP,10-L1-6,2019-01-22 20:45:00.0,PmdMin,0.456,CHCGILDTO6Y
MA6813400180,h_OCHCTP,10-L1-6,2019-01-22 20:45:00.0,SoPmdAve,2835.13,CHCGILDTO6Y
MA6813400180,h_OCHCTP,10-L1-7,2019-01-22 20:15:00.0,Qmin,8.94,CHCGILDTO6Y
MA6813400180,h_OCHCTP,10-L1-7,2019-01-22 20:15:00.0,PhaseCorrectionAve,-0.122,CHCGILDTO6Y
MA6813400180,h_OCHCTP,10-L1-7,2019-01-22 20:15:00.0,BerPreFecMax,0.00256,CHCGILDTO6Y
MA6813400180,h_OCHCTP,10-L1-7,2019-01-22 20:15:00.0,PmdMin,2.24,CHCGILDTO6Y
MA6813400180,h_OCHCTP,10-L1-7,2019-01-22 20:15:00.0,SoPmdAve,3483.72,CHCGILDTO6Y
MA6813400180,h_OCHCTP,10-L1-7,2019-01-22 20:30:00.0,Qmin,8.92,CHCGILDTO6Y
MA6813400180,h_OCHCTP,10-L1-7,2019-01-22 20:30:00.0,PhaseCorrectionAve,-0.061,CHCGILDTO6Y
MA6813400180,h_OCHCTP,10-L1-7,2019-01-22 20:30:00.0,BerPreFecMax,0.00263,CHCGILDTO6Y
MA6813400180,h_OCHCTP,10-L1-7,2019-01-22 20:30:00.0,PmdMin,2.32,CHCGILDTO6Y
MA6813400180,h_OCHCTP,10-L1-7,2019-01-22 20:30:00.0,SoPmdAve,3485.66,CHCGILDTO6Y
MA6813400180,h_OCHCTP,10-L1-7,2019-01-22 20:45:00.0,Qmin,8.92,CHCGILDTO6Y
MA6813400180,h_OCHCTP,10-L1-7,2019-01-22 20:45:00.0,PhaseCorrectionAve,-0.061,CHCGILDTO6Y
MA6813400180,h_OCHCTP,10-L1-7,2019-01-22 20:45:00.0,BerPreFecMax,0.00262,CHCGILDTO6Y
MA6813400180,h_OCHCTP,10-L1-7,2019-01-22 20:45:00.0,PmdMin,1.95,CHCGILDTO6Y
MA6813400180,h_OCHCTP,10-L1-7,2019-01-22 20:45:00.0,SoPmdAve,3498.9,CHCGILDTO6Y
MA6813400180,h_OCHCTP,10-L1-8,2019-01-22 20:15:00.0,Qmin,9.33,CHCGILDTO6Y
MA6813400180,h_OCHCTP,10-L1-8,2019-01-22 20:15:00.0,PhaseCorrectionAve,-0.122,CHCGILDTO6Y
MA6813400180,h_OCHCTP,10-L1-8,2019-01-22 20:15:00.0,BerPreFecMax,0.00171,CHCGILDTO6Y
MA6813400180,h_OCHCTP,10-L1-8,2019-01-22 20:15:00.0,PmdMin,2.33,CHCGILDTO6Y
MA6813400180,h_OCHCTP,10-L1-8,2019-01-22 20:15:00.0,SoPmdAve,3359.16,CHCGILDTO6Y
MA6813400180,h_OCHCTP,10-L1-8,2019-01-22 20:30:00.0,Qmin,9.33,CHCGILDTO6Y
MA6813400180,h_OCHCTP,10-L1-8,2019-01-22 20:30:00.0,PhaseCorrectionAve,-0.061,CHCGILDTO6Y
MA6813400180,h_OCHCTP,10-L1-8,2019-01-22 20:30:00.0,BerPreFecMax,0.0017,CHCGILDTO6Y
MA6813400180,h_OCHCTP,10-L1-8,2019-01-22 20:30:00.0,PmdMin,3.61,CHCGILDTO6Y
MA6813400180,h_OCHCTP,10-L1-8,2019-01-22 20:30:00.0,SoPmdAve,3415.59,CHCGILDTO6Y
MA6813400180,h_OCHCTP,10-L1-8,2019-01-22 20:45:00.0,Qmin,9.32,CHCGILDTO6Y
MA6813400180,h_OCHCTP,10-L1-8,2019-01-22 20:45:00.0,PhaseCorrectionAve,-0.061,CHCGILDTO6Y
MA6813400180,h_OCHCTP,10-L1-8,2019-01-22 20:45:00.0,BerPreFecMax,0.00172,CHCGILDTO6Y
MA6813400180,h_OCHCTP,10-L1-8,2019-01-22 20:45:00.0,PmdMin,1.69,CHCGILDTO6Y
MA6813400180,h_OCHCTP,10-L1-8,2019-01-22 20:45:00.0,SoPmdAve,3393.43,CHCGILDTO6Y
MA6813400180,h_OCHCTP,10-L1-9,2019-01-22 20:15:00.0,Qmin,9.34,CHCGILDTO6Y
MA6813400180,h_OCHCTP,10-L1-9,2019-01-22 20:15:00.0,PhaseCorrectionAve,-0.183,CHCGILDTO6Y
MA6813400180,h_OCHCTP,10-L1-9,2019-01-22 20:15:00.0,BerPreFecMax,0.0017,CHCGILDTO6Y
MA6813400180,h_OCHCTP,10-L1-9,2019-01-22 20:15:00.0,PmdMin,1.06,CHCGILDTO6Y
MA6813400180,h_OCHCTP,10-L1-9,2019-01-22 20:15:00.0,SoPmdAve,3497.22,CHCGILDTO6Y
MA6813400180,h_OCHCTP,10-L1-9,2019-01-22 20:30:00.0,Qmin,9.34,CHCGILDTO6Y
MA6813400180,h_OCHCTP,10-L1-9,2019-01-22 20:30:00.0,PhaseCorrectionAve,-0.061,CHCGILDTO6Y
MA6813400180,h_OCHCTP,10-L1-9,2019-01-22 20:30:00.0,BerPreFecMax,0.00169,CHCGILDTO6Y
MA6813400180,h_OCHCTP,10-L1-9,2019-01-22 20:30:00.0,PmdMin,1.78,CHCGILDTO6Y
MA6813400180,h_OCHCTP,10-L1-9,2019-01-22 20:30:00.0,SoPmdAve,3484.92,CHCGILDTO6Y
MA6813400180,h_OCHCTP,10-L1-9,2019-01-22 20:45:00.0,Qmin,9.34,CHCGILDTO6Y
MA6813400180,h_OCHCTP,10-L1-9,2019-01-22 20:45:00.0,PhaseCorrectionAve,-0.061,CHCGILDTO6Y
MA6813400180,h_OCHCTP,10-L1-9,2019-01-22 20:45:00.0,BerPreFecMax,0.00169,CHCGILDTO6Y
MA6813400180,h_OCHCTP,10-L1-9,2019-01-22 20:45:00.0,PmdMin,1.09,CHCGILDTO6Y
MA6813400180,h_OCHCTP,10-L1-9,2019-01-22 20:45:00.0,SoPmdAve,3494.92,CHCGILDTO6Y
MA6813400180,h_OCHCTP,10-L1-10,2019-01-22 20:15:00.0,Qmin,9.37,CHCGILDTO6Y
MA6813400180,h_OCHCTP,10-L1-10,2019-01-22 20:15:00.0,PhaseCorrectionAve,-0.183,CHCGILDTO6Y
MA6813400180,h_OCHCTP,10-L1-10,2019-01-22 20:15:00.0,BerPreFecMax,0.00164,CHCGILDTO6Y
MA6813400180,h_OCHCTP,10-L1-10,2019-01-22 20:15:00.0,PmdMin,3.45,CHCGILDTO6Y
MA6813400180,h_OCHCTP,10-L1-10,2019-01-22 20:15:00.0,SoPmdAve,3214.88,CHCGILDTO6Y
MA6813400180,h_OCHCTP,10-L1-10,2019-01-22 20:30:00.0,Qmin,9.37,CHCGILDTO6Y
MA6813400180,h_OCHCTP,10-L1-10,2019-01-22 20:30:00.0,PhaseCorrectionAve,-0.061,CHCGILDTO6Y
MA6813400180,h_OCHCTP,10-L1-10,2019-01-22 20:30:00.0,BerPreFecMax,0.00164,CHCGILDTO6Y
MA6813400180,h_OCHCTP,10-L1-10,2019-01-22 20:30:00.0,PmdMin,1.7,CHCGILDTO6Y
MA6813400180,h_OCHCTP,10-L1-10,2019-01-22 20:30:00.0,SoPmdAve,3256.44,CHCGILDTO6Y
MA6813400180,h_OCHCTP,10-L1-10,2019-01-22 20:45:00.0,Qmin,9.37,CHCGILDTO6Y
MA6813400180,h_OCHCTP,10-L1-10,2019-01-22 20:45:00.0,PhaseCorrectionAve,-0.061,CHCGILDTO6Y
MA6813400180,h_OCHCTP,10-L1-10,2019-01-22 20:45:00.0,BerPreFecMax,0.00163,CHCGILDTO6Y
MA6813400180,h_OCHCTP,10-L1-10,2019-01-22 20:45:00.0,PmdMin,2.39,CHCGILDTO6Y
MA6813400180,h_OCHCTP,10-L1-10,2019-01-22 20:45:00.0,SoPmdAve,3193.63,CHCGILDTO6Y
MA6813400180,h_OCHCTP,13-L1-1,2019-01-22 20:15:00.0,Qmin,9.17,CHCGILDTO6Y
MA6813400180,h_OCHCTP,13-L1-1,2019-01-22 20:15:00.0,PhaseCorrectionAve,-0.061,CHCGILDTO6Y
MA6813400180,h_OCHCTP,13-L1-1,2019-01-22 20:15:00.0,BerPreFecMax,0.00203,CHCGILDTO6Y
MA6813400180,h_OCHCTP,13-L1-1,2019-01-22 20:15:00.0,PmdMin,0.925,CHCGILDTO6Y
MA6813400180,h_OCHCTP,13-L1-1,2019-01-22 20:15:00.0,SoPmdAve,3615.15,CHCGILDTO6Y
MA6813400180,h_OCHCTP,13-L1-1,2019-01-22 20:30:00.0,Qmin,9.16,CHCGILDTO6Y
MA6813400180,h_OCHCTP,13-L1-1,2019-01-22 20:30:00.0,PhaseCorrectionAve,3.72e-07,CHCGILDTO6Y
MA6813400180,h_OCHCTP,13-L1-1,2019-01-22 20:30:00.0,BerPreFecMax,0.00205,CHCGILDTO6Y
MA6813400180,h_OCHCTP,13-L1-1,2019-01-22 20:30:00.0,PmdMin,1.2,CHCGILDTO6Y
MA6813400180,h_OCHCTP,13-L1-1,2019-01-22 20:30:00.0,SoPmdAve,3568.98,CHCGILDTO6Y
MA6813400180,h_OCHCTP,13-L1-1,2019-01-22 20:45:00.0,Qmin,9.21,CHCGILDTO6Y
MA6813400180,h_OCHCTP,13-L1-1,2019-01-22 20:45:00.0,PhaseCorrectionAve,3.18e-07,CHCGILDTO6Y
MA6813400180,h_OCHCTP,13-L1-1,2019-01-22 20:45:00.0,BerPreFecMax,0.00195,CHCGILDTO6Y
MA6813400180,h_OCHCTP,13-L1-1,2019-01-22 20:45:00.0,PmdMin,1.27,CHCGILDTO6Y
MA6813400180,h_OCHCTP,13-L1-1,2019-01-22 20:45:00.0,SoPmdAve,3534.1,CHCGILDTO6Y
MA6813400180,h_OCHCTP,13-L1-2,2019-01-22 20:15:00.0,Qmin,9.15,CHCGILDTO6Y
MA6813400180,h_OCHCTP,13-L1-2,2019-01-22 20:15:00.0,PhaseCorrectionAve,-0.061,CHCGILDTO6Y
MA6813400180,h_OCHCTP,13-L1-2,2019-01-22 20:15:00.0,BerPreFecMax,0.00207,CHCGILDTO6Y
MA6813400180,h_OCHCTP,13-L1-2,2019-01-22 20:15:00.0,PmdMin,0.64,CHCGILDTO6Y
MA6813400180,h_OCHCTP,13-L1-2,2019-01-22 20:15:00.0,SoPmdAve,3509.7,CHCGILDTO6Y
MA6813400180,h_OCHCTP,13-L1-2,2019-01-22 20:30:00.0,Qmin,9.17,CHCGILDTO6Y
MA6813400180,h_OCHCTP,13-L1-2,2019-01-22 20:30:00.0,PhaseCorrectionAve,-0.061,CHCGILDTO6Y
MA6813400180,h_OCHCTP,13-L1-2,2019-01-22 20:30:00.0,BerPreFecMax,0.00202,CHCGILDTO6Y
MA6813400180,h_OCHCTP,13-L1-2,2019-01-22 20:30:00.0,PmdMin,1.67,CHCGILDTO6Y
MA6813400180,h_OCHCTP,13-L1-2,2019-01-22 20:30:00.0,SoPmdAve,3538.41,CHCGILDTO6Y
MA6813400180,h_OCHCTP,13-L1-2,2019-01-22 20:45:00.0,Qmin,9.18,CHCGILDTO6Y
MA6813400180,h_OCHCTP,13-L1-2,2019-01-22 20:45:00.0,PhaseCorrectionAve,4.34e-07,CHCGILDTO6Y
MA6813400180,h_OCHCTP,13-L1-2,2019-01-22 20:45:00.0,BerPreFecMax,0.002,CHCGILDTO6Y
MA6813400180,h_OCHCTP,13-L1-2,2019-01-22 20:45:00.0,PmdMin,1.11,CHCGILDTO6Y
MA6813400180,h_OCHCTP,13-L1-2,2019-01-22 20:45:00.0,SoPmdAve,3523.19,CHCGILDTO6Y
MA6813400180,h_OCHCTP,13-L1-3,2019-01-22 20:15:00.0,Qmin,9.0,CHCGILDTO6Y
MA6813400180,h_OCHCTP,13-L1-3,2019-01-22 20:15:00.0,PhaseCorrectionAve,-0.061,CHCGILDTO6Y
MA6813400180,h_OCHCTP,13-L1-3,2019-01-22 20:15:00.0,BerPreFecMax,0.0024,CHCGILDTO6Y
MA6813400180,h_OCHCTP,13-L1-3,2019-01-22 20:15:00.0,PmdMin,0.757,CHCGILDTO6Y
MA6813400180,h_OCHCTP,13-L1-3,2019-01-22 20:15:00.0,SoPmdAve,2968.15,CHCGILDTO6Y
MA6813400180,h_OCHCTP,13-L1-3,2019-01-22 20:30:00.0,Qmin,9.02,CHCGILDTO6Y
MA6813400180,h_OCHCTP,13-L1-3,2019-01-22 20:30:00.0,PhaseCorrectionAve,-0.061,CHCGILDTO6Y
MA6813400180,h_OCHCTP,13-L1-3,2019-01-22 20:30:00.0,BerPreFecMax,0.00236,CHCGILDTO6Y
MA6813400180,h_OCHCTP,13-L1-3,2019-01-22 20:30:00.0,PmdMin,0.512,CHCGILDTO6Y
MA6813400180,h_OCHCTP,13-L1-3,2019-01-22 20:30:00.0,SoPmdAve,2936.03,CHCGILDTO6Y
MA6813400180,h_OCHCTP,13-L1-3,2019-01-22 20:45:00.0,Qmin,9.05,CHCGILDTO6Y
MA6813400180,h_OCHCTP,13-L1-3,2019-01-22 20:45:00.0,PhaseCorrectionAve,4.87e-07,CHCGILDTO6Y
MA6813400180,h_OCHCTP,13-L1-3,2019-01-22 20:45:00.0,BerPreFecMax,0.0023,CHCGILDTO6Y
MA6813400180,h_OCHCTP,13-L1-3,2019-01-22 20:45:00.0,PmdMin,0.429,CHCGILDTO6Y
MA6813400180,h_OCHCTP,13-L1-3,2019-01-22 20:45:00.0,SoPmdAve,3016.48,CHCGILDTO6Y
MA6813400180,h_OCHCTP,13-L1-4,2019-01-22 20:15:00.0,Qmin,8.77,CHCGILDTO6Y
MA6813400180,h_OCHCTP,13-L1-4,2019-01-22 20:15:00.0,PhaseCorrectionAve,-0.122,CHCGILDTO6Y
MA6813400180,h_OCHCTP,13-L1-4,2019-01-22 20:15:00.0,BerPreFecMax,0.00301,CHCGILDTO6Y
MA6813400180,h_OCHCTP,13-L1-4,2019-01-22 20:15:00.0,PmdMin,1.18,CHCGILDTO6Y
MA6813400180,h_OCHCTP,13-L1-4,2019-01-22 20:15:00.0,SoPmdAve,3381.24,CHCGILDTO6Y
MA6813400180,h_OCHCTP,13-L1-4,2019-01-22 20:30:00.0,Qmin,8.83,CHCGILDTO6Y
MA6813400180,h_OCHCTP,13-L1-4,2019-01-22 20:30:00.0,PhaseCorrectionAve,-0.061,CHCGILDTO6Y
MA6813400180,h_OCHCTP,13-L1-4,2019-01-22 20:30:00.0,BerPreFecMax,0.00286,CHCGILDTO6Y
MA6813400180,h_OCHCTP,13-L1-4,2019-01-22 20:30:00.0,PmdMin,0.522,CHCGILDTO6Y
MA6813400180,h_OCHCTP,13-L1-4,2019-01-22 20:30:00.0,SoPmdAve,3334.62,CHCGILDTO6Y
MA6813400180,h_OCHCTP,13-L1-4,2019-01-22 20:45:00.0,Qmin,8.78,CHCGILDTO6Y
MA6813400180,h_OCHCTP,13-L1-4,2019-01-22 20:45:00.0,PhaseCorrectionAve,4.62e-07,CHCGILDTO6Y
MA6813400180,h_OCHCTP,13-L1-4,2019-01-22 20:45:00.0,BerPreFecMax,0.00299,CHCGILDTO6Y
MA6813400180,h_OCHCTP,13-L1-4,2019-01-22 20:45:00.0,PmdMin,1.16,CHCGILDTO6Y
MA6813400180,h_OCHCTP,13-L1-4,2019-01-22 20:45:00.0,SoPmdAve,3387.11,CHCGILDTO6Y
MA6813400180,h_OCHCTP,13-L1-5,2019-01-22 20:15:00.0,Qmin,8.7,CHCGILDTO6Y
MA6813400180,h_OCHCTP,13-L1-5,2019-01-22 20:15:00.0,PhaseCorrectionAve,-0.122,CHCGILDTO6Y
MA6813400180,h_OCHCTP,13-L1-5,2019-01-22 20:15:00.0,BerPreFecMax,0.00322,CHCGILDTO6Y
MA6813400180,h_OCHCTP,13-L1-5,2019-01-22 20:15:00.0,PmdMin,0.569,CHCGILDTO6Y
MA6813400180,h_OCHCTP,13-L1-5,2019-01-22 20:15:00.0,SoPmdAve,2839.04,CHCGILDTO6Y
MA6813400180,h_OCHCTP,13-L1-5,2019-01-22 20:30:00.0,Qmin,8.8,CHCGILDTO6Y
MA6813400180,h_OCHCTP,13-L1-5,2019-01-22 20:30:00.0,PhaseCorrectionAve,-0.122,CHCGILDTO6Y
MA6813400180,h_OCHCTP,13-L1-5,2019-01-22 20:30:00.0,BerPreFecMax,0.00294,CHCGILDTO6Y
MA6813400180,h_OCHCTP,13-L1-5,2019-01-22 20:30:00.0,PmdMin,0.648,CHCGILDTO6Y
MA6813400180,h_OCHCTP,13-L1-5,2019-01-22 20:30:00.0,SoPmdAve,2787.79,CHCGILDTO6Y
MA6813400180,h_OCHCTP,13-L1-5,2019-01-22 20:45:00.0,Qmin,8.75,CHCGILDTO6Y
MA6813400180,h_OCHCTP,13-L1-5,2019-01-22 20:45:00.0,PhaseCorrectionAve,-0.061,CHCGILDTO6Y
MA6813400180,h_OCHCTP,13-L1-5,2019-01-22 20:45:00.0,BerPreFecMax,0.00307,CHCGILDTO6Y
MA6813400180,h_OCHCTP,13-L1-5,2019-01-22 20:45:00.0,PmdMin,0.768,CHCGILDTO6Y
MA6813400180,h_OCHCTP,13-L1-5,2019-01-22 20:45:00.0,SoPmdAve,2837.72,CHCGILDTO6Y
MA6813400180,h_OCHCTP,13-L1-6,2019-01-22 20:15:00.0,Qmin,8.8,CHCGILDTO6Y
MA6813400180,h_OCHCTP,13-L1-6,2019-01-22 20:15:00.0,PhaseCorrectionAve,-0.183,CHCGILDTO6Y
MA6813400180,h_OCHCTP,13-L1-6,2019-01-22 20:15:00.0,BerPreFecMax,0.00295,CHCGILDTO6Y
MA6813400180,h_OCHCTP,13-L1-6,2019-01-22 20:15:00.0,PmdMin,1.02,CHCGILDTO6Y
MA6813400180,h_OCHCTP,13-L1-6,2019-01-22 20:15:00.0,SoPmdAve,3055.16,CHCGILDTO6Y
MA6813400180,h_OCHCTP,13-L1-6,2019-01-22 20:30:00.0,Qmin,8.83,CHCGILDTO6Y
MA6813400180,h_OCHCTP,13-L1-6,2019-01-22 20:30:00.0,PhaseCorrectionAve,-0.122,CHCGILDTO6Y
MA6813400180,h_OCHCTP,13-L1-6,2019-01-22 20:30:00.0,BerPreFecMax,0.00286,CHCGILDTO6Y
MA6813400180,h_OCHCTP,13-L1-6,2019-01-22 20:30:00.0,PmdMin,0.711,CHCGILDTO6Y
MA6813400180,h_OCHCTP,13-L1-6,2019-01-22 20:30:00.0,SoPmdAve,3016.4,CHCGILDTO6Y
MA6813400180,h_OCHCTP,13-L1-6,2019-01-22 20:45:00.0,Qmin,8.75,CHCGILDTO6Y
MA6813400180,h_OCHCTP,13-L1-6,2019-01-22 20:45:00.0,PhaseCorrectionAve,-0.061,CHCGILDTO6Y
MA6813400180,h_OCHCTP,13-L1-6,2019-01-22 20:45:00.0,BerPreFecMax,0.00308,CHCGILDTO6Y
MA6813400180,h_OCHCTP,13-L1-6,2019-01-22 20:45:00.0,PmdMin,1.11,CHCGILDTO6Y
MA6813400180,h_OCHCTP,13-L1-6,2019-01-22 20:45:00.0,SoPmdAve,3114.12,CHCGILDTO6Y
MA6813400180,h_OCHCTP,13-L1-7,2019-01-22 20:15:00.0,Qmin,8.73,CHCGILDTO6Y
MA6813400180,h_OCHCTP,13-L1-7,2019-01-22 20:15:00.0,PhaseCorrectionAve,-0.244,CHCGILDTO6Y
MA6813400180,h_OCHCTP,13-L1-7,2019-01-22 20:15:00.0,BerPreFecMax,0.00315,CHCGILDTO6Y
MA6813400180,h_OCHCTP,13-L1-7,2019-01-22 20:15:00.0,PmdMin,1.63,CHCGILDTO6Y
MA6813400180,h_OCHCTP,13-L1-7,2019-01-22 20:15:00.0,SoPmdAve,3775.32,CHCGILDTO6Y
MA6813400180,h_OCHCTP,13-L1-7,2019-01-22 20:30:00.0,Qmin,8.8,CHCGILDTO6Y
MA6813400180,h_OCHCTP,13-L1-7,2019-01-22 20:30:00.0,PhaseCorrectionAve,-0.122,CHCGILDTO6Y
MA6813400180,h_OCHCTP,13-L1-7,2019-01-22 20:30:00.0,BerPreFecMax,0.00293,CHCGILDTO6Y
MA6813400180,h_OCHCTP,13-L1-7,2019-01-22 20:30:00.0,PmdMin,0.786,CHCGILDTO6Y
MA6813400180,h_OCHCTP,13-L1-7,2019-01-22 20:30:00.0,SoPmdAve,3829.03,CHCGILDTO6Y
MA6813400180,h_OCHCTP,13-L1-7,2019-01-22 20:45:00.0,Qmin,8.75,CHCGILDTO6Y
MA6813400180,h_OCHCTP,13-L1-7,2019-01-22 20:45:00.0,PhaseCorrectionAve,-0.061,CHCGILDTO6Y
MA6813400180,h_OCHCTP,13-L1-7,2019-01-22 20:45:00.0,BerPreFecMax,0.00308,CHCGILDTO6Y
MA6813400180,h_OCHCTP,13-L1-7,2019-01-22 20:45:00.0,PmdMin,1.49,CHCGILDTO6Y
MA6813400180,h_OCHCTP,13-L1-7,2019-01-22 20:45:00.0,SoPmdAve,3796.14,CHCGILDTO6Y
MA6813400180,h_OCHCTP,13-L1-8,2019-01-22 20:15:00.0,Qmin,8.85,CHCGILDTO6Y
MA6813400180,h_OCHCTP,13-L1-8,2019-01-22 20:15:00.0,PhaseCorrectionAve,-0.244,CHCGILDTO6Y
MA6813400180,h_OCHCTP,13-L1-8,2019-01-22 20:15:00.0,BerPreFecMax,0.0028,CHCGILDTO6Y
MA6813400180,h_OCHCTP,13-L1-8,2019-01-22 20:15:00.0,PmdMin,1.27,CHCGILDTO6Y
MA6813400180,h_OCHCTP,13-L1-8,2019-01-22 20:15:00.0,SoPmdAve,3865.47,CHCGILDTO6Y
MA6813400180,h_OCHCTP,13-L1-8,2019-01-22 20:30:00.0,Qmin,8.88,CHCGILDTO6Y
MA6813400180,h_OCHCTP,13-L1-8,2019-01-22 20:30:00.0,PhaseCorrectionAve,-0.122,CHCGILDTO6Y
MA6813400180,h_OCHCTP,13-L1-8,2019-01-22 20:30:00.0,BerPreFecMax,0.00273,CHCGILDTO6Y
MA6813400180,h_OCHCTP,13-L1-8,2019-01-22 20:30:00.0,PmdMin,1.18,CHCGILDTO6Y
MA6813400180,h_OCHCTP,13-L1-8,2019-01-22 20:30:00.0,SoPmdAve,3975.47,CHCGILDTO6Y
MA6813400180,h_OCHCTP,13-L1-8,2019-01-22 20:45:00.0,Qmin,8.84,CHCGILDTO6Y
MA6813400180,h_OCHCTP,13-L1-8,2019-01-22 20:45:00.0,PhaseCorrectionAve,-0.183,CHCGILDTO6Y
MA6813400180,h_OCHCTP,13-L1-8,2019-01-22 20:45:00.0,BerPreFecMax,0.00282,CHCGILDTO6Y
MA6813400180,h_OCHCTP,13-L1-8,2019-01-22 20:45:00.0,PmdMin,1.02,CHCGILDTO6Y
MA6813400180,h_OCHCTP,13-L1-8,2019-01-22 20:45:00.0,SoPmdAve,3895.17,CHCGILDTO6Y
MA6813400180,h_OCHCTP,13-L1-9,2019-01-22 20:15:00.0,Qmin,8.8,CHCGILDTO6Y
MA6813400180,h_OCHCTP,13-L1-9,2019-01-22 20:15:00.0,PhaseCorrectionAve,-0.244,CHCGILDTO6Y
MA6813400180,h_OCHCTP,13-L1-9,2019-01-22 20:15:00.0,BerPreFecMax,0.00294,CHCGILDTO6Y
MA6813400180,h_OCHCTP,13-L1-9,2019-01-22 20:15:00.0,PmdMin,0.738,CHCGILDTO6Y
MA6813400180,h_OCHCTP,13-L1-9,2019-01-22 20:15:00.0,SoPmdAve,3502.97,CHCGILDTO6Y
MA6813400180,h_OCHCTP,13-L1-9,2019-01-22 20:30:00.0,Qmin,8.79,CHCGILDTO6Y
MA6813400180,h_OCHCTP,13-L1-9,2019-01-22 20:30:00.0,PhaseCorrectionAve,-0.122,CHCGILDTO6Y
MA6813400180,h_OCHCTP,13-L1-9,2019-01-22 20:30:00.0,BerPreFecMax,0.00297,CHCGILDTO6Y
MA6813400180,h_OCHCTP,13-L1-9,2019-01-22 20:30:00.0,PmdMin,0.715,CHCGILDTO6Y
MA6813400180,h_OCHCTP,13-L1-9,2019-01-22 20:30:00.0,SoPmdAve,3356.39,CHCGILDTO6Y
MA6813400180,h_OCHCTP,13-L1-9,2019-01-22 20:45:00.0,Qmin,8.77,CHCGILDTO6Y
MA6813400180,h_OCHCTP,13-L1-9,2019-01-22 20:45:00.0,PhaseCorrectionAve,-0.183,CHCGILDTO6Y
MA6813400180,h_OCHCTP,13-L1-9,2019-01-22 20:45:00.0,BerPreFecMax,0.00302,CHCGILDTO6Y
MA6813400180,h_OCHCTP,13-L1-9,2019-01-22 20:45:00.0,PmdMin,1.37,CHCGILDTO6Y
MA6813400180,h_OCHCTP,13-L1-9,2019-01-22 20:45:00.0,SoPmdAve,3534.23,CHCGILDTO6Y
MA6813400180,h_OCHCTP,13-L1-10,2019-01-22 20:15:00.0,Qmin,8.68,CHCGILDTO6Y
MA6813400180,h_OCHCTP,13-L1-10,2019-01-22 20:15:00.0,PhaseCorrectionAve,-0.244,CHCGILDTO6Y
MA6813400180,h_OCHCTP,13-L1-10,2019-01-22 20:15:00.0,BerPreFecMax,0.00329,CHCGILDTO6Y
MA6813400180,h_OCHCTP,13-L1-10,2019-01-22 20:15:00.0,PmdMin,1.07,CHCGILDTO6Y
MA6813400180,h_OCHCTP,13-L1-10,2019-01-22 20:15:00.0,SoPmdAve,3681.45,CHCGILDTO6Y
MA6813400180,h_OCHCTP,13-L1-10,2019-01-22 20:30:00.0,Qmin,8.71,CHCGILDTO6Y
MA6813400180,h_OCHCTP,13-L1-10,2019-01-22 20:30:00.0,PhaseCorrectionAve,-0.183,CHCGILDTO6Y
MA6813400180,h_OCHCTP,13-L1-10,2019-01-22 20:30:00.0,BerPreFecMax,0.00319,CHCGILDTO6Y
MA6813400180,h_OCHCTP,13-L1-10,2019-01-22 20:30:00.0,PmdMin,0.749,CHCGILDTO6Y
MA6813400180,h_OCHCTP,13-L1-10,2019-01-22 20:30:00.0,SoPmdAve,3751.21,CHCGILDTO6Y
MA6813400180,h_OCHCTP,13-L1-10,2019-01-22 20:45:00.0,Qmin,8.62,CHCGILDTO6Y
MA6813400180,h_OCHCTP,13-L1-10,2019-01-22 20:45:00.0,PhaseCorrectionAve,-0.183,CHCGILDTO6Y
MA6813400180,h_OCHCTP,13-L1-10,2019-01-22 20:45:00.0,BerPreFecMax,0.00349,CHCGILDTO6Y
MA6813400180,h_OCHCTP,13-L1-10,2019-01-22 20:45:00.0,PmdMin,0.79,CHCGILDTO6Y
MA6813400180,h_OCHCTP,13-L1-10,2019-01-22 20:45:00.0,SoPmdAve,3766.08,CHCGILDTO6Y
