MA6813400180,h_OCHCTP,11-L1-1,2019-01-23 07:15:00.0,Qmin,9.1,CHCGILDTO6Y
MA6813400180,h_OCHCTP,11-L1-1,2019-01-23 07:15:00.0,PhaseCorrectionAve,1.45e-07,CHCGILDTO6Y
MA6813400180,h_OCHCTP,11-L1-1,2019-01-23 07:15:00.0,BerPreFecMax,0.00218,CHCGILDTO6Y
MA6813400180,h_OCHCTP,11-L1-1,2019-01-23 07:15:00.0,PmdMin,0.876,CHCGILDTO6Y
MA6813400180,h_OCHCTP,11-L1-1,2019-01-23 07:15:00.0,SoPmdAve,3382.04,CHCGILDTO6Y
MA6813400180,h_OCHCTP,11-L1-1,2019-01-23 07:30:00.0,Qmin,9.1,CHCGILDTO6Y
MA6813400180,h_OCHCTP,11-L1-1,2019-01-23 07:30:00.0,PhaseCorrectionAve,1.36e-07,CHCGILDTO6Y
MA6813400180,h_OCHCTP,11-L1-1,2019-01-23 07:30:00.0,BerPreFecMax,0.00219,CHCGILDTO6Y
MA6813400180,h_OCHCTP,11-L1-1,2019-01-23 07:30:00.0,PmdMin,1.14,CHCGILDTO6Y
MA6813400180,h_OCHCTP,11-L1-1,2019-01-23 07:30:00.0,SoPmdAve,3333.97,CHCGILDTO6Y
MA6813400180,h_OCHCTP,11-L1-1,2019-01-23 07:45:00.0,Qmin,9.12,CHCGILDTO6Y
MA6813400180,h_OCHCTP,11-L1-1,2019-01-23 07:45:00.0,PhaseCorrectionAve,1.31e-07,CHCGILDTO6Y
MA6813400180,h_OCHCTP,11-L1-1,2019-01-23 07:45:00.0,BerPreFecMax,0.00214,CHCGILDTO6Y
MA6813400180,h_OCHCTP,11-L1-1,2019-01-23 07:45:00.0,PmdMin,1.57,CHCGILDTO6Y
MA6813400180,h_OCHCTP,11-L1-1,2019-01-23 07:45:00.0,SoPmdAve,3335.06,CHCGILDTO6Y
MA6813400180,h_OCHCTP,11-L1-2,2019-01-23 07:15:00.0,Qmin,9.02,CHCGILDTO6Y
MA6813400180,h_OCHCTP,11-L1-2,2019-01-23 07:15:00.0,PhaseCorrectionAve,-0.122,CHCGILDTO6Y
MA6813400180,h_OCHCTP,11-L1-2,2019-01-23 07:15:00.0,BerPreFecMax,0.00236,CHCGILDTO6Y
MA6813400180,h_OCHCTP,11-L1-2,2019-01-23 07:15:00.0,PmdMin,0.66,CHCGILDTO6Y
MA6813400180,h_OCHCTP,11-L1-2,2019-01-23 07:15:00.0,SoPmdAve,3132.33,CHCGILDTO6Y
MA6813400180,h_OCHCTP,11-L1-2,2019-01-23 07:30:00.0,Qmin,9.05,CHCGILDTO6Y
MA6813400180,h_OCHCTP,11-L1-2,2019-01-23 07:30:00.0,PhaseCorrectionAve,-0.061,CHCGILDTO6Y
MA6813400180,h_OCHCTP,11-L1-2,2019-01-23 07:30:00.0,BerPreFecMax,0.00229,CHCGILDTO6Y
MA6813400180,h_OCHCTP,11-L1-2,2019-01-23 07:30:00.0,PmdMin,0.81,CHCGILDTO6Y
MA6813400180,h_OCHCTP,11-L1-2,2019-01-23 07:30:00.0,SoPmdAve,3175.21,CHCGILDTO6Y
MA6813400180,h_OCHCTP,11-L1-2,2019-01-23 07:45:00.0,Qmin,9.02,CHCGILDTO6Y
MA6813400180,h_OCHCTP,11-L1-2,2019-01-23 07:45:00.0,PhaseCorrectionAve,-0.061,CHCGILDTO6Y
MA6813400180,h_OCHCTP,11-L1-2,2019-01-23 07:45:00.0,BerPreFecMax,0.00236,CHCGILDTO6Y
MA6813400180,h_OCHCTP,11-L1-2,2019-01-23 07:45:00.0,PmdMin,0.878,CHCGILDTO6Y
MA6813400180,h_OCHCTP,11-L1-2,2019-01-23 07:45:00.0,SoPmdAve,3235.44,CHCGILDTO6Y
MA6813400180,h_OCHCTP,11-L1-3,2019-01-23 07:15:00.0,Qmin,8.77,CHCGILDTO6Y
MA6813400180,h_OCHCTP,11-L1-3,2019-01-23 07:15:00.0,PhaseCorrectionAve,-0.122,CHCGILDTO6Y
MA6813400180,h_OCHCTP,11-L1-3,2019-01-23 07:15:00.0,BerPreFecMax,0.00303,CHCGILDTO6Y
MA6813400180,h_OCHCTP,11-L1-3,2019-01-23 07:15:00.0,PmdMin,0.684,CHCGILDTO6Y
MA6813400180,h_OCHCTP,11-L1-3,2019-01-23 07:15:00.0,SoPmdAve,2738.0,CHCGILDTO6Y
MA6813400180,h_OCHCTP,11-L1-3,2019-01-23 07:30:00.0,Qmin,8.86,CHCGILDTO6Y
MA6813400180,h_OCHCTP,11-L1-3,2019-01-23 07:30:00.0,PhaseCorrectionAve,-0.061,CHCGILDTO6Y
MA6813400180,h_OCHCTP,11-L1-3,2019-01-23 07:30:00.0,BerPreFecMax,0.00277,CHCGILDTO6Y
MA6813400180,h_OCHCTP,11-L1-3,2019-01-23 07:30:00.0,PmdMin,0.721,CHCGILDTO6Y
MA6813400180,h_OCHCTP,11-L1-3,2019-01-23 07:30:00.0,SoPmdAve,2675.2,CHCGILDTO6Y
MA6813400180,h_OCHCTP,11-L1-3,2019-01-23 07:45:00.0,Qmin,8.89,CHCGILDTO6Y
MA6813400180,h_OCHCTP,11-L1-3,2019-01-23 07:45:00.0,PhaseCorrectionAve,-0.061,CHCGILDTO6Y
MA6813400180,h_OCHCTP,11-L1-3,2019-01-23 07:45:00.0,BerPreFecMax,0.0027,CHCGILDTO6Y
MA6813400180,h_OCHCTP,11-L1-3,2019-01-23 07:45:00.0,PmdMin,1.07,CHCGILDTO6Y
MA6813400180,h_OCHCTP,11-L1-3,2019-01-23 07:45:00.0,SoPmdAve,2722.98,CHCGILDTO6Y
MA6813400180,h_OCHCTP,11-L1-4,2019-01-23 07:15:00.0,Qmin,8.71,CHCGILDTO6Y
MA6813400180,h_OCHCTP,11-L1-4,2019-01-23 07:15:00.0,PhaseCorrectionAve,-0.122,CHCGILDTO6Y
MA6813400180,h_OCHCTP,11-L1-4,2019-01-23 07:15:00.0,BerPreFecMax,0.00321,CHCGILDTO6Y
MA6813400180,h_OCHCTP,11-L1-4,2019-01-23 07:15:00.0,PmdMin,1.33,CHCGILDTO6Y
MA6813400180,h_OCHCTP,11-L1-4,2019-01-23 07:15:00.0,SoPmdAve,2950.97,CHCGILDTO6Y
MA6813400180,h_OCHCTP,11-L1-4,2019-01-23 07:30:00.0,Qmin,8.66,CHCGILDTO6Y
MA6813400180,h_OCHCTP,11-L1-4,2019-01-23 07:30:00.0,PhaseCorrectionAve,-0.061,CHCGILDTO6Y
MA6813400180,h_OCHCTP,11-L1-4,2019-01-23 07:30:00.0,BerPreFecMax,0.00335,CHCGILDTO6Y
MA6813400180,h_OCHCTP,11-L1-4,2019-01-23 07:30:00.0,PmdMin,0.626,CHCGILDTO6Y
MA6813400180,h_OCHCTP,11-L1-4,2019-01-23 07:30:00.0,SoPmdAve,3001.42,CHCGILDTO6Y
MA6813400180,h_OCHCTP,11-L1-4,2019-01-23 07:45:00.0,Qmin,8.65,CHCGILDTO6Y
MA6813400180,h_OCHCTP,11-L1-4,2019-01-23 07:45:00.0,PhaseCorrectionAve,-0.183,CHCGILDTO6Y
MA6813400180,h_OCHCTP,11-L1-4,2019-01-23 07:45:00.0,BerPreFecMax,0.00339,CHCGILDTO6Y
MA6813400180,h_OCHCTP,11-L1-4,2019-01-23 07:45:00.0,PmdMin,0.899,CHCGILDTO6Y
MA6813400180,h_OCHCTP,11-L1-4,2019-01-23 07:45:00.0,SoPmdAve,2983.49,CHCGILDTO6Y
MA6813400180,h_OCHCTP,11-L1-5,2019-01-23 07:15:00.0,Qmin,8.78,CHCGILDTO6Y
MA6813400180,h_OCHCTP,11-L1-5,2019-01-23 07:15:00.0,PhaseCorrectionAve,-0.122,CHCGILDTO6Y
MA6813400180,h_OCHCTP,11-L1-5,2019-01-23 07:15:00.0,BerPreFecMax,0.003,CHCGILDTO6Y
MA6813400180,h_OCHCTP,11-L1-5,2019-01-23 07:15:00.0,PmdMin,0.902,CHCGILDTO6Y
MA6813400180,h_OCHCTP,11-L1-5,2019-01-23 07:15:00.0,SoPmdAve,2557.73,CHCGILDTO6Y
MA6813400180,h_OCHCTP,11-L1-5,2019-01-23 07:30:00.0,Qmin,8.81,CHCGILDTO6Y
MA6813400180,h_OCHCTP,11-L1-5,2019-01-23 07:30:00.0,PhaseCorrectionAve,-0.061,CHCGILDTO6Y
MA6813400180,h_OCHCTP,11-L1-5,2019-01-23 07:30:00.0,BerPreFecMax,0.0029,CHCGILDTO6Y
MA6813400180,h_OCHCTP,11-L1-5,2019-01-23 07:30:00.0,PmdMin,0.877,CHCGILDTO6Y
MA6813400180,h_OCHCTP,11-L1-5,2019-01-23 07:30:00.0,SoPmdAve,2518.68,CHCGILDTO6Y
MA6813400180,h_OCHCTP,11-L1-5,2019-01-23 07:45:00.0,Qmin,8.8,CHCGILDTO6Y
MA6813400180,h_OCHCTP,11-L1-5,2019-01-23 07:45:00.0,PhaseCorrectionAve,-0.244,CHCGILDTO6Y
MA6813400180,h_OCHCTP,11-L1-5,2019-01-23 07:45:00.0,BerPreFecMax,0.00294,CHCGILDTO6Y
MA6813400180,h_OCHCTP,11-L1-5,2019-01-23 07:45:00.0,PmdMin,0.346,CHCGILDTO6Y
MA6813400180,h_OCHCTP,11-L1-5,2019-01-23 07:45:00.0,SoPmdAve,2497.95,CHCGILDTO6Y
MA6813400180,h_OCHCTP,11-L1-6,2019-01-23 07:15:00.0,Qmin,8.79,CHCGILDTO6Y
MA6813400180,h_OCHCTP,11-L1-6,2019-01-23 07:15:00.0,PhaseCorrectionAve,-0.122,CHCGILDTO6Y
MA6813400180,h_OCHCTP,11-L1-6,2019-01-23 07:15:00.0,BerPreFecMax,0.00297,CHCGILDTO6Y
MA6813400180,h_OCHCTP,11-L1-6,2019-01-23 07:15:00.0,PmdMin,0.631,CHCGILDTO6Y
MA6813400180,h_OCHCTP,11-L1-6,2019-01-23 07:15:00.0,SoPmdAve,2484.34,CHCGILDTO6Y
MA6813400180,h_OCHCTP,11-L1-6,2019-01-23 07:30:00.0,Qmin,8.76,CHCGILDTO6Y
MA6813400180,h_OCHCTP,11-L1-6,2019-01-23 07:30:00.0,PhaseCorrectionAve,-0.061,CHCGILDTO6Y
MA6813400180,h_OCHCTP,11-L1-6,2019-01-23 07:30:00.0,BerPreFecMax,0.00306,CHCGILDTO6Y
MA6813400180,h_OCHCTP,11-L1-6,2019-01-23 07:30:00.0,PmdMin,0.914,CHCGILDTO6Y
MA6813400180,h_OCHCTP,11-L1-6,2019-01-23 07:30:00.0,SoPmdAve,2478.9,CHCGILDTO6Y
MA6813400180,h_OCHCTP,11-L1-6,2019-01-23 07:45:00.0,Qmin,8.77,CHCGILDTO6Y
MA6813400180,h_OCHCTP,11-L1-6,2019-01-23 07:45:00.0,PhaseCorrectionAve,-0.244,CHCGILDTO6Y
MA6813400180,h_OCHCTP,11-L1-6,2019-01-23 07:45:00.0,BerPreFecMax,0.00301,CHCGILDTO6Y
MA6813400180,h_OCHCTP,11-L1-6,2019-01-23 07:45:00.0,PmdMin,0.641,CHCGILDTO6Y
MA6813400180,h_OCHCTP,11-L1-6,2019-01-23 07:45:00.0,SoPmdAve,2477.15,CHCGILDTO6Y
MA6813400180,h_OCHCTP,11-L1-7,2019-01-23 07:15:00.0,Qmin,8.87,CHCGILDTO6Y
MA6813400180,h_OCHCTP,11-L1-7,2019-01-23 07:15:00.0,PhaseCorrectionAve,-0.244,CHCGILDTO6Y
MA6813400180,h_OCHCTP,11-L1-7,2019-01-23 07:15:00.0,BerPreFecMax,0.00275,CHCGILDTO6Y
MA6813400180,h_OCHCTP,11-L1-7,2019-01-23 07:15:00.0,PmdMin,0.801,CHCGILDTO6Y
MA6813400180,h_OCHCTP,11-L1-7,2019-01-23 07:15:00.0,SoPmdAve,3068.29,CHCGILDTO6Y
MA6813400180,h_OCHCTP,11-L1-7,2019-01-23 07:30:00.0,Qmin,8.9,CHCGILDTO6Y
MA6813400180,h_OCHCTP,11-L1-7,2019-01-23 07:30:00.0,PhaseCorrectionAve,-0.061,CHCGILDTO6Y
MA6813400180,h_OCHCTP,11-L1-7,2019-01-23 07:30:00.0,BerPreFecMax,0.00267,CHCGILDTO6Y
MA6813400180,h_OCHCTP,11-L1-7,2019-01-23 07:30:00.0,PmdMin,0.824,CHCGILDTO6Y
MA6813400180,h_OCHCTP,11-L1-7,2019-01-23 07:30:00.0,SoPmdAve,3038.63,CHCGILDTO6Y
MA6813400180,h_OCHCTP,11-L1-7,2019-01-23 07:45:00.0,Qmin,8.88,CHCGILDTO6Y
MA6813400180,h_OCHCTP,11-L1-7,2019-01-23 07:45:00.0,PhaseCorrectionAve,-0.244,CHCGILDTO6Y
MA6813400180,h_OCHCTP,11-L1-7,2019-01-23 07:45:00.0,BerPreFecMax,0.00273,CHCGILDTO6Y
MA6813400180,h_OCHCTP,11-L1-7,2019-01-23 07:45:00.0,PmdMin,0.617,CHCGILDTO6Y
MA6813400180,h_OCHCTP,11-L1-7,2019-01-23 07:45:00.0,SoPmdAve,3014.12,CHCGILDTO6Y
MA6813400180,h_OCHCTP,11-L1-8,2019-01-23 07:15:00.0,Qmin,8.96,CHCGILDTO6Y
MA6813400180,h_OCHCTP,11-L1-8,2019-01-23 07:15:00.0,PhaseCorrectionAve,-0.305,CHCGILDTO6Y
MA6813400180,h_OCHCTP,11-L1-8,2019-01-23 07:15:00.0,BerPreFecMax,0.00251,CHCGILDTO6Y
MA6813400180,h_OCHCTP,11-L1-8,2019-01-23 07:15:00.0,PmdMin,0.684,CHCGILDTO6Y
MA6813400180,h_OCHCTP,11-L1-8,2019-01-23 07:15:00.0,SoPmdAve,3170.21,CHCGILDTO6Y
MA6813400180,h_OCHCTP,11-L1-8,2019-01-23 07:30:00.0,Qmin,8.98,CHCGILDTO6Y
MA6813400180,h_OCHCTP,11-L1-8,2019-01-23 07:30:00.0,PhaseCorrectionAve,-0.061,CHCGILDTO6Y
MA6813400180,h_OCHCTP,11-L1-8,2019-01-23 07:30:00.0,BerPreFecMax,0.00247,CHCGILDTO6Y
MA6813400180,h_OCHCTP,11-L1-8,2019-01-23 07:30:00.0,PmdMin,1.31,CHCGILDTO6Y
MA6813400180,h_OCHCTP,11-L1-8,2019-01-23 07:30:00.0,SoPmdAve,3102.35,CHCGILDTO6Y
MA6813400180,h_OCHCTP,11-L1-8,2019-01-23 07:45:00.0,Qmin,9.0,CHCGILDTO6Y
MA6813400180,h_OCHCTP,11-L1-8,2019-01-23 07:45:00.0,PhaseCorrectionAve,-0.244,CHCGILDTO6Y
MA6813400180,h_OCHCTP,11-L1-8,2019-01-23 07:45:00.0,BerPreFecMax,0.00241,CHCGILDTO6Y
MA6813400180,h_OCHCTP,11-L1-8,2019-01-23 07:45:00.0,PmdMin,1.3,CHCGILDTO6Y
MA6813400180,h_OCHCTP,11-L1-8,2019-01-23 07:45:00.0,SoPmdAve,3108.58,CHCGILDTO6Y
MA6813400180,h_OCHCTP,11-L1-9,2019-01-23 07:15:00.0,Qmin,8.93,CHCGILDTO6Y
MA6813400180,h_OCHCTP,11-L1-9,2019-01-23 07:15:00.0,PhaseCorrectionAve,-0.366,CHCGILDTO6Y
MA6813400180,h_OCHCTP,11-L1-9,2019-01-23 07:15:00.0,BerPreFecMax,0.00258,CHCGILDTO6Y
MA6813400180,h_OCHCTP,11-L1-9,2019-01-23 07:15:00.0,PmdMin,0.897,CHCGILDTO6Y
MA6813400180,h_OCHCTP,11-L1-9,2019-01-23 07:15:00.0,SoPmdAve,3110.31,CHCGILDTO6Y
MA6813400180,h_OCHCTP,11-L1-9,2019-01-23 07:30:00.0,Qmin,8.91,CHCGILDTO6Y
MA6813400180,h_OCHCTP,11-L1-9,2019-01-23 07:30:00.0,PhaseCorrectionAve,-0.061,CHCGILDTO6Y
MA6813400180,h_OCHCTP,11-L1-9,2019-01-23 07:30:00.0,BerPreFecMax,0.00264,CHCGILDTO6Y
MA6813400180,h_OCHCTP,11-L1-9,2019-01-23 07:30:00.0,PmdMin,0.648,CHCGILDTO6Y
MA6813400180,h_OCHCTP,11-L1-9,2019-01-23 07:30:00.0,SoPmdAve,3101.88,CHCGILDTO6Y
MA6813400180,h_OCHCTP,11-L1-9,2019-01-23 07:45:00.0,Qmin,8.92,CHCGILDTO6Y
MA6813400180,h_OCHCTP,11-L1-9,2019-01-23 07:45:00.0,PhaseCorrectionAve,-0.244,CHCGILDTO6Y
MA6813400180,h_OCHCTP,11-L1-9,2019-01-23 07:45:00.0,BerPreFecMax,0.00262,CHCGILDTO6Y
MA6813400180,h_OCHCTP,11-L1-9,2019-01-23 07:45:00.0,PmdMin,0.63,CHCGILDTO6Y
MA6813400180,h_OCHCTP,11-L1-9,2019-01-23 07:45:00.0,SoPmdAve,3031.79,CHCGILDTO6Y
MA6813400180,h_OCHCTP,11-L1-10,2019-01-23 07:15:00.0,Qmin,9.03,CHCGILDTO6Y
MA6813400180,h_OCHCTP,11-L1-10,2019-01-23 07:15:00.0,PhaseCorrectionAve,-0.366,CHCGILDTO6Y
MA6813400180,h_OCHCTP,11-L1-10,2019-01-23 07:15:00.0,BerPreFecMax,0.00234,CHCGILDTO6Y
MA6813400180,h_OCHCTP,11-L1-10,2019-01-23 07:15:00.0,PmdMin,1.01,CHCGILDTO6Y
MA6813400180,h_OCHCTP,11-L1-10,2019-01-23 07:15:00.0,SoPmdAve,3108.53,CHCGILDTO6Y
MA6813400180,h_OCHCTP,11-L1-10,2019-01-23 07:30:00.0,Qmin,9.02,CHCGILDTO6Y
MA6813400180,h_OCHCTP,11-L1-10,2019-01-23 07:30:00.0,PhaseCorrectionAve,-0.122,CHCGILDTO6Y
MA6813400180,h_OCHCTP,11-L1-10,2019-01-23 07:30:00.0,BerPreFecMax,0.00237,CHCGILDTO6Y
MA6813400180,h_OCHCTP,11-L1-10,2019-01-23 07:30:00.0,PmdMin,0.988,CHCGILDTO6Y
MA6813400180,h_OCHCTP,11-L1-10,2019-01-23 07:30:00.0,SoPmdAve,2977.36,CHCGILDTO6Y
MA6813400180,h_OCHCTP,11-L1-10,2019-01-23 07:45:00.0,Qmin,9.02,CHCGILDTO6Y
MA6813400180,h_OCHCTP,11-L1-10,2019-01-23 07:45:00.0,PhaseCorrectionAve,-0.244,CHCGILDTO6Y
MA6813400180,h_OCHCTP,11-L1-10,2019-01-23 07:45:00.0,BerPreFecMax,0.00237,CHCGILDTO6Y
MA6813400180,h_OCHCTP,11-L1-10,2019-01-23 07:45:00.0,PmdMin,0.817,CHCGILDTO6Y
MA6813400180,h_OCHCTP,11-L1-10,2019-01-23 07:45:00.0,SoPmdAve,3074.06,CHCGILDTO6Y
MA6813400180,h_OCHCTP,10-L1-1,2019-01-23 07:15:00.0,Qmin,9.55,CHCGILDTO6Y
MA6813400180,h_OCHCTP,10-L1-1,2019-01-23 07:15:00.0,PhaseCorrectionAve,4.98e-07,CHCGILDTO6Y
MA6813400180,h_OCHCTP,10-L1-1,2019-01-23 07:15:00.0,BerPreFecMax,0.00134,CHCGILDTO6Y
MA6813400180,h_OCHCTP,10-L1-1,2019-01-23 07:15:00.0,PmdMin,3.14,CHCGILDTO6Y
MA6813400180,h_OCHCTP,10-L1-1,2019-01-23 07:15:00.0,SoPmdAve,3352.27,CHCGILDTO6Y
MA6813400180,h_OCHCTP,10-L1-1,2019-01-23 07:30:00.0,Qmin,9.53,CHCGILDTO6Y
MA6813400180,h_OCHCTP,10-L1-1,2019-01-23 07:30:00.0,PhaseCorrectionAve,4.81e-07,CHCGILDTO6Y
MA6813400180,h_OCHCTP,10-L1-1,2019-01-23 07:30:00.0,BerPreFecMax,0.00136,CHCGILDTO6Y
MA6813400180,h_OCHCTP,10-L1-1,2019-01-23 07:30:00.0,PmdMin,3.9,CHCGILDTO6Y
MA6813400180,h_OCHCTP,10-L1-1,2019-01-23 07:30:00.0,SoPmdAve,3308.92,CHCGILDTO6Y
MA6813400180,h_OCHCTP,10-L1-1,2019-01-23 07:45:00.0,Qmin,9.53,CHCGILDTO6Y
MA6813400180,h_OCHCTP,10-L1-1,2019-01-23 07:45:00.0,PhaseCorrectionAve,-0.0609,CHCGILDTO6Y
MA6813400180,h_OCHCTP,10-L1-1,2019-01-23 07:45:00.0,BerPreFecMax,0.00137,CHCGILDTO6Y
MA6813400180,h_OCHCTP,10-L1-1,2019-01-23 07:45:00.0,PmdMin,1.98,CHCGILDTO6Y
MA6813400180,h_OCHCTP,10-L1-1,2019-01-23 07:45:00.0,SoPmdAve,3391.77,CHCGILDTO6Y
MA6813400180,h_OCHCTP,10-L1-2,2019-01-23 07:15:00.0,Qmin,9.27,CHCGILDTO6Y
MA6813400180,h_OCHCTP,10-L1-2,2019-01-23 07:15:00.0,PhaseCorrectionAve,-0.122,CHCGILDTO6Y
MA6813400180,h_OCHCTP,10-L1-2,2019-01-23 07:15:00.0,BerPreFecMax,0.00183,CHCGILDTO6Y
MA6813400180,h_OCHCTP,10-L1-2,2019-01-23 07:15:00.0,PmdMin,0.959,CHCGILDTO6Y
MA6813400180,h_OCHCTP,10-L1-2,2019-01-23 07:15:00.0,SoPmdAve,3468.44,CHCGILDTO6Y
MA6813400180,h_OCHCTP,10-L1-2,2019-01-23 07:30:00.0,Qmin,9.24,CHCGILDTO6Y
MA6813400180,h_OCHCTP,10-L1-2,2019-01-23 07:30:00.0,PhaseCorrectionAve,-0.061,CHCGILDTO6Y
MA6813400180,h_OCHCTP,10-L1-2,2019-01-23 07:30:00.0,BerPreFecMax,0.00187,CHCGILDTO6Y
MA6813400180,h_OCHCTP,10-L1-2,2019-01-23 07:30:00.0,PmdMin,1.89,CHCGILDTO6Y
MA6813400180,h_OCHCTP,10-L1-2,2019-01-23 07:30:00.0,SoPmdAve,3371.95,CHCGILDTO6Y
MA6813400180,h_OCHCTP,10-L1-2,2019-01-23 07:45:00.0,Qmin,9.25,CHCGILDTO6Y
MA6813400180,h_OCHCTP,10-L1-2,2019-01-23 07:45:00.0,PhaseCorrectionAve,-0.0609,CHCGILDTO6Y
MA6813400180,h_OCHCTP,10-L1-2,2019-01-23 07:45:00.0,BerPreFecMax,0.00187,CHCGILDTO6Y
MA6813400180,h_OCHCTP,10-L1-2,2019-01-23 07:45:00.0,PmdMin,2.46,CHCGILDTO6Y
MA6813400180,h_OCHCTP,10-L1-2,2019-01-23 07:45:00.0,SoPmdAve,3282.45,CHCGILDTO6Y
MA6813400180,h_OCHCTP,10-L1-3,2019-01-23 07:15:00.0,Qmin,9.08,CHCGILDTO6Y
MA6813400180,h_OCHCTP,10-L1-3,2019-01-23 07:15:00.0,PhaseCorrectionAve,-0.122,CHCGILDTO6Y
MA6813400180,h_OCHCTP,10-L1-3,2019-01-23 07:15:00.0,BerPreFecMax,0.00223,CHCGILDTO6Y
MA6813400180,h_OCHCTP,10-L1-3,2019-01-23 07:15:00.0,PmdMin,2.89,CHCGILDTO6Y
MA6813400180,h_OCHCTP,10-L1-3,2019-01-23 07:15:00.0,SoPmdAve,2784.19,CHCGILDTO6Y
MA6813400180,h_OCHCTP,10-L1-3,2019-01-23 07:30:00.0,Qmin,9.05,CHCGILDTO6Y
MA6813400180,h_OCHCTP,10-L1-3,2019-01-23 07:30:00.0,PhaseCorrectionAve,-0.061,CHCGILDTO6Y
MA6813400180,h_OCHCTP,10-L1-3,2019-01-23 07:30:00.0,BerPreFecMax,0.0023,CHCGILDTO6Y
MA6813400180,h_OCHCTP,10-L1-3,2019-01-23 07:30:00.0,PmdMin,2.55,CHCGILDTO6Y
MA6813400180,h_OCHCTP,10-L1-3,2019-01-23 07:30:00.0,SoPmdAve,2808.35,CHCGILDTO6Y
MA6813400180,h_OCHCTP,10-L1-3,2019-01-23 07:45:00.0,Qmin,9.04,CHCGILDTO6Y
MA6813400180,h_OCHCTP,10-L1-3,2019-01-23 07:45:00.0,PhaseCorrectionAve,-0.0609,CHCGILDTO6Y
MA6813400180,h_OCHCTP,10-L1-3,2019-01-23 07:45:00.0,BerPreFecMax,0.00232,CHCGILDTO6Y
MA6813400180,h_OCHCTP,10-L1-3,2019-01-23 07:45:00.0,PmdMin,2.71,CHCGILDTO6Y
MA6813400180,h_OCHCTP,10-L1-3,2019-01-23 07:45:00.0,SoPmdAve,2767.67,CHCGILDTO6Y
MA6813400180,h_OCHCTP,10-L1-4,2019-01-23 07:15:00.0,Qmin,8.55,CHCGILDTO6Y
MA6813400180,h_OCHCTP,10-L1-4,2019-01-23 07:15:00.0,PhaseCorrectionAve,-0.122,CHCGILDTO6Y
MA6813400180,h_OCHCTP,10-L1-4,2019-01-23 07:15:00.0,BerPreFecMax,0.00373,CHCGILDTO6Y
MA6813400180,h_OCHCTP,10-L1-4,2019-01-23 07:15:00.0,PmdMin,3.67,CHCGILDTO6Y
MA6813400180,h_OCHCTP,10-L1-4,2019-01-23 07:15:00.0,SoPmdAve,2987.3,CHCGILDTO6Y
MA6813400180,h_OCHCTP,10-L1-4,2019-01-23 07:30:00.0,Qmin,8.51,CHCGILDTO6Y
MA6813400180,h_OCHCTP,10-L1-4,2019-01-23 07:30:00.0,PhaseCorrectionAve,-0.061,CHCGILDTO6Y
MA6813400180,h_OCHCTP,10-L1-4,2019-01-23 07:30:00.0,BerPreFecMax,0.00385,CHCGILDTO6Y
MA6813400180,h_OCHCTP,10-L1-4,2019-01-23 07:30:00.0,PmdMin,1.24,CHCGILDTO6Y
MA6813400180,h_OCHCTP,10-L1-4,2019-01-23 07:30:00.0,SoPmdAve,3023.02,CHCGILDTO6Y
MA6813400180,h_OCHCTP,10-L1-4,2019-01-23 07:45:00.0,Qmin,8.52,CHCGILDTO6Y
MA6813400180,h_OCHCTP,10-L1-4,2019-01-23 07:45:00.0,PhaseCorrectionAve,-0.122,CHCGILDTO6Y
MA6813400180,h_OCHCTP,10-L1-4,2019-01-23 07:45:00.0,BerPreFecMax,0.00383,CHCGILDTO6Y
MA6813400180,h_OCHCTP,10-L1-4,2019-01-23 07:45:00.0,PmdMin,2.17,CHCGILDTO6Y
MA6813400180,h_OCHCTP,10-L1-4,2019-01-23 07:45:00.0,SoPmdAve,2978.29,CHCGILDTO6Y
MA6813400180,h_OCHCTP,10-L1-5,2019-01-23 07:15:00.0,Qmin,8.72,CHCGILDTO6Y
MA6813400180,h_OCHCTP,10-L1-5,2019-01-23 07:15:00.0,PhaseCorrectionAve,-0.122,CHCGILDTO6Y
MA6813400180,h_OCHCTP,10-L1-5,2019-01-23 07:15:00.0,BerPreFecMax,0.00319,CHCGILDTO6Y
MA6813400180,h_OCHCTP,10-L1-5,2019-01-23 07:15:00.0,PmdMin,4.16,CHCGILDTO6Y
MA6813400180,h_OCHCTP,10-L1-5,2019-01-23 07:15:00.0,SoPmdAve,2846.71,CHCGILDTO6Y
MA6813400180,h_OCHCTP,10-L1-5,2019-01-23 07:30:00.0,Qmin,8.67,CHCGILDTO6Y
MA6813400180,h_OCHCTP,10-L1-5,2019-01-23 07:30:00.0,PhaseCorrectionAve,-0.061,CHCGILDTO6Y
MA6813400180,h_OCHCTP,10-L1-5,2019-01-23 07:30:00.0,BerPreFecMax,0.00333,CHCGILDTO6Y
MA6813400180,h_OCHCTP,10-L1-5,2019-01-23 07:30:00.0,PmdMin,6.04,CHCGILDTO6Y
MA6813400180,h_OCHCTP,10-L1-5,2019-01-23 07:30:00.0,SoPmdAve,2780.29,CHCGILDTO6Y
MA6813400180,h_OCHCTP,10-L1-5,2019-01-23 07:45:00.0,Qmin,8.67,CHCGILDTO6Y
MA6813400180,h_OCHCTP,10-L1-5,2019-01-23 07:45:00.0,PhaseCorrectionAve,-0.122,CHCGILDTO6Y
MA6813400180,h_OCHCTP,10-L1-5,2019-01-23 07:45:00.0,BerPreFecMax,0.00332,CHCGILDTO6Y
MA6813400180,h_OCHCTP,10-L1-5,2019-01-23 07:45:00.0,PmdMin,3.63,CHCGILDTO6Y
MA6813400180,h_OCHCTP,10-L1-5,2019-01-23 07:45:00.0,SoPmdAve,2776.84,CHCGILDTO6Y
MA6813400180,h_OCHCTP,10-L1-6,2019-01-23 07:15:00.0,Qmin,8.89,CHCGILDTO6Y
MA6813400180,h_OCHCTP,10-L1-6,2019-01-23 07:15:00.0,PhaseCorrectionAve,-0.122,CHCGILDTO6Y
MA6813400180,h_OCHCTP,10-L1-6,2019-01-23 07:15:00.0,BerPreFecMax,0.00269,CHCGILDTO6Y
MA6813400180,h_OCHCTP,10-L1-6,2019-01-23 07:15:00.0,PmdMin,0.85,CHCGILDTO6Y
MA6813400180,h_OCHCTP,10-L1-6,2019-01-23 07:15:00.0,SoPmdAve,2838.95,CHCGILDTO6Y
MA6813400180,h_OCHCTP,10-L1-6,2019-01-23 07:30:00.0,Qmin,8.86,CHCGILDTO6Y
MA6813400180,h_OCHCTP,10-L1-6,2019-01-23 07:30:00.0,PhaseCorrectionAve,-0.061,CHCGILDTO6Y
MA6813400180,h_OCHCTP,10-L1-6,2019-01-23 07:30:00.0,BerPreFecMax,0.00277,CHCGILDTO6Y
MA6813400180,h_OCHCTP,10-L1-6,2019-01-23 07:30:00.0,PmdMin,0.709,CHCGILDTO6Y
MA6813400180,h_OCHCTP,10-L1-6,2019-01-23 07:30:00.0,SoPmdAve,2913.57,CHCGILDTO6Y
MA6813400180,h_OCHCTP,10-L1-6,2019-01-23 07:45:00.0,Qmin,8.85,CHCGILDTO6Y
MA6813400180,h_OCHCTP,10-L1-6,2019-01-23 07:45:00.0,PhaseCorrectionAve,-0.122,CHCGILDTO6Y
MA6813400180,h_OCHCTP,10-L1-6,2019-01-23 07:45:00.0,BerPreFecMax,0.0028,CHCGILDTO6Y
MA6813400180,h_OCHCTP,10-L1-6,2019-01-23 07:45:00.0,PmdMin,0.656,CHCGILDTO6Y
MA6813400180,h_OCHCTP,10-L1-6,2019-01-23 07:45:00.0,SoPmdAve,2871.4,CHCGILDTO6Y
MA6813400180,h_OCHCTP,10-L1-7,2019-01-23 07:15:00.0,Qmin,8.94,CHCGILDTO6Y
MA6813400180,h_OCHCTP,10-L1-7,2019-01-23 07:15:00.0,PhaseCorrectionAve,-0.122,CHCGILDTO6Y
MA6813400180,h_OCHCTP,10-L1-7,2019-01-23 07:15:00.0,BerPreFecMax,0.00255,CHCGILDTO6Y
MA6813400180,h_OCHCTP,10-L1-7,2019-01-23 07:15:00.0,PmdMin,2.24,CHCGILDTO6Y
MA6813400180,h_OCHCTP,10-L1-7,2019-01-23 07:15:00.0,SoPmdAve,3471.63,CHCGILDTO6Y
MA6813400180,h_OCHCTP,10-L1-7,2019-01-23 07:30:00.0,Qmin,8.93,CHCGILDTO6Y
MA6813400180,h_OCHCTP,10-L1-7,2019-01-23 07:30:00.0,PhaseCorrectionAve,-0.061,CHCGILDTO6Y
MA6813400180,h_OCHCTP,10-L1-7,2019-01-23 07:30:00.0,BerPreFecMax,0.0026,CHCGILDTO6Y
MA6813400180,h_OCHCTP,10-L1-7,2019-01-23 07:30:00.0,PmdMin,1.7,CHCGILDTO6Y
MA6813400180,h_OCHCTP,10-L1-7,2019-01-23 07:30:00.0,SoPmdAve,3476.03,CHCGILDTO6Y
MA6813400180,h_OCHCTP,10-L1-7,2019-01-23 07:45:00.0,Qmin,8.93,CHCGILDTO6Y
MA6813400180,h_OCHCTP,10-L1-7,2019-01-23 07:45:00.0,PhaseCorrectionAve,-0.122,CHCGILDTO6Y
MA6813400180,h_OCHCTP,10-L1-7,2019-01-23 07:45:00.0,BerPreFecMax,0.00259,CHCGILDTO6Y
MA6813400180,h_OCHCTP,10-L1-7,2019-01-23 07:45:00.0,PmdMin,3.22,CHCGILDTO6Y
MA6813400180,h_OCHCTP,10-L1-7,2019-01-23 07:45:00.0,SoPmdAve,3539.13,CHCGILDTO6Y
MA6813400180,h_OCHCTP,10-L1-8,2019-01-23 07:15:00.0,Qmin,9.33,CHCGILDTO6Y
MA6813400180,h_OCHCTP,10-L1-8,2019-01-23 07:15:00.0,PhaseCorrectionAve,-0.122,CHCGILDTO6Y
MA6813400180,h_OCHCTP,10-L1-8,2019-01-23 07:15:00.0,BerPreFecMax,0.00171,CHCGILDTO6Y
MA6813400180,h_OCHCTP,10-L1-8,2019-01-23 07:15:00.0,PmdMin,2.52,CHCGILDTO6Y
MA6813400180,h_OCHCTP,10-L1-8,2019-01-23 07:15:00.0,SoPmdAve,3347.23,CHCGILDTO6Y
MA6813400180,h_OCHCTP,10-L1-8,2019-01-23 07:30:00.0,Qmin,9.33,CHCGILDTO6Y
MA6813400180,h_OCHCTP,10-L1-8,2019-01-23 07:30:00.0,PhaseCorrectionAve,-0.122,CHCGILDTO6Y
MA6813400180,h_OCHCTP,10-L1-8,2019-01-23 07:30:00.0,BerPreFecMax,0.00171,CHCGILDTO6Y
MA6813400180,h_OCHCTP,10-L1-8,2019-01-23 07:30:00.0,PmdMin,1.95,CHCGILDTO6Y
MA6813400180,h_OCHCTP,10-L1-8,2019-01-23 07:30:00.0,SoPmdAve,3501.12,CHCGILDTO6Y
MA6813400180,h_OCHCTP,10-L1-8,2019-01-23 07:45:00.0,Qmin,9.32,CHCGILDTO6Y
MA6813400180,h_OCHCTP,10-L1-8,2019-01-23 07:45:00.0,PhaseCorrectionAve,-0.122,CHCGILDTO6Y
MA6813400180,h_OCHCTP,10-L1-8,2019-01-23 07:45:00.0,BerPreFecMax,0.00172,CHCGILDTO6Y
MA6813400180,h_OCHCTP,10-L1-8,2019-01-23 07:45:00.0,PmdMin,1.33,CHCGILDTO6Y
MA6813400180,h_OCHCTP,10-L1-8,2019-01-23 07:45:00.0,SoPmdAve,3358.76,CHCGILDTO6Y
MA6813400180,h_OCHCTP,10-L1-9,2019-01-23 07:15:00.0,Qmin,9.33,CHCGILDTO6Y
MA6813400180,h_OCHCTP,10-L1-9,2019-01-23 07:15:00.0,PhaseCorrectionAve,-0.122,CHCGILDTO6Y
MA6813400180,h_OCHCTP,10-L1-9,2019-01-23 07:15:00.0,BerPreFecMax,0.0017,CHCGILDTO6Y
MA6813400180,h_OCHCTP,10-L1-9,2019-01-23 07:15:00.0,PmdMin,1.97,CHCGILDTO6Y
MA6813400180,h_OCHCTP,10-L1-9,2019-01-23 07:15:00.0,SoPmdAve,3447.54,CHCGILDTO6Y
MA6813400180,h_OCHCTP,10-L1-9,2019-01-23 07:30:00.0,Qmin,9.33,CHCGILDTO6Y
MA6813400180,h_OCHCTP,10-L1-9,2019-01-23 07:30:00.0,PhaseCorrectionAve,-0.183,CHCGILDTO6Y
MA6813400180,h_OCHCTP,10-L1-9,2019-01-23 07:30:00.0,BerPreFecMax,0.00171,CHCGILDTO6Y
MA6813400180,h_OCHCTP,10-L1-9,2019-01-23 07:30:00.0,PmdMin,0.66,CHCGILDTO6Y
MA6813400180,h_OCHCTP,10-L1-9,2019-01-23 07:30:00.0,SoPmdAve,3430.82,CHCGILDTO6Y
MA6813400180,h_OCHCTP,10-L1-9,2019-01-23 07:45:00.0,Qmin,9.32,CHCGILDTO6Y
MA6813400180,h_OCHCTP,10-L1-9,2019-01-23 07:45:00.0,PhaseCorrectionAve,-0.183,CHCGILDTO6Y
MA6813400180,h_OCHCTP,10-L1-9,2019-01-23 07:45:00.0,BerPreFecMax,0.00172,CHCGILDTO6Y
MA6813400180,h_OCHCTP,10-L1-9,2019-01-23 07:45:00.0,PmdMin,1.09,CHCGILDTO6Y
MA6813400180,h_OCHCTP,10-L1-9,2019-01-23 07:45:00.0,SoPmdAve,3482.5,CHCGILDTO6Y
MA6813400180,h_OCHCTP,10-L1-10,2019-01-23 07:15:00.0,Qmin,9.36,CHCGILDTO6Y
MA6813400180,h_OCHCTP,10-L1-10,2019-01-23 07:15:00.0,PhaseCorrectionAve,-0.122,CHCGILDTO6Y
MA6813400180,h_OCHCTP,10-L1-10,2019-01-23 07:15:00.0,BerPreFecMax,0.00166,CHCGILDTO6Y
MA6813400180,h_OCHCTP,10-L1-10,2019-01-23 07:15:00.0,PmdMin,0.815,CHCGILDTO6Y
MA6813400180,h_OCHCTP,10-L1-10,2019-01-23 07:15:00.0,SoPmdAve,3366.81,CHCGILDTO6Y
MA6813400180,h_OCHCTP,10-L1-10,2019-01-23 07:30:00.0,Qmin,9.38,CHCGILDTO6Y
MA6813400180,h_OCHCTP,10-L1-10,2019-01-23 07:30:00.0,PhaseCorrectionAve,-0.183,CHCGILDTO6Y
MA6813400180,h_OCHCTP,10-L1-10,2019-01-23 07:30:00.0,BerPreFecMax,0.00162,CHCGILDTO6Y
MA6813400180,h_OCHCTP,10-L1-10,2019-01-23 07:30:00.0,PmdMin,1.52,CHCGILDTO6Y
MA6813400180,h_OCHCTP,10-L1-10,2019-01-23 07:30:00.0,SoPmdAve,3253.01,CHCGILDTO6Y
MA6813400180,h_OCHCTP,10-L1-10,2019-01-23 07:45:00.0,Qmin,9.37,CHCGILDTO6Y
MA6813400180,h_OCHCTP,10-L1-10,2019-01-23 07:45:00.0,PhaseCorrectionAve,-0.183,CHCGILDTO6Y
MA6813400180,h_OCHCTP,10-L1-10,2019-01-23 07:45:00.0,BerPreFecMax,0.00164,CHCGILDTO6Y
MA6813400180,h_OCHCTP,10-L1-10,2019-01-23 07:45:00.0,PmdMin,1.5,CHCGILDTO6Y
MA6813400180,h_OCHCTP,10-L1-10,2019-01-23 07:45:00.0,SoPmdAve,3219.06,CHCGILDTO6Y
MA6813400180,h_OCHCTP,13-L1-1,2019-01-23 07:15:00.0,Qmin,9.09,CHCGILDTO6Y
MA6813400180,h_OCHCTP,13-L1-1,2019-01-23 07:15:00.0,PhaseCorrectionAve,2.36e-07,CHCGILDTO6Y
MA6813400180,h_OCHCTP,13-L1-1,2019-01-23 07:15:00.0,BerPreFecMax,0.0022,CHCGILDTO6Y
MA6813400180,h_OCHCTP,13-L1-1,2019-01-23 07:15:00.0,PmdMin,0.888,CHCGILDTO6Y
MA6813400180,h_OCHCTP,13-L1-1,2019-01-23 07:15:00.0,SoPmdAve,3592.54,CHCGILDTO6Y
MA6813400180,h_OCHCTP,13-L1-1,2019-01-23 07:30:00.0,Qmin,9.09,CHCGILDTO6Y
MA6813400180,h_OCHCTP,13-L1-1,2019-01-23 07:30:00.0,PhaseCorrectionAve,2.34e-07,CHCGILDTO6Y
MA6813400180,h_OCHCTP,13-L1-1,2019-01-23 07:30:00.0,BerPreFecMax,0.00219,CHCGILDTO6Y
MA6813400180,h_OCHCTP,13-L1-1,2019-01-23 07:30:00.0,PmdMin,1.44,CHCGILDTO6Y
MA6813400180,h_OCHCTP,13-L1-1,2019-01-23 07:30:00.0,SoPmdAve,3654.07,CHCGILDTO6Y
MA6813400180,h_OCHCTP,13-L1-1,2019-01-23 07:45:00.0,Qmin,9.11,CHCGILDTO6Y
MA6813400180,h_OCHCTP,13-L1-1,2019-01-23 07:45:00.0,PhaseCorrectionAve,2.25e-07,CHCGILDTO6Y
MA6813400180,h_OCHCTP,13-L1-1,2019-01-23 07:45:00.0,BerPreFecMax,0.00215,CHCGILDTO6Y
MA6813400180,h_OCHCTP,13-L1-1,2019-01-23 07:45:00.0,PmdMin,0.717,CHCGILDTO6Y
MA6813400180,h_OCHCTP,13-L1-1,2019-01-23 07:45:00.0,SoPmdAve,3587.28,CHCGILDTO6Y
MA6813400180,h_OCHCTP,13-L1-2,2019-01-23 07:15:00.0,Qmin,9.11,CHCGILDTO6Y
MA6813400180,h_OCHCTP,13-L1-2,2019-01-23 07:15:00.0,PhaseCorrectionAve,-0.061,CHCGILDTO6Y
MA6813400180,h_OCHCTP,13-L1-2,2019-01-23 07:15:00.0,BerPreFecMax,0.00214,CHCGILDTO6Y
MA6813400180,h_OCHCTP,13-L1-2,2019-01-23 07:15:00.0,PmdMin,1.72,CHCGILDTO6Y
MA6813400180,h_OCHCTP,13-L1-2,2019-01-23 07:15:00.0,SoPmdAve,3465.2,CHCGILDTO6Y
MA6813400180,h_OCHCTP,13-L1-2,2019-01-23 07:30:00.0,Qmin,9.15,CHCGILDTO6Y
MA6813400180,h_OCHCTP,13-L1-2,2019-01-23 07:30:00.0,PhaseCorrectionAve,-0.061,CHCGILDTO6Y
MA6813400180,h_OCHCTP,13-L1-2,2019-01-23 07:30:00.0,BerPreFecMax,0.00208,CHCGILDTO6Y
MA6813400180,h_OCHCTP,13-L1-2,2019-01-23 07:30:00.0,PmdMin,0.577,CHCGILDTO6Y
MA6813400180,h_OCHCTP,13-L1-2,2019-01-23 07:30:00.0,SoPmdAve,3581.61,CHCGILDTO6Y
MA6813400180,h_OCHCTP,13-L1-2,2019-01-23 07:45:00.0,Qmin,9.12,CHCGILDTO6Y
MA6813400180,h_OCHCTP,13-L1-2,2019-01-23 07:45:00.0,PhaseCorrectionAve,2.88e-07,CHCGILDTO6Y
MA6813400180,h_OCHCTP,13-L1-2,2019-01-23 07:45:00.0,BerPreFecMax,0.00212,CHCGILDTO6Y
MA6813400180,h_OCHCTP,13-L1-2,2019-01-23 07:45:00.0,PmdMin,1.14,CHCGILDTO6Y
MA6813400180,h_OCHCTP,13-L1-2,2019-01-23 07:45:00.0,SoPmdAve,3542.38,CHCGILDTO6Y
MA6813400180,h_OCHCTP,13-L1-3,2019-01-23 07:15:00.0,Qmin,8.79,CHCGILDTO6Y
MA6813400180,h_OCHCTP,13-L1-3,2019-01-23 07:15:00.0,PhaseCorrectionAve,-0.183,CHCGILDTO6Y
MA6813400180,h_OCHCTP,13-L1-3,2019-01-23 07:15:00.0,BerPreFecMax,0.00296,CHCGILDTO6Y
MA6813400180,h_OCHCTP,13-L1-3,2019-01-23 07:15:00.0,PmdMin,1.28,CHCGILDTO6Y
MA6813400180,h_OCHCTP,13-L1-3,2019-01-23 07:15:00.0,SoPmdAve,3007.46,CHCGILDTO6Y
MA6813400180,h_OCHCTP,13-L1-3,2019-01-23 07:30:00.0,Qmin,8.88,CHCGILDTO6Y
MA6813400180,h_OCHCTP,13-L1-3,2019-01-23 07:30:00.0,PhaseCorrectionAve,-0.061,CHCGILDTO6Y
MA6813400180,h_OCHCTP,13-L1-3,2019-01-23 07:30:00.0,BerPreFecMax,0.00272,CHCGILDTO6Y
MA6813400180,h_OCHCTP,13-L1-3,2019-01-23 07:30:00.0,PmdMin,1.09,CHCGILDTO6Y
MA6813400180,h_OCHCTP,13-L1-3,2019-01-23 07:30:00.0,SoPmdAve,2971.7,CHCGILDTO6Y
MA6813400180,h_OCHCTP,13-L1-3,2019-01-23 07:45:00.0,Qmin,8.91,CHCGILDTO6Y
MA6813400180,h_OCHCTP,13-L1-3,2019-01-23 07:45:00.0,PhaseCorrectionAve,4.68e-07,CHCGILDTO6Y
MA6813400180,h_OCHCTP,13-L1-3,2019-01-23 07:45:00.0,BerPreFecMax,0.00264,CHCGILDTO6Y
MA6813400180,h_OCHCTP,13-L1-3,2019-01-23 07:45:00.0,PmdMin,0.785,CHCGILDTO6Y
MA6813400180,h_OCHCTP,13-L1-3,2019-01-23 07:45:00.0,SoPmdAve,3017.98,CHCGILDTO6Y
MA6813400180,h_OCHCTP,13-L1-4,2019-01-23 07:15:00.0,Qmin,8.62,CHCGILDTO6Y
MA6813400180,h_OCHCTP,13-L1-4,2019-01-23 07:15:00.0,PhaseCorrectionAve,-0.183,CHCGILDTO6Y
MA6813400180,h_OCHCTP,13-L1-4,2019-01-23 07:15:00.0,BerPreFecMax,0.0035,CHCGILDTO6Y
MA6813400180,h_OCHCTP,13-L1-4,2019-01-23 07:15:00.0,PmdMin,0.449,CHCGILDTO6Y
MA6813400180,h_OCHCTP,13-L1-4,2019-01-23 07:15:00.0,SoPmdAve,3395.9,CHCGILDTO6Y
MA6813400180,h_OCHCTP,13-L1-4,2019-01-23 07:30:00.0,Qmin,8.63,CHCGILDTO6Y
MA6813400180,h_OCHCTP,13-L1-4,2019-01-23 07:30:00.0,PhaseCorrectionAve,-0.061,CHCGILDTO6Y
MA6813400180,h_OCHCTP,13-L1-4,2019-01-23 07:30:00.0,BerPreFecMax,0.00345,CHCGILDTO6Y
MA6813400180,h_OCHCTP,13-L1-4,2019-01-23 07:30:00.0,PmdMin,0.329,CHCGILDTO6Y
MA6813400180,h_OCHCTP,13-L1-4,2019-01-23 07:30:00.0,SoPmdAve,3411.38,CHCGILDTO6Y
MA6813400180,h_OCHCTP,13-L1-4,2019-01-23 07:45:00.0,Qmin,8.62,CHCGILDTO6Y
MA6813400180,h_OCHCTP,13-L1-4,2019-01-23 07:45:00.0,PhaseCorrectionAve,-0.061,CHCGILDTO6Y
MA6813400180,h_OCHCTP,13-L1-4,2019-01-23 07:45:00.0,BerPreFecMax,0.00348,CHCGILDTO6Y
MA6813400180,h_OCHCTP,13-L1-4,2019-01-23 07:45:00.0,PmdMin,0.586,CHCGILDTO6Y
MA6813400180,h_OCHCTP,13-L1-4,2019-01-23 07:45:00.0,SoPmdAve,3352.43,CHCGILDTO6Y
MA6813400180,h_OCHCTP,13-L1-5,2019-01-23 07:15:00.0,Qmin,8.68,CHCGILDTO6Y
MA6813400180,h_OCHCTP,13-L1-5,2019-01-23 07:15:00.0,PhaseCorrectionAve,-0.183,CHCGILDTO6Y
MA6813400180,h_OCHCTP,13-L1-5,2019-01-23 07:15:00.0,BerPreFecMax,0.00331,CHCGILDTO6Y
MA6813400180,h_OCHCTP,13-L1-5,2019-01-23 07:15:00.0,PmdMin,0.944,CHCGILDTO6Y
MA6813400180,h_OCHCTP,13-L1-5,2019-01-23 07:15:00.0,SoPmdAve,2829.74,CHCGILDTO6Y
MA6813400180,h_OCHCTP,13-L1-5,2019-01-23 07:30:00.0,Qmin,8.66,CHCGILDTO6Y
MA6813400180,h_OCHCTP,13-L1-5,2019-01-23 07:30:00.0,PhaseCorrectionAve,-0.061,CHCGILDTO6Y
MA6813400180,h_OCHCTP,13-L1-5,2019-01-23 07:30:00.0,BerPreFecMax,0.00335,CHCGILDTO6Y
MA6813400180,h_OCHCTP,13-L1-5,2019-01-23 07:30:00.0,PmdMin,1.11,CHCGILDTO6Y
MA6813400180,h_OCHCTP,13-L1-5,2019-01-23 07:30:00.0,SoPmdAve,2820.68,CHCGILDTO6Y
MA6813400180,h_OCHCTP,13-L1-5,2019-01-23 07:45:00.0,Qmin,8.64,CHCGILDTO6Y
MA6813400180,h_OCHCTP,13-L1-5,2019-01-23 07:45:00.0,PhaseCorrectionAve,-0.061,CHCGILDTO6Y
MA6813400180,h_OCHCTP,13-L1-5,2019-01-23 07:45:00.0,BerPreFecMax,0.00343,CHCGILDTO6Y
MA6813400180,h_OCHCTP,13-L1-5,2019-01-23 07:45:00.0,PmdMin,1.2,CHCGILDTO6Y
MA6813400180,h_OCHCTP,13-L1-5,2019-01-23 07:45:00.0,SoPmdAve,2813.56,CHCGILDTO6Y
MA6813400180,h_OCHCTP,13-L1-6,2019-01-23 07:15:00.0,Qmin,8.79,CHCGILDTO6Y
MA6813400180,h_OCHCTP,13-L1-6,2019-01-23 07:15:00.0,PhaseCorrectionAve,-0.183,CHCGILDTO6Y
MA6813400180,h_OCHCTP,13-L1-6,2019-01-23 07:15:00.0,BerPreFecMax,0.00298,CHCGILDTO6Y
MA6813400180,h_OCHCTP,13-L1-6,2019-01-23 07:15:00.0,PmdMin,0.656,CHCGILDTO6Y
MA6813400180,h_OCHCTP,13-L1-6,2019-01-23 07:15:00.0,SoPmdAve,3028.89,CHCGILDTO6Y
MA6813400180,h_OCHCTP,13-L1-6,2019-01-23 07:30:00.0,Qmin,8.72,CHCGILDTO6Y
MA6813400180,h_OCHCTP,13-L1-6,2019-01-23 07:30:00.0,PhaseCorrectionAve,-0.061,CHCGILDTO6Y
MA6813400180,h_OCHCTP,13-L1-6,2019-01-23 07:30:00.0,BerPreFecMax,0.00316,CHCGILDTO6Y
MA6813400180,h_OCHCTP,13-L1-6,2019-01-23 07:30:00.0,PmdMin,1.24,CHCGILDTO6Y
MA6813400180,h_OCHCTP,13-L1-6,2019-01-23 07:30:00.0,SoPmdAve,3086.67,CHCGILDTO6Y
MA6813400180,h_OCHCTP,13-L1-6,2019-01-23 07:45:00.0,Qmin,8.76,CHCGILDTO6Y
MA6813400180,h_OCHCTP,13-L1-6,2019-01-23 07:45:00.0,PhaseCorrectionAve,-0.061,CHCGILDTO6Y
MA6813400180,h_OCHCTP,13-L1-6,2019-01-23 07:45:00.0,BerPreFecMax,0.00306,CHCGILDTO6Y
MA6813400180,h_OCHCTP,13-L1-6,2019-01-23 07:45:00.0,PmdMin,0.965,CHCGILDTO6Y
MA6813400180,h_OCHCTP,13-L1-6,2019-01-23 07:45:00.0,SoPmdAve,3076.58,CHCGILDTO6Y
MA6813400180,h_OCHCTP,13-L1-7,2019-01-23 07:15:00.0,Qmin,8.81,CHCGILDTO6Y
MA6813400180,h_OCHCTP,13-L1-7,2019-01-23 07:15:00.0,PhaseCorrectionAve,-0.183,CHCGILDTO6Y
MA6813400180,h_OCHCTP,13-L1-7,2019-01-23 07:15:00.0,BerPreFecMax,0.00292,CHCGILDTO6Y
MA6813400180,h_OCHCTP,13-L1-7,2019-01-23 07:15:00.0,PmdMin,0.767,CHCGILDTO6Y
MA6813400180,h_OCHCTP,13-L1-7,2019-01-23 07:15:00.0,SoPmdAve,3674.74,CHCGILDTO6Y
MA6813400180,h_OCHCTP,13-L1-7,2019-01-23 07:30:00.0,Qmin,8.82,CHCGILDTO6Y
MA6813400180,h_OCHCTP,13-L1-7,2019-01-23 07:30:00.0,PhaseCorrectionAve,-0.061,CHCGILDTO6Y
MA6813400180,h_OCHCTP,13-L1-7,2019-01-23 07:30:00.0,BerPreFecMax,0.00289,CHCGILDTO6Y
MA6813400180,h_OCHCTP,13-L1-7,2019-01-23 07:30:00.0,PmdMin,1.4,CHCGILDTO6Y
MA6813400180,h_OCHCTP,13-L1-7,2019-01-23 07:30:00.0,SoPmdAve,3714.2,CHCGILDTO6Y
MA6813400180,h_OCHCTP,13-L1-7,2019-01-23 07:45:00.0,Qmin,8.8,CHCGILDTO6Y
MA6813400180,h_OCHCTP,13-L1-7,2019-01-23 07:45:00.0,PhaseCorrectionAve,-0.061,CHCGILDTO6Y
MA6813400180,h_OCHCTP,13-L1-7,2019-01-23 07:45:00.0,BerPreFecMax,0.00296,CHCGILDTO6Y
MA6813400180,h_OCHCTP,13-L1-7,2019-01-23 07:45:00.0,PmdMin,0.778,CHCGILDTO6Y
MA6813400180,h_OCHCTP,13-L1-7,2019-01-23 07:45:00.0,SoPmdAve,3764.24,CHCGILDTO6Y
MA6813400180,h_OCHCTP,13-L1-8,2019-01-23 07:15:00.0,Qmin,8.9,CHCGILDTO6Y
MA6813400180,h_OCHCTP,13-L1-8,2019-01-23 07:15:00.0,PhaseCorrectionAve,-0.183,CHCGILDTO6Y
MA6813400180,h_OCHCTP,13-L1-8,2019-01-23 07:15:00.0,BerPreFecMax,0.00268,CHCGILDTO6Y
MA6813400180,h_OCHCTP,13-L1-8,2019-01-23 07:15:00.0,PmdMin,1.61,CHCGILDTO6Y
MA6813400180,h_OCHCTP,13-L1-8,2019-01-23 07:15:00.0,SoPmdAve,3885.71,CHCGILDTO6Y
MA6813400180,h_OCHCTP,13-L1-8,2019-01-23 07:30:00.0,Qmin,8.92,CHCGILDTO6Y
MA6813400180,h_OCHCTP,13-L1-8,2019-01-23 07:30:00.0,PhaseCorrectionAve,-0.061,CHCGILDTO6Y
MA6813400180,h_OCHCTP,13-L1-8,2019-01-23 07:30:00.0,BerPreFecMax,0.00261,CHCGILDTO6Y
MA6813400180,h_OCHCTP,13-L1-8,2019-01-23 07:30:00.0,PmdMin,1.28,CHCGILDTO6Y
MA6813400180,h_OCHCTP,13-L1-8,2019-01-23 07:30:00.0,SoPmdAve,3957.79,CHCGILDTO6Y
MA6813400180,h_OCHCTP,13-L1-8,2019-01-23 07:45:00.0,Qmin,8.93,CHCGILDTO6Y
MA6813400180,h_OCHCTP,13-L1-8,2019-01-23 07:45:00.0,PhaseCorrectionAve,-0.061,CHCGILDTO6Y
MA6813400180,h_OCHCTP,13-L1-8,2019-01-23 07:45:00.0,BerPreFecMax,0.00259,CHCGILDTO6Y
MA6813400180,h_OCHCTP,13-L1-8,2019-01-23 07:45:00.0,PmdMin,0.499,CHCGILDTO6Y
MA6813400180,h_OCHCTP,13-L1-8,2019-01-23 07:45:00.0,SoPmdAve,3973.93,CHCGILDTO6Y
MA6813400180,h_OCHCTP,13-L1-9,2019-01-23 07:15:00.0,Qmin,8.89,CHCGILDTO6Y
MA6813400180,h_OCHCTP,13-L1-9,2019-01-23 07:15:00.0,PhaseCorrectionAve,-0.183,CHCGILDTO6Y
MA6813400180,h_OCHCTP,13-L1-9,2019-01-23 07:15:00.0,BerPreFecMax,0.0027,CHCGILDTO6Y
MA6813400180,h_OCHCTP,13-L1-9,2019-01-23 07:15:00.0,PmdMin,1.24,CHCGILDTO6Y
MA6813400180,h_OCHCTP,13-L1-9,2019-01-23 07:15:00.0,SoPmdAve,3530.28,CHCGILDTO6Y
MA6813400180,h_OCHCTP,13-L1-9,2019-01-23 07:30:00.0,Qmin,8.87,CHCGILDTO6Y
MA6813400180,h_OCHCTP,13-L1-9,2019-01-23 07:30:00.0,PhaseCorrectionAve,-0.061,CHCGILDTO6Y
MA6813400180,h_OCHCTP,13-L1-9,2019-01-23 07:30:00.0,BerPreFecMax,0.00273,CHCGILDTO6Y
MA6813400180,h_OCHCTP,13-L1-9,2019-01-23 07:30:00.0,PmdMin,0.394,CHCGILDTO6Y
MA6813400180,h_OCHCTP,13-L1-9,2019-01-23 07:30:00.0,SoPmdAve,3537.36,CHCGILDTO6Y
MA6813400180,h_OCHCTP,13-L1-9,2019-01-23 07:45:00.0,Qmin,8.88,CHCGILDTO6Y
MA6813400180,h_OCHCTP,13-L1-9,2019-01-23 07:45:00.0,PhaseCorrectionAve,-0.061,CHCGILDTO6Y
MA6813400180,h_OCHCTP,13-L1-9,2019-01-23 07:45:00.0,BerPreFecMax,0.00272,CHCGILDTO6Y
MA6813400180,h_OCHCTP,13-L1-9,2019-01-23 07:45:00.0,PmdMin,1.43,CHCGILDTO6Y
MA6813400180,h_OCHCTP,13-L1-9,2019-01-23 07:45:00.0,SoPmdAve,3590.94,CHCGILDTO6Y
MA6813400180,h_OCHCTP,13-L1-10,2019-01-23 07:15:00.0,Qmin,8.79,CHCGILDTO6Y
MA6813400180,h_OCHCTP,13-L1-10,2019-01-23 07:15:00.0,PhaseCorrectionAve,-0.244,CHCGILDTO6Y
MA6813400180,h_OCHCTP,13-L1-10,2019-01-23 07:15:00.0,BerPreFecMax,0.00297,CHCGILDTO6Y
MA6813400180,h_OCHCTP,13-L1-10,2019-01-23 07:15:00.0,PmdMin,0.861,CHCGILDTO6Y
MA6813400180,h_OCHCTP,13-L1-10,2019-01-23 07:15:00.0,SoPmdAve,3740.34,CHCGILDTO6Y
MA6813400180,h_OCHCTP,13-L1-10,2019-01-23 07:30:00.0,Qmin,8.76,CHCGILDTO6Y
MA6813400180,h_OCHCTP,13-L1-10,2019-01-23 07:30:00.0,PhaseCorrectionAve,-0.061,CHCGILDTO6Y
MA6813400180,h_OCHCTP,13-L1-10,2019-01-23 07:30:00.0,BerPreFecMax,0.00304,CHCGILDTO6Y
MA6813400180,h_OCHCTP,13-L1-10,2019-01-23 07:30:00.0,PmdMin,1.61,CHCGILDTO6Y
MA6813400180,h_OCHCTP,13-L1-10,2019-01-23 07:30:00.0,SoPmdAve,3762.0,CHCGILDTO6Y
MA6813400180,h_OCHCTP,13-L1-10,2019-01-23 07:45:00.0,Qmin,8.75,CHCGILDTO6Y
MA6813400180,h_OCHCTP,13-L1-10,2019-01-23 07:45:00.0,PhaseCorrectionAve,-0.122,CHCGILDTO6Y
MA6813400180,h_OCHCTP,13-L1-10,2019-01-23 07:45:00.0,BerPreFecMax,0.00309,CHCGILDTO6Y
MA6813400180,h_OCHCTP,13-L1-10,2019-01-23 07:45:00.0,PmdMin,0.661,CHCGILDTO6Y
MA6813400180,h_OCHCTP,13-L1-10,2019-01-23 07:45:00.0,SoPmdAve,3790.66,CHCGILDTO6Y
