MA6813400180,h_OCHCTP,11-L1-1,2019-02-06 20:15:00.0,Qmin,9.05,CHCGILDTO6Y
MA6813400180,h_OCHCTP,11-L1-1,2019-02-06 20:15:00.0,PhaseCorrectionAve,-0.061,CHCGILDTO6Y
MA6813400180,h_OCHCTP,11-L1-1,2019-02-06 20:15:00.0,BerPreFecMax,0.00229,CHCGILDTO6Y
MA6813400180,h_OCHCTP,11-L1-1,2019-02-06 20:15:00.0,PmdMin,1.23,CHCGILDTO6Y
MA6813400180,h_OCHCTP,11-L1-1,2019-02-06 20:15:00.0,SoPmdAve,3306.56,CHCGILDTO6Y
MA6813400180,h_OCHCTP,11-L1-1,2019-02-06 20:30:00.0,Qmin,8.98,CHCGILDTO6Y
MA6813400180,h_OCHCTP,11-L1-1,2019-02-06 20:30:00.0,PhaseCorrectionAve,1.93e-07,CHCGILDTO6Y
MA6813400180,h_OCHCTP,11-L1-1,2019-02-06 20:30:00.0,BerPreFecMax,0.00247,CHCGILDTO6Y
MA6813400180,h_OCHCTP,11-L1-1,2019-02-06 20:30:00.0,PmdMin,0.661,CHCGILDTO6Y
MA6813400180,h_OCHCTP,11-L1-1,2019-02-06 20:30:00.0,SoPmdAve,3331.52,CHCGILDTO6Y
MA6813400180,h_OCHCTP,11-L1-1,2019-02-06 20:45:00.0,Qmin,9.0,CHCGILDTO6Y
MA6813400180,h_OCHCTP,11-L1-1,2019-02-06 20:45:00.0,PhaseCorrectionAve,1.65e-07,CHCGILDTO6Y
MA6813400180,h_OCHCTP,11-L1-1,2019-02-06 20:45:00.0,BerPreFecMax,0.0024,CHCGILDTO6Y
MA6813400180,h_OCHCTP,11-L1-1,2019-02-06 20:45:00.0,PmdMin,0.506,CHCGILDTO6Y
MA6813400180,h_OCHCTP,11-L1-1,2019-02-06 20:45:00.0,SoPmdAve,3327.96,CHCGILDTO6Y
MA6813400180,h_OCHCTP,11-L1-2,2019-02-06 20:15:00.0,Qmin,9.08,CHCGILDTO6Y
MA6813400180,h_OCHCTP,11-L1-2,2019-02-06 20:15:00.0,PhaseCorrectionAve,-0.061,CHCGILDTO6Y
MA6813400180,h_OCHCTP,11-L1-2,2019-02-06 20:15:00.0,BerPreFecMax,0.00223,CHCGILDTO6Y
MA6813400180,h_OCHCTP,11-L1-2,2019-02-06 20:15:00.0,PmdMin,1.04,CHCGILDTO6Y
MA6813400180,h_OCHCTP,11-L1-2,2019-02-06 20:15:00.0,SoPmdAve,3166.4,CHCGILDTO6Y
MA6813400180,h_OCHCTP,11-L1-2,2019-02-06 20:30:00.0,Qmin,8.99,CHCGILDTO6Y
MA6813400180,h_OCHCTP,11-L1-2,2019-02-06 20:30:00.0,PhaseCorrectionAve,-0.061,CHCGILDTO6Y
MA6813400180,h_OCHCTP,11-L1-2,2019-02-06 20:30:00.0,BerPreFecMax,0.00243,CHCGILDTO6Y
MA6813400180,h_OCHCTP,11-L1-2,2019-02-06 20:30:00.0,PmdMin,0.547,CHCGILDTO6Y
MA6813400180,h_OCHCTP,11-L1-2,2019-02-06 20:30:00.0,SoPmdAve,3151.55,CHCGILDTO6Y
MA6813400180,h_OCHCTP,11-L1-2,2019-02-06 20:45:00.0,Qmin,8.95,CHCGILDTO6Y
MA6813400180,h_OCHCTP,11-L1-2,2019-02-06 20:45:00.0,PhaseCorrectionAve,-0.061,CHCGILDTO6Y
MA6813400180,h_OCHCTP,11-L1-2,2019-02-06 20:45:00.0,BerPreFecMax,0.00254,CHCGILDTO6Y
MA6813400180,h_OCHCTP,11-L1-2,2019-02-06 20:45:00.0,PmdMin,1.02,CHCGILDTO6Y
MA6813400180,h_OCHCTP,11-L1-2,2019-02-06 20:45:00.0,SoPmdAve,3197.81,CHCGILDTO6Y
MA6813400180,h_OCHCTP,11-L1-3,2019-02-06 20:15:00.0,Qmin,8.94,CHCGILDTO6Y
MA6813400180,h_OCHCTP,11-L1-3,2019-02-06 20:15:00.0,PhaseCorrectionAve,-0.061,CHCGILDTO6Y
MA6813400180,h_OCHCTP,11-L1-3,2019-02-06 20:15:00.0,BerPreFecMax,0.00257,CHCGILDTO6Y
MA6813400180,h_OCHCTP,11-L1-3,2019-02-06 20:15:00.0,PmdMin,0.999,CHCGILDTO6Y
MA6813400180,h_OCHCTP,11-L1-3,2019-02-06 20:15:00.0,SoPmdAve,2827.8,CHCGILDTO6Y
MA6813400180,h_OCHCTP,11-L1-3,2019-02-06 20:30:00.0,Qmin,8.9,CHCGILDTO6Y
MA6813400180,h_OCHCTP,11-L1-3,2019-02-06 20:30:00.0,PhaseCorrectionAve,-0.122,CHCGILDTO6Y
MA6813400180,h_OCHCTP,11-L1-3,2019-02-06 20:30:00.0,BerPreFecMax,0.00267,CHCGILDTO6Y
MA6813400180,h_OCHCTP,11-L1-3,2019-02-06 20:30:00.0,PmdMin,0.465,CHCGILDTO6Y
MA6813400180,h_OCHCTP,11-L1-3,2019-02-06 20:30:00.0,SoPmdAve,2786.6,CHCGILDTO6Y
MA6813400180,h_OCHCTP,11-L1-3,2019-02-06 20:45:00.0,Qmin,8.76,CHCGILDTO6Y
MA6813400180,h_OCHCTP,11-L1-3,2019-02-06 20:45:00.0,PhaseCorrectionAve,-0.061,CHCGILDTO6Y
MA6813400180,h_OCHCTP,11-L1-3,2019-02-06 20:45:00.0,BerPreFecMax,0.00307,CHCGILDTO6Y
MA6813400180,h_OCHCTP,11-L1-3,2019-02-06 20:45:00.0,PmdMin,0.518,CHCGILDTO6Y
MA6813400180,h_OCHCTP,11-L1-3,2019-02-06 20:45:00.0,SoPmdAve,2774.8,CHCGILDTO6Y
MA6813400180,h_OCHCTP,11-L1-4,2019-02-06 20:15:00.0,Qmin,8.7,CHCGILDTO6Y
MA6813400180,h_OCHCTP,11-L1-4,2019-02-06 20:15:00.0,PhaseCorrectionAve,-0.061,CHCGILDTO6Y
MA6813400180,h_OCHCTP,11-L1-4,2019-02-06 20:15:00.0,BerPreFecMax,0.00324,CHCGILDTO6Y
MA6813400180,h_OCHCTP,11-L1-4,2019-02-06 20:15:00.0,PmdMin,0.507,CHCGILDTO6Y
MA6813400180,h_OCHCTP,11-L1-4,2019-02-06 20:15:00.0,SoPmdAve,2915.64,CHCGILDTO6Y
MA6813400180,h_OCHCTP,11-L1-4,2019-02-06 20:30:00.0,Qmin,8.61,CHCGILDTO6Y
MA6813400180,h_OCHCTP,11-L1-4,2019-02-06 20:30:00.0,PhaseCorrectionAve,-0.122,CHCGILDTO6Y
MA6813400180,h_OCHCTP,11-L1-4,2019-02-06 20:30:00.0,BerPreFecMax,0.00353,CHCGILDTO6Y
MA6813400180,h_OCHCTP,11-L1-4,2019-02-06 20:30:00.0,PmdMin,0.815,CHCGILDTO6Y
MA6813400180,h_OCHCTP,11-L1-4,2019-02-06 20:30:00.0,SoPmdAve,2989.25,CHCGILDTO6Y
MA6813400180,h_OCHCTP,11-L1-4,2019-02-06 20:45:00.0,Qmin,8.67,CHCGILDTO6Y
MA6813400180,h_OCHCTP,11-L1-4,2019-02-06 20:45:00.0,PhaseCorrectionAve,-0.061,CHCGILDTO6Y
MA6813400180,h_OCHCTP,11-L1-4,2019-02-06 20:45:00.0,BerPreFecMax,0.00333,CHCGILDTO6Y
MA6813400180,h_OCHCTP,11-L1-4,2019-02-06 20:45:00.0,PmdMin,0.575,CHCGILDTO6Y
MA6813400180,h_OCHCTP,11-L1-4,2019-02-06 20:45:00.0,SoPmdAve,2924.37,CHCGILDTO6Y
MA6813400180,h_OCHCTP,11-L1-5,2019-02-06 20:15:00.0,Qmin,8.65,CHCGILDTO6Y
MA6813400180,h_OCHCTP,11-L1-5,2019-02-06 20:15:00.0,PhaseCorrectionAve,-0.061,CHCGILDTO6Y
MA6813400180,h_OCHCTP,11-L1-5,2019-02-06 20:15:00.0,BerPreFecMax,0.00339,CHCGILDTO6Y
MA6813400180,h_OCHCTP,11-L1-5,2019-02-06 20:15:00.0,PmdMin,1.12,CHCGILDTO6Y
MA6813400180,h_OCHCTP,11-L1-5,2019-02-06 20:15:00.0,SoPmdAve,2614.53,CHCGILDTO6Y
MA6813400180,h_OCHCTP,11-L1-5,2019-02-06 20:30:00.0,Qmin,8.74,CHCGILDTO6Y
MA6813400180,h_OCHCTP,11-L1-5,2019-02-06 20:30:00.0,PhaseCorrectionAve,-0.244,CHCGILDTO6Y
MA6813400180,h_OCHCTP,11-L1-5,2019-02-06 20:30:00.0,BerPreFecMax,0.00311,CHCGILDTO6Y
MA6813400180,h_OCHCTP,11-L1-5,2019-02-06 20:30:00.0,PmdMin,0.723,CHCGILDTO6Y
MA6813400180,h_OCHCTP,11-L1-5,2019-02-06 20:30:00.0,SoPmdAve,2549.31,CHCGILDTO6Y
MA6813400180,h_OCHCTP,11-L1-5,2019-02-06 20:45:00.0,Qmin,8.76,CHCGILDTO6Y
MA6813400180,h_OCHCTP,11-L1-5,2019-02-06 20:45:00.0,PhaseCorrectionAve,-0.061,CHCGILDTO6Y
MA6813400180,h_OCHCTP,11-L1-5,2019-02-06 20:45:00.0,BerPreFecMax,0.00307,CHCGILDTO6Y
MA6813400180,h_OCHCTP,11-L1-5,2019-02-06 20:45:00.0,PmdMin,0.725,CHCGILDTO6Y
MA6813400180,h_OCHCTP,11-L1-5,2019-02-06 20:45:00.0,SoPmdAve,2536.7,CHCGILDTO6Y
MA6813400180,h_OCHCTP,11-L1-6,2019-02-06 20:15:00.0,Qmin,8.73,CHCGILDTO6Y
MA6813400180,h_OCHCTP,11-L1-6,2019-02-06 20:15:00.0,PhaseCorrectionAve,-0.061,CHCGILDTO6Y
MA6813400180,h_OCHCTP,11-L1-6,2019-02-06 20:15:00.0,BerPreFecMax,0.00316,CHCGILDTO6Y
MA6813400180,h_OCHCTP,11-L1-6,2019-02-06 20:15:00.0,PmdMin,1.11,CHCGILDTO6Y
MA6813400180,h_OCHCTP,11-L1-6,2019-02-06 20:15:00.0,SoPmdAve,2566.52,CHCGILDTO6Y
MA6813400180,h_OCHCTP,11-L1-6,2019-02-06 20:30:00.0,Qmin,8.78,CHCGILDTO6Y
MA6813400180,h_OCHCTP,11-L1-6,2019-02-06 20:30:00.0,PhaseCorrectionAve,-0.305,CHCGILDTO6Y
MA6813400180,h_OCHCTP,11-L1-6,2019-02-06 20:30:00.0,BerPreFecMax,0.00299,CHCGILDTO6Y
MA6813400180,h_OCHCTP,11-L1-6,2019-02-06 20:30:00.0,PmdMin,0.266,CHCGILDTO6Y
MA6813400180,h_OCHCTP,11-L1-6,2019-02-06 20:30:00.0,SoPmdAve,2498.27,CHCGILDTO6Y
MA6813400180,h_OCHCTP,11-L1-6,2019-02-06 20:45:00.0,Qmin,8.72,CHCGILDTO6Y
MA6813400180,h_OCHCTP,11-L1-6,2019-02-06 20:45:00.0,PhaseCorrectionAve,-0.061,CHCGILDTO6Y
MA6813400180,h_OCHCTP,11-L1-6,2019-02-06 20:45:00.0,BerPreFecMax,0.00316,CHCGILDTO6Y
MA6813400180,h_OCHCTP,11-L1-6,2019-02-06 20:45:00.0,PmdMin,0.579,CHCGILDTO6Y
MA6813400180,h_OCHCTP,11-L1-6,2019-02-06 20:45:00.0,SoPmdAve,2454.64,CHCGILDTO6Y
MA6813400180,h_OCHCTP,11-L1-7,2019-02-06 20:15:00.0,Qmin,8.85,CHCGILDTO6Y
MA6813400180,h_OCHCTP,11-L1-7,2019-02-06 20:15:00.0,PhaseCorrectionAve,-0.061,CHCGILDTO6Y
MA6813400180,h_OCHCTP,11-L1-7,2019-02-06 20:15:00.0,BerPreFecMax,0.0028,CHCGILDTO6Y
MA6813400180,h_OCHCTP,11-L1-7,2019-02-06 20:15:00.0,PmdMin,0.896,CHCGILDTO6Y
MA6813400180,h_OCHCTP,11-L1-7,2019-02-06 20:15:00.0,SoPmdAve,3078.21,CHCGILDTO6Y
MA6813400180,h_OCHCTP,11-L1-7,2019-02-06 20:30:00.0,Qmin,8.86,CHCGILDTO6Y
MA6813400180,h_OCHCTP,11-L1-7,2019-02-06 20:30:00.0,PhaseCorrectionAve,-0.305,CHCGILDTO6Y
MA6813400180,h_OCHCTP,11-L1-7,2019-02-06 20:30:00.0,BerPreFecMax,0.00278,CHCGILDTO6Y
MA6813400180,h_OCHCTP,11-L1-7,2019-02-06 20:30:00.0,PmdMin,0.993,CHCGILDTO6Y
MA6813400180,h_OCHCTP,11-L1-7,2019-02-06 20:30:00.0,SoPmdAve,2903.15,CHCGILDTO6Y
MA6813400180,h_OCHCTP,11-L1-7,2019-02-06 20:45:00.0,Qmin,8.82,CHCGILDTO6Y
MA6813400180,h_OCHCTP,11-L1-7,2019-02-06 20:45:00.0,PhaseCorrectionAve,-0.061,CHCGILDTO6Y
MA6813400180,h_OCHCTP,11-L1-7,2019-02-06 20:45:00.0,BerPreFecMax,0.00287,CHCGILDTO6Y
MA6813400180,h_OCHCTP,11-L1-7,2019-02-06 20:45:00.0,PmdMin,0.842,CHCGILDTO6Y
MA6813400180,h_OCHCTP,11-L1-7,2019-02-06 20:45:00.0,SoPmdAve,2996.76,CHCGILDTO6Y
MA6813400180,h_OCHCTP,11-L1-8,2019-02-06 20:15:00.0,Qmin,8.83,CHCGILDTO6Y
MA6813400180,h_OCHCTP,11-L1-8,2019-02-06 20:15:00.0,PhaseCorrectionAve,-0.061,CHCGILDTO6Y
MA6813400180,h_OCHCTP,11-L1-8,2019-02-06 20:15:00.0,BerPreFecMax,0.00285,CHCGILDTO6Y
MA6813400180,h_OCHCTP,11-L1-8,2019-02-06 20:15:00.0,PmdMin,0.513,CHCGILDTO6Y
MA6813400180,h_OCHCTP,11-L1-8,2019-02-06 20:15:00.0,SoPmdAve,3006.79,CHCGILDTO6Y
MA6813400180,h_OCHCTP,11-L1-8,2019-02-06 20:30:00.0,Qmin,8.87,CHCGILDTO6Y
MA6813400180,h_OCHCTP,11-L1-8,2019-02-06 20:30:00.0,PhaseCorrectionAve,-0.305,CHCGILDTO6Y
MA6813400180,h_OCHCTP,11-L1-8,2019-02-06 20:30:00.0,BerPreFecMax,0.00274,CHCGILDTO6Y
MA6813400180,h_OCHCTP,11-L1-8,2019-02-06 20:30:00.0,PmdMin,0.755,CHCGILDTO6Y
MA6813400180,h_OCHCTP,11-L1-8,2019-02-06 20:30:00.0,SoPmdAve,3063.86,CHCGILDTO6Y
MA6813400180,h_OCHCTP,11-L1-8,2019-02-06 20:45:00.0,Qmin,8.88,CHCGILDTO6Y
MA6813400180,h_OCHCTP,11-L1-8,2019-02-06 20:45:00.0,PhaseCorrectionAve,-0.061,CHCGILDTO6Y
MA6813400180,h_OCHCTP,11-L1-8,2019-02-06 20:45:00.0,BerPreFecMax,0.00273,CHCGILDTO6Y
MA6813400180,h_OCHCTP,11-L1-8,2019-02-06 20:45:00.0,PmdMin,1.44,CHCGILDTO6Y
MA6813400180,h_OCHCTP,11-L1-8,2019-02-06 20:45:00.0,SoPmdAve,3118.51,CHCGILDTO6Y
MA6813400180,h_OCHCTP,11-L1-9,2019-02-06 20:15:00.0,Qmin,8.79,CHCGILDTO6Y
MA6813400180,h_OCHCTP,11-L1-9,2019-02-06 20:15:00.0,PhaseCorrectionAve,-0.061,CHCGILDTO6Y
MA6813400180,h_OCHCTP,11-L1-9,2019-02-06 20:15:00.0,BerPreFecMax,0.00296,CHCGILDTO6Y
MA6813400180,h_OCHCTP,11-L1-9,2019-02-06 20:15:00.0,PmdMin,0.959,CHCGILDTO6Y
MA6813400180,h_OCHCTP,11-L1-9,2019-02-06 20:15:00.0,SoPmdAve,2896.61,CHCGILDTO6Y
MA6813400180,h_OCHCTP,11-L1-9,2019-02-06 20:30:00.0,Qmin,8.85,CHCGILDTO6Y
MA6813400180,h_OCHCTP,11-L1-9,2019-02-06 20:30:00.0,PhaseCorrectionAve,-0.366,CHCGILDTO6Y
MA6813400180,h_OCHCTP,11-L1-9,2019-02-06 20:30:00.0,BerPreFecMax,0.00279,CHCGILDTO6Y
MA6813400180,h_OCHCTP,11-L1-9,2019-02-06 20:30:00.0,PmdMin,1.23,CHCGILDTO6Y
MA6813400180,h_OCHCTP,11-L1-9,2019-02-06 20:30:00.0,SoPmdAve,2976.09,CHCGILDTO6Y
MA6813400180,h_OCHCTP,11-L1-9,2019-02-06 20:45:00.0,Qmin,8.8,CHCGILDTO6Y
MA6813400180,h_OCHCTP,11-L1-9,2019-02-06 20:45:00.0,PhaseCorrectionAve,-0.122,CHCGILDTO6Y
MA6813400180,h_OCHCTP,11-L1-9,2019-02-06 20:45:00.0,BerPreFecMax,0.00295,CHCGILDTO6Y
MA6813400180,h_OCHCTP,11-L1-9,2019-02-06 20:45:00.0,PmdMin,0.664,CHCGILDTO6Y
MA6813400180,h_OCHCTP,11-L1-9,2019-02-06 20:45:00.0,SoPmdAve,3004.7,CHCGILDTO6Y
MA6813400180,h_OCHCTP,11-L1-10,2019-02-06 20:15:00.0,Qmin,8.83,CHCGILDTO6Y
MA6813400180,h_OCHCTP,11-L1-10,2019-02-06 20:15:00.0,PhaseCorrectionAve,-0.061,CHCGILDTO6Y
MA6813400180,h_OCHCTP,11-L1-10,2019-02-06 20:15:00.0,BerPreFecMax,0.00286,CHCGILDTO6Y
MA6813400180,h_OCHCTP,11-L1-10,2019-02-06 20:15:00.0,PmdMin,0.876,CHCGILDTO6Y
MA6813400180,h_OCHCTP,11-L1-10,2019-02-06 20:15:00.0,SoPmdAve,3090.07,CHCGILDTO6Y
MA6813400180,h_OCHCTP,11-L1-10,2019-02-06 20:30:00.0,Qmin,8.85,CHCGILDTO6Y
MA6813400180,h_OCHCTP,11-L1-10,2019-02-06 20:30:00.0,PhaseCorrectionAve,-0.366,CHCGILDTO6Y
MA6813400180,h_OCHCTP,11-L1-10,2019-02-06 20:30:00.0,BerPreFecMax,0.0028,CHCGILDTO6Y
MA6813400180,h_OCHCTP,11-L1-10,2019-02-06 20:30:00.0,PmdMin,0.944,CHCGILDTO6Y
MA6813400180,h_OCHCTP,11-L1-10,2019-02-06 20:30:00.0,SoPmdAve,3010.12,CHCGILDTO6Y
MA6813400180,h_OCHCTP,11-L1-10,2019-02-06 20:45:00.0,Qmin,8.81,CHCGILDTO6Y
MA6813400180,h_OCHCTP,11-L1-10,2019-02-06 20:45:00.0,PhaseCorrectionAve,-0.122,CHCGILDTO6Y
MA6813400180,h_OCHCTP,11-L1-10,2019-02-06 20:45:00.0,BerPreFecMax,0.00291,CHCGILDTO6Y
MA6813400180,h_OCHCTP,11-L1-10,2019-02-06 20:45:00.0,PmdMin,0.825,CHCGILDTO6Y
MA6813400180,h_OCHCTP,11-L1-10,2019-02-06 20:45:00.0,SoPmdAve,3103.25,CHCGILDTO6Y
MA6813400180,h_OCHCTP,10-L1-1,2019-02-06 20:15:00.0,Qmin,9.47,CHCGILDTO6Y
MA6813400180,h_OCHCTP,10-L1-1,2019-02-06 20:15:00.0,PhaseCorrectionAve,4.04e-07,CHCGILDTO6Y
MA6813400180,h_OCHCTP,10-L1-1,2019-02-06 20:15:00.0,BerPreFecMax,0.00147,CHCGILDTO6Y
MA6813400180,h_OCHCTP,10-L1-1,2019-02-06 20:15:00.0,PmdMin,0.956,CHCGILDTO6Y
MA6813400180,h_OCHCTP,10-L1-1,2019-02-06 20:15:00.0,SoPmdAve,3585.66,CHCGILDTO6Y
MA6813400180,h_OCHCTP,10-L1-1,2019-02-06 20:30:00.0,Qmin,9.46,CHCGILDTO6Y
MA6813400180,h_OCHCTP,10-L1-1,2019-02-06 20:30:00.0,PhaseCorrectionAve,4.1e-07,CHCGILDTO6Y
MA6813400180,h_OCHCTP,10-L1-1,2019-02-06 20:30:00.0,BerPreFecMax,0.00148,CHCGILDTO6Y
MA6813400180,h_OCHCTP,10-L1-1,2019-02-06 20:30:00.0,PmdMin,1.81,CHCGILDTO6Y
MA6813400180,h_OCHCTP,10-L1-1,2019-02-06 20:30:00.0,SoPmdAve,3497.78,CHCGILDTO6Y
MA6813400180,h_OCHCTP,10-L1-1,2019-02-06 20:45:00.0,Qmin,9.46,CHCGILDTO6Y
MA6813400180,h_OCHCTP,10-L1-1,2019-02-06 20:45:00.0,PhaseCorrectionAve,4.01e-07,CHCGILDTO6Y
MA6813400180,h_OCHCTP,10-L1-1,2019-02-06 20:45:00.0,BerPreFecMax,0.00148,CHCGILDTO6Y
MA6813400180,h_OCHCTP,10-L1-1,2019-02-06 20:45:00.0,PmdMin,0.939,CHCGILDTO6Y
MA6813400180,h_OCHCTP,10-L1-1,2019-02-06 20:45:00.0,SoPmdAve,3569.79,CHCGILDTO6Y
MA6813400180,h_OCHCTP,10-L1-2,2019-02-06 20:15:00.0,Qmin,9.16,CHCGILDTO6Y
MA6813400180,h_OCHCTP,10-L1-2,2019-02-06 20:15:00.0,PhaseCorrectionAve,3.33e-07,CHCGILDTO6Y
MA6813400180,h_OCHCTP,10-L1-2,2019-02-06 20:15:00.0,BerPreFecMax,0.00204,CHCGILDTO6Y
MA6813400180,h_OCHCTP,10-L1-2,2019-02-06 20:15:00.0,PmdMin,2.57,CHCGILDTO6Y
MA6813400180,h_OCHCTP,10-L1-2,2019-02-06 20:15:00.0,SoPmdAve,3356.6,CHCGILDTO6Y
MA6813400180,h_OCHCTP,10-L1-2,2019-02-06 20:30:00.0,Qmin,9.15,CHCGILDTO6Y
MA6813400180,h_OCHCTP,10-L1-2,2019-02-06 20:30:00.0,PhaseCorrectionAve,3.28e-07,CHCGILDTO6Y
MA6813400180,h_OCHCTP,10-L1-2,2019-02-06 20:30:00.0,BerPreFecMax,0.00206,CHCGILDTO6Y
MA6813400180,h_OCHCTP,10-L1-2,2019-02-06 20:30:00.0,PmdMin,2.86,CHCGILDTO6Y
MA6813400180,h_OCHCTP,10-L1-2,2019-02-06 20:30:00.0,SoPmdAve,3316.99,CHCGILDTO6Y
MA6813400180,h_OCHCTP,10-L1-2,2019-02-06 20:45:00.0,Qmin,9.15,CHCGILDTO6Y
MA6813400180,h_OCHCTP,10-L1-2,2019-02-06 20:45:00.0,PhaseCorrectionAve,3.1e-07,CHCGILDTO6Y
MA6813400180,h_OCHCTP,10-L1-2,2019-02-06 20:45:00.0,BerPreFecMax,0.00207,CHCGILDTO6Y
MA6813400180,h_OCHCTP,10-L1-2,2019-02-06 20:45:00.0,PmdMin,2.65,CHCGILDTO6Y
MA6813400180,h_OCHCTP,10-L1-2,2019-02-06 20:45:00.0,SoPmdAve,3354.85,CHCGILDTO6Y
MA6813400180,h_OCHCTP,10-L1-3,2019-02-06 20:15:00.0,Qmin,8.87,CHCGILDTO6Y
MA6813400180,h_OCHCTP,10-L1-3,2019-02-06 20:15:00.0,PhaseCorrectionAve,-0.061,CHCGILDTO6Y
MA6813400180,h_OCHCTP,10-L1-3,2019-02-06 20:15:00.0,BerPreFecMax,0.00274,CHCGILDTO6Y
MA6813400180,h_OCHCTP,10-L1-3,2019-02-06 20:15:00.0,PmdMin,3.19,CHCGILDTO6Y
MA6813400180,h_OCHCTP,10-L1-3,2019-02-06 20:15:00.0,SoPmdAve,2800.15,CHCGILDTO6Y
MA6813400180,h_OCHCTP,10-L1-3,2019-02-06 20:30:00.0,Qmin,8.86,CHCGILDTO6Y
MA6813400180,h_OCHCTP,10-L1-3,2019-02-06 20:30:00.0,PhaseCorrectionAve,6.13e-07,CHCGILDTO6Y
MA6813400180,h_OCHCTP,10-L1-3,2019-02-06 20:30:00.0,BerPreFecMax,0.00277,CHCGILDTO6Y
MA6813400180,h_OCHCTP,10-L1-3,2019-02-06 20:30:00.0,PmdMin,3.17,CHCGILDTO6Y
MA6813400180,h_OCHCTP,10-L1-3,2019-02-06 20:30:00.0,SoPmdAve,2797.19,CHCGILDTO6Y
MA6813400180,h_OCHCTP,10-L1-3,2019-02-06 20:45:00.0,Qmin,8.84,CHCGILDTO6Y
MA6813400180,h_OCHCTP,10-L1-3,2019-02-06 20:45:00.0,PhaseCorrectionAve,6.41e-07,CHCGILDTO6Y
MA6813400180,h_OCHCTP,10-L1-3,2019-02-06 20:45:00.0,BerPreFecMax,0.00282,CHCGILDTO6Y
MA6813400180,h_OCHCTP,10-L1-3,2019-02-06 20:45:00.0,PmdMin,3.37,CHCGILDTO6Y
MA6813400180,h_OCHCTP,10-L1-3,2019-02-06 20:45:00.0,SoPmdAve,2936.17,CHCGILDTO6Y
MA6813400180,h_OCHCTP,10-L1-4,2019-02-06 20:15:00.0,Qmin,8.29,CHCGILDTO6Y
MA6813400180,h_OCHCTP,10-L1-4,2019-02-06 20:15:00.0,PhaseCorrectionAve,-0.061,CHCGILDTO6Y
MA6813400180,h_OCHCTP,10-L1-4,2019-02-06 20:15:00.0,BerPreFecMax,0.00469,CHCGILDTO6Y
MA6813400180,h_OCHCTP,10-L1-4,2019-02-06 20:15:00.0,PmdMin,0.895,CHCGILDTO6Y
MA6813400180,h_OCHCTP,10-L1-4,2019-02-06 20:15:00.0,SoPmdAve,3093.66,CHCGILDTO6Y
MA6813400180,h_OCHCTP,10-L1-4,2019-02-06 20:30:00.0,Qmin,8.29,CHCGILDTO6Y
MA6813400180,h_OCHCTP,10-L1-4,2019-02-06 20:30:00.0,PhaseCorrectionAve,3.31e-06,CHCGILDTO6Y
MA6813400180,h_OCHCTP,10-L1-4,2019-02-06 20:30:00.0,BerPreFecMax,0.00471,CHCGILDTO6Y
MA6813400180,h_OCHCTP,10-L1-4,2019-02-06 20:30:00.0,PmdMin,0.585,CHCGILDTO6Y
MA6813400180,h_OCHCTP,10-L1-4,2019-02-06 20:30:00.0,SoPmdAve,3134.91,CHCGILDTO6Y
MA6813400180,h_OCHCTP,10-L1-4,2019-02-06 20:45:00.0,Qmin,8.27,CHCGILDTO6Y
MA6813400180,h_OCHCTP,10-L1-4,2019-02-06 20:45:00.0,PhaseCorrectionAve,3.2e-06,CHCGILDTO6Y
MA6813400180,h_OCHCTP,10-L1-4,2019-02-06 20:45:00.0,BerPreFecMax,0.0048,CHCGILDTO6Y
MA6813400180,h_OCHCTP,10-L1-4,2019-02-06 20:45:00.0,PmdMin,1.26,CHCGILDTO6Y
MA6813400180,h_OCHCTP,10-L1-4,2019-02-06 20:45:00.0,SoPmdAve,3166.8,CHCGILDTO6Y
MA6813400180,h_OCHCTP,10-L1-5,2019-02-06 20:15:00.0,Qmin,8.5,CHCGILDTO6Y
MA6813400180,h_OCHCTP,10-L1-5,2019-02-06 20:15:00.0,PhaseCorrectionAve,-0.122,CHCGILDTO6Y
MA6813400180,h_OCHCTP,10-L1-5,2019-02-06 20:15:00.0,BerPreFecMax,0.0039,CHCGILDTO6Y
MA6813400180,h_OCHCTP,10-L1-5,2019-02-06 20:15:00.0,PmdMin,1.58,CHCGILDTO6Y
MA6813400180,h_OCHCTP,10-L1-5,2019-02-06 20:15:00.0,SoPmdAve,2874.96,CHCGILDTO6Y
MA6813400180,h_OCHCTP,10-L1-5,2019-02-06 20:30:00.0,Qmin,8.51,CHCGILDTO6Y
MA6813400180,h_OCHCTP,10-L1-5,2019-02-06 20:30:00.0,PhaseCorrectionAve,1.49e-06,CHCGILDTO6Y
MA6813400180,h_OCHCTP,10-L1-5,2019-02-06 20:30:00.0,BerPreFecMax,0.00387,CHCGILDTO6Y
MA6813400180,h_OCHCTP,10-L1-5,2019-02-06 20:30:00.0,PmdMin,1.34,CHCGILDTO6Y
MA6813400180,h_OCHCTP,10-L1-5,2019-02-06 20:30:00.0,SoPmdAve,2802.58,CHCGILDTO6Y
MA6813400180,h_OCHCTP,10-L1-5,2019-02-06 20:45:00.0,Qmin,8.48,CHCGILDTO6Y
MA6813400180,h_OCHCTP,10-L1-5,2019-02-06 20:45:00.0,PhaseCorrectionAve,1.48e-06,CHCGILDTO6Y
MA6813400180,h_OCHCTP,10-L1-5,2019-02-06 20:45:00.0,BerPreFecMax,0.00398,CHCGILDTO6Y
MA6813400180,h_OCHCTP,10-L1-5,2019-02-06 20:45:00.0,PmdMin,2.06,CHCGILDTO6Y
MA6813400180,h_OCHCTP,10-L1-5,2019-02-06 20:45:00.0,SoPmdAve,2844.87,CHCGILDTO6Y
MA6813400180,h_OCHCTP,10-L1-6,2019-02-06 20:15:00.0,Qmin,8.73,CHCGILDTO6Y
MA6813400180,h_OCHCTP,10-L1-6,2019-02-06 20:15:00.0,PhaseCorrectionAve,-0.183,CHCGILDTO6Y
MA6813400180,h_OCHCTP,10-L1-6,2019-02-06 20:15:00.0,BerPreFecMax,0.00316,CHCGILDTO6Y
MA6813400180,h_OCHCTP,10-L1-6,2019-02-06 20:15:00.0,PmdMin,1.24,CHCGILDTO6Y
MA6813400180,h_OCHCTP,10-L1-6,2019-02-06 20:15:00.0,SoPmdAve,2793.81,CHCGILDTO6Y
MA6813400180,h_OCHCTP,10-L1-6,2019-02-06 20:30:00.0,Qmin,8.73,CHCGILDTO6Y
MA6813400180,h_OCHCTP,10-L1-6,2019-02-06 20:30:00.0,PhaseCorrectionAve,1.01e-06,CHCGILDTO6Y
MA6813400180,h_OCHCTP,10-L1-6,2019-02-06 20:30:00.0,BerPreFecMax,0.00316,CHCGILDTO6Y
MA6813400180,h_OCHCTP,10-L1-6,2019-02-06 20:30:00.0,PmdMin,1.16,CHCGILDTO6Y
MA6813400180,h_OCHCTP,10-L1-6,2019-02-06 20:30:00.0,SoPmdAve,2747.44,CHCGILDTO6Y
MA6813400180,h_OCHCTP,10-L1-6,2019-02-06 20:45:00.0,Qmin,8.7,CHCGILDTO6Y
MA6813400180,h_OCHCTP,10-L1-6,2019-02-06 20:45:00.0,PhaseCorrectionAve,9.83e-07,CHCGILDTO6Y
MA6813400180,h_OCHCTP,10-L1-6,2019-02-06 20:45:00.0,BerPreFecMax,0.00322,CHCGILDTO6Y
MA6813400180,h_OCHCTP,10-L1-6,2019-02-06 20:45:00.0,PmdMin,0.805,CHCGILDTO6Y
MA6813400180,h_OCHCTP,10-L1-6,2019-02-06 20:45:00.0,SoPmdAve,2782.72,CHCGILDTO6Y
MA6813400180,h_OCHCTP,10-L1-7,2019-02-06 20:15:00.0,Qmin,8.82,CHCGILDTO6Y
MA6813400180,h_OCHCTP,10-L1-7,2019-02-06 20:15:00.0,PhaseCorrectionAve,-0.183,CHCGILDTO6Y
MA6813400180,h_OCHCTP,10-L1-7,2019-02-06 20:15:00.0,BerPreFecMax,0.00289,CHCGILDTO6Y
MA6813400180,h_OCHCTP,10-L1-7,2019-02-06 20:15:00.0,PmdMin,3.75,CHCGILDTO6Y
MA6813400180,h_OCHCTP,10-L1-7,2019-02-06 20:15:00.0,SoPmdAve,3412.58,CHCGILDTO6Y
MA6813400180,h_OCHCTP,10-L1-7,2019-02-06 20:30:00.0,Qmin,8.81,CHCGILDTO6Y
MA6813400180,h_OCHCTP,10-L1-7,2019-02-06 20:30:00.0,PhaseCorrectionAve,6.02e-07,CHCGILDTO6Y
MA6813400180,h_OCHCTP,10-L1-7,2019-02-06 20:30:00.0,BerPreFecMax,0.00291,CHCGILDTO6Y
MA6813400180,h_OCHCTP,10-L1-7,2019-02-06 20:30:00.0,PmdMin,1.45,CHCGILDTO6Y
MA6813400180,h_OCHCTP,10-L1-7,2019-02-06 20:30:00.0,SoPmdAve,3475.33,CHCGILDTO6Y
MA6813400180,h_OCHCTP,10-L1-7,2019-02-06 20:45:00.0,Qmin,8.79,CHCGILDTO6Y
MA6813400180,h_OCHCTP,10-L1-7,2019-02-06 20:45:00.0,PhaseCorrectionAve,5.87e-07,CHCGILDTO6Y
MA6813400180,h_OCHCTP,10-L1-7,2019-02-06 20:45:00.0,BerPreFecMax,0.00298,CHCGILDTO6Y
MA6813400180,h_OCHCTP,10-L1-7,2019-02-06 20:45:00.0,PmdMin,1.91,CHCGILDTO6Y
MA6813400180,h_OCHCTP,10-L1-7,2019-02-06 20:45:00.0,SoPmdAve,3410.02,CHCGILDTO6Y
MA6813400180,h_OCHCTP,10-L1-8,2019-02-06 20:15:00.0,Qmin,9.3,CHCGILDTO6Y
MA6813400180,h_OCHCTP,10-L1-8,2019-02-06 20:15:00.0,PhaseCorrectionAve,-0.183,CHCGILDTO6Y
MA6813400180,h_OCHCTP,10-L1-8,2019-02-06 20:15:00.0,BerPreFecMax,0.00177,CHCGILDTO6Y
MA6813400180,h_OCHCTP,10-L1-8,2019-02-06 20:15:00.0,PmdMin,2.69,CHCGILDTO6Y
MA6813400180,h_OCHCTP,10-L1-8,2019-02-06 20:15:00.0,SoPmdAve,3369.54,CHCGILDTO6Y
MA6813400180,h_OCHCTP,10-L1-8,2019-02-06 20:30:00.0,Qmin,9.31,CHCGILDTO6Y
MA6813400180,h_OCHCTP,10-L1-8,2019-02-06 20:30:00.0,PhaseCorrectionAve,1.14e-06,CHCGILDTO6Y
MA6813400180,h_OCHCTP,10-L1-8,2019-02-06 20:30:00.0,BerPreFecMax,0.00174,CHCGILDTO6Y
MA6813400180,h_OCHCTP,10-L1-8,2019-02-06 20:30:00.0,PmdMin,3.91,CHCGILDTO6Y
MA6813400180,h_OCHCTP,10-L1-8,2019-02-06 20:30:00.0,SoPmdAve,3308.26,CHCGILDTO6Y
MA6813400180,h_OCHCTP,10-L1-8,2019-02-06 20:45:00.0,Qmin,9.3,CHCGILDTO6Y
MA6813400180,h_OCHCTP,10-L1-8,2019-02-06 20:45:00.0,PhaseCorrectionAve,-0.061,CHCGILDTO6Y
MA6813400180,h_OCHCTP,10-L1-8,2019-02-06 20:45:00.0,BerPreFecMax,0.00177,CHCGILDTO6Y
MA6813400180,h_OCHCTP,10-L1-8,2019-02-06 20:45:00.0,PmdMin,2.54,CHCGILDTO6Y
MA6813400180,h_OCHCTP,10-L1-8,2019-02-06 20:45:00.0,SoPmdAve,3318.28,CHCGILDTO6Y
MA6813400180,h_OCHCTP,10-L1-9,2019-02-06 20:15:00.0,Qmin,9.35,CHCGILDTO6Y
MA6813400180,h_OCHCTP,10-L1-9,2019-02-06 20:15:00.0,PhaseCorrectionAve,-0.183,CHCGILDTO6Y
MA6813400180,h_OCHCTP,10-L1-9,2019-02-06 20:15:00.0,BerPreFecMax,0.00167,CHCGILDTO6Y
MA6813400180,h_OCHCTP,10-L1-9,2019-02-06 20:15:00.0,PmdMin,2.72,CHCGILDTO6Y
MA6813400180,h_OCHCTP,10-L1-9,2019-02-06 20:15:00.0,SoPmdAve,3380.43,CHCGILDTO6Y
MA6813400180,h_OCHCTP,10-L1-9,2019-02-06 20:30:00.0,Qmin,9.35,CHCGILDTO6Y
MA6813400180,h_OCHCTP,10-L1-9,2019-02-06 20:30:00.0,PhaseCorrectionAve,-0.122,CHCGILDTO6Y
MA6813400180,h_OCHCTP,10-L1-9,2019-02-06 20:30:00.0,BerPreFecMax,0.00166,CHCGILDTO6Y
MA6813400180,h_OCHCTP,10-L1-9,2019-02-06 20:30:00.0,PmdMin,3.74,CHCGILDTO6Y
MA6813400180,h_OCHCTP,10-L1-9,2019-02-06 20:30:00.0,SoPmdAve,3364.66,CHCGILDTO6Y
MA6813400180,h_OCHCTP,10-L1-9,2019-02-06 20:45:00.0,Qmin,9.35,CHCGILDTO6Y
MA6813400180,h_OCHCTP,10-L1-9,2019-02-06 20:45:00.0,PhaseCorrectionAve,-0.061,CHCGILDTO6Y
MA6813400180,h_OCHCTP,10-L1-9,2019-02-06 20:45:00.0,BerPreFecMax,0.00168,CHCGILDTO6Y
MA6813400180,h_OCHCTP,10-L1-9,2019-02-06 20:45:00.0,PmdMin,3.94,CHCGILDTO6Y
MA6813400180,h_OCHCTP,10-L1-9,2019-02-06 20:45:00.0,SoPmdAve,3496.65,CHCGILDTO6Y
MA6813400180,h_OCHCTP,10-L1-10,2019-02-06 20:15:00.0,Qmin,9.4,CHCGILDTO6Y
MA6813400180,h_OCHCTP,10-L1-10,2019-02-06 20:15:00.0,PhaseCorrectionAve,-0.183,CHCGILDTO6Y
MA6813400180,h_OCHCTP,10-L1-10,2019-02-06 20:15:00.0,BerPreFecMax,0.00158,CHCGILDTO6Y
MA6813400180,h_OCHCTP,10-L1-10,2019-02-06 20:15:00.0,PmdMin,8.81,CHCGILDTO6Y
MA6813400180,h_OCHCTP,10-L1-10,2019-02-06 20:15:00.0,SoPmdAve,3313.97,CHCGILDTO6Y
MA6813400180,h_OCHCTP,10-L1-10,2019-02-06 20:30:00.0,Qmin,9.4,CHCGILDTO6Y
MA6813400180,h_OCHCTP,10-L1-10,2019-02-06 20:30:00.0,PhaseCorrectionAve,-0.122,CHCGILDTO6Y
MA6813400180,h_OCHCTP,10-L1-10,2019-02-06 20:30:00.0,BerPreFecMax,0.00159,CHCGILDTO6Y
MA6813400180,h_OCHCTP,10-L1-10,2019-02-06 20:30:00.0,PmdMin,8.3,CHCGILDTO6Y
MA6813400180,h_OCHCTP,10-L1-10,2019-02-06 20:30:00.0,SoPmdAve,3298.69,CHCGILDTO6Y
MA6813400180,h_OCHCTP,10-L1-10,2019-02-06 20:45:00.0,Qmin,9.4,CHCGILDTO6Y
MA6813400180,h_OCHCTP,10-L1-10,2019-02-06 20:45:00.0,PhaseCorrectionAve,-0.122,CHCGILDTO6Y
MA6813400180,h_OCHCTP,10-L1-10,2019-02-06 20:45:00.0,BerPreFecMax,0.00158,CHCGILDTO6Y
MA6813400180,h_OCHCTP,10-L1-10,2019-02-06 20:45:00.0,PmdMin,11.93,CHCGILDTO6Y
MA6813400180,h_OCHCTP,10-L1-10,2019-02-06 20:45:00.0,SoPmdAve,3288.81,CHCGILDTO6Y
MA6813400180,h_OCHCTP,13-L1-1,2019-02-06 20:15:00.0,Qmin,9.05,CHCGILDTO6Y
MA6813400180,h_OCHCTP,13-L1-1,2019-02-06 20:15:00.0,PhaseCorrectionAve,2.84e-07,CHCGILDTO6Y
MA6813400180,h_OCHCTP,13-L1-1,2019-02-06 20:15:00.0,BerPreFecMax,0.0023,CHCGILDTO6Y
MA6813400180,h_OCHCTP,13-L1-1,2019-02-06 20:15:00.0,PmdMin,1.13,CHCGILDTO6Y
MA6813400180,h_OCHCTP,13-L1-1,2019-02-06 20:15:00.0,SoPmdAve,3475.85,CHCGILDTO6Y
MA6813400180,h_OCHCTP,13-L1-1,2019-02-06 20:30:00.0,Qmin,9.04,CHCGILDTO6Y
MA6813400180,h_OCHCTP,13-L1-1,2019-02-06 20:30:00.0,PhaseCorrectionAve,3.47e-07,CHCGILDTO6Y
MA6813400180,h_OCHCTP,13-L1-1,2019-02-06 20:30:00.0,BerPreFecMax,0.00232,CHCGILDTO6Y
MA6813400180,h_OCHCTP,13-L1-1,2019-02-06 20:30:00.0,PmdMin,0.813,CHCGILDTO6Y
MA6813400180,h_OCHCTP,13-L1-1,2019-02-06 20:30:00.0,SoPmdAve,3468.73,CHCGILDTO6Y
MA6813400180,h_OCHCTP,13-L1-1,2019-02-06 20:45:00.0,Qmin,9.06,CHCGILDTO6Y
MA6813400180,h_OCHCTP,13-L1-1,2019-02-06 20:45:00.0,PhaseCorrectionAve,3.03e-07,CHCGILDTO6Y
MA6813400180,h_OCHCTP,13-L1-1,2019-02-06 20:45:00.0,BerPreFecMax,0.00226,CHCGILDTO6Y
MA6813400180,h_OCHCTP,13-L1-1,2019-02-06 20:45:00.0,PmdMin,0.847,CHCGILDTO6Y
MA6813400180,h_OCHCTP,13-L1-1,2019-02-06 20:45:00.0,SoPmdAve,3520.45,CHCGILDTO6Y
MA6813400180,h_OCHCTP,13-L1-2,2019-02-06 20:15:00.0,Qmin,9.12,CHCGILDTO6Y
MA6813400180,h_OCHCTP,13-L1-2,2019-02-06 20:15:00.0,PhaseCorrectionAve,3.6e-07,CHCGILDTO6Y
MA6813400180,h_OCHCTP,13-L1-2,2019-02-06 20:15:00.0,BerPreFecMax,0.00214,CHCGILDTO6Y
MA6813400180,h_OCHCTP,13-L1-2,2019-02-06 20:15:00.0,PmdMin,0.393,CHCGILDTO6Y
MA6813400180,h_OCHCTP,13-L1-2,2019-02-06 20:15:00.0,SoPmdAve,3499.69,CHCGILDTO6Y
MA6813400180,h_OCHCTP,13-L1-2,2019-02-06 20:30:00.0,Qmin,9.06,CHCGILDTO6Y
MA6813400180,h_OCHCTP,13-L1-2,2019-02-06 20:30:00.0,PhaseCorrectionAve,3.59e-07,CHCGILDTO6Y
MA6813400180,h_OCHCTP,13-L1-2,2019-02-06 20:30:00.0,BerPreFecMax,0.00227,CHCGILDTO6Y
MA6813400180,h_OCHCTP,13-L1-2,2019-02-06 20:30:00.0,PmdMin,0.867,CHCGILDTO6Y
MA6813400180,h_OCHCTP,13-L1-2,2019-02-06 20:30:00.0,SoPmdAve,3470.56,CHCGILDTO6Y
MA6813400180,h_OCHCTP,13-L1-2,2019-02-06 20:45:00.0,Qmin,9.04,CHCGILDTO6Y
MA6813400180,h_OCHCTP,13-L1-2,2019-02-06 20:45:00.0,PhaseCorrectionAve,3.91e-07,CHCGILDTO6Y
MA6813400180,h_OCHCTP,13-L1-2,2019-02-06 20:45:00.0,BerPreFecMax,0.00232,CHCGILDTO6Y
MA6813400180,h_OCHCTP,13-L1-2,2019-02-06 20:45:00.0,PmdMin,1.13,CHCGILDTO6Y
MA6813400180,h_OCHCTP,13-L1-2,2019-02-06 20:45:00.0,SoPmdAve,3480.92,CHCGILDTO6Y
MA6813400180,h_OCHCTP,13-L1-3,2019-02-06 20:15:00.0,Qmin,8.94,CHCGILDTO6Y
MA6813400180,h_OCHCTP,13-L1-3,2019-02-06 20:15:00.0,PhaseCorrectionAve,-0.061,CHCGILDTO6Y
MA6813400180,h_OCHCTP,13-L1-3,2019-02-06 20:15:00.0,BerPreFecMax,0.00258,CHCGILDTO6Y
MA6813400180,h_OCHCTP,13-L1-3,2019-02-06 20:15:00.0,PmdMin,0.626,CHCGILDTO6Y
MA6813400180,h_OCHCTP,13-L1-3,2019-02-06 20:15:00.0,SoPmdAve,2874.79,CHCGILDTO6Y
MA6813400180,h_OCHCTP,13-L1-3,2019-02-06 20:30:00.0,Qmin,8.88,CHCGILDTO6Y
MA6813400180,h_OCHCTP,13-L1-3,2019-02-06 20:30:00.0,PhaseCorrectionAve,6.46e-07,CHCGILDTO6Y
MA6813400180,h_OCHCTP,13-L1-3,2019-02-06 20:30:00.0,BerPreFecMax,0.00272,CHCGILDTO6Y
MA6813400180,h_OCHCTP,13-L1-3,2019-02-06 20:30:00.0,PmdMin,0.957,CHCGILDTO6Y
MA6813400180,h_OCHCTP,13-L1-3,2019-02-06 20:30:00.0,SoPmdAve,2941.07,CHCGILDTO6Y
MA6813400180,h_OCHCTP,13-L1-3,2019-02-06 20:45:00.0,Qmin,8.85,CHCGILDTO6Y
MA6813400180,h_OCHCTP,13-L1-3,2019-02-06 20:45:00.0,PhaseCorrectionAve,-0.122,CHCGILDTO6Y
MA6813400180,h_OCHCTP,13-L1-3,2019-02-06 20:45:00.0,BerPreFecMax,0.00281,CHCGILDTO6Y
MA6813400180,h_OCHCTP,13-L1-3,2019-02-06 20:45:00.0,PmdMin,0.674,CHCGILDTO6Y
MA6813400180,h_OCHCTP,13-L1-3,2019-02-06 20:45:00.0,SoPmdAve,2907.54,CHCGILDTO6Y
MA6813400180,h_OCHCTP,13-L1-4,2019-02-06 20:15:00.0,Qmin,8.68,CHCGILDTO6Y
MA6813400180,h_OCHCTP,13-L1-4,2019-02-06 20:15:00.0,PhaseCorrectionAve,-0.122,CHCGILDTO6Y
MA6813400180,h_OCHCTP,13-L1-4,2019-02-06 20:15:00.0,BerPreFecMax,0.00329,CHCGILDTO6Y
MA6813400180,h_OCHCTP,13-L1-4,2019-02-06 20:15:00.0,PmdMin,0.903,CHCGILDTO6Y
MA6813400180,h_OCHCTP,13-L1-4,2019-02-06 20:15:00.0,SoPmdAve,3413.87,CHCGILDTO6Y
MA6813400180,h_OCHCTP,13-L1-4,2019-02-06 20:30:00.0,Qmin,8.61,CHCGILDTO6Y
MA6813400180,h_OCHCTP,13-L1-4,2019-02-06 20:30:00.0,PhaseCorrectionAve,8.08e-07,CHCGILDTO6Y
MA6813400180,h_OCHCTP,13-L1-4,2019-02-06 20:30:00.0,BerPreFecMax,0.00351,CHCGILDTO6Y
MA6813400180,h_OCHCTP,13-L1-4,2019-02-06 20:30:00.0,PmdMin,0.406,CHCGILDTO6Y
MA6813400180,h_OCHCTP,13-L1-4,2019-02-06 20:30:00.0,SoPmdAve,3467.77,CHCGILDTO6Y
MA6813400180,h_OCHCTP,13-L1-4,2019-02-06 20:45:00.0,Qmin,8.62,CHCGILDTO6Y
MA6813400180,h_OCHCTP,13-L1-4,2019-02-06 20:45:00.0,PhaseCorrectionAve,-0.122,CHCGILDTO6Y
MA6813400180,h_OCHCTP,13-L1-4,2019-02-06 20:45:00.0,BerPreFecMax,0.00348,CHCGILDTO6Y
MA6813400180,h_OCHCTP,13-L1-4,2019-02-06 20:45:00.0,PmdMin,0.837,CHCGILDTO6Y
MA6813400180,h_OCHCTP,13-L1-4,2019-02-06 20:45:00.0,SoPmdAve,3439.03,CHCGILDTO6Y
MA6813400180,h_OCHCTP,13-L1-5,2019-02-06 20:15:00.0,Qmin,8.56,CHCGILDTO6Y
MA6813400180,h_OCHCTP,13-L1-5,2019-02-06 20:15:00.0,PhaseCorrectionAve,-0.122,CHCGILDTO6Y
MA6813400180,h_OCHCTP,13-L1-5,2019-02-06 20:15:00.0,BerPreFecMax,0.00369,CHCGILDTO6Y
MA6813400180,h_OCHCTP,13-L1-5,2019-02-06 20:15:00.0,PmdMin,0.535,CHCGILDTO6Y
MA6813400180,h_OCHCTP,13-L1-5,2019-02-06 20:15:00.0,SoPmdAve,2821.99,CHCGILDTO6Y
MA6813400180,h_OCHCTP,13-L1-5,2019-02-06 20:30:00.0,Qmin,8.64,CHCGILDTO6Y
MA6813400180,h_OCHCTP,13-L1-5,2019-02-06 20:30:00.0,PhaseCorrectionAve,-0.061,CHCGILDTO6Y
MA6813400180,h_OCHCTP,13-L1-5,2019-02-06 20:30:00.0,BerPreFecMax,0.00342,CHCGILDTO6Y
MA6813400180,h_OCHCTP,13-L1-5,2019-02-06 20:30:00.0,PmdMin,0.925,CHCGILDTO6Y
MA6813400180,h_OCHCTP,13-L1-5,2019-02-06 20:30:00.0,SoPmdAve,2901.53,CHCGILDTO6Y
MA6813400180,h_OCHCTP,13-L1-5,2019-02-06 20:45:00.0,Qmin,8.67,CHCGILDTO6Y
MA6813400180,h_OCHCTP,13-L1-5,2019-02-06 20:45:00.0,PhaseCorrectionAve,-0.122,CHCGILDTO6Y
MA6813400180,h_OCHCTP,13-L1-5,2019-02-06 20:45:00.0,BerPreFecMax,0.00332,CHCGILDTO6Y
MA6813400180,h_OCHCTP,13-L1-5,2019-02-06 20:45:00.0,PmdMin,0.643,CHCGILDTO6Y
MA6813400180,h_OCHCTP,13-L1-5,2019-02-06 20:45:00.0,SoPmdAve,2798.3,CHCGILDTO6Y
MA6813400180,h_OCHCTP,13-L1-6,2019-02-06 20:15:00.0,Qmin,8.7,CHCGILDTO6Y
MA6813400180,h_OCHCTP,13-L1-6,2019-02-06 20:15:00.0,PhaseCorrectionAve,-0.122,CHCGILDTO6Y
MA6813400180,h_OCHCTP,13-L1-6,2019-02-06 20:15:00.0,BerPreFecMax,0.00324,CHCGILDTO6Y
MA6813400180,h_OCHCTP,13-L1-6,2019-02-06 20:15:00.0,PmdMin,0.834,CHCGILDTO6Y
MA6813400180,h_OCHCTP,13-L1-6,2019-02-06 20:15:00.0,SoPmdAve,3056.57,CHCGILDTO6Y
MA6813400180,h_OCHCTP,13-L1-6,2019-02-06 20:30:00.0,Qmin,8.78,CHCGILDTO6Y
MA6813400180,h_OCHCTP,13-L1-6,2019-02-06 20:30:00.0,PhaseCorrectionAve,-0.061,CHCGILDTO6Y
MA6813400180,h_OCHCTP,13-L1-6,2019-02-06 20:30:00.0,BerPreFecMax,0.00299,CHCGILDTO6Y
MA6813400180,h_OCHCTP,13-L1-6,2019-02-06 20:30:00.0,PmdMin,0.946,CHCGILDTO6Y
MA6813400180,h_OCHCTP,13-L1-6,2019-02-06 20:30:00.0,SoPmdAve,2996.63,CHCGILDTO6Y
MA6813400180,h_OCHCTP,13-L1-6,2019-02-06 20:45:00.0,Qmin,8.82,CHCGILDTO6Y
MA6813400180,h_OCHCTP,13-L1-6,2019-02-06 20:45:00.0,PhaseCorrectionAve,-0.183,CHCGILDTO6Y
MA6813400180,h_OCHCTP,13-L1-6,2019-02-06 20:45:00.0,BerPreFecMax,0.00289,CHCGILDTO6Y
MA6813400180,h_OCHCTP,13-L1-6,2019-02-06 20:45:00.0,PmdMin,1.01,CHCGILDTO6Y
MA6813400180,h_OCHCTP,13-L1-6,2019-02-06 20:45:00.0,SoPmdAve,3045.79,CHCGILDTO6Y
MA6813400180,h_OCHCTP,13-L1-7,2019-02-06 20:15:00.0,Qmin,8.79,CHCGILDTO6Y
MA6813400180,h_OCHCTP,13-L1-7,2019-02-06 20:15:00.0,PhaseCorrectionAve,-0.183,CHCGILDTO6Y
MA6813400180,h_OCHCTP,13-L1-7,2019-02-06 20:15:00.0,BerPreFecMax,0.00296,CHCGILDTO6Y
MA6813400180,h_OCHCTP,13-L1-7,2019-02-06 20:15:00.0,PmdMin,1.2,CHCGILDTO6Y
MA6813400180,h_OCHCTP,13-L1-7,2019-02-06 20:15:00.0,SoPmdAve,3619.36,CHCGILDTO6Y
MA6813400180,h_OCHCTP,13-L1-7,2019-02-06 20:30:00.0,Qmin,8.75,CHCGILDTO6Y
MA6813400180,h_OCHCTP,13-L1-7,2019-02-06 20:30:00.0,PhaseCorrectionAve,-0.061,CHCGILDTO6Y
MA6813400180,h_OCHCTP,13-L1-7,2019-02-06 20:30:00.0,BerPreFecMax,0.00308,CHCGILDTO6Y
MA6813400180,h_OCHCTP,13-L1-7,2019-02-06 20:30:00.0,PmdMin,0.948,CHCGILDTO6Y
MA6813400180,h_OCHCTP,13-L1-7,2019-02-06 20:30:00.0,SoPmdAve,3657.91,CHCGILDTO6Y
MA6813400180,h_OCHCTP,13-L1-7,2019-02-06 20:45:00.0,Qmin,8.73,CHCGILDTO6Y
MA6813400180,h_OCHCTP,13-L1-7,2019-02-06 20:45:00.0,PhaseCorrectionAve,-0.183,CHCGILDTO6Y
MA6813400180,h_OCHCTP,13-L1-7,2019-02-06 20:45:00.0,BerPreFecMax,0.00313,CHCGILDTO6Y
MA6813400180,h_OCHCTP,13-L1-7,2019-02-06 20:45:00.0,PmdMin,1.57,CHCGILDTO6Y
MA6813400180,h_OCHCTP,13-L1-7,2019-02-06 20:45:00.0,SoPmdAve,3680.54,CHCGILDTO6Y
MA6813400180,h_OCHCTP,13-L1-8,2019-02-06 20:15:00.0,Qmin,8.71,CHCGILDTO6Y
MA6813400180,h_OCHCTP,13-L1-8,2019-02-06 20:15:00.0,PhaseCorrectionAve,-0.305,CHCGILDTO6Y
MA6813400180,h_OCHCTP,13-L1-8,2019-02-06 20:15:00.0,BerPreFecMax,0.0032,CHCGILDTO6Y
MA6813400180,h_OCHCTP,13-L1-8,2019-02-06 20:15:00.0,PmdMin,0.907,CHCGILDTO6Y
MA6813400180,h_OCHCTP,13-L1-8,2019-02-06 20:15:00.0,SoPmdAve,3694.98,CHCGILDTO6Y
MA6813400180,h_OCHCTP,13-L1-8,2019-02-06 20:30:00.0,Qmin,8.81,CHCGILDTO6Y
MA6813400180,h_OCHCTP,13-L1-8,2019-02-06 20:30:00.0,PhaseCorrectionAve,-0.061,CHCGILDTO6Y
MA6813400180,h_OCHCTP,13-L1-8,2019-02-06 20:30:00.0,BerPreFecMax,0.00293,CHCGILDTO6Y
MA6813400180,h_OCHCTP,13-L1-8,2019-02-06 20:30:00.0,PmdMin,0.877,CHCGILDTO6Y
MA6813400180,h_OCHCTP,13-L1-8,2019-02-06 20:30:00.0,SoPmdAve,3804.04,CHCGILDTO6Y
MA6813400180,h_OCHCTP,13-L1-8,2019-02-06 20:45:00.0,Qmin,8.77,CHCGILDTO6Y
MA6813400180,h_OCHCTP,13-L1-8,2019-02-06 20:45:00.0,PhaseCorrectionAve,-0.183,CHCGILDTO6Y
MA6813400180,h_OCHCTP,13-L1-8,2019-02-06 20:45:00.0,BerPreFecMax,0.00304,CHCGILDTO6Y
MA6813400180,h_OCHCTP,13-L1-8,2019-02-06 20:45:00.0,PmdMin,0.815,CHCGILDTO6Y
MA6813400180,h_OCHCTP,13-L1-8,2019-02-06 20:45:00.0,SoPmdAve,3678.07,CHCGILDTO6Y
MA6813400180,h_OCHCTP,13-L1-9,2019-02-06 20:15:00.0,Qmin,8.67,CHCGILDTO6Y
MA6813400180,h_OCHCTP,13-L1-9,2019-02-06 20:15:00.0,PhaseCorrectionAve,-0.366,CHCGILDTO6Y
MA6813400180,h_OCHCTP,13-L1-9,2019-02-06 20:15:00.0,BerPreFecMax,0.00333,CHCGILDTO6Y
MA6813400180,h_OCHCTP,13-L1-9,2019-02-06 20:15:00.0,PmdMin,0.818,CHCGILDTO6Y
MA6813400180,h_OCHCTP,13-L1-9,2019-02-06 20:15:00.0,SoPmdAve,3562.73,CHCGILDTO6Y
MA6813400180,h_OCHCTP,13-L1-9,2019-02-06 20:30:00.0,Qmin,8.75,CHCGILDTO6Y
MA6813400180,h_OCHCTP,13-L1-9,2019-02-06 20:30:00.0,PhaseCorrectionAve,-0.061,CHCGILDTO6Y
MA6813400180,h_OCHCTP,13-L1-9,2019-02-06 20:30:00.0,BerPreFecMax,0.00309,CHCGILDTO6Y
MA6813400180,h_OCHCTP,13-L1-9,2019-02-06 20:30:00.0,PmdMin,0.857,CHCGILDTO6Y
MA6813400180,h_OCHCTP,13-L1-9,2019-02-06 20:30:00.0,SoPmdAve,3510.25,CHCGILDTO6Y
MA6813400180,h_OCHCTP,13-L1-9,2019-02-06 20:45:00.0,Qmin,8.77,CHCGILDTO6Y
MA6813400180,h_OCHCTP,13-L1-9,2019-02-06 20:45:00.0,PhaseCorrectionAve,-0.183,CHCGILDTO6Y
MA6813400180,h_OCHCTP,13-L1-9,2019-02-06 20:45:00.0,BerPreFecMax,0.00304,CHCGILDTO6Y
MA6813400180,h_OCHCTP,13-L1-9,2019-02-06 20:45:00.0,PmdMin,1.05,CHCGILDTO6Y
MA6813400180,h_OCHCTP,13-L1-9,2019-02-06 20:45:00.0,SoPmdAve,3508.31,CHCGILDTO6Y
MA6813400180,h_OCHCTP,13-L1-10,2019-02-06 20:15:00.0,Qmin,8.54,CHCGILDTO6Y
MA6813400180,h_OCHCTP,13-L1-10,2019-02-06 20:15:00.0,PhaseCorrectionAve,-0.366,CHCGILDTO6Y
MA6813400180,h_OCHCTP,13-L1-10,2019-02-06 20:15:00.0,BerPreFecMax,0.00376,CHCGILDTO6Y
MA6813400180,h_OCHCTP,13-L1-10,2019-02-06 20:15:00.0,PmdMin,0.843,CHCGILDTO6Y
MA6813400180,h_OCHCTP,13-L1-10,2019-02-06 20:15:00.0,SoPmdAve,3835.45,CHCGILDTO6Y
MA6813400180,h_OCHCTP,13-L1-10,2019-02-06 20:30:00.0,Qmin,8.54,CHCGILDTO6Y
MA6813400180,h_OCHCTP,13-L1-10,2019-02-06 20:30:00.0,PhaseCorrectionAve,-0.061,CHCGILDTO6Y
MA6813400180,h_OCHCTP,13-L1-10,2019-02-06 20:30:00.0,BerPreFecMax,0.00376,CHCGILDTO6Y
MA6813400180,h_OCHCTP,13-L1-10,2019-02-06 20:30:00.0,PmdMin,1.02,CHCGILDTO6Y
MA6813400180,h_OCHCTP,13-L1-10,2019-02-06 20:30:00.0,SoPmdAve,3891.18,CHCGILDTO6Y
MA6813400180,h_OCHCTP,13-L1-10,2019-02-06 20:45:00.0,Qmin,8.47,CHCGILDTO6Y
MA6813400180,h_OCHCTP,13-L1-10,2019-02-06 20:45:00.0,PhaseCorrectionAve,-0.183,CHCGILDTO6Y
MA6813400180,h_OCHCTP,13-L1-10,2019-02-06 20:45:00.0,BerPreFecMax,0.004,CHCGILDTO6Y
MA6813400180,h_OCHCTP,13-L1-10,2019-02-06 20:45:00.0,PmdMin,1.15,CHCGILDTO6Y
MA6813400180,h_OCHCTP,13-L1-10,2019-02-06 20:45:00.0,SoPmdAve,3852.34,CHCGILDTO6Y
