MA6813400180,h_OCHCTP,11-L1-1,2019-01-25 02:15:00.0,Qmin,9.19,CHCGILDTO6Y
MA6813400180,h_OCHCTP,11-L1-1,2019-01-25 02:15:00.0,PhaseCorrectionAve,9.47e-08,CHCGILDTO6Y
MA6813400180,h_OCHCTP,11-L1-1,2019-01-25 02:15:00.0,BerPreFecMax,0.00199,CHCGILDTO6Y
MA6813400180,h_OCHCTP,11-L1-1,2019-01-25 02:15:00.0,PmdMin,1.01,CHCGILDTO6Y
MA6813400180,h_OCHCTP,11-L1-1,2019-01-25 02:15:00.0,SoPmdAve,3396.98,CHCGILDTO6Y
MA6813400180,h_OCHCTP,11-L1-1,2019-01-25 02:30:00.0,Qmin,9.17,CHCGILDTO6Y
MA6813400180,h_OCHCTP,11-L1-1,2019-01-25 02:30:00.0,PhaseCorrectionAve,8.88e-08,CHCGILDTO6Y
MA6813400180,h_OCHCTP,11-L1-1,2019-01-25 02:30:00.0,BerPreFecMax,0.00202,CHCGILDTO6Y
MA6813400180,h_OCHCTP,11-L1-1,2019-01-25 02:30:00.0,PmdMin,1.19,CHCGILDTO6Y
MA6813400180,h_OCHCTP,11-L1-1,2019-01-25 02:30:00.0,SoPmdAve,3404.26,CHCGILDTO6Y
MA6813400180,h_OCHCTP,11-L1-1,2019-01-25 02:45:00.0,Qmin,9.14,CHCGILDTO6Y
MA6813400180,h_OCHCTP,11-L1-1,2019-01-25 02:45:00.0,PhaseCorrectionAve,1.06e-07,CHCGILDTO6Y
MA6813400180,h_OCHCTP,11-L1-1,2019-01-25 02:45:00.0,BerPreFecMax,0.00209,CHCGILDTO6Y
MA6813400180,h_OCHCTP,11-L1-1,2019-01-25 02:45:00.0,PmdMin,1.42,CHCGILDTO6Y
MA6813400180,h_OCHCTP,11-L1-1,2019-01-25 02:45:00.0,SoPmdAve,3471.23,CHCGILDTO6Y
MA6813400180,h_OCHCTP,11-L1-2,2019-01-25 02:15:00.0,Qmin,9.11,CHCGILDTO6Y
MA6813400180,h_OCHCTP,11-L1-2,2019-01-25 02:15:00.0,PhaseCorrectionAve,2.67e-07,CHCGILDTO6Y
MA6813400180,h_OCHCTP,11-L1-2,2019-01-25 02:15:00.0,BerPreFecMax,0.00215,CHCGILDTO6Y
MA6813400180,h_OCHCTP,11-L1-2,2019-01-25 02:15:00.0,PmdMin,0.98,CHCGILDTO6Y
MA6813400180,h_OCHCTP,11-L1-2,2019-01-25 02:15:00.0,SoPmdAve,3112.29,CHCGILDTO6Y
MA6813400180,h_OCHCTP,11-L1-2,2019-01-25 02:30:00.0,Qmin,9.11,CHCGILDTO6Y
MA6813400180,h_OCHCTP,11-L1-2,2019-01-25 02:30:00.0,PhaseCorrectionAve,-0.061,CHCGILDTO6Y
MA6813400180,h_OCHCTP,11-L1-2,2019-01-25 02:30:00.0,BerPreFecMax,0.00216,CHCGILDTO6Y
MA6813400180,h_OCHCTP,11-L1-2,2019-01-25 02:30:00.0,PmdMin,0.952,CHCGILDTO6Y
MA6813400180,h_OCHCTP,11-L1-2,2019-01-25 02:30:00.0,SoPmdAve,3167.69,CHCGILDTO6Y
MA6813400180,h_OCHCTP,11-L1-2,2019-01-25 02:45:00.0,Qmin,9.05,CHCGILDTO6Y
MA6813400180,h_OCHCTP,11-L1-2,2019-01-25 02:45:00.0,PhaseCorrectionAve,3.15e-07,CHCGILDTO6Y
MA6813400180,h_OCHCTP,11-L1-2,2019-01-25 02:45:00.0,BerPreFecMax,0.00229,CHCGILDTO6Y
MA6813400180,h_OCHCTP,11-L1-2,2019-01-25 02:45:00.0,PmdMin,1.03,CHCGILDTO6Y
MA6813400180,h_OCHCTP,11-L1-2,2019-01-25 02:45:00.0,SoPmdAve,3209.93,CHCGILDTO6Y
MA6813400180,h_OCHCTP,11-L1-3,2019-01-25 02:15:00.0,Qmin,9.0,CHCGILDTO6Y
MA6813400180,h_OCHCTP,11-L1-3,2019-01-25 02:15:00.0,PhaseCorrectionAve,-0.061,CHCGILDTO6Y
MA6813400180,h_OCHCTP,11-L1-3,2019-01-25 02:15:00.0,BerPreFecMax,0.00242,CHCGILDTO6Y
MA6813400180,h_OCHCTP,11-L1-3,2019-01-25 02:15:00.0,PmdMin,1.3,CHCGILDTO6Y
MA6813400180,h_OCHCTP,11-L1-3,2019-01-25 02:15:00.0,SoPmdAve,2787.5,CHCGILDTO6Y
MA6813400180,h_OCHCTP,11-L1-3,2019-01-25 02:30:00.0,Qmin,8.98,CHCGILDTO6Y
MA6813400180,h_OCHCTP,11-L1-3,2019-01-25 02:30:00.0,PhaseCorrectionAve,-0.122,CHCGILDTO6Y
MA6813400180,h_OCHCTP,11-L1-3,2019-01-25 02:30:00.0,BerPreFecMax,0.00246,CHCGILDTO6Y
MA6813400180,h_OCHCTP,11-L1-3,2019-01-25 02:30:00.0,PmdMin,0.608,CHCGILDTO6Y
MA6813400180,h_OCHCTP,11-L1-3,2019-01-25 02:30:00.0,SoPmdAve,2731.05,CHCGILDTO6Y
MA6813400180,h_OCHCTP,11-L1-3,2019-01-25 02:45:00.0,Qmin,8.97,CHCGILDTO6Y
MA6813400180,h_OCHCTP,11-L1-3,2019-01-25 02:45:00.0,PhaseCorrectionAve,3.07e-07,CHCGILDTO6Y
MA6813400180,h_OCHCTP,11-L1-3,2019-01-25 02:45:00.0,BerPreFecMax,0.0025,CHCGILDTO6Y
MA6813400180,h_OCHCTP,11-L1-3,2019-01-25 02:45:00.0,PmdMin,0.726,CHCGILDTO6Y
MA6813400180,h_OCHCTP,11-L1-3,2019-01-25 02:45:00.0,SoPmdAve,2659.0,CHCGILDTO6Y
MA6813400180,h_OCHCTP,11-L1-4,2019-01-25 02:15:00.0,Qmin,8.78,CHCGILDTO6Y
MA6813400180,h_OCHCTP,11-L1-4,2019-01-25 02:15:00.0,PhaseCorrectionAve,-0.061,CHCGILDTO6Y
MA6813400180,h_OCHCTP,11-L1-4,2019-01-25 02:15:00.0,BerPreFecMax,0.00299,CHCGILDTO6Y
MA6813400180,h_OCHCTP,11-L1-4,2019-01-25 02:15:00.0,PmdMin,1.19,CHCGILDTO6Y
MA6813400180,h_OCHCTP,11-L1-4,2019-01-25 02:15:00.0,SoPmdAve,2949.44,CHCGILDTO6Y
MA6813400180,h_OCHCTP,11-L1-4,2019-01-25 02:30:00.0,Qmin,8.78,CHCGILDTO6Y
MA6813400180,h_OCHCTP,11-L1-4,2019-01-25 02:30:00.0,PhaseCorrectionAve,-0.122,CHCGILDTO6Y
MA6813400180,h_OCHCTP,11-L1-4,2019-01-25 02:30:00.0,BerPreFecMax,0.00299,CHCGILDTO6Y
MA6813400180,h_OCHCTP,11-L1-4,2019-01-25 02:30:00.0,PmdMin,1.13,CHCGILDTO6Y
MA6813400180,h_OCHCTP,11-L1-4,2019-01-25 02:30:00.0,SoPmdAve,2964.61,CHCGILDTO6Y
MA6813400180,h_OCHCTP,11-L1-4,2019-01-25 02:45:00.0,Qmin,8.78,CHCGILDTO6Y
MA6813400180,h_OCHCTP,11-L1-4,2019-01-25 02:45:00.0,PhaseCorrectionAve,-0.061,CHCGILDTO6Y
MA6813400180,h_OCHCTP,11-L1-4,2019-01-25 02:45:00.0,BerPreFecMax,0.00299,CHCGILDTO6Y
MA6813400180,h_OCHCTP,11-L1-4,2019-01-25 02:45:00.0,PmdMin,0.6,CHCGILDTO6Y
MA6813400180,h_OCHCTP,11-L1-4,2019-01-25 02:45:00.0,SoPmdAve,2945.04,CHCGILDTO6Y
MA6813400180,h_OCHCTP,11-L1-5,2019-01-25 02:15:00.0,Qmin,8.83,CHCGILDTO6Y
MA6813400180,h_OCHCTP,11-L1-5,2019-01-25 02:15:00.0,PhaseCorrectionAve,-0.122,CHCGILDTO6Y
MA6813400180,h_OCHCTP,11-L1-5,2019-01-25 02:15:00.0,BerPreFecMax,0.00286,CHCGILDTO6Y
MA6813400180,h_OCHCTP,11-L1-5,2019-01-25 02:15:00.0,PmdMin,0.211,CHCGILDTO6Y
MA6813400180,h_OCHCTP,11-L1-5,2019-01-25 02:15:00.0,SoPmdAve,2576.72,CHCGILDTO6Y
MA6813400180,h_OCHCTP,11-L1-5,2019-01-25 02:30:00.0,Qmin,8.72,CHCGILDTO6Y
MA6813400180,h_OCHCTP,11-L1-5,2019-01-25 02:30:00.0,PhaseCorrectionAve,-0.122,CHCGILDTO6Y
MA6813400180,h_OCHCTP,11-L1-5,2019-01-25 02:30:00.0,BerPreFecMax,0.00317,CHCGILDTO6Y
MA6813400180,h_OCHCTP,11-L1-5,2019-01-25 02:30:00.0,PmdMin,0.284,CHCGILDTO6Y
MA6813400180,h_OCHCTP,11-L1-5,2019-01-25 02:30:00.0,SoPmdAve,2569.44,CHCGILDTO6Y
MA6813400180,h_OCHCTP,11-L1-5,2019-01-25 02:45:00.0,Qmin,8.76,CHCGILDTO6Y
MA6813400180,h_OCHCTP,11-L1-5,2019-01-25 02:45:00.0,PhaseCorrectionAve,-0.061,CHCGILDTO6Y
MA6813400180,h_OCHCTP,11-L1-5,2019-01-25 02:45:00.0,BerPreFecMax,0.00306,CHCGILDTO6Y
MA6813400180,h_OCHCTP,11-L1-5,2019-01-25 02:45:00.0,PmdMin,0.951,CHCGILDTO6Y
MA6813400180,h_OCHCTP,11-L1-5,2019-01-25 02:45:00.0,SoPmdAve,2545.98,CHCGILDTO6Y
MA6813400180,h_OCHCTP,11-L1-6,2019-01-25 02:15:00.0,Qmin,8.77,CHCGILDTO6Y
MA6813400180,h_OCHCTP,11-L1-6,2019-01-25 02:15:00.0,PhaseCorrectionAve,-0.183,CHCGILDTO6Y
MA6813400180,h_OCHCTP,11-L1-6,2019-01-25 02:15:00.0,BerPreFecMax,0.00303,CHCGILDTO6Y
MA6813400180,h_OCHCTP,11-L1-6,2019-01-25 02:15:00.0,PmdMin,0.862,CHCGILDTO6Y
MA6813400180,h_OCHCTP,11-L1-6,2019-01-25 02:15:00.0,SoPmdAve,2561.57,CHCGILDTO6Y
MA6813400180,h_OCHCTP,11-L1-6,2019-01-25 02:30:00.0,Qmin,8.74,CHCGILDTO6Y
MA6813400180,h_OCHCTP,11-L1-6,2019-01-25 02:30:00.0,PhaseCorrectionAve,-0.122,CHCGILDTO6Y
MA6813400180,h_OCHCTP,11-L1-6,2019-01-25 02:30:00.0,BerPreFecMax,0.00312,CHCGILDTO6Y
MA6813400180,h_OCHCTP,11-L1-6,2019-01-25 02:30:00.0,PmdMin,0.636,CHCGILDTO6Y
MA6813400180,h_OCHCTP,11-L1-6,2019-01-25 02:30:00.0,SoPmdAve,2543.66,CHCGILDTO6Y
MA6813400180,h_OCHCTP,11-L1-6,2019-01-25 02:45:00.0,Qmin,8.75,CHCGILDTO6Y
MA6813400180,h_OCHCTP,11-L1-6,2019-01-25 02:45:00.0,PhaseCorrectionAve,-0.061,CHCGILDTO6Y
MA6813400180,h_OCHCTP,11-L1-6,2019-01-25 02:45:00.0,BerPreFecMax,0.00307,CHCGILDTO6Y
MA6813400180,h_OCHCTP,11-L1-6,2019-01-25 02:45:00.0,PmdMin,0.877,CHCGILDTO6Y
MA6813400180,h_OCHCTP,11-L1-6,2019-01-25 02:45:00.0,SoPmdAve,2513.92,CHCGILDTO6Y
MA6813400180,h_OCHCTP,11-L1-7,2019-01-25 02:15:00.0,Qmin,8.79,CHCGILDTO6Y
MA6813400180,h_OCHCTP,11-L1-7,2019-01-25 02:15:00.0,PhaseCorrectionAve,-0.183,CHCGILDTO6Y
MA6813400180,h_OCHCTP,11-L1-7,2019-01-25 02:15:00.0,BerPreFecMax,0.00298,CHCGILDTO6Y
MA6813400180,h_OCHCTP,11-L1-7,2019-01-25 02:15:00.0,PmdMin,0.654,CHCGILDTO6Y
MA6813400180,h_OCHCTP,11-L1-7,2019-01-25 02:15:00.0,SoPmdAve,3002.36,CHCGILDTO6Y
MA6813400180,h_OCHCTP,11-L1-7,2019-01-25 02:30:00.0,Qmin,8.84,CHCGILDTO6Y
MA6813400180,h_OCHCTP,11-L1-7,2019-01-25 02:30:00.0,PhaseCorrectionAve,-0.122,CHCGILDTO6Y
MA6813400180,h_OCHCTP,11-L1-7,2019-01-25 02:30:00.0,BerPreFecMax,0.00283,CHCGILDTO6Y
MA6813400180,h_OCHCTP,11-L1-7,2019-01-25 02:30:00.0,PmdMin,0.822,CHCGILDTO6Y
MA6813400180,h_OCHCTP,11-L1-7,2019-01-25 02:30:00.0,SoPmdAve,3001.67,CHCGILDTO6Y
MA6813400180,h_OCHCTP,11-L1-7,2019-01-25 02:45:00.0,Qmin,8.89,CHCGILDTO6Y
MA6813400180,h_OCHCTP,11-L1-7,2019-01-25 02:45:00.0,PhaseCorrectionAve,-0.061,CHCGILDTO6Y
MA6813400180,h_OCHCTP,11-L1-7,2019-01-25 02:45:00.0,BerPreFecMax,0.00269,CHCGILDTO6Y
MA6813400180,h_OCHCTP,11-L1-7,2019-01-25 02:45:00.0,PmdMin,0.372,CHCGILDTO6Y
MA6813400180,h_OCHCTP,11-L1-7,2019-01-25 02:45:00.0,SoPmdAve,3021.82,CHCGILDTO6Y
MA6813400180,h_OCHCTP,11-L1-8,2019-01-25 02:15:00.0,Qmin,8.91,CHCGILDTO6Y
MA6813400180,h_OCHCTP,11-L1-8,2019-01-25 02:15:00.0,PhaseCorrectionAve,-0.305,CHCGILDTO6Y
MA6813400180,h_OCHCTP,11-L1-8,2019-01-25 02:15:00.0,BerPreFecMax,0.00263,CHCGILDTO6Y
MA6813400180,h_OCHCTP,11-L1-8,2019-01-25 02:15:00.0,PmdMin,0.928,CHCGILDTO6Y
MA6813400180,h_OCHCTP,11-L1-8,2019-01-25 02:15:00.0,SoPmdAve,3094.06,CHCGILDTO6Y
MA6813400180,h_OCHCTP,11-L1-8,2019-01-25 02:30:00.0,Qmin,8.92,CHCGILDTO6Y
MA6813400180,h_OCHCTP,11-L1-8,2019-01-25 02:30:00.0,PhaseCorrectionAve,-0.122,CHCGILDTO6Y
MA6813400180,h_OCHCTP,11-L1-8,2019-01-25 02:30:00.0,BerPreFecMax,0.00262,CHCGILDTO6Y
MA6813400180,h_OCHCTP,11-L1-8,2019-01-25 02:30:00.0,PmdMin,1.08,CHCGILDTO6Y
MA6813400180,h_OCHCTP,11-L1-8,2019-01-25 02:30:00.0,SoPmdAve,3094.8,CHCGILDTO6Y
MA6813400180,h_OCHCTP,11-L1-8,2019-01-25 02:45:00.0,Qmin,8.88,CHCGILDTO6Y
MA6813400180,h_OCHCTP,11-L1-8,2019-01-25 02:45:00.0,PhaseCorrectionAve,-0.122,CHCGILDTO6Y
MA6813400180,h_OCHCTP,11-L1-8,2019-01-25 02:45:00.0,BerPreFecMax,0.00272,CHCGILDTO6Y
MA6813400180,h_OCHCTP,11-L1-8,2019-01-25 02:45:00.0,PmdMin,1.25,CHCGILDTO6Y
MA6813400180,h_OCHCTP,11-L1-8,2019-01-25 02:45:00.0,SoPmdAve,3131.42,CHCGILDTO6Y
MA6813400180,h_OCHCTP,11-L1-9,2019-01-25 02:15:00.0,Qmin,8.84,CHCGILDTO6Y
MA6813400180,h_OCHCTP,11-L1-9,2019-01-25 02:15:00.0,PhaseCorrectionAve,-0.305,CHCGILDTO6Y
MA6813400180,h_OCHCTP,11-L1-9,2019-01-25 02:15:00.0,BerPreFecMax,0.00283,CHCGILDTO6Y
MA6813400180,h_OCHCTP,11-L1-9,2019-01-25 02:15:00.0,PmdMin,0.751,CHCGILDTO6Y
MA6813400180,h_OCHCTP,11-L1-9,2019-01-25 02:15:00.0,SoPmdAve,3165.9,CHCGILDTO6Y
MA6813400180,h_OCHCTP,11-L1-9,2019-01-25 02:30:00.0,Qmin,8.76,CHCGILDTO6Y
MA6813400180,h_OCHCTP,11-L1-9,2019-01-25 02:30:00.0,PhaseCorrectionAve,-0.122,CHCGILDTO6Y
MA6813400180,h_OCHCTP,11-L1-9,2019-01-25 02:30:00.0,BerPreFecMax,0.00304,CHCGILDTO6Y
MA6813400180,h_OCHCTP,11-L1-9,2019-01-25 02:30:00.0,PmdMin,0.665,CHCGILDTO6Y
MA6813400180,h_OCHCTP,11-L1-9,2019-01-25 02:30:00.0,SoPmdAve,3055.76,CHCGILDTO6Y
MA6813400180,h_OCHCTP,11-L1-9,2019-01-25 02:45:00.0,Qmin,8.85,CHCGILDTO6Y
MA6813400180,h_OCHCTP,11-L1-9,2019-01-25 02:45:00.0,PhaseCorrectionAve,-0.122,CHCGILDTO6Y
MA6813400180,h_OCHCTP,11-L1-9,2019-01-25 02:45:00.0,BerPreFecMax,0.00281,CHCGILDTO6Y
MA6813400180,h_OCHCTP,11-L1-9,2019-01-25 02:45:00.0,PmdMin,0.64,CHCGILDTO6Y
MA6813400180,h_OCHCTP,11-L1-9,2019-01-25 02:45:00.0,SoPmdAve,3056.98,CHCGILDTO6Y
MA6813400180,h_OCHCTP,11-L1-10,2019-01-25 02:15:00.0,Qmin,8.99,CHCGILDTO6Y
MA6813400180,h_OCHCTP,11-L1-10,2019-01-25 02:15:00.0,PhaseCorrectionAve,-0.305,CHCGILDTO6Y
MA6813400180,h_OCHCTP,11-L1-10,2019-01-25 02:15:00.0,BerPreFecMax,0.00244,CHCGILDTO6Y
MA6813400180,h_OCHCTP,11-L1-10,2019-01-25 02:15:00.0,PmdMin,0.999,CHCGILDTO6Y
MA6813400180,h_OCHCTP,11-L1-10,2019-01-25 02:15:00.0,SoPmdAve,3044.1,CHCGILDTO6Y
MA6813400180,h_OCHCTP,11-L1-10,2019-01-25 02:30:00.0,Qmin,8.98,CHCGILDTO6Y
MA6813400180,h_OCHCTP,11-L1-10,2019-01-25 02:30:00.0,PhaseCorrectionAve,-0.183,CHCGILDTO6Y
MA6813400180,h_OCHCTP,11-L1-10,2019-01-25 02:30:00.0,BerPreFecMax,0.00246,CHCGILDTO6Y
MA6813400180,h_OCHCTP,11-L1-10,2019-01-25 02:30:00.0,PmdMin,1.42,CHCGILDTO6Y
MA6813400180,h_OCHCTP,11-L1-10,2019-01-25 02:30:00.0,SoPmdAve,3004.91,CHCGILDTO6Y
MA6813400180,h_OCHCTP,11-L1-10,2019-01-25 02:45:00.0,Qmin,9.03,CHCGILDTO6Y
MA6813400180,h_OCHCTP,11-L1-10,2019-01-25 02:45:00.0,PhaseCorrectionAve,-0.122,CHCGILDTO6Y
MA6813400180,h_OCHCTP,11-L1-10,2019-01-25 02:45:00.0,BerPreFecMax,0.00233,CHCGILDTO6Y
MA6813400180,h_OCHCTP,11-L1-10,2019-01-25 02:45:00.0,PmdMin,0.274,CHCGILDTO6Y
MA6813400180,h_OCHCTP,11-L1-10,2019-01-25 02:45:00.0,SoPmdAve,3033.37,CHCGILDTO6Y
MA6813400180,h_OCHCTP,10-L1-1,2019-01-25 02:15:00.0,Qmin,9.38,CHCGILDTO6Y
MA6813400180,h_OCHCTP,10-L1-1,2019-01-25 02:15:00.0,PhaseCorrectionAve,4.15e-07,CHCGILDTO6Y
MA6813400180,h_OCHCTP,10-L1-1,2019-01-25 02:15:00.0,BerPreFecMax,0.00163,CHCGILDTO6Y
MA6813400180,h_OCHCTP,10-L1-1,2019-01-25 02:15:00.0,PmdMin,1.48,CHCGILDTO6Y
MA6813400180,h_OCHCTP,10-L1-1,2019-01-25 02:15:00.0,SoPmdAve,3329.24,CHCGILDTO6Y
MA6813400180,h_OCHCTP,10-L1-1,2019-01-25 02:30:00.0,Qmin,9.39,CHCGILDTO6Y
MA6813400180,h_OCHCTP,10-L1-1,2019-01-25 02:30:00.0,PhaseCorrectionAve,4.09e-07,CHCGILDTO6Y
MA6813400180,h_OCHCTP,10-L1-1,2019-01-25 02:30:00.0,BerPreFecMax,0.0016,CHCGILDTO6Y
MA6813400180,h_OCHCTP,10-L1-1,2019-01-25 02:30:00.0,PmdMin,3.23,CHCGILDTO6Y
MA6813400180,h_OCHCTP,10-L1-1,2019-01-25 02:30:00.0,SoPmdAve,3272.68,CHCGILDTO6Y
MA6813400180,h_OCHCTP,10-L1-1,2019-01-25 02:45:00.0,Qmin,9.39,CHCGILDTO6Y
MA6813400180,h_OCHCTP,10-L1-1,2019-01-25 02:45:00.0,PhaseCorrectionAve,3.55e-07,CHCGILDTO6Y
MA6813400180,h_OCHCTP,10-L1-1,2019-01-25 02:45:00.0,BerPreFecMax,0.00161,CHCGILDTO6Y
MA6813400180,h_OCHCTP,10-L1-1,2019-01-25 02:45:00.0,PmdMin,2.5,CHCGILDTO6Y
MA6813400180,h_OCHCTP,10-L1-1,2019-01-25 02:45:00.0,SoPmdAve,3298.39,CHCGILDTO6Y
MA6813400180,h_OCHCTP,10-L1-2,2019-01-25 02:15:00.0,Qmin,9.09,CHCGILDTO6Y
MA6813400180,h_OCHCTP,10-L1-2,2019-01-25 02:15:00.0,PhaseCorrectionAve,3.78e-07,CHCGILDTO6Y
MA6813400180,h_OCHCTP,10-L1-2,2019-01-25 02:15:00.0,BerPreFecMax,0.00219,CHCGILDTO6Y
MA6813400180,h_OCHCTP,10-L1-2,2019-01-25 02:15:00.0,PmdMin,0.73,CHCGILDTO6Y
MA6813400180,h_OCHCTP,10-L1-2,2019-01-25 02:15:00.0,SoPmdAve,3407.54,CHCGILDTO6Y
MA6813400180,h_OCHCTP,10-L1-2,2019-01-25 02:30:00.0,Qmin,9.09,CHCGILDTO6Y
MA6813400180,h_OCHCTP,10-L1-2,2019-01-25 02:30:00.0,PhaseCorrectionAve,4.01e-07,CHCGILDTO6Y
MA6813400180,h_OCHCTP,10-L1-2,2019-01-25 02:30:00.0,BerPreFecMax,0.00221,CHCGILDTO6Y
MA6813400180,h_OCHCTP,10-L1-2,2019-01-25 02:30:00.0,PmdMin,0.754,CHCGILDTO6Y
MA6813400180,h_OCHCTP,10-L1-2,2019-01-25 02:30:00.0,SoPmdAve,3408.51,CHCGILDTO6Y
MA6813400180,h_OCHCTP,10-L1-2,2019-01-25 02:45:00.0,Qmin,9.08,CHCGILDTO6Y
MA6813400180,h_OCHCTP,10-L1-2,2019-01-25 02:45:00.0,PhaseCorrectionAve,-0.061,CHCGILDTO6Y
MA6813400180,h_OCHCTP,10-L1-2,2019-01-25 02:45:00.0,BerPreFecMax,0.00222,CHCGILDTO6Y
MA6813400180,h_OCHCTP,10-L1-2,2019-01-25 02:45:00.0,PmdMin,1.11,CHCGILDTO6Y
MA6813400180,h_OCHCTP,10-L1-2,2019-01-25 02:45:00.0,SoPmdAve,3457.89,CHCGILDTO6Y
MA6813400180,h_OCHCTP,10-L1-3,2019-01-25 02:15:00.0,Qmin,8.83,CHCGILDTO6Y
MA6813400180,h_OCHCTP,10-L1-3,2019-01-25 02:15:00.0,PhaseCorrectionAve,6.71e-07,CHCGILDTO6Y
MA6813400180,h_OCHCTP,10-L1-3,2019-01-25 02:15:00.0,BerPreFecMax,0.00285,CHCGILDTO6Y
MA6813400180,h_OCHCTP,10-L1-3,2019-01-25 02:15:00.0,PmdMin,3.63,CHCGILDTO6Y
MA6813400180,h_OCHCTP,10-L1-3,2019-01-25 02:15:00.0,SoPmdAve,2790.38,CHCGILDTO6Y
MA6813400180,h_OCHCTP,10-L1-3,2019-01-25 02:30:00.0,Qmin,8.8,CHCGILDTO6Y
MA6813400180,h_OCHCTP,10-L1-3,2019-01-25 02:30:00.0,PhaseCorrectionAve,6.46e-07,CHCGILDTO6Y
MA6813400180,h_OCHCTP,10-L1-3,2019-01-25 02:30:00.0,BerPreFecMax,0.00294,CHCGILDTO6Y
MA6813400180,h_OCHCTP,10-L1-3,2019-01-25 02:30:00.0,PmdMin,3.15,CHCGILDTO6Y
MA6813400180,h_OCHCTP,10-L1-3,2019-01-25 02:30:00.0,SoPmdAve,2835.92,CHCGILDTO6Y
MA6813400180,h_OCHCTP,10-L1-3,2019-01-25 02:45:00.0,Qmin,8.79,CHCGILDTO6Y
MA6813400180,h_OCHCTP,10-L1-3,2019-01-25 02:45:00.0,PhaseCorrectionAve,-0.061,CHCGILDTO6Y
MA6813400180,h_OCHCTP,10-L1-3,2019-01-25 02:45:00.0,BerPreFecMax,0.00297,CHCGILDTO6Y
MA6813400180,h_OCHCTP,10-L1-3,2019-01-25 02:45:00.0,PmdMin,2.18,CHCGILDTO6Y
MA6813400180,h_OCHCTP,10-L1-3,2019-01-25 02:45:00.0,SoPmdAve,2815.25,CHCGILDTO6Y
MA6813400180,h_OCHCTP,10-L1-4,2019-01-25 02:15:00.0,Qmin,8.25,CHCGILDTO6Y
MA6813400180,h_OCHCTP,10-L1-4,2019-01-25 02:15:00.0,PhaseCorrectionAve,-0.061,CHCGILDTO6Y
MA6813400180,h_OCHCTP,10-L1-4,2019-01-25 02:15:00.0,BerPreFecMax,0.00485,CHCGILDTO6Y
MA6813400180,h_OCHCTP,10-L1-4,2019-01-25 02:15:00.0,PmdMin,3.55,CHCGILDTO6Y
MA6813400180,h_OCHCTP,10-L1-4,2019-01-25 02:15:00.0,SoPmdAve,2948.76,CHCGILDTO6Y
MA6813400180,h_OCHCTP,10-L1-4,2019-01-25 02:30:00.0,Qmin,8.19,CHCGILDTO6Y
MA6813400180,h_OCHCTP,10-L1-4,2019-01-25 02:30:00.0,PhaseCorrectionAve,-0.061,CHCGILDTO6Y
MA6813400180,h_OCHCTP,10-L1-4,2019-01-25 02:30:00.0,BerPreFecMax,0.00513,CHCGILDTO6Y
MA6813400180,h_OCHCTP,10-L1-4,2019-01-25 02:30:00.0,PmdMin,2.06,CHCGILDTO6Y
MA6813400180,h_OCHCTP,10-L1-4,2019-01-25 02:30:00.0,SoPmdAve,3101.78,CHCGILDTO6Y
MA6813400180,h_OCHCTP,10-L1-4,2019-01-25 02:45:00.0,Qmin,8.16,CHCGILDTO6Y
MA6813400180,h_OCHCTP,10-L1-4,2019-01-25 02:45:00.0,PhaseCorrectionAve,-0.122,CHCGILDTO6Y
MA6813400180,h_OCHCTP,10-L1-4,2019-01-25 02:45:00.0,BerPreFecMax,0.00525,CHCGILDTO6Y
MA6813400180,h_OCHCTP,10-L1-4,2019-01-25 02:45:00.0,PmdMin,2.39,CHCGILDTO6Y
MA6813400180,h_OCHCTP,10-L1-4,2019-01-25 02:45:00.0,SoPmdAve,3069.13,CHCGILDTO6Y
MA6813400180,h_OCHCTP,10-L1-5,2019-01-25 02:15:00.0,Qmin,8.43,CHCGILDTO6Y
MA6813400180,h_OCHCTP,10-L1-5,2019-01-25 02:15:00.0,PhaseCorrectionAve,-0.061,CHCGILDTO6Y
MA6813400180,h_OCHCTP,10-L1-5,2019-01-25 02:15:00.0,BerPreFecMax,0.00417,CHCGILDTO6Y
MA6813400180,h_OCHCTP,10-L1-5,2019-01-25 02:15:00.0,PmdMin,1.61,CHCGILDTO6Y
MA6813400180,h_OCHCTP,10-L1-5,2019-01-25 02:15:00.0,SoPmdAve,2914.33,CHCGILDTO6Y
MA6813400180,h_OCHCTP,10-L1-5,2019-01-25 02:30:00.0,Qmin,8.39,CHCGILDTO6Y
MA6813400180,h_OCHCTP,10-L1-5,2019-01-25 02:30:00.0,PhaseCorrectionAve,-0.061,CHCGILDTO6Y
MA6813400180,h_OCHCTP,10-L1-5,2019-01-25 02:30:00.0,BerPreFecMax,0.0043,CHCGILDTO6Y
MA6813400180,h_OCHCTP,10-L1-5,2019-01-25 02:30:00.0,PmdMin,2.26,CHCGILDTO6Y
MA6813400180,h_OCHCTP,10-L1-5,2019-01-25 02:30:00.0,SoPmdAve,2860.51,CHCGILDTO6Y
MA6813400180,h_OCHCTP,10-L1-5,2019-01-25 02:45:00.0,Qmin,8.36,CHCGILDTO6Y
MA6813400180,h_OCHCTP,10-L1-5,2019-01-25 02:45:00.0,PhaseCorrectionAve,-0.122,CHCGILDTO6Y
MA6813400180,h_OCHCTP,10-L1-5,2019-01-25 02:45:00.0,BerPreFecMax,0.00441,CHCGILDTO6Y
MA6813400180,h_OCHCTP,10-L1-5,2019-01-25 02:45:00.0,PmdMin,3.24,CHCGILDTO6Y
MA6813400180,h_OCHCTP,10-L1-5,2019-01-25 02:45:00.0,SoPmdAve,2868.6,CHCGILDTO6Y
MA6813400180,h_OCHCTP,10-L1-6,2019-01-25 02:15:00.0,Qmin,8.64,CHCGILDTO6Y
MA6813400180,h_OCHCTP,10-L1-6,2019-01-25 02:15:00.0,PhaseCorrectionAve,-0.122,CHCGILDTO6Y
MA6813400180,h_OCHCTP,10-L1-6,2019-01-25 02:15:00.0,BerPreFecMax,0.00342,CHCGILDTO6Y
MA6813400180,h_OCHCTP,10-L1-6,2019-01-25 02:15:00.0,PmdMin,1.7,CHCGILDTO6Y
MA6813400180,h_OCHCTP,10-L1-6,2019-01-25 02:15:00.0,SoPmdAve,2775.13,CHCGILDTO6Y
MA6813400180,h_OCHCTP,10-L1-6,2019-01-25 02:30:00.0,Qmin,8.64,CHCGILDTO6Y
MA6813400180,h_OCHCTP,10-L1-6,2019-01-25 02:30:00.0,PhaseCorrectionAve,-0.061,CHCGILDTO6Y
MA6813400180,h_OCHCTP,10-L1-6,2019-01-25 02:30:00.0,BerPreFecMax,0.00344,CHCGILDTO6Y
MA6813400180,h_OCHCTP,10-L1-6,2019-01-25 02:30:00.0,PmdMin,3.09,CHCGILDTO6Y
MA6813400180,h_OCHCTP,10-L1-6,2019-01-25 02:30:00.0,SoPmdAve,2793.47,CHCGILDTO6Y
MA6813400180,h_OCHCTP,10-L1-6,2019-01-25 02:45:00.0,Qmin,8.63,CHCGILDTO6Y
MA6813400180,h_OCHCTP,10-L1-6,2019-01-25 02:45:00.0,PhaseCorrectionAve,-0.183,CHCGILDTO6Y
MA6813400180,h_OCHCTP,10-L1-6,2019-01-25 02:45:00.0,BerPreFecMax,0.00345,CHCGILDTO6Y
MA6813400180,h_OCHCTP,10-L1-6,2019-01-25 02:45:00.0,PmdMin,2.83,CHCGILDTO6Y
MA6813400180,h_OCHCTP,10-L1-6,2019-01-25 02:45:00.0,SoPmdAve,2872.45,CHCGILDTO6Y
MA6813400180,h_OCHCTP,10-L1-7,2019-01-25 02:15:00.0,Qmin,8.74,CHCGILDTO6Y
MA6813400180,h_OCHCTP,10-L1-7,2019-01-25 02:15:00.0,PhaseCorrectionAve,-0.122,CHCGILDTO6Y
MA6813400180,h_OCHCTP,10-L1-7,2019-01-25 02:15:00.0,BerPreFecMax,0.0031,CHCGILDTO6Y
MA6813400180,h_OCHCTP,10-L1-7,2019-01-25 02:15:00.0,PmdMin,4.93,CHCGILDTO6Y
MA6813400180,h_OCHCTP,10-L1-7,2019-01-25 02:15:00.0,SoPmdAve,3481.91,CHCGILDTO6Y
MA6813400180,h_OCHCTP,10-L1-7,2019-01-25 02:30:00.0,Qmin,8.72,CHCGILDTO6Y
MA6813400180,h_OCHCTP,10-L1-7,2019-01-25 02:30:00.0,PhaseCorrectionAve,-0.061,CHCGILDTO6Y
MA6813400180,h_OCHCTP,10-L1-7,2019-01-25 02:30:00.0,BerPreFecMax,0.00317,CHCGILDTO6Y
MA6813400180,h_OCHCTP,10-L1-7,2019-01-25 02:30:00.0,PmdMin,2.57,CHCGILDTO6Y
MA6813400180,h_OCHCTP,10-L1-7,2019-01-25 02:30:00.0,SoPmdAve,3501.31,CHCGILDTO6Y
MA6813400180,h_OCHCTP,10-L1-7,2019-01-25 02:45:00.0,Qmin,8.71,CHCGILDTO6Y
MA6813400180,h_OCHCTP,10-L1-7,2019-01-25 02:45:00.0,PhaseCorrectionAve,-0.183,CHCGILDTO6Y
MA6813400180,h_OCHCTP,10-L1-7,2019-01-25 02:45:00.0,BerPreFecMax,0.0032,CHCGILDTO6Y
MA6813400180,h_OCHCTP,10-L1-7,2019-01-25 02:45:00.0,PmdMin,4.08,CHCGILDTO6Y
MA6813400180,h_OCHCTP,10-L1-7,2019-01-25 02:45:00.0,SoPmdAve,3462.02,CHCGILDTO6Y
MA6813400180,h_OCHCTP,10-L1-8,2019-01-25 02:15:00.0,Qmin,9.27,CHCGILDTO6Y
MA6813400180,h_OCHCTP,10-L1-8,2019-01-25 02:15:00.0,PhaseCorrectionAve,-0.122,CHCGILDTO6Y
MA6813400180,h_OCHCTP,10-L1-8,2019-01-25 02:15:00.0,BerPreFecMax,0.00181,CHCGILDTO6Y
MA6813400180,h_OCHCTP,10-L1-8,2019-01-25 02:15:00.0,PmdMin,1.28,CHCGILDTO6Y
MA6813400180,h_OCHCTP,10-L1-8,2019-01-25 02:15:00.0,SoPmdAve,3489.01,CHCGILDTO6Y
MA6813400180,h_OCHCTP,10-L1-8,2019-01-25 02:30:00.0,Qmin,9.28,CHCGILDTO6Y
MA6813400180,h_OCHCTP,10-L1-8,2019-01-25 02:30:00.0,PhaseCorrectionAve,-0.122,CHCGILDTO6Y
MA6813400180,h_OCHCTP,10-L1-8,2019-01-25 02:30:00.0,BerPreFecMax,0.00181,CHCGILDTO6Y
MA6813400180,h_OCHCTP,10-L1-8,2019-01-25 02:30:00.0,PmdMin,1.99,CHCGILDTO6Y
MA6813400180,h_OCHCTP,10-L1-8,2019-01-25 02:30:00.0,SoPmdAve,3371.44,CHCGILDTO6Y
MA6813400180,h_OCHCTP,10-L1-8,2019-01-25 02:45:00.0,Qmin,9.28,CHCGILDTO6Y
MA6813400180,h_OCHCTP,10-L1-8,2019-01-25 02:45:00.0,PhaseCorrectionAve,-0.183,CHCGILDTO6Y
MA6813400180,h_OCHCTP,10-L1-8,2019-01-25 02:45:00.0,BerPreFecMax,0.00179,CHCGILDTO6Y
MA6813400180,h_OCHCTP,10-L1-8,2019-01-25 02:45:00.0,PmdMin,1.4,CHCGILDTO6Y
MA6813400180,h_OCHCTP,10-L1-8,2019-01-25 02:45:00.0,SoPmdAve,3413.78,CHCGILDTO6Y
MA6813400180,h_OCHCTP,10-L1-9,2019-01-25 02:15:00.0,Qmin,9.3,CHCGILDTO6Y
MA6813400180,h_OCHCTP,10-L1-9,2019-01-25 02:15:00.0,PhaseCorrectionAve,-0.122,CHCGILDTO6Y
MA6813400180,h_OCHCTP,10-L1-9,2019-01-25 02:15:00.0,BerPreFecMax,0.00176,CHCGILDTO6Y
MA6813400180,h_OCHCTP,10-L1-9,2019-01-25 02:15:00.0,PmdMin,0.749,CHCGILDTO6Y
MA6813400180,h_OCHCTP,10-L1-9,2019-01-25 02:15:00.0,SoPmdAve,3466.84,CHCGILDTO6Y
MA6813400180,h_OCHCTP,10-L1-9,2019-01-25 02:30:00.0,Qmin,9.31,CHCGILDTO6Y
MA6813400180,h_OCHCTP,10-L1-9,2019-01-25 02:30:00.0,PhaseCorrectionAve,-0.122,CHCGILDTO6Y
MA6813400180,h_OCHCTP,10-L1-9,2019-01-25 02:30:00.0,BerPreFecMax,0.00175,CHCGILDTO6Y
MA6813400180,h_OCHCTP,10-L1-9,2019-01-25 02:30:00.0,PmdMin,1.67,CHCGILDTO6Y
MA6813400180,h_OCHCTP,10-L1-9,2019-01-25 02:30:00.0,SoPmdAve,3408.82,CHCGILDTO6Y
MA6813400180,h_OCHCTP,10-L1-9,2019-01-25 02:45:00.0,Qmin,9.33,CHCGILDTO6Y
MA6813400180,h_OCHCTP,10-L1-9,2019-01-25 02:45:00.0,PhaseCorrectionAve,-0.183,CHCGILDTO6Y
MA6813400180,h_OCHCTP,10-L1-9,2019-01-25 02:45:00.0,BerPreFecMax,0.00171,CHCGILDTO6Y
MA6813400180,h_OCHCTP,10-L1-9,2019-01-25 02:45:00.0,PmdMin,2.3,CHCGILDTO6Y
MA6813400180,h_OCHCTP,10-L1-9,2019-01-25 02:45:00.0,SoPmdAve,3368.48,CHCGILDTO6Y
MA6813400180,h_OCHCTP,10-L1-10,2019-01-25 02:15:00.0,Qmin,9.34,CHCGILDTO6Y
MA6813400180,h_OCHCTP,10-L1-10,2019-01-25 02:15:00.0,PhaseCorrectionAve,-0.122,CHCGILDTO6Y
MA6813400180,h_OCHCTP,10-L1-10,2019-01-25 02:15:00.0,BerPreFecMax,0.00169,CHCGILDTO6Y
MA6813400180,h_OCHCTP,10-L1-10,2019-01-25 02:15:00.0,PmdMin,3.64,CHCGILDTO6Y
MA6813400180,h_OCHCTP,10-L1-10,2019-01-25 02:15:00.0,SoPmdAve,3175.57,CHCGILDTO6Y
MA6813400180,h_OCHCTP,10-L1-10,2019-01-25 02:30:00.0,Qmin,9.35,CHCGILDTO6Y
MA6813400180,h_OCHCTP,10-L1-10,2019-01-25 02:30:00.0,PhaseCorrectionAve,-0.183,CHCGILDTO6Y
MA6813400180,h_OCHCTP,10-L1-10,2019-01-25 02:30:00.0,BerPreFecMax,0.00168,CHCGILDTO6Y
MA6813400180,h_OCHCTP,10-L1-10,2019-01-25 02:30:00.0,PmdMin,2.02,CHCGILDTO6Y
MA6813400180,h_OCHCTP,10-L1-10,2019-01-25 02:30:00.0,SoPmdAve,3297.58,CHCGILDTO6Y
MA6813400180,h_OCHCTP,10-L1-10,2019-01-25 02:45:00.0,Qmin,9.37,CHCGILDTO6Y
MA6813400180,h_OCHCTP,10-L1-10,2019-01-25 02:45:00.0,PhaseCorrectionAve,-0.183,CHCGILDTO6Y
MA6813400180,h_OCHCTP,10-L1-10,2019-01-25 02:45:00.0,BerPreFecMax,0.00163,CHCGILDTO6Y
MA6813400180,h_OCHCTP,10-L1-10,2019-01-25 02:45:00.0,PmdMin,1.04,CHCGILDTO6Y
MA6813400180,h_OCHCTP,10-L1-10,2019-01-25 02:45:00.0,SoPmdAve,3333.28,CHCGILDTO6Y
MA6813400180,h_OCHCTP,13-L1-1,2019-01-25 02:15:00.0,Qmin,9.22,CHCGILDTO6Y
MA6813400180,h_OCHCTP,13-L1-1,2019-01-25 02:15:00.0,PhaseCorrectionAve,1.8e-07,CHCGILDTO6Y
MA6813400180,h_OCHCTP,13-L1-1,2019-01-25 02:15:00.0,BerPreFecMax,0.00193,CHCGILDTO6Y
MA6813400180,h_OCHCTP,13-L1-1,2019-01-25 02:15:00.0,PmdMin,1.62,CHCGILDTO6Y
MA6813400180,h_OCHCTP,13-L1-1,2019-01-25 02:15:00.0,SoPmdAve,3539.71,CHCGILDTO6Y
MA6813400180,h_OCHCTP,13-L1-1,2019-01-25 02:30:00.0,Qmin,9.21,CHCGILDTO6Y
MA6813400180,h_OCHCTP,13-L1-1,2019-01-25 02:30:00.0,PhaseCorrectionAve,-0.061,CHCGILDTO6Y
MA6813400180,h_OCHCTP,13-L1-1,2019-01-25 02:30:00.0,BerPreFecMax,0.00195,CHCGILDTO6Y
MA6813400180,h_OCHCTP,13-L1-1,2019-01-25 02:30:00.0,PmdMin,1.03,CHCGILDTO6Y
MA6813400180,h_OCHCTP,13-L1-1,2019-01-25 02:30:00.0,SoPmdAve,3577.3,CHCGILDTO6Y
MA6813400180,h_OCHCTP,13-L1-1,2019-01-25 02:45:00.0,Qmin,9.15,CHCGILDTO6Y
MA6813400180,h_OCHCTP,13-L1-1,2019-01-25 02:45:00.0,PhaseCorrectionAve,1.95e-07,CHCGILDTO6Y
MA6813400180,h_OCHCTP,13-L1-1,2019-01-25 02:45:00.0,BerPreFecMax,0.00206,CHCGILDTO6Y
MA6813400180,h_OCHCTP,13-L1-1,2019-01-25 02:45:00.0,PmdMin,0.982,CHCGILDTO6Y
MA6813400180,h_OCHCTP,13-L1-1,2019-01-25 02:45:00.0,SoPmdAve,3537.91,CHCGILDTO6Y
MA6813400180,h_OCHCTP,13-L1-2,2019-01-25 02:15:00.0,Qmin,9.22,CHCGILDTO6Y
MA6813400180,h_OCHCTP,13-L1-2,2019-01-25 02:15:00.0,PhaseCorrectionAve,2.43e-07,CHCGILDTO6Y
MA6813400180,h_OCHCTP,13-L1-2,2019-01-25 02:15:00.0,BerPreFecMax,0.00192,CHCGILDTO6Y
MA6813400180,h_OCHCTP,13-L1-2,2019-01-25 02:15:00.0,PmdMin,0.87,CHCGILDTO6Y
MA6813400180,h_OCHCTP,13-L1-2,2019-01-25 02:15:00.0,SoPmdAve,3502.47,CHCGILDTO6Y
MA6813400180,h_OCHCTP,13-L1-2,2019-01-25 02:30:00.0,Qmin,9.19,CHCGILDTO6Y
MA6813400180,h_OCHCTP,13-L1-2,2019-01-25 02:30:00.0,PhaseCorrectionAve,-0.061,CHCGILDTO6Y
MA6813400180,h_OCHCTP,13-L1-2,2019-01-25 02:30:00.0,BerPreFecMax,0.00199,CHCGILDTO6Y
MA6813400180,h_OCHCTP,13-L1-2,2019-01-25 02:30:00.0,PmdMin,0.773,CHCGILDTO6Y
MA6813400180,h_OCHCTP,13-L1-2,2019-01-25 02:30:00.0,SoPmdAve,3473.35,CHCGILDTO6Y
MA6813400180,h_OCHCTP,13-L1-2,2019-01-25 02:45:00.0,Qmin,9.14,CHCGILDTO6Y
MA6813400180,h_OCHCTP,13-L1-2,2019-01-25 02:45:00.0,PhaseCorrectionAve,-0.061,CHCGILDTO6Y
MA6813400180,h_OCHCTP,13-L1-2,2019-01-25 02:45:00.0,BerPreFecMax,0.00209,CHCGILDTO6Y
MA6813400180,h_OCHCTP,13-L1-2,2019-01-25 02:45:00.0,PmdMin,1.3,CHCGILDTO6Y
MA6813400180,h_OCHCTP,13-L1-2,2019-01-25 02:45:00.0,SoPmdAve,3466.03,CHCGILDTO6Y
MA6813400180,h_OCHCTP,13-L1-3,2019-01-25 02:15:00.0,Qmin,9.0,CHCGILDTO6Y
MA6813400180,h_OCHCTP,13-L1-3,2019-01-25 02:15:00.0,PhaseCorrectionAve,4.3e-07,CHCGILDTO6Y
MA6813400180,h_OCHCTP,13-L1-3,2019-01-25 02:15:00.0,BerPreFecMax,0.00241,CHCGILDTO6Y
MA6813400180,h_OCHCTP,13-L1-3,2019-01-25 02:15:00.0,PmdMin,0.738,CHCGILDTO6Y
MA6813400180,h_OCHCTP,13-L1-3,2019-01-25 02:15:00.0,SoPmdAve,3015.47,CHCGILDTO6Y
MA6813400180,h_OCHCTP,13-L1-3,2019-01-25 02:30:00.0,Qmin,8.98,CHCGILDTO6Y
MA6813400180,h_OCHCTP,13-L1-3,2019-01-25 02:30:00.0,PhaseCorrectionAve,-0.061,CHCGILDTO6Y
MA6813400180,h_OCHCTP,13-L1-3,2019-01-25 02:30:00.0,BerPreFecMax,0.00246,CHCGILDTO6Y
MA6813400180,h_OCHCTP,13-L1-3,2019-01-25 02:30:00.0,PmdMin,1.19,CHCGILDTO6Y
MA6813400180,h_OCHCTP,13-L1-3,2019-01-25 02:30:00.0,SoPmdAve,2980.67,CHCGILDTO6Y
MA6813400180,h_OCHCTP,13-L1-3,2019-01-25 02:45:00.0,Qmin,8.95,CHCGILDTO6Y
MA6813400180,h_OCHCTP,13-L1-3,2019-01-25 02:45:00.0,PhaseCorrectionAve,-0.061,CHCGILDTO6Y
MA6813400180,h_OCHCTP,13-L1-3,2019-01-25 02:45:00.0,BerPreFecMax,0.00254,CHCGILDTO6Y
MA6813400180,h_OCHCTP,13-L1-3,2019-01-25 02:45:00.0,PmdMin,0.325,CHCGILDTO6Y
MA6813400180,h_OCHCTP,13-L1-3,2019-01-25 02:45:00.0,SoPmdAve,2974.93,CHCGILDTO6Y
MA6813400180,h_OCHCTP,13-L1-4,2019-01-25 02:15:00.0,Qmin,8.72,CHCGILDTO6Y
MA6813400180,h_OCHCTP,13-L1-4,2019-01-25 02:15:00.0,PhaseCorrectionAve,4.6e-07,CHCGILDTO6Y
MA6813400180,h_OCHCTP,13-L1-4,2019-01-25 02:15:00.0,BerPreFecMax,0.00319,CHCGILDTO6Y
MA6813400180,h_OCHCTP,13-L1-4,2019-01-25 02:15:00.0,PmdMin,0.58,CHCGILDTO6Y
MA6813400180,h_OCHCTP,13-L1-4,2019-01-25 02:15:00.0,SoPmdAve,3426.51,CHCGILDTO6Y
MA6813400180,h_OCHCTP,13-L1-4,2019-01-25 02:30:00.0,Qmin,8.74,CHCGILDTO6Y
MA6813400180,h_OCHCTP,13-L1-4,2019-01-25 02:30:00.0,PhaseCorrectionAve,-0.061,CHCGILDTO6Y
MA6813400180,h_OCHCTP,13-L1-4,2019-01-25 02:30:00.0,BerPreFecMax,0.00311,CHCGILDTO6Y
MA6813400180,h_OCHCTP,13-L1-4,2019-01-25 02:30:00.0,PmdMin,1.02,CHCGILDTO6Y
MA6813400180,h_OCHCTP,13-L1-4,2019-01-25 02:30:00.0,SoPmdAve,3381.89,CHCGILDTO6Y
MA6813400180,h_OCHCTP,13-L1-4,2019-01-25 02:45:00.0,Qmin,8.77,CHCGILDTO6Y
MA6813400180,h_OCHCTP,13-L1-4,2019-01-25 02:45:00.0,PhaseCorrectionAve,-0.061,CHCGILDTO6Y
MA6813400180,h_OCHCTP,13-L1-4,2019-01-25 02:45:00.0,BerPreFecMax,0.00302,CHCGILDTO6Y
MA6813400180,h_OCHCTP,13-L1-4,2019-01-25 02:45:00.0,PmdMin,0.293,CHCGILDTO6Y
MA6813400180,h_OCHCTP,13-L1-4,2019-01-25 02:45:00.0,SoPmdAve,3464.61,CHCGILDTO6Y
MA6813400180,h_OCHCTP,13-L1-5,2019-01-25 02:15:00.0,Qmin,8.72,CHCGILDTO6Y
MA6813400180,h_OCHCTP,13-L1-5,2019-01-25 02:15:00.0,PhaseCorrectionAve,-0.122,CHCGILDTO6Y
MA6813400180,h_OCHCTP,13-L1-5,2019-01-25 02:15:00.0,BerPreFecMax,0.00317,CHCGILDTO6Y
MA6813400180,h_OCHCTP,13-L1-5,2019-01-25 02:15:00.0,PmdMin,1.12,CHCGILDTO6Y
MA6813400180,h_OCHCTP,13-L1-5,2019-01-25 02:15:00.0,SoPmdAve,2777.56,CHCGILDTO6Y
MA6813400180,h_OCHCTP,13-L1-5,2019-01-25 02:30:00.0,Qmin,8.61,CHCGILDTO6Y
MA6813400180,h_OCHCTP,13-L1-5,2019-01-25 02:30:00.0,PhaseCorrectionAve,-0.061,CHCGILDTO6Y
MA6813400180,h_OCHCTP,13-L1-5,2019-01-25 02:30:00.0,BerPreFecMax,0.00352,CHCGILDTO6Y
MA6813400180,h_OCHCTP,13-L1-5,2019-01-25 02:30:00.0,PmdMin,1.11,CHCGILDTO6Y
MA6813400180,h_OCHCTP,13-L1-5,2019-01-25 02:30:00.0,SoPmdAve,2892.27,CHCGILDTO6Y
MA6813400180,h_OCHCTP,13-L1-5,2019-01-25 02:45:00.0,Qmin,8.64,CHCGILDTO6Y
MA6813400180,h_OCHCTP,13-L1-5,2019-01-25 02:45:00.0,PhaseCorrectionAve,-0.061,CHCGILDTO6Y
MA6813400180,h_OCHCTP,13-L1-5,2019-01-25 02:45:00.0,BerPreFecMax,0.00341,CHCGILDTO6Y
MA6813400180,h_OCHCTP,13-L1-5,2019-01-25 02:45:00.0,PmdMin,0.611,CHCGILDTO6Y
MA6813400180,h_OCHCTP,13-L1-5,2019-01-25 02:45:00.0,SoPmdAve,2804.04,CHCGILDTO6Y
MA6813400180,h_OCHCTP,13-L1-6,2019-01-25 02:15:00.0,Qmin,8.78,CHCGILDTO6Y
MA6813400180,h_OCHCTP,13-L1-6,2019-01-25 02:15:00.0,PhaseCorrectionAve,-0.122,CHCGILDTO6Y
MA6813400180,h_OCHCTP,13-L1-6,2019-01-25 02:15:00.0,BerPreFecMax,0.00301,CHCGILDTO6Y
MA6813400180,h_OCHCTP,13-L1-6,2019-01-25 02:15:00.0,PmdMin,0.373,CHCGILDTO6Y
MA6813400180,h_OCHCTP,13-L1-6,2019-01-25 02:15:00.0,SoPmdAve,2991.23,CHCGILDTO6Y
MA6813400180,h_OCHCTP,13-L1-6,2019-01-25 02:30:00.0,Qmin,8.74,CHCGILDTO6Y
MA6813400180,h_OCHCTP,13-L1-6,2019-01-25 02:30:00.0,PhaseCorrectionAve,-0.061,CHCGILDTO6Y
MA6813400180,h_OCHCTP,13-L1-6,2019-01-25 02:30:00.0,BerPreFecMax,0.0031,CHCGILDTO6Y
MA6813400180,h_OCHCTP,13-L1-6,2019-01-25 02:30:00.0,PmdMin,0.702,CHCGILDTO6Y
MA6813400180,h_OCHCTP,13-L1-6,2019-01-25 02:30:00.0,SoPmdAve,3054.43,CHCGILDTO6Y
MA6813400180,h_OCHCTP,13-L1-6,2019-01-25 02:45:00.0,Qmin,8.74,CHCGILDTO6Y
MA6813400180,h_OCHCTP,13-L1-6,2019-01-25 02:45:00.0,PhaseCorrectionAve,-0.061,CHCGILDTO6Y
MA6813400180,h_OCHCTP,13-L1-6,2019-01-25 02:45:00.0,BerPreFecMax,0.00312,CHCGILDTO6Y
MA6813400180,h_OCHCTP,13-L1-6,2019-01-25 02:45:00.0,PmdMin,0.9,CHCGILDTO6Y
MA6813400180,h_OCHCTP,13-L1-6,2019-01-25 02:45:00.0,SoPmdAve,3012.72,CHCGILDTO6Y
MA6813400180,h_OCHCTP,13-L1-7,2019-01-25 02:15:00.0,Qmin,8.8,CHCGILDTO6Y
MA6813400180,h_OCHCTP,13-L1-7,2019-01-25 02:15:00.0,PhaseCorrectionAve,-0.122,CHCGILDTO6Y
MA6813400180,h_OCHCTP,13-L1-7,2019-01-25 02:15:00.0,BerPreFecMax,0.00294,CHCGILDTO6Y
MA6813400180,h_OCHCTP,13-L1-7,2019-01-25 02:15:00.0,PmdMin,0.741,CHCGILDTO6Y
MA6813400180,h_OCHCTP,13-L1-7,2019-01-25 02:15:00.0,SoPmdAve,3705.57,CHCGILDTO6Y
MA6813400180,h_OCHCTP,13-L1-7,2019-01-25 02:30:00.0,Qmin,8.78,CHCGILDTO6Y
MA6813400180,h_OCHCTP,13-L1-7,2019-01-25 02:30:00.0,PhaseCorrectionAve,-0.061,CHCGILDTO6Y
MA6813400180,h_OCHCTP,13-L1-7,2019-01-25 02:30:00.0,BerPreFecMax,0.00299,CHCGILDTO6Y
MA6813400180,h_OCHCTP,13-L1-7,2019-01-25 02:30:00.0,PmdMin,0.948,CHCGILDTO6Y
MA6813400180,h_OCHCTP,13-L1-7,2019-01-25 02:30:00.0,SoPmdAve,3675.42,CHCGILDTO6Y
MA6813400180,h_OCHCTP,13-L1-7,2019-01-25 02:45:00.0,Qmin,8.85,CHCGILDTO6Y
MA6813400180,h_OCHCTP,13-L1-7,2019-01-25 02:45:00.0,PhaseCorrectionAve,-0.061,CHCGILDTO6Y
MA6813400180,h_OCHCTP,13-L1-7,2019-01-25 02:45:00.0,BerPreFecMax,0.00279,CHCGILDTO6Y
MA6813400180,h_OCHCTP,13-L1-7,2019-01-25 02:45:00.0,PmdMin,0.599,CHCGILDTO6Y
MA6813400180,h_OCHCTP,13-L1-7,2019-01-25 02:45:00.0,SoPmdAve,3725.26,CHCGILDTO6Y
MA6813400180,h_OCHCTP,13-L1-8,2019-01-25 02:15:00.0,Qmin,8.85,CHCGILDTO6Y
MA6813400180,h_OCHCTP,13-L1-8,2019-01-25 02:15:00.0,PhaseCorrectionAve,-0.122,CHCGILDTO6Y
MA6813400180,h_OCHCTP,13-L1-8,2019-01-25 02:15:00.0,BerPreFecMax,0.0028,CHCGILDTO6Y
MA6813400180,h_OCHCTP,13-L1-8,2019-01-25 02:15:00.0,PmdMin,1.09,CHCGILDTO6Y
MA6813400180,h_OCHCTP,13-L1-8,2019-01-25 02:15:00.0,SoPmdAve,3871.44,CHCGILDTO6Y
MA6813400180,h_OCHCTP,13-L1-8,2019-01-25 02:30:00.0,Qmin,8.85,CHCGILDTO6Y
MA6813400180,h_OCHCTP,13-L1-8,2019-01-25 02:30:00.0,PhaseCorrectionAve,-0.061,CHCGILDTO6Y
MA6813400180,h_OCHCTP,13-L1-8,2019-01-25 02:30:00.0,BerPreFecMax,0.00279,CHCGILDTO6Y
MA6813400180,h_OCHCTP,13-L1-8,2019-01-25 02:30:00.0,PmdMin,1.09,CHCGILDTO6Y
MA6813400180,h_OCHCTP,13-L1-8,2019-01-25 02:30:00.0,SoPmdAve,3845.71,CHCGILDTO6Y
MA6813400180,h_OCHCTP,13-L1-8,2019-01-25 02:45:00.0,Qmin,8.83,CHCGILDTO6Y
MA6813400180,h_OCHCTP,13-L1-8,2019-01-25 02:45:00.0,PhaseCorrectionAve,-0.061,CHCGILDTO6Y
MA6813400180,h_OCHCTP,13-L1-8,2019-01-25 02:45:00.0,BerPreFecMax,0.00287,CHCGILDTO6Y
MA6813400180,h_OCHCTP,13-L1-8,2019-01-25 02:45:00.0,PmdMin,0.647,CHCGILDTO6Y
MA6813400180,h_OCHCTP,13-L1-8,2019-01-25 02:45:00.0,SoPmdAve,3775.01,CHCGILDTO6Y
MA6813400180,h_OCHCTP,13-L1-9,2019-01-25 02:15:00.0,Qmin,8.83,CHCGILDTO6Y
MA6813400180,h_OCHCTP,13-L1-9,2019-01-25 02:15:00.0,PhaseCorrectionAve,-0.122,CHCGILDTO6Y
MA6813400180,h_OCHCTP,13-L1-9,2019-01-25 02:15:00.0,BerPreFecMax,0.00285,CHCGILDTO6Y
MA6813400180,h_OCHCTP,13-L1-9,2019-01-25 02:15:00.0,PmdMin,1.12,CHCGILDTO6Y
MA6813400180,h_OCHCTP,13-L1-9,2019-01-25 02:15:00.0,SoPmdAve,3615.19,CHCGILDTO6Y
MA6813400180,h_OCHCTP,13-L1-9,2019-01-25 02:30:00.0,Qmin,8.77,CHCGILDTO6Y
MA6813400180,h_OCHCTP,13-L1-9,2019-01-25 02:30:00.0,PhaseCorrectionAve,-0.061,CHCGILDTO6Y
MA6813400180,h_OCHCTP,13-L1-9,2019-01-25 02:30:00.0,BerPreFecMax,0.00303,CHCGILDTO6Y
MA6813400180,h_OCHCTP,13-L1-9,2019-01-25 02:30:00.0,PmdMin,0.748,CHCGILDTO6Y
MA6813400180,h_OCHCTP,13-L1-9,2019-01-25 02:30:00.0,SoPmdAve,3446.48,CHCGILDTO6Y
MA6813400180,h_OCHCTP,13-L1-9,2019-01-25 02:45:00.0,Qmin,8.81,CHCGILDTO6Y
MA6813400180,h_OCHCTP,13-L1-9,2019-01-25 02:45:00.0,PhaseCorrectionAve,-0.061,CHCGILDTO6Y
MA6813400180,h_OCHCTP,13-L1-9,2019-01-25 02:45:00.0,BerPreFecMax,0.0029,CHCGILDTO6Y
MA6813400180,h_OCHCTP,13-L1-9,2019-01-25 02:45:00.0,PmdMin,0.547,CHCGILDTO6Y
MA6813400180,h_OCHCTP,13-L1-9,2019-01-25 02:45:00.0,SoPmdAve,3526.05,CHCGILDTO6Y
MA6813400180,h_OCHCTP,13-L1-10,2019-01-25 02:15:00.0,Qmin,8.71,CHCGILDTO6Y
MA6813400180,h_OCHCTP,13-L1-10,2019-01-25 02:15:00.0,PhaseCorrectionAve,-0.122,CHCGILDTO6Y
MA6813400180,h_OCHCTP,13-L1-10,2019-01-25 02:15:00.0,BerPreFecMax,0.0032,CHCGILDTO6Y
MA6813400180,h_OCHCTP,13-L1-10,2019-01-25 02:15:00.0,PmdMin,1.36,CHCGILDTO6Y
MA6813400180,h_OCHCTP,13-L1-10,2019-01-25 02:15:00.0,SoPmdAve,3799.72,CHCGILDTO6Y
MA6813400180,h_OCHCTP,13-L1-10,2019-01-25 02:30:00.0,Qmin,8.71,CHCGILDTO6Y
MA6813400180,h_OCHCTP,13-L1-10,2019-01-25 02:30:00.0,PhaseCorrectionAve,-0.061,CHCGILDTO6Y
MA6813400180,h_OCHCTP,13-L1-10,2019-01-25 02:30:00.0,BerPreFecMax,0.0032,CHCGILDTO6Y
MA6813400180,h_OCHCTP,13-L1-10,2019-01-25 02:30:00.0,PmdMin,1.16,CHCGILDTO6Y
MA6813400180,h_OCHCTP,13-L1-10,2019-01-25 02:30:00.0,SoPmdAve,3734.11,CHCGILDTO6Y
MA6813400180,h_OCHCTP,13-L1-10,2019-01-25 02:45:00.0,Qmin,8.77,CHCGILDTO6Y
MA6813400180,h_OCHCTP,13-L1-10,2019-01-25 02:45:00.0,PhaseCorrectionAve,-0.061,CHCGILDTO6Y
MA6813400180,h_OCHCTP,13-L1-10,2019-01-25 02:45:00.0,BerPreFecMax,0.00303,CHCGILDTO6Y
MA6813400180,h_OCHCTP,13-L1-10,2019-01-25 02:45:00.0,PmdMin,0.61,CHCGILDTO6Y
MA6813400180,h_OCHCTP,13-L1-10,2019-01-25 02:45:00.0,SoPmdAve,3772.74,CHCGILDTO6Y
