MA6813400180,h_OCHCTP,10-L1-1,2019-01-24 13:15:00.0,Qmin,9.5,CHCGILDTO6Y
MA6813400180,h_OCHCTP,10-L1-1,2019-01-24 13:15:00.0,PhaseCorrectionAve,5.32e-07,CHCGILDTO6Y
MA6813400180,h_OCHCTP,10-L1-1,2019-01-24 13:15:00.0,BerPreFecMax,0.00141,CHCGILDTO6Y
MA6813400180,h_OCHCTP,10-L1-1,2019-01-24 13:15:00.0,PmdMin,1.98,CHCGILDTO6Y
MA6813400180,h_OCHCTP,10-L1-1,2019-01-24 13:15:00.0,SoPmdAve,3300.95,CHCGILDTO6Y
MA6813400180,h_OCHCTP,10-L1-1,2019-01-24 13:30:00.0,Qmin,9.5,CHCGILDTO6Y
MA6813400180,h_OCHCTP,10-L1-1,2019-01-24 13:30:00.0,PhaseCorrectionAve,5.92e-07,CHCGILDTO6Y
MA6813400180,h_OCHCTP,10-L1-1,2019-01-24 13:30:00.0,BerPreFecMax,0.00141,CHCGILDTO6Y
MA6813400180,h_OCHCTP,10-L1-1,2019-01-24 13:30:00.0,PmdMin,1.65,CHCGILDTO6Y
MA6813400180,h_OCHCTP,10-L1-1,2019-01-24 13:30:00.0,SoPmdAve,3225.2,CHCGILDTO6Y
MA6813400180,h_OCHCTP,10-L1-1,2019-01-24 13:45:00.0,Qmin,9.51,CHCGILDTO6Y
MA6813400180,h_OCHCTP,10-L1-1,2019-01-24 13:45:00.0,PhaseCorrectionAve,5.43e-07,CHCGILDTO6Y
MA6813400180,h_OCHCTP,10-L1-1,2019-01-24 13:45:00.0,BerPreFecMax,0.00141,CHCGILDTO6Y
MA6813400180,h_OCHCTP,10-L1-1,2019-01-24 13:45:00.0,PmdMin,2.1,CHCGILDTO6Y
MA6813400180,h_OCHCTP,10-L1-1,2019-01-24 13:45:00.0,SoPmdAve,3292.63,CHCGILDTO6Y
MA6813400180,h_OCHCTP,10-L1-2,2019-01-24 13:15:00.0,Qmin,9.2,CHCGILDTO6Y
MA6813400180,h_OCHCTP,10-L1-2,2019-01-24 13:15:00.0,PhaseCorrectionAve,-0.061,CHCGILDTO6Y
MA6813400180,h_OCHCTP,10-L1-2,2019-01-24 13:15:00.0,BerPreFecMax,0.00195,CHCGILDTO6Y
MA6813400180,h_OCHCTP,10-L1-2,2019-01-24 13:15:00.0,PmdMin,1.35,CHCGILDTO6Y
MA6813400180,h_OCHCTP,10-L1-2,2019-01-24 13:15:00.0,SoPmdAve,3380.04,CHCGILDTO6Y
MA6813400180,h_OCHCTP,10-L1-2,2019-01-24 13:30:00.0,Qmin,9.21,CHCGILDTO6Y
MA6813400180,h_OCHCTP,10-L1-2,2019-01-24 13:30:00.0,PhaseCorrectionAve,-0.122,CHCGILDTO6Y
MA6813400180,h_OCHCTP,10-L1-2,2019-01-24 13:30:00.0,BerPreFecMax,0.00193,CHCGILDTO6Y
MA6813400180,h_OCHCTP,10-L1-2,2019-01-24 13:30:00.0,PmdMin,1.29,CHCGILDTO6Y
MA6813400180,h_OCHCTP,10-L1-2,2019-01-24 13:30:00.0,SoPmdAve,3378.84,CHCGILDTO6Y
MA6813400180,h_OCHCTP,10-L1-2,2019-01-24 13:45:00.0,Qmin,9.22,CHCGILDTO6Y
MA6813400180,h_OCHCTP,10-L1-2,2019-01-24 13:45:00.0,PhaseCorrectionAve,-0.122,CHCGILDTO6Y
MA6813400180,h_OCHCTP,10-L1-2,2019-01-24 13:45:00.0,BerPreFecMax,0.00193,CHCGILDTO6Y
MA6813400180,h_OCHCTP,10-L1-2,2019-01-24 13:45:00.0,PmdMin,1.38,CHCGILDTO6Y
MA6813400180,h_OCHCTP,10-L1-2,2019-01-24 13:45:00.0,SoPmdAve,3391.73,CHCGILDTO6Y
MA6813400180,h_OCHCTP,10-L1-3,2019-01-24 13:15:00.0,Qmin,8.99,CHCGILDTO6Y
MA6813400180,h_OCHCTP,10-L1-3,2019-01-24 13:15:00.0,PhaseCorrectionAve,-0.183,CHCGILDTO6Y
MA6813400180,h_OCHCTP,10-L1-3,2019-01-24 13:15:00.0,BerPreFecMax,0.00243,CHCGILDTO6Y
MA6813400180,h_OCHCTP,10-L1-3,2019-01-24 13:15:00.0,PmdMin,1.61,CHCGILDTO6Y
MA6813400180,h_OCHCTP,10-L1-3,2019-01-24 13:15:00.0,SoPmdAve,2816.38,CHCGILDTO6Y
MA6813400180,h_OCHCTP,10-L1-3,2019-01-24 13:30:00.0,Qmin,8.99,CHCGILDTO6Y
MA6813400180,h_OCHCTP,10-L1-3,2019-01-24 13:30:00.0,PhaseCorrectionAve,-0.122,CHCGILDTO6Y
MA6813400180,h_OCHCTP,10-L1-3,2019-01-24 13:30:00.0,BerPreFecMax,0.00242,CHCGILDTO6Y
MA6813400180,h_OCHCTP,10-L1-3,2019-01-24 13:30:00.0,PmdMin,1.65,CHCGILDTO6Y
MA6813400180,h_OCHCTP,10-L1-3,2019-01-24 13:30:00.0,SoPmdAve,2800.22,CHCGILDTO6Y
MA6813400180,h_OCHCTP,10-L1-3,2019-01-24 13:45:00.0,Qmin,9.0,CHCGILDTO6Y
MA6813400180,h_OCHCTP,10-L1-3,2019-01-24 13:45:00.0,PhaseCorrectionAve,-0.122,CHCGILDTO6Y
MA6813400180,h_OCHCTP,10-L1-3,2019-01-24 13:45:00.0,BerPreFecMax,0.00242,CHCGILDTO6Y
MA6813400180,h_OCHCTP,10-L1-3,2019-01-24 13:45:00.0,PmdMin,0.888,CHCGILDTO6Y
MA6813400180,h_OCHCTP,10-L1-3,2019-01-24 13:45:00.0,SoPmdAve,2816.26,CHCGILDTO6Y
MA6813400180,h_OCHCTP,10-L1-4,2019-01-24 13:15:00.0,Qmin,8.45,CHCGILDTO6Y
MA6813400180,h_OCHCTP,10-L1-4,2019-01-24 13:15:00.0,PhaseCorrectionAve,-0.183,CHCGILDTO6Y
MA6813400180,h_OCHCTP,10-L1-4,2019-01-24 13:15:00.0,BerPreFecMax,0.00406,CHCGILDTO6Y
MA6813400180,h_OCHCTP,10-L1-4,2019-01-24 13:15:00.0,PmdMin,1.14,CHCGILDTO6Y
MA6813400180,h_OCHCTP,10-L1-4,2019-01-24 13:15:00.0,SoPmdAve,3022.81,CHCGILDTO6Y
MA6813400180,h_OCHCTP,10-L1-4,2019-01-24 13:30:00.0,Qmin,8.45,CHCGILDTO6Y
MA6813400180,h_OCHCTP,10-L1-4,2019-01-24 13:30:00.0,PhaseCorrectionAve,-0.122,CHCGILDTO6Y
MA6813400180,h_OCHCTP,10-L1-4,2019-01-24 13:30:00.0,BerPreFecMax,0.00406,CHCGILDTO6Y
MA6813400180,h_OCHCTP,10-L1-4,2019-01-24 13:30:00.0,PmdMin,3.01,CHCGILDTO6Y
MA6813400180,h_OCHCTP,10-L1-4,2019-01-24 13:30:00.0,SoPmdAve,3003.25,CHCGILDTO6Y
MA6813400180,h_OCHCTP,10-L1-4,2019-01-24 13:45:00.0,Qmin,8.45,CHCGILDTO6Y
MA6813400180,h_OCHCTP,10-L1-4,2019-01-24 13:45:00.0,PhaseCorrectionAve,-0.122,CHCGILDTO6Y
MA6813400180,h_OCHCTP,10-L1-4,2019-01-24 13:45:00.0,BerPreFecMax,0.00407,CHCGILDTO6Y
MA6813400180,h_OCHCTP,10-L1-4,2019-01-24 13:45:00.0,PmdMin,2.85,CHCGILDTO6Y
MA6813400180,h_OCHCTP,10-L1-4,2019-01-24 13:45:00.0,SoPmdAve,2995.54,CHCGILDTO6Y
MA6813400180,h_OCHCTP,10-L1-5,2019-01-24 13:15:00.0,Qmin,8.62,CHCGILDTO6Y
MA6813400180,h_OCHCTP,10-L1-5,2019-01-24 13:15:00.0,PhaseCorrectionAve,-0.244,CHCGILDTO6Y
MA6813400180,h_OCHCTP,10-L1-5,2019-01-24 13:15:00.0,BerPreFecMax,0.0035,CHCGILDTO6Y
MA6813400180,h_OCHCTP,10-L1-5,2019-01-24 13:15:00.0,PmdMin,0.914,CHCGILDTO6Y
MA6813400180,h_OCHCTP,10-L1-5,2019-01-24 13:15:00.0,SoPmdAve,2901.99,CHCGILDTO6Y
MA6813400180,h_OCHCTP,10-L1-5,2019-01-24 13:30:00.0,Qmin,8.62,CHCGILDTO6Y
MA6813400180,h_OCHCTP,10-L1-5,2019-01-24 13:30:00.0,PhaseCorrectionAve,-0.122,CHCGILDTO6Y
MA6813400180,h_OCHCTP,10-L1-5,2019-01-24 13:30:00.0,BerPreFecMax,0.00347,CHCGILDTO6Y
MA6813400180,h_OCHCTP,10-L1-5,2019-01-24 13:30:00.0,PmdMin,1.1,CHCGILDTO6Y
MA6813400180,h_OCHCTP,10-L1-5,2019-01-24 13:30:00.0,SoPmdAve,2928.56,CHCGILDTO6Y
MA6813400180,h_OCHCTP,10-L1-5,2019-01-24 13:45:00.0,Qmin,8.61,CHCGILDTO6Y
MA6813400180,h_OCHCTP,10-L1-5,2019-01-24 13:45:00.0,PhaseCorrectionAve,-0.122,CHCGILDTO6Y
MA6813400180,h_OCHCTP,10-L1-5,2019-01-24 13:45:00.0,BerPreFecMax,0.00353,CHCGILDTO6Y
MA6813400180,h_OCHCTP,10-L1-5,2019-01-24 13:45:00.0,PmdMin,1.32,CHCGILDTO6Y
MA6813400180,h_OCHCTP,10-L1-5,2019-01-24 13:45:00.0,SoPmdAve,2946.43,CHCGILDTO6Y
MA6813400180,h_OCHCTP,10-L1-6,2019-01-24 13:15:00.0,Qmin,8.82,CHCGILDTO6Y
MA6813400180,h_OCHCTP,10-L1-6,2019-01-24 13:15:00.0,PhaseCorrectionAve,-0.305,CHCGILDTO6Y
MA6813400180,h_OCHCTP,10-L1-6,2019-01-24 13:15:00.0,BerPreFecMax,0.00289,CHCGILDTO6Y
MA6813400180,h_OCHCTP,10-L1-6,2019-01-24 13:15:00.0,PmdMin,4.11,CHCGILDTO6Y
MA6813400180,h_OCHCTP,10-L1-6,2019-01-24 13:15:00.0,SoPmdAve,2714.86,CHCGILDTO6Y
MA6813400180,h_OCHCTP,10-L1-6,2019-01-24 13:30:00.0,Qmin,8.81,CHCGILDTO6Y
MA6813400180,h_OCHCTP,10-L1-6,2019-01-24 13:30:00.0,PhaseCorrectionAve,-0.122,CHCGILDTO6Y
MA6813400180,h_OCHCTP,10-L1-6,2019-01-24 13:30:00.0,BerPreFecMax,0.00291,CHCGILDTO6Y
MA6813400180,h_OCHCTP,10-L1-6,2019-01-24 13:30:00.0,PmdMin,3.84,CHCGILDTO6Y
MA6813400180,h_OCHCTP,10-L1-6,2019-01-24 13:30:00.0,SoPmdAve,2749.34,CHCGILDTO6Y
MA6813400180,h_OCHCTP,10-L1-6,2019-01-24 13:45:00.0,Qmin,8.81,CHCGILDTO6Y
MA6813400180,h_OCHCTP,10-L1-6,2019-01-24 13:45:00.0,PhaseCorrectionAve,-0.122,CHCGILDTO6Y
MA6813400180,h_OCHCTP,10-L1-6,2019-01-24 13:45:00.0,BerPreFecMax,0.00291,CHCGILDTO6Y
MA6813400180,h_OCHCTP,10-L1-6,2019-01-24 13:45:00.0,PmdMin,4.18,CHCGILDTO6Y
MA6813400180,h_OCHCTP,10-L1-6,2019-01-24 13:45:00.0,SoPmdAve,2764.24,CHCGILDTO6Y
MA6813400180,h_OCHCTP,10-L1-7,2019-01-24 13:15:00.0,Qmin,8.87,CHCGILDTO6Y
MA6813400180,h_OCHCTP,10-L1-7,2019-01-24 13:15:00.0,PhaseCorrectionAve,-0.305,CHCGILDTO6Y
MA6813400180,h_OCHCTP,10-L1-7,2019-01-24 13:15:00.0,BerPreFecMax,0.00274,CHCGILDTO6Y
MA6813400180,h_OCHCTP,10-L1-7,2019-01-24 13:15:00.0,PmdMin,1.44,CHCGILDTO6Y
MA6813400180,h_OCHCTP,10-L1-7,2019-01-24 13:15:00.0,SoPmdAve,3439.04,CHCGILDTO6Y
MA6813400180,h_OCHCTP,10-L1-7,2019-01-24 13:30:00.0,Qmin,8.88,CHCGILDTO6Y
MA6813400180,h_OCHCTP,10-L1-7,2019-01-24 13:30:00.0,PhaseCorrectionAve,-0.122,CHCGILDTO6Y
MA6813400180,h_OCHCTP,10-L1-7,2019-01-24 13:30:00.0,BerPreFecMax,0.00273,CHCGILDTO6Y
MA6813400180,h_OCHCTP,10-L1-7,2019-01-24 13:30:00.0,PmdMin,2.08,CHCGILDTO6Y
MA6813400180,h_OCHCTP,10-L1-7,2019-01-24 13:30:00.0,SoPmdAve,3413.73,CHCGILDTO6Y
MA6813400180,h_OCHCTP,10-L1-7,2019-01-24 13:45:00.0,Qmin,8.88,CHCGILDTO6Y
MA6813400180,h_OCHCTP,10-L1-7,2019-01-24 13:45:00.0,PhaseCorrectionAve,-0.122,CHCGILDTO6Y
MA6813400180,h_OCHCTP,10-L1-7,2019-01-24 13:45:00.0,BerPreFecMax,0.00273,CHCGILDTO6Y
MA6813400180,h_OCHCTP,10-L1-7,2019-01-24 13:45:00.0,PmdMin,3.11,CHCGILDTO6Y
MA6813400180,h_OCHCTP,10-L1-7,2019-01-24 13:45:00.0,SoPmdAve,3431.85,CHCGILDTO6Y
MA6813400180,h_OCHCTP,10-L1-8,2019-01-24 13:15:00.0,Qmin,9.27,CHCGILDTO6Y
MA6813400180,h_OCHCTP,10-L1-8,2019-01-24 13:15:00.0,PhaseCorrectionAve,-0.305,CHCGILDTO6Y
MA6813400180,h_OCHCTP,10-L1-8,2019-01-24 13:15:00.0,BerPreFecMax,0.00183,CHCGILDTO6Y
MA6813400180,h_OCHCTP,10-L1-8,2019-01-24 13:15:00.0,PmdMin,1.14,CHCGILDTO6Y
MA6813400180,h_OCHCTP,10-L1-8,2019-01-24 13:15:00.0,SoPmdAve,3394.46,CHCGILDTO6Y
MA6813400180,h_OCHCTP,10-L1-8,2019-01-24 13:30:00.0,Qmin,9.25,CHCGILDTO6Y
MA6813400180,h_OCHCTP,10-L1-8,2019-01-24 13:30:00.0,PhaseCorrectionAve,-0.122,CHCGILDTO6Y
MA6813400180,h_OCHCTP,10-L1-8,2019-01-24 13:30:00.0,BerPreFecMax,0.00186,CHCGILDTO6Y
MA6813400180,h_OCHCTP,10-L1-8,2019-01-24 13:30:00.0,PmdMin,4.6,CHCGILDTO6Y
MA6813400180,h_OCHCTP,10-L1-8,2019-01-24 13:30:00.0,SoPmdAve,3462.16,CHCGILDTO6Y
MA6813400180,h_OCHCTP,10-L1-8,2019-01-24 13:45:00.0,Qmin,9.26,CHCGILDTO6Y
MA6813400180,h_OCHCTP,10-L1-8,2019-01-24 13:45:00.0,PhaseCorrectionAve,-0.122,CHCGILDTO6Y
MA6813400180,h_OCHCTP,10-L1-8,2019-01-24 13:45:00.0,BerPreFecMax,0.00184,CHCGILDTO6Y
MA6813400180,h_OCHCTP,10-L1-8,2019-01-24 13:45:00.0,PmdMin,1.69,CHCGILDTO6Y
MA6813400180,h_OCHCTP,10-L1-8,2019-01-24 13:45:00.0,SoPmdAve,3482.49,CHCGILDTO6Y
MA6813400180,h_OCHCTP,10-L1-9,2019-01-24 13:15:00.0,Qmin,9.26,CHCGILDTO6Y
MA6813400180,h_OCHCTP,10-L1-9,2019-01-24 13:15:00.0,PhaseCorrectionAve,-0.366,CHCGILDTO6Y
MA6813400180,h_OCHCTP,10-L1-9,2019-01-24 13:15:00.0,BerPreFecMax,0.00185,CHCGILDTO6Y
MA6813400180,h_OCHCTP,10-L1-9,2019-01-24 13:15:00.0,PmdMin,1.01,CHCGILDTO6Y
MA6813400180,h_OCHCTP,10-L1-9,2019-01-24 13:15:00.0,SoPmdAve,3410.42,CHCGILDTO6Y
MA6813400180,h_OCHCTP,10-L1-9,2019-01-24 13:30:00.0,Qmin,9.24,CHCGILDTO6Y
MA6813400180,h_OCHCTP,10-L1-9,2019-01-24 13:30:00.0,PhaseCorrectionAve,-0.122,CHCGILDTO6Y
MA6813400180,h_OCHCTP,10-L1-9,2019-01-24 13:30:00.0,BerPreFecMax,0.00188,CHCGILDTO6Y
MA6813400180,h_OCHCTP,10-L1-9,2019-01-24 13:30:00.0,PmdMin,2.0,CHCGILDTO6Y
MA6813400180,h_OCHCTP,10-L1-9,2019-01-24 13:30:00.0,SoPmdAve,3493.78,CHCGILDTO6Y
MA6813400180,h_OCHCTP,10-L1-9,2019-01-24 13:45:00.0,Qmin,9.26,CHCGILDTO6Y
MA6813400180,h_OCHCTP,10-L1-9,2019-01-24 13:45:00.0,PhaseCorrectionAve,-0.122,CHCGILDTO6Y
MA6813400180,h_OCHCTP,10-L1-9,2019-01-24 13:45:00.0,BerPreFecMax,0.00185,CHCGILDTO6Y
MA6813400180,h_OCHCTP,10-L1-9,2019-01-24 13:45:00.0,PmdMin,1.63,CHCGILDTO6Y
MA6813400180,h_OCHCTP,10-L1-9,2019-01-24 13:45:00.0,SoPmdAve,3465.1,CHCGILDTO6Y
MA6813400180,h_OCHCTP,10-L1-10,2019-01-24 13:15:00.0,Qmin,9.32,CHCGILDTO6Y
MA6813400180,h_OCHCTP,10-L1-10,2019-01-24 13:15:00.0,PhaseCorrectionAve,-0.427,CHCGILDTO6Y
MA6813400180,h_OCHCTP,10-L1-10,2019-01-24 13:15:00.0,BerPreFecMax,0.00173,CHCGILDTO6Y
MA6813400180,h_OCHCTP,10-L1-10,2019-01-24 13:15:00.0,PmdMin,4.81,CHCGILDTO6Y
MA6813400180,h_OCHCTP,10-L1-10,2019-01-24 13:15:00.0,SoPmdAve,3267.13,CHCGILDTO6Y
MA6813400180,h_OCHCTP,10-L1-10,2019-01-24 13:30:00.0,Qmin,9.3,CHCGILDTO6Y
MA6813400180,h_OCHCTP,10-L1-10,2019-01-24 13:30:00.0,PhaseCorrectionAve,-0.122,CHCGILDTO6Y
MA6813400180,h_OCHCTP,10-L1-10,2019-01-24 13:30:00.0,BerPreFecMax,0.00176,CHCGILDTO6Y
MA6813400180,h_OCHCTP,10-L1-10,2019-01-24 13:30:00.0,PmdMin,2.02,CHCGILDTO6Y
MA6813400180,h_OCHCTP,10-L1-10,2019-01-24 13:30:00.0,SoPmdAve,3269.4,CHCGILDTO6Y
MA6813400180,h_OCHCTP,10-L1-10,2019-01-24 13:45:00.0,Qmin,9.34,CHCGILDTO6Y
MA6813400180,h_OCHCTP,10-L1-10,2019-01-24 13:45:00.0,PhaseCorrectionAve,-0.122,CHCGILDTO6Y
MA6813400180,h_OCHCTP,10-L1-10,2019-01-24 13:45:00.0,BerPreFecMax,0.0017,CHCGILDTO6Y
MA6813400180,h_OCHCTP,10-L1-10,2019-01-24 13:45:00.0,PmdMin,5.06,CHCGILDTO6Y
MA6813400180,h_OCHCTP,10-L1-10,2019-01-24 13:45:00.0,SoPmdAve,3275.76,CHCGILDTO6Y
MA6813400180,h_OCHCTP,11-L1-1,2019-01-24 13:15:00.0,Qmin,9.15,CHCGILDTO6Y
MA6813400180,h_OCHCTP,11-L1-1,2019-01-24 13:15:00.0,PhaseCorrectionAve,1.28e-07,CHCGILDTO6Y
MA6813400180,h_OCHCTP,11-L1-1,2019-01-24 13:15:00.0,BerPreFecMax,0.00207,CHCGILDTO6Y
MA6813400180,h_OCHCTP,11-L1-1,2019-01-24 13:15:00.0,PmdMin,0.791,CHCGILDTO6Y
MA6813400180,h_OCHCTP,11-L1-1,2019-01-24 13:15:00.0,SoPmdAve,3382.64,CHCGILDTO6Y
MA6813400180,h_OCHCTP,11-L1-1,2019-01-24 13:30:00.0,Qmin,9.13,CHCGILDTO6Y
MA6813400180,h_OCHCTP,11-L1-1,2019-01-24 13:30:00.0,PhaseCorrectionAve,1.32e-07,CHCGILDTO6Y
MA6813400180,h_OCHCTP,11-L1-1,2019-01-24 13:30:00.0,BerPreFecMax,0.0021,CHCGILDTO6Y
MA6813400180,h_OCHCTP,11-L1-1,2019-01-24 13:30:00.0,PmdMin,0.833,CHCGILDTO6Y
MA6813400180,h_OCHCTP,11-L1-1,2019-01-24 13:30:00.0,SoPmdAve,3349.08,CHCGILDTO6Y
MA6813400180,h_OCHCTP,11-L1-1,2019-01-24 13:45:00.0,Qmin,9.17,CHCGILDTO6Y
MA6813400180,h_OCHCTP,11-L1-1,2019-01-24 13:45:00.0,PhaseCorrectionAve,1.23e-07,CHCGILDTO6Y
MA6813400180,h_OCHCTP,11-L1-1,2019-01-24 13:45:00.0,BerPreFecMax,0.00203,CHCGILDTO6Y
MA6813400180,h_OCHCTP,11-L1-1,2019-01-24 13:45:00.0,PmdMin,0.385,CHCGILDTO6Y
MA6813400180,h_OCHCTP,11-L1-1,2019-01-24 13:45:00.0,SoPmdAve,3327.32,CHCGILDTO6Y
MA6813400180,h_OCHCTP,11-L1-2,2019-01-24 13:15:00.0,Qmin,9.08,CHCGILDTO6Y
MA6813400180,h_OCHCTP,11-L1-2,2019-01-24 13:15:00.0,PhaseCorrectionAve,4.22e-07,CHCGILDTO6Y
MA6813400180,h_OCHCTP,11-L1-2,2019-01-24 13:15:00.0,BerPreFecMax,0.00222,CHCGILDTO6Y
MA6813400180,h_OCHCTP,11-L1-2,2019-01-24 13:15:00.0,PmdMin,1.16,CHCGILDTO6Y
MA6813400180,h_OCHCTP,11-L1-2,2019-01-24 13:15:00.0,SoPmdAve,3147.63,CHCGILDTO6Y
MA6813400180,h_OCHCTP,11-L1-2,2019-01-24 13:30:00.0,Qmin,9.06,CHCGILDTO6Y
MA6813400180,h_OCHCTP,11-L1-2,2019-01-24 13:30:00.0,PhaseCorrectionAve,-0.061,CHCGILDTO6Y
MA6813400180,h_OCHCTP,11-L1-2,2019-01-24 13:30:00.0,BerPreFecMax,0.00228,CHCGILDTO6Y
MA6813400180,h_OCHCTP,11-L1-2,2019-01-24 13:30:00.0,PmdMin,0.968,CHCGILDTO6Y
MA6813400180,h_OCHCTP,11-L1-2,2019-01-24 13:30:00.0,SoPmdAve,3168.86,CHCGILDTO6Y
MA6813400180,h_OCHCTP,11-L1-2,2019-01-24 13:45:00.0,Qmin,9.1,CHCGILDTO6Y
MA6813400180,h_OCHCTP,11-L1-2,2019-01-24 13:45:00.0,PhaseCorrectionAve,3.99e-07,CHCGILDTO6Y
MA6813400180,h_OCHCTP,11-L1-2,2019-01-24 13:45:00.0,BerPreFecMax,0.00217,CHCGILDTO6Y
MA6813400180,h_OCHCTP,11-L1-2,2019-01-24 13:45:00.0,PmdMin,0.722,CHCGILDTO6Y
MA6813400180,h_OCHCTP,11-L1-2,2019-01-24 13:45:00.0,SoPmdAve,3219.48,CHCGILDTO6Y
MA6813400180,h_OCHCTP,11-L1-3,2019-01-24 13:15:00.0,Qmin,8.96,CHCGILDTO6Y
MA6813400180,h_OCHCTP,11-L1-3,2019-01-24 13:15:00.0,PhaseCorrectionAve,-0.122,CHCGILDTO6Y
MA6813400180,h_OCHCTP,11-L1-3,2019-01-24 13:15:00.0,BerPreFecMax,0.0025,CHCGILDTO6Y
MA6813400180,h_OCHCTP,11-L1-3,2019-01-24 13:15:00.0,PmdMin,0.925,CHCGILDTO6Y
MA6813400180,h_OCHCTP,11-L1-3,2019-01-24 13:15:00.0,SoPmdAve,2652.22,CHCGILDTO6Y
MA6813400180,h_OCHCTP,11-L1-3,2019-01-24 13:30:00.0,Qmin,9.03,CHCGILDTO6Y
MA6813400180,h_OCHCTP,11-L1-3,2019-01-24 13:30:00.0,PhaseCorrectionAve,-0.122,CHCGILDTO6Y
MA6813400180,h_OCHCTP,11-L1-3,2019-01-24 13:30:00.0,BerPreFecMax,0.00234,CHCGILDTO6Y
MA6813400180,h_OCHCTP,11-L1-3,2019-01-24 13:30:00.0,PmdMin,1.07,CHCGILDTO6Y
MA6813400180,h_OCHCTP,11-L1-3,2019-01-24 13:30:00.0,SoPmdAve,2696.15,CHCGILDTO6Y
MA6813400180,h_OCHCTP,11-L1-3,2019-01-24 13:45:00.0,Qmin,9.01,CHCGILDTO6Y
MA6813400180,h_OCHCTP,11-L1-3,2019-01-24 13:45:00.0,PhaseCorrectionAve,3.54e-07,CHCGILDTO6Y
MA6813400180,h_OCHCTP,11-L1-3,2019-01-24 13:45:00.0,BerPreFecMax,0.00238,CHCGILDTO6Y
MA6813400180,h_OCHCTP,11-L1-3,2019-01-24 13:45:00.0,PmdMin,0.493,CHCGILDTO6Y
MA6813400180,h_OCHCTP,11-L1-3,2019-01-24 13:45:00.0,SoPmdAve,2747.3,CHCGILDTO6Y
MA6813400180,h_OCHCTP,11-L1-4,2019-01-24 13:15:00.0,Qmin,8.86,CHCGILDTO6Y
MA6813400180,h_OCHCTP,11-L1-4,2019-01-24 13:15:00.0,PhaseCorrectionAve,-0.122,CHCGILDTO6Y
MA6813400180,h_OCHCTP,11-L1-4,2019-01-24 13:15:00.0,BerPreFecMax,0.00278,CHCGILDTO6Y
MA6813400180,h_OCHCTP,11-L1-4,2019-01-24 13:15:00.0,PmdMin,1.07,CHCGILDTO6Y
MA6813400180,h_OCHCTP,11-L1-4,2019-01-24 13:15:00.0,SoPmdAve,2956.81,CHCGILDTO6Y
MA6813400180,h_OCHCTP,11-L1-4,2019-01-24 13:30:00.0,Qmin,8.86,CHCGILDTO6Y
MA6813400180,h_OCHCTP,11-L1-4,2019-01-24 13:30:00.0,PhaseCorrectionAve,-0.122,CHCGILDTO6Y
MA6813400180,h_OCHCTP,11-L1-4,2019-01-24 13:30:00.0,BerPreFecMax,0.00277,CHCGILDTO6Y
MA6813400180,h_OCHCTP,11-L1-4,2019-01-24 13:30:00.0,PmdMin,0.892,CHCGILDTO6Y
MA6813400180,h_OCHCTP,11-L1-4,2019-01-24 13:30:00.0,SoPmdAve,3056.49,CHCGILDTO6Y
MA6813400180,h_OCHCTP,11-L1-4,2019-01-24 13:45:00.0,Qmin,8.85,CHCGILDTO6Y
MA6813400180,h_OCHCTP,11-L1-4,2019-01-24 13:45:00.0,PhaseCorrectionAve,3.92e-07,CHCGILDTO6Y
MA6813400180,h_OCHCTP,11-L1-4,2019-01-24 13:45:00.0,BerPreFecMax,0.00281,CHCGILDTO6Y
MA6813400180,h_OCHCTP,11-L1-4,2019-01-24 13:45:00.0,PmdMin,0.969,CHCGILDTO6Y
MA6813400180,h_OCHCTP,11-L1-4,2019-01-24 13:45:00.0,SoPmdAve,2958.65,CHCGILDTO6Y
MA6813400180,h_OCHCTP,11-L1-5,2019-01-24 13:15:00.0,Qmin,8.91,CHCGILDTO6Y
MA6813400180,h_OCHCTP,11-L1-5,2019-01-24 13:15:00.0,PhaseCorrectionAve,-0.183,CHCGILDTO6Y
MA6813400180,h_OCHCTP,11-L1-5,2019-01-24 13:15:00.0,BerPreFecMax,0.00265,CHCGILDTO6Y
MA6813400180,h_OCHCTP,11-L1-5,2019-01-24 13:15:00.0,PmdMin,0.583,CHCGILDTO6Y
MA6813400180,h_OCHCTP,11-L1-5,2019-01-24 13:15:00.0,SoPmdAve,2539.46,CHCGILDTO6Y
MA6813400180,h_OCHCTP,11-L1-5,2019-01-24 13:30:00.0,Qmin,8.91,CHCGILDTO6Y
MA6813400180,h_OCHCTP,11-L1-5,2019-01-24 13:30:00.0,PhaseCorrectionAve,-0.122,CHCGILDTO6Y
MA6813400180,h_OCHCTP,11-L1-5,2019-01-24 13:30:00.0,BerPreFecMax,0.00263,CHCGILDTO6Y
MA6813400180,h_OCHCTP,11-L1-5,2019-01-24 13:30:00.0,PmdMin,1.06,CHCGILDTO6Y
MA6813400180,h_OCHCTP,11-L1-5,2019-01-24 13:30:00.0,SoPmdAve,2531.06,CHCGILDTO6Y
MA6813400180,h_OCHCTP,11-L1-5,2019-01-24 13:45:00.0,Qmin,8.94,CHCGILDTO6Y
MA6813400180,h_OCHCTP,11-L1-5,2019-01-24 13:45:00.0,PhaseCorrectionAve,1.58e-07,CHCGILDTO6Y
MA6813400180,h_OCHCTP,11-L1-5,2019-01-24 13:45:00.0,BerPreFecMax,0.00257,CHCGILDTO6Y
MA6813400180,h_OCHCTP,11-L1-5,2019-01-24 13:45:00.0,PmdMin,0.891,CHCGILDTO6Y
MA6813400180,h_OCHCTP,11-L1-5,2019-01-24 13:45:00.0,SoPmdAve,2513.26,CHCGILDTO6Y
MA6813400180,h_OCHCTP,11-L1-6,2019-01-24 13:15:00.0,Qmin,8.82,CHCGILDTO6Y
MA6813400180,h_OCHCTP,11-L1-6,2019-01-24 13:15:00.0,PhaseCorrectionAve,-0.183,CHCGILDTO6Y
MA6813400180,h_OCHCTP,11-L1-6,2019-01-24 13:15:00.0,BerPreFecMax,0.0029,CHCGILDTO6Y
MA6813400180,h_OCHCTP,11-L1-6,2019-01-24 13:15:00.0,PmdMin,0.741,CHCGILDTO6Y
MA6813400180,h_OCHCTP,11-L1-6,2019-01-24 13:15:00.0,SoPmdAve,2559.85,CHCGILDTO6Y
MA6813400180,h_OCHCTP,11-L1-6,2019-01-24 13:30:00.0,Qmin,8.84,CHCGILDTO6Y
MA6813400180,h_OCHCTP,11-L1-6,2019-01-24 13:30:00.0,PhaseCorrectionAve,-0.122,CHCGILDTO6Y
MA6813400180,h_OCHCTP,11-L1-6,2019-01-24 13:30:00.0,BerPreFecMax,0.00282,CHCGILDTO6Y
MA6813400180,h_OCHCTP,11-L1-6,2019-01-24 13:30:00.0,PmdMin,0.72,CHCGILDTO6Y
MA6813400180,h_OCHCTP,11-L1-6,2019-01-24 13:30:00.0,SoPmdAve,2548.56,CHCGILDTO6Y
MA6813400180,h_OCHCTP,11-L1-6,2019-01-24 13:45:00.0,Qmin,8.87,CHCGILDTO6Y
MA6813400180,h_OCHCTP,11-L1-6,2019-01-24 13:45:00.0,PhaseCorrectionAve,4.24e-07,CHCGILDTO6Y
MA6813400180,h_OCHCTP,11-L1-6,2019-01-24 13:45:00.0,BerPreFecMax,0.00274,CHCGILDTO6Y
MA6813400180,h_OCHCTP,11-L1-6,2019-01-24 13:45:00.0,PmdMin,0.887,CHCGILDTO6Y
MA6813400180,h_OCHCTP,11-L1-6,2019-01-24 13:45:00.0,SoPmdAve,2485.58,CHCGILDTO6Y
MA6813400180,h_OCHCTP,11-L1-7,2019-01-24 13:15:00.0,Qmin,8.84,CHCGILDTO6Y
MA6813400180,h_OCHCTP,11-L1-7,2019-01-24 13:15:00.0,PhaseCorrectionAve,-0.244,CHCGILDTO6Y
MA6813400180,h_OCHCTP,11-L1-7,2019-01-24 13:15:00.0,BerPreFecMax,0.00282,CHCGILDTO6Y
MA6813400180,h_OCHCTP,11-L1-7,2019-01-24 13:15:00.0,PmdMin,1.46,CHCGILDTO6Y
MA6813400180,h_OCHCTP,11-L1-7,2019-01-24 13:15:00.0,SoPmdAve,2991.62,CHCGILDTO6Y
MA6813400180,h_OCHCTP,11-L1-7,2019-01-24 13:30:00.0,Qmin,8.88,CHCGILDTO6Y
MA6813400180,h_OCHCTP,11-L1-7,2019-01-24 13:30:00.0,PhaseCorrectionAve,-0.244,CHCGILDTO6Y
MA6813400180,h_OCHCTP,11-L1-7,2019-01-24 13:30:00.0,BerPreFecMax,0.00272,CHCGILDTO6Y
MA6813400180,h_OCHCTP,11-L1-7,2019-01-24 13:30:00.0,PmdMin,0.768,CHCGILDTO6Y
MA6813400180,h_OCHCTP,11-L1-7,2019-01-24 13:30:00.0,SoPmdAve,3074.48,CHCGILDTO6Y
MA6813400180,h_OCHCTP,11-L1-7,2019-01-24 13:45:00.0,Qmin,8.94,CHCGILDTO6Y
MA6813400180,h_OCHCTP,11-L1-7,2019-01-24 13:45:00.0,PhaseCorrectionAve,-0.061,CHCGILDTO6Y
MA6813400180,h_OCHCTP,11-L1-7,2019-01-24 13:45:00.0,BerPreFecMax,0.00257,CHCGILDTO6Y
MA6813400180,h_OCHCTP,11-L1-7,2019-01-24 13:45:00.0,PmdMin,1.0,CHCGILDTO6Y
MA6813400180,h_OCHCTP,11-L1-7,2019-01-24 13:45:00.0,SoPmdAve,3067.26,CHCGILDTO6Y
MA6813400180,h_OCHCTP,11-L1-8,2019-01-24 13:15:00.0,Qmin,8.9,CHCGILDTO6Y
MA6813400180,h_OCHCTP,11-L1-8,2019-01-24 13:15:00.0,PhaseCorrectionAve,-0.244,CHCGILDTO6Y
MA6813400180,h_OCHCTP,11-L1-8,2019-01-24 13:15:00.0,BerPreFecMax,0.00268,CHCGILDTO6Y
MA6813400180,h_OCHCTP,11-L1-8,2019-01-24 13:15:00.0,PmdMin,0.627,CHCGILDTO6Y
MA6813400180,h_OCHCTP,11-L1-8,2019-01-24 13:15:00.0,SoPmdAve,3165.39,CHCGILDTO6Y
MA6813400180,h_OCHCTP,11-L1-8,2019-01-24 13:30:00.0,Qmin,8.87,CHCGILDTO6Y
MA6813400180,h_OCHCTP,11-L1-8,2019-01-24 13:30:00.0,PhaseCorrectionAve,-0.244,CHCGILDTO6Y
MA6813400180,h_OCHCTP,11-L1-8,2019-01-24 13:30:00.0,BerPreFecMax,0.00273,CHCGILDTO6Y
MA6813400180,h_OCHCTP,11-L1-8,2019-01-24 13:30:00.0,PmdMin,0.524,CHCGILDTO6Y
MA6813400180,h_OCHCTP,11-L1-8,2019-01-24 13:30:00.0,SoPmdAve,3111.45,CHCGILDTO6Y
MA6813400180,h_OCHCTP,11-L1-8,2019-01-24 13:45:00.0,Qmin,8.93,CHCGILDTO6Y
MA6813400180,h_OCHCTP,11-L1-8,2019-01-24 13:45:00.0,PhaseCorrectionAve,-0.061,CHCGILDTO6Y
MA6813400180,h_OCHCTP,11-L1-8,2019-01-24 13:45:00.0,BerPreFecMax,0.0026,CHCGILDTO6Y
MA6813400180,h_OCHCTP,11-L1-8,2019-01-24 13:45:00.0,PmdMin,0.623,CHCGILDTO6Y
MA6813400180,h_OCHCTP,11-L1-8,2019-01-24 13:45:00.0,SoPmdAve,3103.74,CHCGILDTO6Y
MA6813400180,h_OCHCTP,11-L1-9,2019-01-24 13:15:00.0,Qmin,8.86,CHCGILDTO6Y
MA6813400180,h_OCHCTP,11-L1-9,2019-01-24 13:15:00.0,PhaseCorrectionAve,-0.244,CHCGILDTO6Y
MA6813400180,h_OCHCTP,11-L1-9,2019-01-24 13:15:00.0,BerPreFecMax,0.00277,CHCGILDTO6Y
MA6813400180,h_OCHCTP,11-L1-9,2019-01-24 13:15:00.0,PmdMin,0.799,CHCGILDTO6Y
MA6813400180,h_OCHCTP,11-L1-9,2019-01-24 13:15:00.0,SoPmdAve,3074.37,CHCGILDTO6Y
MA6813400180,h_OCHCTP,11-L1-9,2019-01-24 13:30:00.0,Qmin,8.87,CHCGILDTO6Y
MA6813400180,h_OCHCTP,11-L1-9,2019-01-24 13:30:00.0,PhaseCorrectionAve,-0.305,CHCGILDTO6Y
MA6813400180,h_OCHCTP,11-L1-9,2019-01-24 13:30:00.0,BerPreFecMax,0.00274,CHCGILDTO6Y
MA6813400180,h_OCHCTP,11-L1-9,2019-01-24 13:30:00.0,PmdMin,0.927,CHCGILDTO6Y
MA6813400180,h_OCHCTP,11-L1-9,2019-01-24 13:30:00.0,SoPmdAve,3093.89,CHCGILDTO6Y
MA6813400180,h_OCHCTP,11-L1-9,2019-01-24 13:45:00.0,Qmin,8.9,CHCGILDTO6Y
MA6813400180,h_OCHCTP,11-L1-9,2019-01-24 13:45:00.0,PhaseCorrectionAve,-0.122,CHCGILDTO6Y
MA6813400180,h_OCHCTP,11-L1-9,2019-01-24 13:45:00.0,BerPreFecMax,0.00266,CHCGILDTO6Y
MA6813400180,h_OCHCTP,11-L1-9,2019-01-24 13:45:00.0,PmdMin,0.481,CHCGILDTO6Y
MA6813400180,h_OCHCTP,11-L1-9,2019-01-24 13:45:00.0,SoPmdAve,3165.01,CHCGILDTO6Y
MA6813400180,h_OCHCTP,11-L1-10,2019-01-24 13:15:00.0,Qmin,8.98,CHCGILDTO6Y
MA6813400180,h_OCHCTP,11-L1-10,2019-01-24 13:15:00.0,PhaseCorrectionAve,-0.244,CHCGILDTO6Y
MA6813400180,h_OCHCTP,11-L1-10,2019-01-24 13:15:00.0,BerPreFecMax,0.00247,CHCGILDTO6Y
MA6813400180,h_OCHCTP,11-L1-10,2019-01-24 13:15:00.0,PmdMin,0.848,CHCGILDTO6Y
MA6813400180,h_OCHCTP,11-L1-10,2019-01-24 13:15:00.0,SoPmdAve,3080.66,CHCGILDTO6Y
MA6813400180,h_OCHCTP,11-L1-10,2019-01-24 13:30:00.0,Qmin,9.0,CHCGILDTO6Y
MA6813400180,h_OCHCTP,11-L1-10,2019-01-24 13:30:00.0,PhaseCorrectionAve,-0.305,CHCGILDTO6Y
MA6813400180,h_OCHCTP,11-L1-10,2019-01-24 13:30:00.0,BerPreFecMax,0.00242,CHCGILDTO6Y
MA6813400180,h_OCHCTP,11-L1-10,2019-01-24 13:30:00.0,PmdMin,0.344,CHCGILDTO6Y
MA6813400180,h_OCHCTP,11-L1-10,2019-01-24 13:30:00.0,SoPmdAve,3069.25,CHCGILDTO6Y
MA6813400180,h_OCHCTP,11-L1-10,2019-01-24 13:45:00.0,Qmin,9.03,CHCGILDTO6Y
MA6813400180,h_OCHCTP,11-L1-10,2019-01-24 13:45:00.0,PhaseCorrectionAve,-0.122,CHCGILDTO6Y
MA6813400180,h_OCHCTP,11-L1-10,2019-01-24 13:45:00.0,BerPreFecMax,0.00235,CHCGILDTO6Y
MA6813400180,h_OCHCTP,11-L1-10,2019-01-24 13:45:00.0,PmdMin,0.382,CHCGILDTO6Y
MA6813400180,h_OCHCTP,11-L1-10,2019-01-24 13:45:00.0,SoPmdAve,3191.32,CHCGILDTO6Y
MA6813400180,h_OCHCTP,13-L1-1,2019-01-24 13:15:00.0,Qmin,9.14,CHCGILDTO6Y
MA6813400180,h_OCHCTP,13-L1-1,2019-01-24 13:15:00.0,PhaseCorrectionAve,2.41e-07,CHCGILDTO6Y
MA6813400180,h_OCHCTP,13-L1-1,2019-01-24 13:15:00.0,BerPreFecMax,0.00209,CHCGILDTO6Y
MA6813400180,h_OCHCTP,13-L1-1,2019-01-24 13:15:00.0,PmdMin,0.605,CHCGILDTO6Y
MA6813400180,h_OCHCTP,13-L1-1,2019-01-24 13:15:00.0,SoPmdAve,3400.54,CHCGILDTO6Y
MA6813400180,h_OCHCTP,13-L1-1,2019-01-24 13:30:00.0,Qmin,9.15,CHCGILDTO6Y
MA6813400180,h_OCHCTP,13-L1-1,2019-01-24 13:30:00.0,PhaseCorrectionAve,2.62e-07,CHCGILDTO6Y
MA6813400180,h_OCHCTP,13-L1-1,2019-01-24 13:30:00.0,BerPreFecMax,0.00207,CHCGILDTO6Y
MA6813400180,h_OCHCTP,13-L1-1,2019-01-24 13:30:00.0,PmdMin,1.33,CHCGILDTO6Y
MA6813400180,h_OCHCTP,13-L1-1,2019-01-24 13:30:00.0,SoPmdAve,3540.93,CHCGILDTO6Y
MA6813400180,h_OCHCTP,13-L1-1,2019-01-24 13:45:00.0,Qmin,9.18,CHCGILDTO6Y
MA6813400180,h_OCHCTP,13-L1-1,2019-01-24 13:45:00.0,PhaseCorrectionAve,2.4e-07,CHCGILDTO6Y
MA6813400180,h_OCHCTP,13-L1-1,2019-01-24 13:45:00.0,BerPreFecMax,0.002,CHCGILDTO6Y
MA6813400180,h_OCHCTP,13-L1-1,2019-01-24 13:45:00.0,PmdMin,1.31,CHCGILDTO6Y
MA6813400180,h_OCHCTP,13-L1-1,2019-01-24 13:45:00.0,SoPmdAve,3527.43,CHCGILDTO6Y
MA6813400180,h_OCHCTP,13-L1-2,2019-01-24 13:15:00.0,Qmin,9.12,CHCGILDTO6Y
MA6813400180,h_OCHCTP,13-L1-2,2019-01-24 13:15:00.0,PhaseCorrectionAve,-0.061,CHCGILDTO6Y
MA6813400180,h_OCHCTP,13-L1-2,2019-01-24 13:15:00.0,BerPreFecMax,0.00213,CHCGILDTO6Y
MA6813400180,h_OCHCTP,13-L1-2,2019-01-24 13:15:00.0,PmdMin,1.04,CHCGILDTO6Y
MA6813400180,h_OCHCTP,13-L1-2,2019-01-24 13:15:00.0,SoPmdAve,3530.94,CHCGILDTO6Y
MA6813400180,h_OCHCTP,13-L1-2,2019-01-24 13:30:00.0,Qmin,9.13,CHCGILDTO6Y
MA6813400180,h_OCHCTP,13-L1-2,2019-01-24 13:30:00.0,PhaseCorrectionAve,3.62e-07,CHCGILDTO6Y
MA6813400180,h_OCHCTP,13-L1-2,2019-01-24 13:30:00.0,BerPreFecMax,0.00211,CHCGILDTO6Y
MA6813400180,h_OCHCTP,13-L1-2,2019-01-24 13:30:00.0,PmdMin,0.757,CHCGILDTO6Y
MA6813400180,h_OCHCTP,13-L1-2,2019-01-24 13:30:00.0,SoPmdAve,3484.8,CHCGILDTO6Y
MA6813400180,h_OCHCTP,13-L1-2,2019-01-24 13:45:00.0,Qmin,9.16,CHCGILDTO6Y
MA6813400180,h_OCHCTP,13-L1-2,2019-01-24 13:45:00.0,PhaseCorrectionAve,3.29e-07,CHCGILDTO6Y
MA6813400180,h_OCHCTP,13-L1-2,2019-01-24 13:45:00.0,BerPreFecMax,0.00204,CHCGILDTO6Y
MA6813400180,h_OCHCTP,13-L1-2,2019-01-24 13:45:00.0,PmdMin,1.44,CHCGILDTO6Y
MA6813400180,h_OCHCTP,13-L1-2,2019-01-24 13:45:00.0,SoPmdAve,3512.05,CHCGILDTO6Y
MA6813400180,h_OCHCTP,13-L1-3,2019-01-24 13:15:00.0,Qmin,9.0,CHCGILDTO6Y
MA6813400180,h_OCHCTP,13-L1-3,2019-01-24 13:15:00.0,PhaseCorrectionAve,-0.061,CHCGILDTO6Y
MA6813400180,h_OCHCTP,13-L1-3,2019-01-24 13:15:00.0,BerPreFecMax,0.00242,CHCGILDTO6Y
MA6813400180,h_OCHCTP,13-L1-3,2019-01-24 13:15:00.0,PmdMin,0.88,CHCGILDTO6Y
MA6813400180,h_OCHCTP,13-L1-3,2019-01-24 13:15:00.0,SoPmdAve,2967.52,CHCGILDTO6Y
MA6813400180,h_OCHCTP,13-L1-3,2019-01-24 13:30:00.0,Qmin,9.02,CHCGILDTO6Y
MA6813400180,h_OCHCTP,13-L1-3,2019-01-24 13:30:00.0,PhaseCorrectionAve,4.93e-07,CHCGILDTO6Y
MA6813400180,h_OCHCTP,13-L1-3,2019-01-24 13:30:00.0,BerPreFecMax,0.00235,CHCGILDTO6Y
MA6813400180,h_OCHCTP,13-L1-3,2019-01-24 13:30:00.0,PmdMin,0.788,CHCGILDTO6Y
MA6813400180,h_OCHCTP,13-L1-3,2019-01-24 13:30:00.0,SoPmdAve,2921.06,CHCGILDTO6Y
MA6813400180,h_OCHCTP,13-L1-3,2019-01-24 13:45:00.0,Qmin,9.01,CHCGILDTO6Y
MA6813400180,h_OCHCTP,13-L1-3,2019-01-24 13:45:00.0,PhaseCorrectionAve,4.68e-07,CHCGILDTO6Y
MA6813400180,h_OCHCTP,13-L1-3,2019-01-24 13:45:00.0,BerPreFecMax,0.00239,CHCGILDTO6Y
MA6813400180,h_OCHCTP,13-L1-3,2019-01-24 13:45:00.0,PmdMin,0.839,CHCGILDTO6Y
MA6813400180,h_OCHCTP,13-L1-3,2019-01-24 13:45:00.0,SoPmdAve,2930.1,CHCGILDTO6Y
MA6813400180,h_OCHCTP,13-L1-4,2019-01-24 13:15:00.0,Qmin,8.84,CHCGILDTO6Y
MA6813400180,h_OCHCTP,13-L1-4,2019-01-24 13:15:00.0,PhaseCorrectionAve,-0.061,CHCGILDTO6Y
MA6813400180,h_OCHCTP,13-L1-4,2019-01-24 13:15:00.0,BerPreFecMax,0.00284,CHCGILDTO6Y
MA6813400180,h_OCHCTP,13-L1-4,2019-01-24 13:15:00.0,PmdMin,0.969,CHCGILDTO6Y
MA6813400180,h_OCHCTP,13-L1-4,2019-01-24 13:15:00.0,SoPmdAve,3424.73,CHCGILDTO6Y
MA6813400180,h_OCHCTP,13-L1-4,2019-01-24 13:30:00.0,Qmin,8.83,CHCGILDTO6Y
MA6813400180,h_OCHCTP,13-L1-4,2019-01-24 13:30:00.0,PhaseCorrectionAve,3.87e-07,CHCGILDTO6Y
MA6813400180,h_OCHCTP,13-L1-4,2019-01-24 13:30:00.0,BerPreFecMax,0.00285,CHCGILDTO6Y
MA6813400180,h_OCHCTP,13-L1-4,2019-01-24 13:30:00.0,PmdMin,0.587,CHCGILDTO6Y
MA6813400180,h_OCHCTP,13-L1-4,2019-01-24 13:30:00.0,SoPmdAve,3366.74,CHCGILDTO6Y
MA6813400180,h_OCHCTP,13-L1-4,2019-01-24 13:45:00.0,Qmin,8.84,CHCGILDTO6Y
MA6813400180,h_OCHCTP,13-L1-4,2019-01-24 13:45:00.0,PhaseCorrectionAve,-0.061,CHCGILDTO6Y
MA6813400180,h_OCHCTP,13-L1-4,2019-01-24 13:45:00.0,BerPreFecMax,0.00282,CHCGILDTO6Y
MA6813400180,h_OCHCTP,13-L1-4,2019-01-24 13:45:00.0,PmdMin,0.459,CHCGILDTO6Y
MA6813400180,h_OCHCTP,13-L1-4,2019-01-24 13:45:00.0,SoPmdAve,3310.35,CHCGILDTO6Y
MA6813400180,h_OCHCTP,13-L1-5,2019-01-24 13:15:00.0,Qmin,8.83,CHCGILDTO6Y
MA6813400180,h_OCHCTP,13-L1-5,2019-01-24 13:15:00.0,PhaseCorrectionAve,-0.061,CHCGILDTO6Y
MA6813400180,h_OCHCTP,13-L1-5,2019-01-24 13:15:00.0,BerPreFecMax,0.00285,CHCGILDTO6Y
MA6813400180,h_OCHCTP,13-L1-5,2019-01-24 13:15:00.0,PmdMin,0.845,CHCGILDTO6Y
MA6813400180,h_OCHCTP,13-L1-5,2019-01-24 13:15:00.0,SoPmdAve,2822.61,CHCGILDTO6Y
MA6813400180,h_OCHCTP,13-L1-5,2019-01-24 13:30:00.0,Qmin,8.8,CHCGILDTO6Y
MA6813400180,h_OCHCTP,13-L1-5,2019-01-24 13:30:00.0,PhaseCorrectionAve,2.71e-07,CHCGILDTO6Y
MA6813400180,h_OCHCTP,13-L1-5,2019-01-24 13:30:00.0,BerPreFecMax,0.00293,CHCGILDTO6Y
MA6813400180,h_OCHCTP,13-L1-5,2019-01-24 13:30:00.0,PmdMin,0.337,CHCGILDTO6Y
MA6813400180,h_OCHCTP,13-L1-5,2019-01-24 13:30:00.0,SoPmdAve,2797.45,CHCGILDTO6Y
MA6813400180,h_OCHCTP,13-L1-5,2019-01-24 13:45:00.0,Qmin,8.85,CHCGILDTO6Y
MA6813400180,h_OCHCTP,13-L1-5,2019-01-24 13:45:00.0,PhaseCorrectionAve,-0.061,CHCGILDTO6Y
MA6813400180,h_OCHCTP,13-L1-5,2019-01-24 13:45:00.0,BerPreFecMax,0.0028,CHCGILDTO6Y
MA6813400180,h_OCHCTP,13-L1-5,2019-01-24 13:45:00.0,PmdMin,0.908,CHCGILDTO6Y
MA6813400180,h_OCHCTP,13-L1-5,2019-01-24 13:45:00.0,SoPmdAve,2849.75,CHCGILDTO6Y
MA6813400180,h_OCHCTP,13-L1-6,2019-01-24 13:15:00.0,Qmin,8.83,CHCGILDTO6Y
MA6813400180,h_OCHCTP,13-L1-6,2019-01-24 13:15:00.0,PhaseCorrectionAve,-0.061,CHCGILDTO6Y
MA6813400180,h_OCHCTP,13-L1-6,2019-01-24 13:15:00.0,BerPreFecMax,0.00285,CHCGILDTO6Y
MA6813400180,h_OCHCTP,13-L1-6,2019-01-24 13:15:00.0,PmdMin,0.727,CHCGILDTO6Y
MA6813400180,h_OCHCTP,13-L1-6,2019-01-24 13:15:00.0,SoPmdAve,3126.76,CHCGILDTO6Y
MA6813400180,h_OCHCTP,13-L1-6,2019-01-24 13:30:00.0,Qmin,8.85,CHCGILDTO6Y
MA6813400180,h_OCHCTP,13-L1-6,2019-01-24 13:30:00.0,PhaseCorrectionAve,-0.061,CHCGILDTO6Y
MA6813400180,h_OCHCTP,13-L1-6,2019-01-24 13:30:00.0,BerPreFecMax,0.0028,CHCGILDTO6Y
MA6813400180,h_OCHCTP,13-L1-6,2019-01-24 13:30:00.0,PmdMin,1.36,CHCGILDTO6Y
MA6813400180,h_OCHCTP,13-L1-6,2019-01-24 13:30:00.0,SoPmdAve,3091.94,CHCGILDTO6Y
MA6813400180,h_OCHCTP,13-L1-6,2019-01-24 13:45:00.0,Qmin,8.88,CHCGILDTO6Y
MA6813400180,h_OCHCTP,13-L1-6,2019-01-24 13:45:00.0,PhaseCorrectionAve,-0.061,CHCGILDTO6Y
MA6813400180,h_OCHCTP,13-L1-6,2019-01-24 13:45:00.0,BerPreFecMax,0.00271,CHCGILDTO6Y
MA6813400180,h_OCHCTP,13-L1-6,2019-01-24 13:45:00.0,PmdMin,0.778,CHCGILDTO6Y
MA6813400180,h_OCHCTP,13-L1-6,2019-01-24 13:45:00.0,SoPmdAve,3058.71,CHCGILDTO6Y
MA6813400180,h_OCHCTP,13-L1-7,2019-01-24 13:15:00.0,Qmin,8.82,CHCGILDTO6Y
MA6813400180,h_OCHCTP,13-L1-7,2019-01-24 13:15:00.0,PhaseCorrectionAve,-0.061,CHCGILDTO6Y
MA6813400180,h_OCHCTP,13-L1-7,2019-01-24 13:15:00.0,BerPreFecMax,0.00287,CHCGILDTO6Y
MA6813400180,h_OCHCTP,13-L1-7,2019-01-24 13:15:00.0,PmdMin,0.67,CHCGILDTO6Y
MA6813400180,h_OCHCTP,13-L1-7,2019-01-24 13:15:00.0,SoPmdAve,3823.41,CHCGILDTO6Y
MA6813400180,h_OCHCTP,13-L1-7,2019-01-24 13:30:00.0,Qmin,8.81,CHCGILDTO6Y
MA6813400180,h_OCHCTP,13-L1-7,2019-01-24 13:30:00.0,PhaseCorrectionAve,-0.061,CHCGILDTO6Y
MA6813400180,h_OCHCTP,13-L1-7,2019-01-24 13:30:00.0,BerPreFecMax,0.00291,CHCGILDTO6Y
MA6813400180,h_OCHCTP,13-L1-7,2019-01-24 13:30:00.0,PmdMin,0.922,CHCGILDTO6Y
MA6813400180,h_OCHCTP,13-L1-7,2019-01-24 13:30:00.0,SoPmdAve,3673.23,CHCGILDTO6Y
MA6813400180,h_OCHCTP,13-L1-7,2019-01-24 13:45:00.0,Qmin,8.87,CHCGILDTO6Y
MA6813400180,h_OCHCTP,13-L1-7,2019-01-24 13:45:00.0,PhaseCorrectionAve,-0.061,CHCGILDTO6Y
MA6813400180,h_OCHCTP,13-L1-7,2019-01-24 13:45:00.0,BerPreFecMax,0.00275,CHCGILDTO6Y
MA6813400180,h_OCHCTP,13-L1-7,2019-01-24 13:45:00.0,PmdMin,0.862,CHCGILDTO6Y
MA6813400180,h_OCHCTP,13-L1-7,2019-01-24 13:45:00.0,SoPmdAve,3664.53,CHCGILDTO6Y
MA6813400180,h_OCHCTP,13-L1-8,2019-01-24 13:15:00.0,Qmin,8.9,CHCGILDTO6Y
MA6813400180,h_OCHCTP,13-L1-8,2019-01-24 13:15:00.0,PhaseCorrectionAve,-0.122,CHCGILDTO6Y
MA6813400180,h_OCHCTP,13-L1-8,2019-01-24 13:15:00.0,BerPreFecMax,0.00266,CHCGILDTO6Y
MA6813400180,h_OCHCTP,13-L1-8,2019-01-24 13:15:00.0,PmdMin,1.08,CHCGILDTO6Y
MA6813400180,h_OCHCTP,13-L1-8,2019-01-24 13:15:00.0,SoPmdAve,3842.13,CHCGILDTO6Y
MA6813400180,h_OCHCTP,13-L1-8,2019-01-24 13:30:00.0,Qmin,8.83,CHCGILDTO6Y
MA6813400180,h_OCHCTP,13-L1-8,2019-01-24 13:30:00.0,PhaseCorrectionAve,-0.122,CHCGILDTO6Y
MA6813400180,h_OCHCTP,13-L1-8,2019-01-24 13:30:00.0,BerPreFecMax,0.00287,CHCGILDTO6Y
MA6813400180,h_OCHCTP,13-L1-8,2019-01-24 13:30:00.0,PmdMin,0.975,CHCGILDTO6Y
MA6813400180,h_OCHCTP,13-L1-8,2019-01-24 13:30:00.0,SoPmdAve,3923.74,CHCGILDTO6Y
MA6813400180,h_OCHCTP,13-L1-8,2019-01-24 13:45:00.0,Qmin,8.92,CHCGILDTO6Y
MA6813400180,h_OCHCTP,13-L1-8,2019-01-24 13:45:00.0,PhaseCorrectionAve,-0.061,CHCGILDTO6Y
MA6813400180,h_OCHCTP,13-L1-8,2019-01-24 13:45:00.0,BerPreFecMax,0.00261,CHCGILDTO6Y
MA6813400180,h_OCHCTP,13-L1-8,2019-01-24 13:45:00.0,PmdMin,0.626,CHCGILDTO6Y
MA6813400180,h_OCHCTP,13-L1-8,2019-01-24 13:45:00.0,SoPmdAve,3895.03,CHCGILDTO6Y
MA6813400180,h_OCHCTP,13-L1-9,2019-01-24 13:15:00.0,Qmin,8.84,CHCGILDTO6Y
MA6813400180,h_OCHCTP,13-L1-9,2019-01-24 13:15:00.0,PhaseCorrectionAve,-0.122,CHCGILDTO6Y
MA6813400180,h_OCHCTP,13-L1-9,2019-01-24 13:15:00.0,BerPreFecMax,0.00283,CHCGILDTO6Y
MA6813400180,h_OCHCTP,13-L1-9,2019-01-24 13:15:00.0,PmdMin,0.966,CHCGILDTO6Y
MA6813400180,h_OCHCTP,13-L1-9,2019-01-24 13:15:00.0,SoPmdAve,3596.6,CHCGILDTO6Y
MA6813400180,h_OCHCTP,13-L1-9,2019-01-24 13:30:00.0,Qmin,8.83,CHCGILDTO6Y
MA6813400180,h_OCHCTP,13-L1-9,2019-01-24 13:30:00.0,PhaseCorrectionAve,-0.183,CHCGILDTO6Y
MA6813400180,h_OCHCTP,13-L1-9,2019-01-24 13:30:00.0,BerPreFecMax,0.00286,CHCGILDTO6Y
MA6813400180,h_OCHCTP,13-L1-9,2019-01-24 13:30:00.0,PmdMin,1.34,CHCGILDTO6Y
MA6813400180,h_OCHCTP,13-L1-9,2019-01-24 13:30:00.0,SoPmdAve,3479.45,CHCGILDTO6Y
MA6813400180,h_OCHCTP,13-L1-9,2019-01-24 13:45:00.0,Qmin,8.86,CHCGILDTO6Y
MA6813400180,h_OCHCTP,13-L1-9,2019-01-24 13:45:00.0,PhaseCorrectionAve,-0.061,CHCGILDTO6Y
MA6813400180,h_OCHCTP,13-L1-9,2019-01-24 13:45:00.0,BerPreFecMax,0.00277,CHCGILDTO6Y
MA6813400180,h_OCHCTP,13-L1-9,2019-01-24 13:45:00.0,PmdMin,1.29,CHCGILDTO6Y
MA6813400180,h_OCHCTP,13-L1-9,2019-01-24 13:45:00.0,SoPmdAve,3565.36,CHCGILDTO6Y
MA6813400180,h_OCHCTP,13-L1-10,2019-01-24 13:15:00.0,Qmin,8.75,CHCGILDTO6Y
MA6813400180,h_OCHCTP,13-L1-10,2019-01-24 13:15:00.0,PhaseCorrectionAve,-0.122,CHCGILDTO6Y
MA6813400180,h_OCHCTP,13-L1-10,2019-01-24 13:15:00.0,BerPreFecMax,0.00309,CHCGILDTO6Y
MA6813400180,h_OCHCTP,13-L1-10,2019-01-24 13:15:00.0,PmdMin,1.02,CHCGILDTO6Y
MA6813400180,h_OCHCTP,13-L1-10,2019-01-24 13:15:00.0,SoPmdAve,3686.63,CHCGILDTO6Y
MA6813400180,h_OCHCTP,13-L1-10,2019-01-24 13:30:00.0,Qmin,8.72,CHCGILDTO6Y
MA6813400180,h_OCHCTP,13-L1-10,2019-01-24 13:30:00.0,PhaseCorrectionAve,-0.244,CHCGILDTO6Y
MA6813400180,h_OCHCTP,13-L1-10,2019-01-24 13:30:00.0,BerPreFecMax,0.00316,CHCGILDTO6Y
MA6813400180,h_OCHCTP,13-L1-10,2019-01-24 13:30:00.0,PmdMin,1.25,CHCGILDTO6Y
MA6813400180,h_OCHCTP,13-L1-10,2019-01-24 13:30:00.0,SoPmdAve,3722.44,CHCGILDTO6Y
MA6813400180,h_OCHCTP,13-L1-10,2019-01-24 13:45:00.0,Qmin,8.74,CHCGILDTO6Y
MA6813400180,h_OCHCTP,13-L1-10,2019-01-24 13:45:00.0,PhaseCorrectionAve,-0.061,CHCGILDTO6Y
MA6813400180,h_OCHCTP,13-L1-10,2019-01-24 13:45:00.0,BerPreFecMax,0.00312,CHCGILDTO6Y
MA6813400180,h_OCHCTP,13-L1-10,2019-01-24 13:45:00.0,PmdMin,0.899,CHCGILDTO6Y
MA6813400180,h_OCHCTP,13-L1-10,2019-01-24 13:45:00.0,SoPmdAve,3817.4,CHCGILDTO6Y
