MA6813400180,h_OCHCTP,10-L1-1,2019-02-04 21:15:00.0,Qmin,9.44,CHCGILDTO6Y
MA6813400180,h_OCHCTP,10-L1-1,2019-02-04 21:15:00.0,PhaseCorrectionAve,-0.061,CHCGILDTO6Y
MA6813400180,h_OCHCTP,10-L1-1,2019-02-04 21:15:00.0,BerPreFecMax,0.00152,CHCGILDTO6Y
MA6813400180,h_OCHCTP,10-L1-1,2019-02-04 21:15:00.0,PmdMin,1.02,CHCGILDTO6Y
MA6813400180,h_OCHCTP,10-L1-1,2019-02-04 21:15:00.0,SoPmdAve,3531.49,CHCGILDTO6Y
MA6813400180,h_OCHCTP,10-L1-1,2019-02-04 21:30:00.0,Qmin,9.43,CHCGILDTO6Y
MA6813400180,h_OCHCTP,10-L1-1,2019-02-04 21:30:00.0,PhaseCorrectionAve,4.47e-07,CHCGILDTO6Y
MA6813400180,h_OCHCTP,10-L1-1,2019-02-04 21:30:00.0,BerPreFecMax,0.00152,CHCGILDTO6Y
MA6813400180,h_OCHCTP,10-L1-1,2019-02-04 21:30:00.0,PmdMin,0.83,CHCGILDTO6Y
MA6813400180,h_OCHCTP,10-L1-1,2019-02-04 21:30:00.0,SoPmdAve,3565.21,CHCGILDTO6Y
MA6813400180,h_OCHCTP,10-L1-1,2019-02-04 21:45:00.0,Qmin,9.46,CHCGILDTO6Y
MA6813400180,h_OCHCTP,10-L1-1,2019-02-04 21:45:00.0,PhaseCorrectionAve,4.18e-07,CHCGILDTO6Y
MA6813400180,h_OCHCTP,10-L1-1,2019-02-04 21:45:00.0,BerPreFecMax,0.00148,CHCGILDTO6Y
MA6813400180,h_OCHCTP,10-L1-1,2019-02-04 21:45:00.0,PmdMin,0.469,CHCGILDTO6Y
MA6813400180,h_OCHCTP,10-L1-1,2019-02-04 21:45:00.0,SoPmdAve,3486.08,CHCGILDTO6Y
MA6813400180,h_OCHCTP,10-L1-2,2019-02-04 21:15:00.0,Qmin,9.14,CHCGILDTO6Y
MA6813400180,h_OCHCTP,10-L1-2,2019-02-04 21:15:00.0,PhaseCorrectionAve,-0.122,CHCGILDTO6Y
MA6813400180,h_OCHCTP,10-L1-2,2019-02-04 21:15:00.0,BerPreFecMax,0.0021,CHCGILDTO6Y
MA6813400180,h_OCHCTP,10-L1-2,2019-02-04 21:15:00.0,PmdMin,5.58,CHCGILDTO6Y
MA6813400180,h_OCHCTP,10-L1-2,2019-02-04 21:15:00.0,SoPmdAve,3245.69,CHCGILDTO6Y
MA6813400180,h_OCHCTP,10-L1-2,2019-02-04 21:30:00.0,Qmin,9.14,CHCGILDTO6Y
MA6813400180,h_OCHCTP,10-L1-2,2019-02-04 21:30:00.0,PhaseCorrectionAve,3.87e-07,CHCGILDTO6Y
MA6813400180,h_OCHCTP,10-L1-2,2019-02-04 21:30:00.0,BerPreFecMax,0.0021,CHCGILDTO6Y
MA6813400180,h_OCHCTP,10-L1-2,2019-02-04 21:30:00.0,PmdMin,3.68,CHCGILDTO6Y
MA6813400180,h_OCHCTP,10-L1-2,2019-02-04 21:30:00.0,SoPmdAve,3294.66,CHCGILDTO6Y
MA6813400180,h_OCHCTP,10-L1-2,2019-02-04 21:45:00.0,Qmin,9.14,CHCGILDTO6Y
MA6813400180,h_OCHCTP,10-L1-2,2019-02-04 21:45:00.0,PhaseCorrectionAve,-0.061,CHCGILDTO6Y
MA6813400180,h_OCHCTP,10-L1-2,2019-02-04 21:45:00.0,BerPreFecMax,0.00208,CHCGILDTO6Y
MA6813400180,h_OCHCTP,10-L1-2,2019-02-04 21:45:00.0,PmdMin,2.51,CHCGILDTO6Y
MA6813400180,h_OCHCTP,10-L1-2,2019-02-04 21:45:00.0,SoPmdAve,3287.86,CHCGILDTO6Y
MA6813400180,h_OCHCTP,10-L1-3,2019-02-04 21:15:00.0,Qmin,8.85,CHCGILDTO6Y
MA6813400180,h_OCHCTP,10-L1-3,2019-02-04 21:15:00.0,PhaseCorrectionAve,-0.122,CHCGILDTO6Y
MA6813400180,h_OCHCTP,10-L1-3,2019-02-04 21:15:00.0,BerPreFecMax,0.0028,CHCGILDTO6Y
MA6813400180,h_OCHCTP,10-L1-3,2019-02-04 21:15:00.0,PmdMin,9.14,CHCGILDTO6Y
MA6813400180,h_OCHCTP,10-L1-3,2019-02-04 21:15:00.0,SoPmdAve,2862.11,CHCGILDTO6Y
MA6813400180,h_OCHCTP,10-L1-3,2019-02-04 21:30:00.0,Qmin,8.86,CHCGILDTO6Y
MA6813400180,h_OCHCTP,10-L1-3,2019-02-04 21:30:00.0,PhaseCorrectionAve,6.49e-07,CHCGILDTO6Y
MA6813400180,h_OCHCTP,10-L1-3,2019-02-04 21:30:00.0,BerPreFecMax,0.00279,CHCGILDTO6Y
MA6813400180,h_OCHCTP,10-L1-3,2019-02-04 21:30:00.0,PmdMin,5.28,CHCGILDTO6Y
MA6813400180,h_OCHCTP,10-L1-3,2019-02-04 21:30:00.0,SoPmdAve,2854.37,CHCGILDTO6Y
MA6813400180,h_OCHCTP,10-L1-3,2019-02-04 21:45:00.0,Qmin,8.87,CHCGILDTO6Y
MA6813400180,h_OCHCTP,10-L1-3,2019-02-04 21:45:00.0,PhaseCorrectionAve,-0.061,CHCGILDTO6Y
MA6813400180,h_OCHCTP,10-L1-3,2019-02-04 21:45:00.0,BerPreFecMax,0.00274,CHCGILDTO6Y
MA6813400180,h_OCHCTP,10-L1-3,2019-02-04 21:45:00.0,PmdMin,5.97,CHCGILDTO6Y
MA6813400180,h_OCHCTP,10-L1-3,2019-02-04 21:45:00.0,SoPmdAve,2788.07,CHCGILDTO6Y
MA6813400180,h_OCHCTP,10-L1-4,2019-02-04 21:15:00.0,Qmin,8.27,CHCGILDTO6Y
MA6813400180,h_OCHCTP,10-L1-4,2019-02-04 21:15:00.0,PhaseCorrectionAve,-0.183,CHCGILDTO6Y
MA6813400180,h_OCHCTP,10-L1-4,2019-02-04 21:15:00.0,BerPreFecMax,0.00478,CHCGILDTO6Y
MA6813400180,h_OCHCTP,10-L1-4,2019-02-04 21:15:00.0,PmdMin,1.17,CHCGILDTO6Y
MA6813400180,h_OCHCTP,10-L1-4,2019-02-04 21:15:00.0,SoPmdAve,3044.1,CHCGILDTO6Y
MA6813400180,h_OCHCTP,10-L1-4,2019-02-04 21:30:00.0,Qmin,8.26,CHCGILDTO6Y
MA6813400180,h_OCHCTP,10-L1-4,2019-02-04 21:30:00.0,PhaseCorrectionAve,-0.061,CHCGILDTO6Y
MA6813400180,h_OCHCTP,10-L1-4,2019-02-04 21:30:00.0,BerPreFecMax,0.00482,CHCGILDTO6Y
MA6813400180,h_OCHCTP,10-L1-4,2019-02-04 21:30:00.0,PmdMin,1.97,CHCGILDTO6Y
MA6813400180,h_OCHCTP,10-L1-4,2019-02-04 21:30:00.0,SoPmdAve,3057.88,CHCGILDTO6Y
MA6813400180,h_OCHCTP,10-L1-4,2019-02-04 21:45:00.0,Qmin,8.27,CHCGILDTO6Y
MA6813400180,h_OCHCTP,10-L1-4,2019-02-04 21:45:00.0,PhaseCorrectionAve,-0.061,CHCGILDTO6Y
MA6813400180,h_OCHCTP,10-L1-4,2019-02-04 21:45:00.0,BerPreFecMax,0.00478,CHCGILDTO6Y
MA6813400180,h_OCHCTP,10-L1-4,2019-02-04 21:45:00.0,PmdMin,1.3,CHCGILDTO6Y
MA6813400180,h_OCHCTP,10-L1-4,2019-02-04 21:45:00.0,SoPmdAve,3133.53,CHCGILDTO6Y
MA6813400180,h_OCHCTP,10-L1-5,2019-02-04 21:15:00.0,Qmin,8.47,CHCGILDTO6Y
MA6813400180,h_OCHCTP,10-L1-5,2019-02-04 21:15:00.0,PhaseCorrectionAve,-0.244,CHCGILDTO6Y
MA6813400180,h_OCHCTP,10-L1-5,2019-02-04 21:15:00.0,BerPreFecMax,0.004,CHCGILDTO6Y
MA6813400180,h_OCHCTP,10-L1-5,2019-02-04 21:15:00.0,PmdMin,0.92,CHCGILDTO6Y
MA6813400180,h_OCHCTP,10-L1-5,2019-02-04 21:15:00.0,SoPmdAve,2910.8,CHCGILDTO6Y
MA6813400180,h_OCHCTP,10-L1-5,2019-02-04 21:30:00.0,Qmin,8.46,CHCGILDTO6Y
MA6813400180,h_OCHCTP,10-L1-5,2019-02-04 21:30:00.0,PhaseCorrectionAve,-0.183,CHCGILDTO6Y
MA6813400180,h_OCHCTP,10-L1-5,2019-02-04 21:30:00.0,BerPreFecMax,0.00405,CHCGILDTO6Y
MA6813400180,h_OCHCTP,10-L1-5,2019-02-04 21:30:00.0,PmdMin,1.03,CHCGILDTO6Y
MA6813400180,h_OCHCTP,10-L1-5,2019-02-04 21:30:00.0,SoPmdAve,2817.25,CHCGILDTO6Y
MA6813400180,h_OCHCTP,10-L1-5,2019-02-04 21:45:00.0,Qmin,8.48,CHCGILDTO6Y
MA6813400180,h_OCHCTP,10-L1-5,2019-02-04 21:45:00.0,PhaseCorrectionAve,-0.061,CHCGILDTO6Y
MA6813400180,h_OCHCTP,10-L1-5,2019-02-04 21:45:00.0,BerPreFecMax,0.00398,CHCGILDTO6Y
MA6813400180,h_OCHCTP,10-L1-5,2019-02-04 21:45:00.0,PmdMin,1.56,CHCGILDTO6Y
MA6813400180,h_OCHCTP,10-L1-5,2019-02-04 21:45:00.0,SoPmdAve,2859.98,CHCGILDTO6Y
MA6813400180,h_OCHCTP,10-L1-6,2019-02-04 21:15:00.0,Qmin,8.68,CHCGILDTO6Y
MA6813400180,h_OCHCTP,10-L1-6,2019-02-04 21:15:00.0,PhaseCorrectionAve,-0.244,CHCGILDTO6Y
MA6813400180,h_OCHCTP,10-L1-6,2019-02-04 21:15:00.0,BerPreFecMax,0.0033,CHCGILDTO6Y
MA6813400180,h_OCHCTP,10-L1-6,2019-02-04 21:15:00.0,PmdMin,2.12,CHCGILDTO6Y
MA6813400180,h_OCHCTP,10-L1-6,2019-02-04 21:15:00.0,SoPmdAve,2759.3,CHCGILDTO6Y
MA6813400180,h_OCHCTP,10-L1-6,2019-02-04 21:30:00.0,Qmin,8.68,CHCGILDTO6Y
MA6813400180,h_OCHCTP,10-L1-6,2019-02-04 21:30:00.0,PhaseCorrectionAve,-0.183,CHCGILDTO6Y
MA6813400180,h_OCHCTP,10-L1-6,2019-02-04 21:30:00.0,BerPreFecMax,0.0033,CHCGILDTO6Y
MA6813400180,h_OCHCTP,10-L1-6,2019-02-04 21:30:00.0,PmdMin,1.19,CHCGILDTO6Y
MA6813400180,h_OCHCTP,10-L1-6,2019-02-04 21:30:00.0,SoPmdAve,2806.97,CHCGILDTO6Y
MA6813400180,h_OCHCTP,10-L1-6,2019-02-04 21:45:00.0,Qmin,8.69,CHCGILDTO6Y
MA6813400180,h_OCHCTP,10-L1-6,2019-02-04 21:45:00.0,PhaseCorrectionAve,-0.061,CHCGILDTO6Y
MA6813400180,h_OCHCTP,10-L1-6,2019-02-04 21:45:00.0,BerPreFecMax,0.00326,CHCGILDTO6Y
MA6813400180,h_OCHCTP,10-L1-6,2019-02-04 21:45:00.0,PmdMin,2.8,CHCGILDTO6Y
MA6813400180,h_OCHCTP,10-L1-6,2019-02-04 21:45:00.0,SoPmdAve,2764.24,CHCGILDTO6Y
MA6813400180,h_OCHCTP,10-L1-7,2019-02-04 21:15:00.0,Qmin,8.8,CHCGILDTO6Y
MA6813400180,h_OCHCTP,10-L1-7,2019-02-04 21:15:00.0,PhaseCorrectionAve,-0.244,CHCGILDTO6Y
MA6813400180,h_OCHCTP,10-L1-7,2019-02-04 21:15:00.0,BerPreFecMax,0.00295,CHCGILDTO6Y
MA6813400180,h_OCHCTP,10-L1-7,2019-02-04 21:15:00.0,PmdMin,0.733,CHCGILDTO6Y
MA6813400180,h_OCHCTP,10-L1-7,2019-02-04 21:15:00.0,SoPmdAve,3386.92,CHCGILDTO6Y
MA6813400180,h_OCHCTP,10-L1-7,2019-02-04 21:30:00.0,Qmin,8.78,CHCGILDTO6Y
MA6813400180,h_OCHCTP,10-L1-7,2019-02-04 21:30:00.0,PhaseCorrectionAve,-0.183,CHCGILDTO6Y
MA6813400180,h_OCHCTP,10-L1-7,2019-02-04 21:30:00.0,BerPreFecMax,0.00299,CHCGILDTO6Y
MA6813400180,h_OCHCTP,10-L1-7,2019-02-04 21:30:00.0,PmdMin,2.03,CHCGILDTO6Y
MA6813400180,h_OCHCTP,10-L1-7,2019-02-04 21:30:00.0,SoPmdAve,3447.66,CHCGILDTO6Y
MA6813400180,h_OCHCTP,10-L1-7,2019-02-04 21:45:00.0,Qmin,8.81,CHCGILDTO6Y
MA6813400180,h_OCHCTP,10-L1-7,2019-02-04 21:45:00.0,PhaseCorrectionAve,-0.122,CHCGILDTO6Y
MA6813400180,h_OCHCTP,10-L1-7,2019-02-04 21:45:00.0,BerPreFecMax,0.00291,CHCGILDTO6Y
MA6813400180,h_OCHCTP,10-L1-7,2019-02-04 21:45:00.0,PmdMin,3.18,CHCGILDTO6Y
MA6813400180,h_OCHCTP,10-L1-7,2019-02-04 21:45:00.0,SoPmdAve,3424.99,CHCGILDTO6Y
MA6813400180,h_OCHCTP,10-L1-8,2019-02-04 21:15:00.0,Qmin,9.3,CHCGILDTO6Y
MA6813400180,h_OCHCTP,10-L1-8,2019-02-04 21:15:00.0,PhaseCorrectionAve,-0.305,CHCGILDTO6Y
MA6813400180,h_OCHCTP,10-L1-8,2019-02-04 21:15:00.0,BerPreFecMax,0.00177,CHCGILDTO6Y
MA6813400180,h_OCHCTP,10-L1-8,2019-02-04 21:15:00.0,PmdMin,0.774,CHCGILDTO6Y
MA6813400180,h_OCHCTP,10-L1-8,2019-02-04 21:15:00.0,SoPmdAve,3281.28,CHCGILDTO6Y
MA6813400180,h_OCHCTP,10-L1-8,2019-02-04 21:30:00.0,Qmin,9.28,CHCGILDTO6Y
MA6813400180,h_OCHCTP,10-L1-8,2019-02-04 21:30:00.0,PhaseCorrectionAve,-0.244,CHCGILDTO6Y
MA6813400180,h_OCHCTP,10-L1-8,2019-02-04 21:30:00.0,BerPreFecMax,0.00179,CHCGILDTO6Y
MA6813400180,h_OCHCTP,10-L1-8,2019-02-04 21:30:00.0,PmdMin,1.77,CHCGILDTO6Y
MA6813400180,h_OCHCTP,10-L1-8,2019-02-04 21:30:00.0,SoPmdAve,3260.3,CHCGILDTO6Y
MA6813400180,h_OCHCTP,10-L1-8,2019-02-04 21:45:00.0,Qmin,9.31,CHCGILDTO6Y
MA6813400180,h_OCHCTP,10-L1-8,2019-02-04 21:45:00.0,PhaseCorrectionAve,-0.122,CHCGILDTO6Y
MA6813400180,h_OCHCTP,10-L1-8,2019-02-04 21:45:00.0,BerPreFecMax,0.00175,CHCGILDTO6Y
MA6813400180,h_OCHCTP,10-L1-8,2019-02-04 21:45:00.0,PmdMin,1.69,CHCGILDTO6Y
MA6813400180,h_OCHCTP,10-L1-8,2019-02-04 21:45:00.0,SoPmdAve,3396.81,CHCGILDTO6Y
MA6813400180,h_OCHCTP,10-L1-9,2019-02-04 21:15:00.0,Qmin,9.32,CHCGILDTO6Y
MA6813400180,h_OCHCTP,10-L1-9,2019-02-04 21:15:00.0,PhaseCorrectionAve,-0.305,CHCGILDTO6Y
MA6813400180,h_OCHCTP,10-L1-9,2019-02-04 21:15:00.0,BerPreFecMax,0.00172,CHCGILDTO6Y
MA6813400180,h_OCHCTP,10-L1-9,2019-02-04 21:15:00.0,PmdMin,2.83,CHCGILDTO6Y
MA6813400180,h_OCHCTP,10-L1-9,2019-02-04 21:15:00.0,SoPmdAve,3146.76,CHCGILDTO6Y
MA6813400180,h_OCHCTP,10-L1-9,2019-02-04 21:30:00.0,Qmin,9.32,CHCGILDTO6Y
MA6813400180,h_OCHCTP,10-L1-9,2019-02-04 21:30:00.0,PhaseCorrectionAve,-0.244,CHCGILDTO6Y
MA6813400180,h_OCHCTP,10-L1-9,2019-02-04 21:30:00.0,BerPreFecMax,0.00172,CHCGILDTO6Y
MA6813400180,h_OCHCTP,10-L1-9,2019-02-04 21:30:00.0,PmdMin,1.88,CHCGILDTO6Y
MA6813400180,h_OCHCTP,10-L1-9,2019-02-04 21:30:00.0,SoPmdAve,3246.17,CHCGILDTO6Y
MA6813400180,h_OCHCTP,10-L1-9,2019-02-04 21:45:00.0,Qmin,9.33,CHCGILDTO6Y
MA6813400180,h_OCHCTP,10-L1-9,2019-02-04 21:45:00.0,PhaseCorrectionAve,-0.183,CHCGILDTO6Y
MA6813400180,h_OCHCTP,10-L1-9,2019-02-04 21:45:00.0,BerPreFecMax,0.0017,CHCGILDTO6Y
MA6813400180,h_OCHCTP,10-L1-9,2019-02-04 21:45:00.0,PmdMin,2.59,CHCGILDTO6Y
MA6813400180,h_OCHCTP,10-L1-9,2019-02-04 21:45:00.0,SoPmdAve,3272.56,CHCGILDTO6Y
MA6813400180,h_OCHCTP,10-L1-10,2019-02-04 21:15:00.0,Qmin,9.37,CHCGILDTO6Y
MA6813400180,h_OCHCTP,10-L1-10,2019-02-04 21:15:00.0,PhaseCorrectionAve,-0.305,CHCGILDTO6Y
MA6813400180,h_OCHCTP,10-L1-10,2019-02-04 21:15:00.0,BerPreFecMax,0.00164,CHCGILDTO6Y
MA6813400180,h_OCHCTP,10-L1-10,2019-02-04 21:15:00.0,PmdMin,8.78,CHCGILDTO6Y
MA6813400180,h_OCHCTP,10-L1-10,2019-02-04 21:15:00.0,SoPmdAve,3277.1,CHCGILDTO6Y
MA6813400180,h_OCHCTP,10-L1-10,2019-02-04 21:30:00.0,Qmin,9.34,CHCGILDTO6Y
MA6813400180,h_OCHCTP,10-L1-10,2019-02-04 21:30:00.0,PhaseCorrectionAve,-0.244,CHCGILDTO6Y
MA6813400180,h_OCHCTP,10-L1-10,2019-02-04 21:30:00.0,BerPreFecMax,0.00168,CHCGILDTO6Y
MA6813400180,h_OCHCTP,10-L1-10,2019-02-04 21:30:00.0,PmdMin,12.3,CHCGILDTO6Y
MA6813400180,h_OCHCTP,10-L1-10,2019-02-04 21:30:00.0,SoPmdAve,3186.21,CHCGILDTO6Y
MA6813400180,h_OCHCTP,10-L1-10,2019-02-04 21:45:00.0,Qmin,9.37,CHCGILDTO6Y
MA6813400180,h_OCHCTP,10-L1-10,2019-02-04 21:45:00.0,PhaseCorrectionAve,-0.305,CHCGILDTO6Y
MA6813400180,h_OCHCTP,10-L1-10,2019-02-04 21:45:00.0,BerPreFecMax,0.00164,CHCGILDTO6Y
MA6813400180,h_OCHCTP,10-L1-10,2019-02-04 21:45:00.0,PmdMin,9.84,CHCGILDTO6Y
MA6813400180,h_OCHCTP,10-L1-10,2019-02-04 21:45:00.0,SoPmdAve,3228.95,CHCGILDTO6Y
MA6813400180,h_OCHCTP,13-L1-1,2019-02-04 21:15:00.0,Qmin,9.09,CHCGILDTO6Y
MA6813400180,h_OCHCTP,13-L1-1,2019-02-04 21:15:00.0,PhaseCorrectionAve,4.1e-07,CHCGILDTO6Y
MA6813400180,h_OCHCTP,13-L1-1,2019-02-04 21:15:00.0,BerPreFecMax,0.00221,CHCGILDTO6Y
MA6813400180,h_OCHCTP,13-L1-1,2019-02-04 21:15:00.0,PmdMin,1.22,CHCGILDTO6Y
MA6813400180,h_OCHCTP,13-L1-1,2019-02-04 21:15:00.0,SoPmdAve,3662.68,CHCGILDTO6Y
MA6813400180,h_OCHCTP,13-L1-1,2019-02-04 21:30:00.0,Qmin,9.14,CHCGILDTO6Y
MA6813400180,h_OCHCTP,13-L1-1,2019-02-04 21:30:00.0,PhaseCorrectionAve,3.49e-07,CHCGILDTO6Y
MA6813400180,h_OCHCTP,13-L1-1,2019-02-04 21:30:00.0,BerPreFecMax,0.00208,CHCGILDTO6Y
MA6813400180,h_OCHCTP,13-L1-1,2019-02-04 21:30:00.0,PmdMin,1.25,CHCGILDTO6Y
MA6813400180,h_OCHCTP,13-L1-1,2019-02-04 21:30:00.0,SoPmdAve,3632.86,CHCGILDTO6Y
MA6813400180,h_OCHCTP,13-L1-1,2019-02-04 21:45:00.0,Qmin,9.15,CHCGILDTO6Y
MA6813400180,h_OCHCTP,13-L1-1,2019-02-04 21:45:00.0,PhaseCorrectionAve,-0.122,CHCGILDTO6Y
MA6813400180,h_OCHCTP,13-L1-1,2019-02-04 21:45:00.0,BerPreFecMax,0.00208,CHCGILDTO6Y
MA6813400180,h_OCHCTP,13-L1-1,2019-02-04 21:45:00.0,PmdMin,1.14,CHCGILDTO6Y
MA6813400180,h_OCHCTP,13-L1-1,2019-02-04 21:45:00.0,SoPmdAve,3475.55,CHCGILDTO6Y
MA6813400180,h_OCHCTP,13-L1-2,2019-02-04 21:15:00.0,Qmin,9.13,CHCGILDTO6Y
MA6813400180,h_OCHCTP,13-L1-2,2019-02-04 21:15:00.0,PhaseCorrectionAve,4.88e-07,CHCGILDTO6Y
MA6813400180,h_OCHCTP,13-L1-2,2019-02-04 21:15:00.0,BerPreFecMax,0.00212,CHCGILDTO6Y
MA6813400180,h_OCHCTP,13-L1-2,2019-02-04 21:15:00.0,PmdMin,1.24,CHCGILDTO6Y
MA6813400180,h_OCHCTP,13-L1-2,2019-02-04 21:15:00.0,SoPmdAve,3573.88,CHCGILDTO6Y
MA6813400180,h_OCHCTP,13-L1-2,2019-02-04 21:30:00.0,Qmin,9.11,CHCGILDTO6Y
MA6813400180,h_OCHCTP,13-L1-2,2019-02-04 21:30:00.0,PhaseCorrectionAve,-0.061,CHCGILDTO6Y
MA6813400180,h_OCHCTP,13-L1-2,2019-02-04 21:30:00.0,BerPreFecMax,0.00216,CHCGILDTO6Y
MA6813400180,h_OCHCTP,13-L1-2,2019-02-04 21:30:00.0,PmdMin,0.777,CHCGILDTO6Y
MA6813400180,h_OCHCTP,13-L1-2,2019-02-04 21:30:00.0,SoPmdAve,3457.37,CHCGILDTO6Y
MA6813400180,h_OCHCTP,13-L1-2,2019-02-04 21:45:00.0,Qmin,9.14,CHCGILDTO6Y
MA6813400180,h_OCHCTP,13-L1-2,2019-02-04 21:45:00.0,PhaseCorrectionAve,-0.183,CHCGILDTO6Y
MA6813400180,h_OCHCTP,13-L1-2,2019-02-04 21:45:00.0,BerPreFecMax,0.00209,CHCGILDTO6Y
MA6813400180,h_OCHCTP,13-L1-2,2019-02-04 21:45:00.0,PmdMin,1.54,CHCGILDTO6Y
MA6813400180,h_OCHCTP,13-L1-2,2019-02-04 21:45:00.0,SoPmdAve,3595.74,CHCGILDTO6Y
MA6813400180,h_OCHCTP,13-L1-3,2019-02-04 21:15:00.0,Qmin,8.99,CHCGILDTO6Y
MA6813400180,h_OCHCTP,13-L1-3,2019-02-04 21:15:00.0,PhaseCorrectionAve,5.25e-07,CHCGILDTO6Y
MA6813400180,h_OCHCTP,13-L1-3,2019-02-04 21:15:00.0,BerPreFecMax,0.00244,CHCGILDTO6Y
MA6813400180,h_OCHCTP,13-L1-3,2019-02-04 21:15:00.0,PmdMin,0.311,CHCGILDTO6Y
MA6813400180,h_OCHCTP,13-L1-3,2019-02-04 21:15:00.0,SoPmdAve,2853.39,CHCGILDTO6Y
MA6813400180,h_OCHCTP,13-L1-3,2019-02-04 21:30:00.0,Qmin,8.98,CHCGILDTO6Y
MA6813400180,h_OCHCTP,13-L1-3,2019-02-04 21:30:00.0,PhaseCorrectionAve,-0.122,CHCGILDTO6Y
MA6813400180,h_OCHCTP,13-L1-3,2019-02-04 21:30:00.0,BerPreFecMax,0.00246,CHCGILDTO6Y
MA6813400180,h_OCHCTP,13-L1-3,2019-02-04 21:30:00.0,PmdMin,0.597,CHCGILDTO6Y
MA6813400180,h_OCHCTP,13-L1-3,2019-02-04 21:30:00.0,SoPmdAve,2975.72,CHCGILDTO6Y
MA6813400180,h_OCHCTP,13-L1-3,2019-02-04 21:45:00.0,Qmin,8.97,CHCGILDTO6Y
MA6813400180,h_OCHCTP,13-L1-3,2019-02-04 21:45:00.0,PhaseCorrectionAve,-0.183,CHCGILDTO6Y
MA6813400180,h_OCHCTP,13-L1-3,2019-02-04 21:45:00.0,BerPreFecMax,0.00249,CHCGILDTO6Y
MA6813400180,h_OCHCTP,13-L1-3,2019-02-04 21:45:00.0,PmdMin,1.09,CHCGILDTO6Y
MA6813400180,h_OCHCTP,13-L1-3,2019-02-04 21:45:00.0,SoPmdAve,2896.88,CHCGILDTO6Y
MA6813400180,h_OCHCTP,13-L1-4,2019-02-04 21:15:00.0,Qmin,8.8,CHCGILDTO6Y
MA6813400180,h_OCHCTP,13-L1-4,2019-02-04 21:15:00.0,PhaseCorrectionAve,5.33e-07,CHCGILDTO6Y
MA6813400180,h_OCHCTP,13-L1-4,2019-02-04 21:15:00.0,BerPreFecMax,0.00295,CHCGILDTO6Y
MA6813400180,h_OCHCTP,13-L1-4,2019-02-04 21:15:00.0,PmdMin,1.01,CHCGILDTO6Y
MA6813400180,h_OCHCTP,13-L1-4,2019-02-04 21:15:00.0,SoPmdAve,3393.98,CHCGILDTO6Y
MA6813400180,h_OCHCTP,13-L1-4,2019-02-04 21:30:00.0,Qmin,8.77,CHCGILDTO6Y
MA6813400180,h_OCHCTP,13-L1-4,2019-02-04 21:30:00.0,PhaseCorrectionAve,-0.122,CHCGILDTO6Y
MA6813400180,h_OCHCTP,13-L1-4,2019-02-04 21:30:00.0,BerPreFecMax,0.00302,CHCGILDTO6Y
MA6813400180,h_OCHCTP,13-L1-4,2019-02-04 21:30:00.0,PmdMin,0.559,CHCGILDTO6Y
MA6813400180,h_OCHCTP,13-L1-4,2019-02-04 21:30:00.0,SoPmdAve,3503.75,CHCGILDTO6Y
MA6813400180,h_OCHCTP,13-L1-4,2019-02-04 21:45:00.0,Qmin,8.77,CHCGILDTO6Y
MA6813400180,h_OCHCTP,13-L1-4,2019-02-04 21:45:00.0,PhaseCorrectionAve,-0.305,CHCGILDTO6Y
MA6813400180,h_OCHCTP,13-L1-4,2019-02-04 21:45:00.0,BerPreFecMax,0.00303,CHCGILDTO6Y
MA6813400180,h_OCHCTP,13-L1-4,2019-02-04 21:45:00.0,PmdMin,1.27,CHCGILDTO6Y
MA6813400180,h_OCHCTP,13-L1-4,2019-02-04 21:45:00.0,SoPmdAve,3357.71,CHCGILDTO6Y
MA6813400180,h_OCHCTP,13-L1-5,2019-02-04 21:15:00.0,Qmin,8.79,CHCGILDTO6Y
MA6813400180,h_OCHCTP,13-L1-5,2019-02-04 21:15:00.0,PhaseCorrectionAve,-0.061,CHCGILDTO6Y
MA6813400180,h_OCHCTP,13-L1-5,2019-02-04 21:15:00.0,BerPreFecMax,0.00297,CHCGILDTO6Y
MA6813400180,h_OCHCTP,13-L1-5,2019-02-04 21:15:00.0,PmdMin,1.1,CHCGILDTO6Y
MA6813400180,h_OCHCTP,13-L1-5,2019-02-04 21:15:00.0,SoPmdAve,2788.67,CHCGILDTO6Y
MA6813400180,h_OCHCTP,13-L1-5,2019-02-04 21:30:00.0,Qmin,8.72,CHCGILDTO6Y
MA6813400180,h_OCHCTP,13-L1-5,2019-02-04 21:30:00.0,PhaseCorrectionAve,-0.122,CHCGILDTO6Y
MA6813400180,h_OCHCTP,13-L1-5,2019-02-04 21:30:00.0,BerPreFecMax,0.00317,CHCGILDTO6Y
MA6813400180,h_OCHCTP,13-L1-5,2019-02-04 21:30:00.0,PmdMin,0.986,CHCGILDTO6Y
MA6813400180,h_OCHCTP,13-L1-5,2019-02-04 21:30:00.0,SoPmdAve,2791.68,CHCGILDTO6Y
MA6813400180,h_OCHCTP,13-L1-5,2019-02-04 21:45:00.0,Qmin,8.71,CHCGILDTO6Y
MA6813400180,h_OCHCTP,13-L1-5,2019-02-04 21:45:00.0,PhaseCorrectionAve,-0.305,CHCGILDTO6Y
MA6813400180,h_OCHCTP,13-L1-5,2019-02-04 21:45:00.0,BerPreFecMax,0.0032,CHCGILDTO6Y
MA6813400180,h_OCHCTP,13-L1-5,2019-02-04 21:45:00.0,PmdMin,0.443,CHCGILDTO6Y
MA6813400180,h_OCHCTP,13-L1-5,2019-02-04 21:45:00.0,SoPmdAve,2760.94,CHCGILDTO6Y
MA6813400180,h_OCHCTP,13-L1-6,2019-02-04 21:15:00.0,Qmin,8.83,CHCGILDTO6Y
MA6813400180,h_OCHCTP,13-L1-6,2019-02-04 21:15:00.0,PhaseCorrectionAve,-0.122,CHCGILDTO6Y
MA6813400180,h_OCHCTP,13-L1-6,2019-02-04 21:15:00.0,BerPreFecMax,0.00286,CHCGILDTO6Y
MA6813400180,h_OCHCTP,13-L1-6,2019-02-04 21:15:00.0,PmdMin,1.37,CHCGILDTO6Y
MA6813400180,h_OCHCTP,13-L1-6,2019-02-04 21:15:00.0,SoPmdAve,2993.21,CHCGILDTO6Y
MA6813400180,h_OCHCTP,13-L1-6,2019-02-04 21:30:00.0,Qmin,8.73,CHCGILDTO6Y
MA6813400180,h_OCHCTP,13-L1-6,2019-02-04 21:30:00.0,PhaseCorrectionAve,-0.122,CHCGILDTO6Y
MA6813400180,h_OCHCTP,13-L1-6,2019-02-04 21:30:00.0,BerPreFecMax,0.00313,CHCGILDTO6Y
MA6813400180,h_OCHCTP,13-L1-6,2019-02-04 21:30:00.0,PmdMin,0.92,CHCGILDTO6Y
MA6813400180,h_OCHCTP,13-L1-6,2019-02-04 21:30:00.0,SoPmdAve,3064.83,CHCGILDTO6Y
MA6813400180,h_OCHCTP,13-L1-6,2019-02-04 21:45:00.0,Qmin,8.7,CHCGILDTO6Y
MA6813400180,h_OCHCTP,13-L1-6,2019-02-04 21:45:00.0,PhaseCorrectionAve,-0.305,CHCGILDTO6Y
MA6813400180,h_OCHCTP,13-L1-6,2019-02-04 21:45:00.0,BerPreFecMax,0.00323,CHCGILDTO6Y
MA6813400180,h_OCHCTP,13-L1-6,2019-02-04 21:45:00.0,PmdMin,1.2,CHCGILDTO6Y
MA6813400180,h_OCHCTP,13-L1-6,2019-02-04 21:45:00.0,SoPmdAve,3018.45,CHCGILDTO6Y
MA6813400180,h_OCHCTP,13-L1-7,2019-02-04 21:15:00.0,Qmin,8.76,CHCGILDTO6Y
MA6813400180,h_OCHCTP,13-L1-7,2019-02-04 21:15:00.0,PhaseCorrectionAve,-0.122,CHCGILDTO6Y
MA6813400180,h_OCHCTP,13-L1-7,2019-02-04 21:15:00.0,BerPreFecMax,0.00305,CHCGILDTO6Y
MA6813400180,h_OCHCTP,13-L1-7,2019-02-04 21:15:00.0,PmdMin,1.16,CHCGILDTO6Y
MA6813400180,h_OCHCTP,13-L1-7,2019-02-04 21:15:00.0,SoPmdAve,3829.78,CHCGILDTO6Y
MA6813400180,h_OCHCTP,13-L1-7,2019-02-04 21:30:00.0,Qmin,8.66,CHCGILDTO6Y
MA6813400180,h_OCHCTP,13-L1-7,2019-02-04 21:30:00.0,PhaseCorrectionAve,-0.183,CHCGILDTO6Y
MA6813400180,h_OCHCTP,13-L1-7,2019-02-04 21:30:00.0,BerPreFecMax,0.00336,CHCGILDTO6Y
MA6813400180,h_OCHCTP,13-L1-7,2019-02-04 21:30:00.0,PmdMin,0.52,CHCGILDTO6Y
MA6813400180,h_OCHCTP,13-L1-7,2019-02-04 21:30:00.0,SoPmdAve,3860.3,CHCGILDTO6Y
MA6813400180,h_OCHCTP,13-L1-7,2019-02-04 21:45:00.0,Qmin,8.71,CHCGILDTO6Y
MA6813400180,h_OCHCTP,13-L1-7,2019-02-04 21:45:00.0,PhaseCorrectionAve,-0.305,CHCGILDTO6Y
MA6813400180,h_OCHCTP,13-L1-7,2019-02-04 21:45:00.0,BerPreFecMax,0.00321,CHCGILDTO6Y
MA6813400180,h_OCHCTP,13-L1-7,2019-02-04 21:45:00.0,PmdMin,0.89,CHCGILDTO6Y
MA6813400180,h_OCHCTP,13-L1-7,2019-02-04 21:45:00.0,SoPmdAve,3689.42,CHCGILDTO6Y
MA6813400180,h_OCHCTP,13-L1-8,2019-02-04 21:15:00.0,Qmin,8.77,CHCGILDTO6Y
MA6813400180,h_OCHCTP,13-L1-8,2019-02-04 21:15:00.0,PhaseCorrectionAve,-0.183,CHCGILDTO6Y
MA6813400180,h_OCHCTP,13-L1-8,2019-02-04 21:15:00.0,BerPreFecMax,0.00303,CHCGILDTO6Y
MA6813400180,h_OCHCTP,13-L1-8,2019-02-04 21:15:00.0,PmdMin,0.995,CHCGILDTO6Y
MA6813400180,h_OCHCTP,13-L1-8,2019-02-04 21:15:00.0,SoPmdAve,3883.24,CHCGILDTO6Y
MA6813400180,h_OCHCTP,13-L1-8,2019-02-04 21:30:00.0,Qmin,8.72,CHCGILDTO6Y
MA6813400180,h_OCHCTP,13-L1-8,2019-02-04 21:30:00.0,PhaseCorrectionAve,-0.183,CHCGILDTO6Y
MA6813400180,h_OCHCTP,13-L1-8,2019-02-04 21:30:00.0,BerPreFecMax,0.00316,CHCGILDTO6Y
MA6813400180,h_OCHCTP,13-L1-8,2019-02-04 21:30:00.0,PmdMin,0.894,CHCGILDTO6Y
MA6813400180,h_OCHCTP,13-L1-8,2019-02-04 21:30:00.0,SoPmdAve,3713.23,CHCGILDTO6Y
MA6813400180,h_OCHCTP,13-L1-8,2019-02-04 21:45:00.0,Qmin,8.66,CHCGILDTO6Y
MA6813400180,h_OCHCTP,13-L1-8,2019-02-04 21:45:00.0,PhaseCorrectionAve,-0.305,CHCGILDTO6Y
MA6813400180,h_OCHCTP,13-L1-8,2019-02-04 21:45:00.0,BerPreFecMax,0.00337,CHCGILDTO6Y
MA6813400180,h_OCHCTP,13-L1-8,2019-02-04 21:45:00.0,PmdMin,1.28,CHCGILDTO6Y
MA6813400180,h_OCHCTP,13-L1-8,2019-02-04 21:45:00.0,SoPmdAve,3792.01,CHCGILDTO6Y
MA6813400180,h_OCHCTP,13-L1-9,2019-02-04 21:15:00.0,Qmin,8.62,CHCGILDTO6Y
MA6813400180,h_OCHCTP,13-L1-9,2019-02-04 21:15:00.0,PhaseCorrectionAve,-0.183,CHCGILDTO6Y
MA6813400180,h_OCHCTP,13-L1-9,2019-02-04 21:15:00.0,BerPreFecMax,0.00349,CHCGILDTO6Y
MA6813400180,h_OCHCTP,13-L1-9,2019-02-04 21:15:00.0,PmdMin,1.15,CHCGILDTO6Y
MA6813400180,h_OCHCTP,13-L1-9,2019-02-04 21:15:00.0,SoPmdAve,3565.09,CHCGILDTO6Y
MA6813400180,h_OCHCTP,13-L1-9,2019-02-04 21:30:00.0,Qmin,8.62,CHCGILDTO6Y
MA6813400180,h_OCHCTP,13-L1-9,2019-02-04 21:30:00.0,PhaseCorrectionAve,-0.183,CHCGILDTO6Y
MA6813400180,h_OCHCTP,13-L1-9,2019-02-04 21:30:00.0,BerPreFecMax,0.00349,CHCGILDTO6Y
MA6813400180,h_OCHCTP,13-L1-9,2019-02-04 21:30:00.0,PmdMin,1.41,CHCGILDTO6Y
MA6813400180,h_OCHCTP,13-L1-9,2019-02-04 21:30:00.0,SoPmdAve,3540.29,CHCGILDTO6Y
MA6813400180,h_OCHCTP,13-L1-9,2019-02-04 21:45:00.0,Qmin,8.6,CHCGILDTO6Y
MA6813400180,h_OCHCTP,13-L1-9,2019-02-04 21:45:00.0,PhaseCorrectionAve,-0.305,CHCGILDTO6Y
MA6813400180,h_OCHCTP,13-L1-9,2019-02-04 21:45:00.0,BerPreFecMax,0.00355,CHCGILDTO6Y
MA6813400180,h_OCHCTP,13-L1-9,2019-02-04 21:45:00.0,PmdMin,0.875,CHCGILDTO6Y
MA6813400180,h_OCHCTP,13-L1-9,2019-02-04 21:45:00.0,SoPmdAve,3574.91,CHCGILDTO6Y
MA6813400180,h_OCHCTP,13-L1-10,2019-02-04 21:15:00.0,Qmin,8.49,CHCGILDTO6Y
MA6813400180,h_OCHCTP,13-L1-10,2019-02-04 21:15:00.0,PhaseCorrectionAve,-0.244,CHCGILDTO6Y
MA6813400180,h_OCHCTP,13-L1-10,2019-02-04 21:15:00.0,BerPreFecMax,0.00393,CHCGILDTO6Y
MA6813400180,h_OCHCTP,13-L1-10,2019-02-04 21:15:00.0,PmdMin,0.891,CHCGILDTO6Y
MA6813400180,h_OCHCTP,13-L1-10,2019-02-04 21:15:00.0,SoPmdAve,3840.52,CHCGILDTO6Y
MA6813400180,h_OCHCTP,13-L1-10,2019-02-04 21:30:00.0,Qmin,8.58,CHCGILDTO6Y
MA6813400180,h_OCHCTP,13-L1-10,2019-02-04 21:30:00.0,PhaseCorrectionAve,-0.183,CHCGILDTO6Y
MA6813400180,h_OCHCTP,13-L1-10,2019-02-04 21:30:00.0,BerPreFecMax,0.00363,CHCGILDTO6Y
MA6813400180,h_OCHCTP,13-L1-10,2019-02-04 21:30:00.0,PmdMin,0.937,CHCGILDTO6Y
MA6813400180,h_OCHCTP,13-L1-10,2019-02-04 21:30:00.0,SoPmdAve,3987.32,CHCGILDTO6Y
MA6813400180,h_OCHCTP,13-L1-10,2019-02-04 21:45:00.0,Qmin,8.5,CHCGILDTO6Y
MA6813400180,h_OCHCTP,13-L1-10,2019-02-04 21:45:00.0,PhaseCorrectionAve,-0.305,CHCGILDTO6Y
MA6813400180,h_OCHCTP,13-L1-10,2019-02-04 21:45:00.0,BerPreFecMax,0.00389,CHCGILDTO6Y
MA6813400180,h_OCHCTP,13-L1-10,2019-02-04 21:45:00.0,PmdMin,0.659,CHCGILDTO6Y
MA6813400180,h_OCHCTP,13-L1-10,2019-02-04 21:45:00.0,SoPmdAve,3865.51,CHCGILDTO6Y
MA6813400180,h_OCHCTP,11-L1-1,2019-02-04 21:15:00.0,Qmin,9.08,CHCGILDTO6Y
MA6813400180,h_OCHCTP,11-L1-1,2019-02-04 21:15:00.0,PhaseCorrectionAve,2.33e-07,CHCGILDTO6Y
MA6813400180,h_OCHCTP,11-L1-1,2019-02-04 21:15:00.0,BerPreFecMax,0.00223,CHCGILDTO6Y
MA6813400180,h_OCHCTP,11-L1-1,2019-02-04 21:15:00.0,PmdMin,1.02,CHCGILDTO6Y
MA6813400180,h_OCHCTP,11-L1-1,2019-02-04 21:15:00.0,SoPmdAve,3518.07,CHCGILDTO6Y
MA6813400180,h_OCHCTP,11-L1-1,2019-02-04 21:30:00.0,Qmin,9.06,CHCGILDTO6Y
MA6813400180,h_OCHCTP,11-L1-1,2019-02-04 21:30:00.0,PhaseCorrectionAve,2.1e-07,CHCGILDTO6Y
MA6813400180,h_OCHCTP,11-L1-1,2019-02-04 21:30:00.0,BerPreFecMax,0.00227,CHCGILDTO6Y
MA6813400180,h_OCHCTP,11-L1-1,2019-02-04 21:30:00.0,PmdMin,1.02,CHCGILDTO6Y
MA6813400180,h_OCHCTP,11-L1-1,2019-02-04 21:30:00.0,SoPmdAve,3273.34,CHCGILDTO6Y
MA6813400180,h_OCHCTP,11-L1-1,2019-02-04 21:45:00.0,Qmin,9.15,CHCGILDTO6Y
MA6813400180,h_OCHCTP,11-L1-1,2019-02-04 21:45:00.0,PhaseCorrectionAve,1.57e-07,CHCGILDTO6Y
MA6813400180,h_OCHCTP,11-L1-1,2019-02-04 21:45:00.0,BerPreFecMax,0.00208,CHCGILDTO6Y
MA6813400180,h_OCHCTP,11-L1-1,2019-02-04 21:45:00.0,PmdMin,1.0,CHCGILDTO6Y
MA6813400180,h_OCHCTP,11-L1-1,2019-02-04 21:45:00.0,SoPmdAve,3326.48,CHCGILDTO6Y
MA6813400180,h_OCHCTP,11-L1-2,2019-02-04 21:15:00.0,Qmin,8.98,CHCGILDTO6Y
MA6813400180,h_OCHCTP,11-L1-2,2019-02-04 21:15:00.0,PhaseCorrectionAve,5.77e-07,CHCGILDTO6Y
MA6813400180,h_OCHCTP,11-L1-2,2019-02-04 21:15:00.0,BerPreFecMax,0.00247,CHCGILDTO6Y
MA6813400180,h_OCHCTP,11-L1-2,2019-02-04 21:15:00.0,PmdMin,0.858,CHCGILDTO6Y
MA6813400180,h_OCHCTP,11-L1-2,2019-02-04 21:15:00.0,SoPmdAve,3033.62,CHCGILDTO6Y
MA6813400180,h_OCHCTP,11-L1-2,2019-02-04 21:30:00.0,Qmin,9.06,CHCGILDTO6Y
MA6813400180,h_OCHCTP,11-L1-2,2019-02-04 21:30:00.0,PhaseCorrectionAve,-0.122,CHCGILDTO6Y
MA6813400180,h_OCHCTP,11-L1-2,2019-02-04 21:30:00.0,BerPreFecMax,0.00226,CHCGILDTO6Y
MA6813400180,h_OCHCTP,11-L1-2,2019-02-04 21:30:00.0,PmdMin,1.02,CHCGILDTO6Y
MA6813400180,h_OCHCTP,11-L1-2,2019-02-04 21:30:00.0,SoPmdAve,3084.12,CHCGILDTO6Y
MA6813400180,h_OCHCTP,11-L1-2,2019-02-04 21:45:00.0,Qmin,9.04,CHCGILDTO6Y
MA6813400180,h_OCHCTP,11-L1-2,2019-02-04 21:45:00.0,PhaseCorrectionAve,4.35e-07,CHCGILDTO6Y
MA6813400180,h_OCHCTP,11-L1-2,2019-02-04 21:45:00.0,BerPreFecMax,0.00231,CHCGILDTO6Y
MA6813400180,h_OCHCTP,11-L1-2,2019-02-04 21:45:00.0,PmdMin,0.629,CHCGILDTO6Y
MA6813400180,h_OCHCTP,11-L1-2,2019-02-04 21:45:00.0,SoPmdAve,3250.8,CHCGILDTO6Y
MA6813400180,h_OCHCTP,11-L1-3,2019-02-04 21:15:00.0,Qmin,9.0,CHCGILDTO6Y
MA6813400180,h_OCHCTP,11-L1-3,2019-02-04 21:15:00.0,PhaseCorrectionAve,3.96e-07,CHCGILDTO6Y
MA6813400180,h_OCHCTP,11-L1-3,2019-02-04 21:15:00.0,BerPreFecMax,0.00242,CHCGILDTO6Y
MA6813400180,h_OCHCTP,11-L1-3,2019-02-04 21:15:00.0,PmdMin,0.777,CHCGILDTO6Y
MA6813400180,h_OCHCTP,11-L1-3,2019-02-04 21:15:00.0,SoPmdAve,2745.68,CHCGILDTO6Y
MA6813400180,h_OCHCTP,11-L1-3,2019-02-04 21:30:00.0,Qmin,8.98,CHCGILDTO6Y
MA6813400180,h_OCHCTP,11-L1-3,2019-02-04 21:30:00.0,PhaseCorrectionAve,-0.122,CHCGILDTO6Y
MA6813400180,h_OCHCTP,11-L1-3,2019-02-04 21:30:00.0,BerPreFecMax,0.00246,CHCGILDTO6Y
MA6813400180,h_OCHCTP,11-L1-3,2019-02-04 21:30:00.0,PmdMin,0.951,CHCGILDTO6Y
MA6813400180,h_OCHCTP,11-L1-3,2019-02-04 21:30:00.0,SoPmdAve,2726.0,CHCGILDTO6Y
MA6813400180,h_OCHCTP,11-L1-3,2019-02-04 21:45:00.0,Qmin,8.95,CHCGILDTO6Y
MA6813400180,h_OCHCTP,11-L1-3,2019-02-04 21:45:00.0,PhaseCorrectionAve,-0.061,CHCGILDTO6Y
MA6813400180,h_OCHCTP,11-L1-3,2019-02-04 21:45:00.0,BerPreFecMax,0.00253,CHCGILDTO6Y
MA6813400180,h_OCHCTP,11-L1-3,2019-02-04 21:45:00.0,PmdMin,0.906,CHCGILDTO6Y
MA6813400180,h_OCHCTP,11-L1-3,2019-02-04 21:45:00.0,SoPmdAve,2760.03,CHCGILDTO6Y
MA6813400180,h_OCHCTP,11-L1-4,2019-02-04 21:15:00.0,Qmin,8.83,CHCGILDTO6Y
MA6813400180,h_OCHCTP,11-L1-4,2019-02-04 21:15:00.0,PhaseCorrectionAve,4.26e-07,CHCGILDTO6Y
MA6813400180,h_OCHCTP,11-L1-4,2019-02-04 21:15:00.0,BerPreFecMax,0.00285,CHCGILDTO6Y
MA6813400180,h_OCHCTP,11-L1-4,2019-02-04 21:15:00.0,PmdMin,0.858,CHCGILDTO6Y
MA6813400180,h_OCHCTP,11-L1-4,2019-02-04 21:15:00.0,SoPmdAve,2919.45,CHCGILDTO6Y
MA6813400180,h_OCHCTP,11-L1-4,2019-02-04 21:30:00.0,Qmin,8.81,CHCGILDTO6Y
MA6813400180,h_OCHCTP,11-L1-4,2019-02-04 21:30:00.0,PhaseCorrectionAve,-0.183,CHCGILDTO6Y
MA6813400180,h_OCHCTP,11-L1-4,2019-02-04 21:30:00.0,BerPreFecMax,0.00291,CHCGILDTO6Y
MA6813400180,h_OCHCTP,11-L1-4,2019-02-04 21:30:00.0,PmdMin,0.367,CHCGILDTO6Y
MA6813400180,h_OCHCTP,11-L1-4,2019-02-04 21:30:00.0,SoPmdAve,2912.59,CHCGILDTO6Y
MA6813400180,h_OCHCTP,11-L1-4,2019-02-04 21:45:00.0,Qmin,8.8,CHCGILDTO6Y
MA6813400180,h_OCHCTP,11-L1-4,2019-02-04 21:45:00.0,PhaseCorrectionAve,-0.061,CHCGILDTO6Y
MA6813400180,h_OCHCTP,11-L1-4,2019-02-04 21:45:00.0,BerPreFecMax,0.00294,CHCGILDTO6Y
MA6813400180,h_OCHCTP,11-L1-4,2019-02-04 21:45:00.0,PmdMin,0.749,CHCGILDTO6Y
MA6813400180,h_OCHCTP,11-L1-4,2019-02-04 21:45:00.0,SoPmdAve,2983.3,CHCGILDTO6Y
MA6813400180,h_OCHCTP,11-L1-5,2019-02-04 21:15:00.0,Qmin,8.89,CHCGILDTO6Y
MA6813400180,h_OCHCTP,11-L1-5,2019-02-04 21:15:00.0,PhaseCorrectionAve,2.11e-07,CHCGILDTO6Y
MA6813400180,h_OCHCTP,11-L1-5,2019-02-04 21:15:00.0,BerPreFecMax,0.0027,CHCGILDTO6Y
MA6813400180,h_OCHCTP,11-L1-5,2019-02-04 21:15:00.0,PmdMin,0.843,CHCGILDTO6Y
MA6813400180,h_OCHCTP,11-L1-5,2019-02-04 21:15:00.0,SoPmdAve,2453.53,CHCGILDTO6Y
MA6813400180,h_OCHCTP,11-L1-5,2019-02-04 21:30:00.0,Qmin,8.84,CHCGILDTO6Y
MA6813400180,h_OCHCTP,11-L1-5,2019-02-04 21:30:00.0,PhaseCorrectionAve,-0.183,CHCGILDTO6Y
MA6813400180,h_OCHCTP,11-L1-5,2019-02-04 21:30:00.0,BerPreFecMax,0.00283,CHCGILDTO6Y
MA6813400180,h_OCHCTP,11-L1-5,2019-02-04 21:30:00.0,PmdMin,0.396,CHCGILDTO6Y
MA6813400180,h_OCHCTP,11-L1-5,2019-02-04 21:30:00.0,SoPmdAve,2564.98,CHCGILDTO6Y
MA6813400180,h_OCHCTP,11-L1-5,2019-02-04 21:45:00.0,Qmin,8.82,CHCGILDTO6Y
MA6813400180,h_OCHCTP,11-L1-5,2019-02-04 21:45:00.0,PhaseCorrectionAve,-0.061,CHCGILDTO6Y
MA6813400180,h_OCHCTP,11-L1-5,2019-02-04 21:45:00.0,BerPreFecMax,0.00287,CHCGILDTO6Y
MA6813400180,h_OCHCTP,11-L1-5,2019-02-04 21:45:00.0,PmdMin,0.877,CHCGILDTO6Y
MA6813400180,h_OCHCTP,11-L1-5,2019-02-04 21:45:00.0,SoPmdAve,2514.93,CHCGILDTO6Y
MA6813400180,h_OCHCTP,11-L1-6,2019-02-04 21:15:00.0,Qmin,8.8,CHCGILDTO6Y
MA6813400180,h_OCHCTP,11-L1-6,2019-02-04 21:15:00.0,PhaseCorrectionAve,5.44e-07,CHCGILDTO6Y
MA6813400180,h_OCHCTP,11-L1-6,2019-02-04 21:15:00.0,BerPreFecMax,0.00294,CHCGILDTO6Y
MA6813400180,h_OCHCTP,11-L1-6,2019-02-04 21:15:00.0,PmdMin,0.607,CHCGILDTO6Y
MA6813400180,h_OCHCTP,11-L1-6,2019-02-04 21:15:00.0,SoPmdAve,2567.66,CHCGILDTO6Y
MA6813400180,h_OCHCTP,11-L1-6,2019-02-04 21:30:00.0,Qmin,8.73,CHCGILDTO6Y
MA6813400180,h_OCHCTP,11-L1-6,2019-02-04 21:30:00.0,PhaseCorrectionAve,-0.305,CHCGILDTO6Y
MA6813400180,h_OCHCTP,11-L1-6,2019-02-04 21:30:00.0,BerPreFecMax,0.00315,CHCGILDTO6Y
MA6813400180,h_OCHCTP,11-L1-6,2019-02-04 21:30:00.0,PmdMin,0.902,CHCGILDTO6Y
MA6813400180,h_OCHCTP,11-L1-6,2019-02-04 21:30:00.0,SoPmdAve,2423.04,CHCGILDTO6Y
MA6813400180,h_OCHCTP,11-L1-6,2019-02-04 21:45:00.0,Qmin,8.7,CHCGILDTO6Y
MA6813400180,h_OCHCTP,11-L1-6,2019-02-04 21:45:00.0,PhaseCorrectionAve,-0.061,CHCGILDTO6Y
MA6813400180,h_OCHCTP,11-L1-6,2019-02-04 21:45:00.0,BerPreFecMax,0.00325,CHCGILDTO6Y
MA6813400180,h_OCHCTP,11-L1-6,2019-02-04 21:45:00.0,PmdMin,0.657,CHCGILDTO6Y
MA6813400180,h_OCHCTP,11-L1-6,2019-02-04 21:45:00.0,SoPmdAve,2453.45,CHCGILDTO6Y
MA6813400180,h_OCHCTP,11-L1-7,2019-02-04 21:15:00.0,Qmin,8.81,CHCGILDTO6Y
MA6813400180,h_OCHCTP,11-L1-7,2019-02-04 21:15:00.0,PhaseCorrectionAve,3.75e-07,CHCGILDTO6Y
MA6813400180,h_OCHCTP,11-L1-7,2019-02-04 21:15:00.0,BerPreFecMax,0.00291,CHCGILDTO6Y
MA6813400180,h_OCHCTP,11-L1-7,2019-02-04 21:15:00.0,PmdMin,1.17,CHCGILDTO6Y
MA6813400180,h_OCHCTP,11-L1-7,2019-02-04 21:15:00.0,SoPmdAve,3047.47,CHCGILDTO6Y
MA6813400180,h_OCHCTP,11-L1-7,2019-02-04 21:30:00.0,Qmin,8.73,CHCGILDTO6Y
MA6813400180,h_OCHCTP,11-L1-7,2019-02-04 21:30:00.0,PhaseCorrectionAve,-0.305,CHCGILDTO6Y
MA6813400180,h_OCHCTP,11-L1-7,2019-02-04 21:30:00.0,BerPreFecMax,0.00313,CHCGILDTO6Y
MA6813400180,h_OCHCTP,11-L1-7,2019-02-04 21:30:00.0,PmdMin,1.24,CHCGILDTO6Y
MA6813400180,h_OCHCTP,11-L1-7,2019-02-04 21:30:00.0,SoPmdAve,3039.27,CHCGILDTO6Y
MA6813400180,h_OCHCTP,11-L1-7,2019-02-04 21:45:00.0,Qmin,8.74,CHCGILDTO6Y
MA6813400180,h_OCHCTP,11-L1-7,2019-02-04 21:45:00.0,PhaseCorrectionAve,-0.061,CHCGILDTO6Y
MA6813400180,h_OCHCTP,11-L1-7,2019-02-04 21:45:00.0,BerPreFecMax,0.00311,CHCGILDTO6Y
MA6813400180,h_OCHCTP,11-L1-7,2019-02-04 21:45:00.0,PmdMin,1.26,CHCGILDTO6Y
MA6813400180,h_OCHCTP,11-L1-7,2019-02-04 21:45:00.0,SoPmdAve,2952.49,CHCGILDTO6Y
MA6813400180,h_OCHCTP,11-L1-8,2019-02-04 21:15:00.0,Qmin,8.71,CHCGILDTO6Y
MA6813400180,h_OCHCTP,11-L1-8,2019-02-04 21:15:00.0,PhaseCorrectionAve,1.5e-06,CHCGILDTO6Y
MA6813400180,h_OCHCTP,11-L1-8,2019-02-04 21:15:00.0,BerPreFecMax,0.0032,CHCGILDTO6Y
MA6813400180,h_OCHCTP,11-L1-8,2019-02-04 21:15:00.0,PmdMin,0.758,CHCGILDTO6Y
MA6813400180,h_OCHCTP,11-L1-8,2019-02-04 21:15:00.0,SoPmdAve,3115.87,CHCGILDTO6Y
MA6813400180,h_OCHCTP,11-L1-8,2019-02-04 21:30:00.0,Qmin,8.69,CHCGILDTO6Y
MA6813400180,h_OCHCTP,11-L1-8,2019-02-04 21:30:00.0,PhaseCorrectionAve,-0.305,CHCGILDTO6Y
MA6813400180,h_OCHCTP,11-L1-8,2019-02-04 21:30:00.0,BerPreFecMax,0.00326,CHCGILDTO6Y
MA6813400180,h_OCHCTP,11-L1-8,2019-02-04 21:30:00.0,PmdMin,0.57,CHCGILDTO6Y
MA6813400180,h_OCHCTP,11-L1-8,2019-02-04 21:30:00.0,SoPmdAve,3085.2,CHCGILDTO6Y
MA6813400180,h_OCHCTP,11-L1-8,2019-02-04 21:45:00.0,Qmin,8.76,CHCGILDTO6Y
MA6813400180,h_OCHCTP,11-L1-8,2019-02-04 21:45:00.0,PhaseCorrectionAve,-0.122,CHCGILDTO6Y
MA6813400180,h_OCHCTP,11-L1-8,2019-02-04 21:45:00.0,BerPreFecMax,0.00306,CHCGILDTO6Y
MA6813400180,h_OCHCTP,11-L1-8,2019-02-04 21:45:00.0,PmdMin,0.975,CHCGILDTO6Y
MA6813400180,h_OCHCTP,11-L1-8,2019-02-04 21:45:00.0,SoPmdAve,3126.91,CHCGILDTO6Y
MA6813400180,h_OCHCTP,11-L1-9,2019-02-04 21:15:00.0,Qmin,8.72,CHCGILDTO6Y
MA6813400180,h_OCHCTP,11-L1-9,2019-02-04 21:15:00.0,PhaseCorrectionAve,2.56e-06,CHCGILDTO6Y
MA6813400180,h_OCHCTP,11-L1-9,2019-02-04 21:15:00.0,BerPreFecMax,0.00318,CHCGILDTO6Y
MA6813400180,h_OCHCTP,11-L1-9,2019-02-04 21:15:00.0,PmdMin,0.912,CHCGILDTO6Y
MA6813400180,h_OCHCTP,11-L1-9,2019-02-04 21:15:00.0,SoPmdAve,2953.15,CHCGILDTO6Y
MA6813400180,h_OCHCTP,11-L1-9,2019-02-04 21:30:00.0,Qmin,8.69,CHCGILDTO6Y
MA6813400180,h_OCHCTP,11-L1-9,2019-02-04 21:30:00.0,PhaseCorrectionAve,-0.305,CHCGILDTO6Y
MA6813400180,h_OCHCTP,11-L1-9,2019-02-04 21:30:00.0,BerPreFecMax,0.00327,CHCGILDTO6Y
MA6813400180,h_OCHCTP,11-L1-9,2019-02-04 21:30:00.0,PmdMin,0.843,CHCGILDTO6Y
MA6813400180,h_OCHCTP,11-L1-9,2019-02-04 21:30:00.0,SoPmdAve,2986.19,CHCGILDTO6Y
MA6813400180,h_OCHCTP,11-L1-9,2019-02-04 21:45:00.0,Qmin,8.7,CHCGILDTO6Y
MA6813400180,h_OCHCTP,11-L1-9,2019-02-04 21:45:00.0,PhaseCorrectionAve,-0.122,CHCGILDTO6Y
MA6813400180,h_OCHCTP,11-L1-9,2019-02-04 21:45:00.0,BerPreFecMax,0.00323,CHCGILDTO6Y
MA6813400180,h_OCHCTP,11-L1-9,2019-02-04 21:45:00.0,PmdMin,0.978,CHCGILDTO6Y
MA6813400180,h_OCHCTP,11-L1-9,2019-02-04 21:45:00.0,SoPmdAve,2918.5,CHCGILDTO6Y
MA6813400180,h_OCHCTP,11-L1-10,2019-02-04 21:15:00.0,Qmin,8.82,CHCGILDTO6Y
MA6813400180,h_OCHCTP,11-L1-10,2019-02-04 21:15:00.0,PhaseCorrectionAve,3.49e-06,CHCGILDTO6Y
MA6813400180,h_OCHCTP,11-L1-10,2019-02-04 21:15:00.0,BerPreFecMax,0.00287,CHCGILDTO6Y
MA6813400180,h_OCHCTP,11-L1-10,2019-02-04 21:15:00.0,PmdMin,0.769,CHCGILDTO6Y
MA6813400180,h_OCHCTP,11-L1-10,2019-02-04 21:15:00.0,SoPmdAve,3132.87,CHCGILDTO6Y
MA6813400180,h_OCHCTP,11-L1-10,2019-02-04 21:30:00.0,Qmin,8.87,CHCGILDTO6Y
MA6813400180,h_OCHCTP,11-L1-10,2019-02-04 21:30:00.0,PhaseCorrectionAve,-0.305,CHCGILDTO6Y
MA6813400180,h_OCHCTP,11-L1-10,2019-02-04 21:30:00.0,BerPreFecMax,0.00274,CHCGILDTO6Y
MA6813400180,h_OCHCTP,11-L1-10,2019-02-04 21:30:00.0,PmdMin,0.826,CHCGILDTO6Y
MA6813400180,h_OCHCTP,11-L1-10,2019-02-04 21:30:00.0,SoPmdAve,3074.72,CHCGILDTO6Y
MA6813400180,h_OCHCTP,11-L1-10,2019-02-04 21:45:00.0,Qmin,8.87,CHCGILDTO6Y
MA6813400180,h_OCHCTP,11-L1-10,2019-02-04 21:45:00.0,PhaseCorrectionAve,-0.122,CHCGILDTO6Y
MA6813400180,h_OCHCTP,11-L1-10,2019-02-04 21:45:00.0,BerPreFecMax,0.00275,CHCGILDTO6Y
MA6813400180,h_OCHCTP,11-L1-10,2019-02-04 21:45:00.0,PmdMin,1.25,CHCGILDTO6Y
MA6813400180,h_OCHCTP,11-L1-10,2019-02-04 21:45:00.0,SoPmdAve,3137.43,CHCGILDTO6Y
