MA6813400180,h_OCHCTP,10-L1-1,2019-01-25 09:15:00.0,Qmin,9.44,CHCGILDTO6Y
MA6813400180,h_OCHCTP,10-L1-1,2019-01-25 09:15:00.0,PhaseCorrectionAve,3.31e-07,CHCGILDTO6Y
MA6813400180,h_OCHCTP,10-L1-1,2019-01-25 09:15:00.0,BerPreFecMax,0.00151,CHCGILDTO6Y
MA6813400180,h_OCHCTP,10-L1-1,2019-01-25 09:15:00.0,PmdMin,5.38,CHCGILDTO6Y
MA6813400180,h_OCHCTP,10-L1-1,2019-01-25 09:15:00.0,SoPmdAve,3297.95,CHCGILDTO6Y
MA6813400180,h_OCHCTP,10-L1-1,2019-01-25 09:30:00.0,Qmin,9.44,CHCGILDTO6Y
MA6813400180,h_OCHCTP,10-L1-1,2019-01-25 09:30:00.0,PhaseCorrectionAve,3.52e-07,CHCGILDTO6Y
MA6813400180,h_OCHCTP,10-L1-1,2019-01-25 09:30:00.0,BerPreFecMax,0.00151,CHCGILDTO6Y
MA6813400180,h_OCHCTP,10-L1-1,2019-01-25 09:30:00.0,PmdMin,4.31,CHCGILDTO6Y
MA6813400180,h_OCHCTP,10-L1-1,2019-01-25 09:30:00.0,SoPmdAve,3303.9,CHCGILDTO6Y
MA6813400180,h_OCHCTP,10-L1-1,2019-01-25 09:45:00.0,Qmin,9.45,CHCGILDTO6Y
MA6813400180,h_OCHCTP,10-L1-1,2019-01-25 09:45:00.0,PhaseCorrectionAve,3.44e-07,CHCGILDTO6Y
MA6813400180,h_OCHCTP,10-L1-1,2019-01-25 09:45:00.0,BerPreFecMax,0.0015,CHCGILDTO6Y
MA6813400180,h_OCHCTP,10-L1-1,2019-01-25 09:45:00.0,PmdMin,3.6,CHCGILDTO6Y
MA6813400180,h_OCHCTP,10-L1-1,2019-01-25 09:45:00.0,SoPmdAve,3286.1,CHCGILDTO6Y
MA6813400180,h_OCHCTP,10-L1-2,2019-01-25 09:15:00.0,Qmin,9.11,CHCGILDTO6Y
MA6813400180,h_OCHCTP,10-L1-2,2019-01-25 09:15:00.0,PhaseCorrectionAve,3.26e-07,CHCGILDTO6Y
MA6813400180,h_OCHCTP,10-L1-2,2019-01-25 09:15:00.0,BerPreFecMax,0.00215,CHCGILDTO6Y
MA6813400180,h_OCHCTP,10-L1-2,2019-01-25 09:15:00.0,PmdMin,0.933,CHCGILDTO6Y
MA6813400180,h_OCHCTP,10-L1-2,2019-01-25 09:15:00.0,SoPmdAve,3433.35,CHCGILDTO6Y
MA6813400180,h_OCHCTP,10-L1-2,2019-01-25 09:30:00.0,Qmin,9.12,CHCGILDTO6Y
MA6813400180,h_OCHCTP,10-L1-2,2019-01-25 09:30:00.0,PhaseCorrectionAve,-0.061,CHCGILDTO6Y
MA6813400180,h_OCHCTP,10-L1-2,2019-01-25 09:30:00.0,BerPreFecMax,0.00213,CHCGILDTO6Y
MA6813400180,h_OCHCTP,10-L1-2,2019-01-25 09:30:00.0,PmdMin,1.77,CHCGILDTO6Y
MA6813400180,h_OCHCTP,10-L1-2,2019-01-25 09:30:00.0,SoPmdAve,3342.73,CHCGILDTO6Y
MA6813400180,h_OCHCTP,10-L1-2,2019-01-25 09:45:00.0,Qmin,9.13,CHCGILDTO6Y
MA6813400180,h_OCHCTP,10-L1-2,2019-01-25 09:45:00.0,PhaseCorrectionAve,3.25e-07,CHCGILDTO6Y
MA6813400180,h_OCHCTP,10-L1-2,2019-01-25 09:45:00.0,BerPreFecMax,0.00211,CHCGILDTO6Y
MA6813400180,h_OCHCTP,10-L1-2,2019-01-25 09:45:00.0,PmdMin,1.37,CHCGILDTO6Y
MA6813400180,h_OCHCTP,10-L1-2,2019-01-25 09:45:00.0,SoPmdAve,3470.62,CHCGILDTO6Y
MA6813400180,h_OCHCTP,10-L1-3,2019-01-25 09:15:00.0,Qmin,8.8,CHCGILDTO6Y
MA6813400180,h_OCHCTP,10-L1-3,2019-01-25 09:15:00.0,PhaseCorrectionAve,5.81e-07,CHCGILDTO6Y
MA6813400180,h_OCHCTP,10-L1-3,2019-01-25 09:15:00.0,BerPreFecMax,0.00294,CHCGILDTO6Y
MA6813400180,h_OCHCTP,10-L1-3,2019-01-25 09:15:00.0,PmdMin,1.95,CHCGILDTO6Y
MA6813400180,h_OCHCTP,10-L1-3,2019-01-25 09:15:00.0,SoPmdAve,2931.89,CHCGILDTO6Y
MA6813400180,h_OCHCTP,10-L1-3,2019-01-25 09:30:00.0,Qmin,8.82,CHCGILDTO6Y
MA6813400180,h_OCHCTP,10-L1-3,2019-01-25 09:30:00.0,PhaseCorrectionAve,-0.122,CHCGILDTO6Y
MA6813400180,h_OCHCTP,10-L1-3,2019-01-25 09:30:00.0,BerPreFecMax,0.00287,CHCGILDTO6Y
MA6813400180,h_OCHCTP,10-L1-3,2019-01-25 09:30:00.0,PmdMin,0.986,CHCGILDTO6Y
MA6813400180,h_OCHCTP,10-L1-3,2019-01-25 09:30:00.0,SoPmdAve,2860.56,CHCGILDTO6Y
MA6813400180,h_OCHCTP,10-L1-3,2019-01-25 09:45:00.0,Qmin,8.84,CHCGILDTO6Y
MA6813400180,h_OCHCTP,10-L1-3,2019-01-25 09:45:00.0,PhaseCorrectionAve,-0.061,CHCGILDTO6Y
MA6813400180,h_OCHCTP,10-L1-3,2019-01-25 09:45:00.0,BerPreFecMax,0.00283,CHCGILDTO6Y
MA6813400180,h_OCHCTP,10-L1-3,2019-01-25 09:45:00.0,PmdMin,2.56,CHCGILDTO6Y
MA6813400180,h_OCHCTP,10-L1-3,2019-01-25 09:45:00.0,SoPmdAve,2880.47,CHCGILDTO6Y
MA6813400180,h_OCHCTP,10-L1-4,2019-01-25 09:15:00.0,Qmin,8.2,CHCGILDTO6Y
MA6813400180,h_OCHCTP,10-L1-4,2019-01-25 09:15:00.0,PhaseCorrectionAve,3.9e-06,CHCGILDTO6Y
MA6813400180,h_OCHCTP,10-L1-4,2019-01-25 09:15:00.0,BerPreFecMax,0.00507,CHCGILDTO6Y
MA6813400180,h_OCHCTP,10-L1-4,2019-01-25 09:15:00.0,PmdMin,1.47,CHCGILDTO6Y
MA6813400180,h_OCHCTP,10-L1-4,2019-01-25 09:15:00.0,SoPmdAve,3138.4,CHCGILDTO6Y
MA6813400180,h_OCHCTP,10-L1-4,2019-01-25 09:30:00.0,Qmin,8.2,CHCGILDTO6Y
MA6813400180,h_OCHCTP,10-L1-4,2019-01-25 09:30:00.0,PhaseCorrectionAve,-0.183,CHCGILDTO6Y
MA6813400180,h_OCHCTP,10-L1-4,2019-01-25 09:30:00.0,BerPreFecMax,0.00509,CHCGILDTO6Y
MA6813400180,h_OCHCTP,10-L1-4,2019-01-25 09:30:00.0,PmdMin,1.34,CHCGILDTO6Y
MA6813400180,h_OCHCTP,10-L1-4,2019-01-25 09:30:00.0,SoPmdAve,3076.27,CHCGILDTO6Y
MA6813400180,h_OCHCTP,10-L1-4,2019-01-25 09:45:00.0,Qmin,8.24,CHCGILDTO6Y
MA6813400180,h_OCHCTP,10-L1-4,2019-01-25 09:45:00.0,PhaseCorrectionAve,-0.061,CHCGILDTO6Y
MA6813400180,h_OCHCTP,10-L1-4,2019-01-25 09:45:00.0,BerPreFecMax,0.0049,CHCGILDTO6Y
MA6813400180,h_OCHCTP,10-L1-4,2019-01-25 09:45:00.0,PmdMin,2.74,CHCGILDTO6Y
MA6813400180,h_OCHCTP,10-L1-4,2019-01-25 09:45:00.0,SoPmdAve,3067.1,CHCGILDTO6Y
MA6813400180,h_OCHCTP,10-L1-5,2019-01-25 09:15:00.0,Qmin,8.4,CHCGILDTO6Y
MA6813400180,h_OCHCTP,10-L1-5,2019-01-25 09:15:00.0,PhaseCorrectionAve,1.9e-06,CHCGILDTO6Y
MA6813400180,h_OCHCTP,10-L1-5,2019-01-25 09:15:00.0,BerPreFecMax,0.00427,CHCGILDTO6Y
MA6813400180,h_OCHCTP,10-L1-5,2019-01-25 09:15:00.0,PmdMin,2.03,CHCGILDTO6Y
MA6813400180,h_OCHCTP,10-L1-5,2019-01-25 09:15:00.0,SoPmdAve,2872.89,CHCGILDTO6Y
MA6813400180,h_OCHCTP,10-L1-5,2019-01-25 09:30:00.0,Qmin,8.39,CHCGILDTO6Y
MA6813400180,h_OCHCTP,10-L1-5,2019-01-25 09:30:00.0,PhaseCorrectionAve,-0.183,CHCGILDTO6Y
MA6813400180,h_OCHCTP,10-L1-5,2019-01-25 09:30:00.0,BerPreFecMax,0.00431,CHCGILDTO6Y
MA6813400180,h_OCHCTP,10-L1-5,2019-01-25 09:30:00.0,PmdMin,0.843,CHCGILDTO6Y
MA6813400180,h_OCHCTP,10-L1-5,2019-01-25 09:30:00.0,SoPmdAve,2966.53,CHCGILDTO6Y
MA6813400180,h_OCHCTP,10-L1-5,2019-01-25 09:45:00.0,Qmin,8.41,CHCGILDTO6Y
MA6813400180,h_OCHCTP,10-L1-5,2019-01-25 09:45:00.0,PhaseCorrectionAve,-0.122,CHCGILDTO6Y
MA6813400180,h_OCHCTP,10-L1-5,2019-01-25 09:45:00.0,BerPreFecMax,0.00422,CHCGILDTO6Y
MA6813400180,h_OCHCTP,10-L1-5,2019-01-25 09:45:00.0,PmdMin,1.18,CHCGILDTO6Y
MA6813400180,h_OCHCTP,10-L1-5,2019-01-25 09:45:00.0,SoPmdAve,2861.2,CHCGILDTO6Y
MA6813400180,h_OCHCTP,10-L1-6,2019-01-25 09:15:00.0,Qmin,8.64,CHCGILDTO6Y
MA6813400180,h_OCHCTP,10-L1-6,2019-01-25 09:15:00.0,PhaseCorrectionAve,1.11e-06,CHCGILDTO6Y
MA6813400180,h_OCHCTP,10-L1-6,2019-01-25 09:15:00.0,BerPreFecMax,0.00343,CHCGILDTO6Y
MA6813400180,h_OCHCTP,10-L1-6,2019-01-25 09:15:00.0,PmdMin,5.44,CHCGILDTO6Y
MA6813400180,h_OCHCTP,10-L1-6,2019-01-25 09:15:00.0,SoPmdAve,2861.99,CHCGILDTO6Y
MA6813400180,h_OCHCTP,10-L1-6,2019-01-25 09:30:00.0,Qmin,8.64,CHCGILDTO6Y
MA6813400180,h_OCHCTP,10-L1-6,2019-01-25 09:30:00.0,PhaseCorrectionAve,-0.244,CHCGILDTO6Y
MA6813400180,h_OCHCTP,10-L1-6,2019-01-25 09:30:00.0,BerPreFecMax,0.00341,CHCGILDTO6Y
MA6813400180,h_OCHCTP,10-L1-6,2019-01-25 09:30:00.0,PmdMin,5.98,CHCGILDTO6Y
MA6813400180,h_OCHCTP,10-L1-6,2019-01-25 09:30:00.0,SoPmdAve,2847.45,CHCGILDTO6Y
MA6813400180,h_OCHCTP,10-L1-6,2019-01-25 09:45:00.0,Qmin,8.65,CHCGILDTO6Y
MA6813400180,h_OCHCTP,10-L1-6,2019-01-25 09:45:00.0,PhaseCorrectionAve,-0.122,CHCGILDTO6Y
MA6813400180,h_OCHCTP,10-L1-6,2019-01-25 09:45:00.0,BerPreFecMax,0.00339,CHCGILDTO6Y
MA6813400180,h_OCHCTP,10-L1-6,2019-01-25 09:45:00.0,PmdMin,2.19,CHCGILDTO6Y
MA6813400180,h_OCHCTP,10-L1-6,2019-01-25 09:45:00.0,SoPmdAve,2755.1,CHCGILDTO6Y
MA6813400180,h_OCHCTP,10-L1-7,2019-01-25 09:15:00.0,Qmin,8.74,CHCGILDTO6Y
MA6813400180,h_OCHCTP,10-L1-7,2019-01-25 09:15:00.0,PhaseCorrectionAve,5.75e-07,CHCGILDTO6Y
MA6813400180,h_OCHCTP,10-L1-7,2019-01-25 09:15:00.0,BerPreFecMax,0.0031,CHCGILDTO6Y
MA6813400180,h_OCHCTP,10-L1-7,2019-01-25 09:15:00.0,PmdMin,3.14,CHCGILDTO6Y
MA6813400180,h_OCHCTP,10-L1-7,2019-01-25 09:15:00.0,SoPmdAve,3492.86,CHCGILDTO6Y
MA6813400180,h_OCHCTP,10-L1-7,2019-01-25 09:30:00.0,Qmin,8.76,CHCGILDTO6Y
MA6813400180,h_OCHCTP,10-L1-7,2019-01-25 09:30:00.0,PhaseCorrectionAve,-0.305,CHCGILDTO6Y
MA6813400180,h_OCHCTP,10-L1-7,2019-01-25 09:30:00.0,BerPreFecMax,0.00306,CHCGILDTO6Y
MA6813400180,h_OCHCTP,10-L1-7,2019-01-25 09:30:00.0,PmdMin,3.86,CHCGILDTO6Y
MA6813400180,h_OCHCTP,10-L1-7,2019-01-25 09:30:00.0,SoPmdAve,3531.25,CHCGILDTO6Y
MA6813400180,h_OCHCTP,10-L1-7,2019-01-25 09:45:00.0,Qmin,8.76,CHCGILDTO6Y
MA6813400180,h_OCHCTP,10-L1-7,2019-01-25 09:45:00.0,PhaseCorrectionAve,-0.122,CHCGILDTO6Y
MA6813400180,h_OCHCTP,10-L1-7,2019-01-25 09:45:00.0,BerPreFecMax,0.00307,CHCGILDTO6Y
MA6813400180,h_OCHCTP,10-L1-7,2019-01-25 09:45:00.0,PmdMin,3.16,CHCGILDTO6Y
MA6813400180,h_OCHCTP,10-L1-7,2019-01-25 09:45:00.0,SoPmdAve,3446.83,CHCGILDTO6Y
MA6813400180,h_OCHCTP,10-L1-8,2019-01-25 09:15:00.0,Qmin,9.3,CHCGILDTO6Y
MA6813400180,h_OCHCTP,10-L1-8,2019-01-25 09:15:00.0,PhaseCorrectionAve,-0.061,CHCGILDTO6Y
MA6813400180,h_OCHCTP,10-L1-8,2019-01-25 09:15:00.0,BerPreFecMax,0.00176,CHCGILDTO6Y
MA6813400180,h_OCHCTP,10-L1-8,2019-01-25 09:15:00.0,PmdMin,1.22,CHCGILDTO6Y
MA6813400180,h_OCHCTP,10-L1-8,2019-01-25 09:15:00.0,SoPmdAve,3466.79,CHCGILDTO6Y
MA6813400180,h_OCHCTP,10-L1-8,2019-01-25 09:30:00.0,Qmin,9.31,CHCGILDTO6Y
MA6813400180,h_OCHCTP,10-L1-8,2019-01-25 09:30:00.0,PhaseCorrectionAve,-0.305,CHCGILDTO6Y
MA6813400180,h_OCHCTP,10-L1-8,2019-01-25 09:30:00.0,BerPreFecMax,0.00174,CHCGILDTO6Y
MA6813400180,h_OCHCTP,10-L1-8,2019-01-25 09:30:00.0,PmdMin,2.07,CHCGILDTO6Y
MA6813400180,h_OCHCTP,10-L1-8,2019-01-25 09:30:00.0,SoPmdAve,3346.58,CHCGILDTO6Y
MA6813400180,h_OCHCTP,10-L1-8,2019-01-25 09:45:00.0,Qmin,9.31,CHCGILDTO6Y
MA6813400180,h_OCHCTP,10-L1-8,2019-01-25 09:45:00.0,PhaseCorrectionAve,-0.183,CHCGILDTO6Y
MA6813400180,h_OCHCTP,10-L1-8,2019-01-25 09:45:00.0,BerPreFecMax,0.00174,CHCGILDTO6Y
MA6813400180,h_OCHCTP,10-L1-8,2019-01-25 09:45:00.0,PmdMin,2.43,CHCGILDTO6Y
MA6813400180,h_OCHCTP,10-L1-8,2019-01-25 09:45:00.0,SoPmdAve,3522.96,CHCGILDTO6Y
MA6813400180,h_OCHCTP,10-L1-9,2019-01-25 09:15:00.0,Qmin,9.34,CHCGILDTO6Y
MA6813400180,h_OCHCTP,10-L1-9,2019-01-25 09:15:00.0,PhaseCorrectionAve,-0.061,CHCGILDTO6Y
MA6813400180,h_OCHCTP,10-L1-9,2019-01-25 09:15:00.0,BerPreFecMax,0.00169,CHCGILDTO6Y
MA6813400180,h_OCHCTP,10-L1-9,2019-01-25 09:15:00.0,PmdMin,1.26,CHCGILDTO6Y
MA6813400180,h_OCHCTP,10-L1-9,2019-01-25 09:15:00.0,SoPmdAve,3543.18,CHCGILDTO6Y
MA6813400180,h_OCHCTP,10-L1-9,2019-01-25 09:30:00.0,Qmin,9.35,CHCGILDTO6Y
MA6813400180,h_OCHCTP,10-L1-9,2019-01-25 09:30:00.0,PhaseCorrectionAve,-0.305,CHCGILDTO6Y
MA6813400180,h_OCHCTP,10-L1-9,2019-01-25 09:30:00.0,BerPreFecMax,0.00167,CHCGILDTO6Y
MA6813400180,h_OCHCTP,10-L1-9,2019-01-25 09:30:00.0,PmdMin,2.56,CHCGILDTO6Y
MA6813400180,h_OCHCTP,10-L1-9,2019-01-25 09:30:00.0,SoPmdAve,3585.26,CHCGILDTO6Y
MA6813400180,h_OCHCTP,10-L1-9,2019-01-25 09:45:00.0,Qmin,9.35,CHCGILDTO6Y
MA6813400180,h_OCHCTP,10-L1-9,2019-01-25 09:45:00.0,PhaseCorrectionAve,-0.244,CHCGILDTO6Y
MA6813400180,h_OCHCTP,10-L1-9,2019-01-25 09:45:00.0,BerPreFecMax,0.00168,CHCGILDTO6Y
MA6813400180,h_OCHCTP,10-L1-9,2019-01-25 09:45:00.0,PmdMin,2.29,CHCGILDTO6Y
MA6813400180,h_OCHCTP,10-L1-9,2019-01-25 09:45:00.0,SoPmdAve,3487.69,CHCGILDTO6Y
MA6813400180,h_OCHCTP,10-L1-10,2019-01-25 09:15:00.0,Qmin,9.38,CHCGILDTO6Y
MA6813400180,h_OCHCTP,10-L1-10,2019-01-25 09:15:00.0,PhaseCorrectionAve,-0.061,CHCGILDTO6Y
MA6813400180,h_OCHCTP,10-L1-10,2019-01-25 09:15:00.0,BerPreFecMax,0.00162,CHCGILDTO6Y
MA6813400180,h_OCHCTP,10-L1-10,2019-01-25 09:15:00.0,PmdMin,5.49,CHCGILDTO6Y
MA6813400180,h_OCHCTP,10-L1-10,2019-01-25 09:15:00.0,SoPmdAve,3245.79,CHCGILDTO6Y
MA6813400180,h_OCHCTP,10-L1-10,2019-01-25 09:30:00.0,Qmin,9.36,CHCGILDTO6Y
MA6813400180,h_OCHCTP,10-L1-10,2019-01-25 09:30:00.0,PhaseCorrectionAve,-0.305,CHCGILDTO6Y
MA6813400180,h_OCHCTP,10-L1-10,2019-01-25 09:30:00.0,BerPreFecMax,0.00165,CHCGILDTO6Y
MA6813400180,h_OCHCTP,10-L1-10,2019-01-25 09:30:00.0,PmdMin,5.84,CHCGILDTO6Y
MA6813400180,h_OCHCTP,10-L1-10,2019-01-25 09:30:00.0,SoPmdAve,3235.19,CHCGILDTO6Y
MA6813400180,h_OCHCTP,10-L1-10,2019-01-25 09:45:00.0,Qmin,9.37,CHCGILDTO6Y
MA6813400180,h_OCHCTP,10-L1-10,2019-01-25 09:45:00.0,PhaseCorrectionAve,-0.244,CHCGILDTO6Y
MA6813400180,h_OCHCTP,10-L1-10,2019-01-25 09:45:00.0,BerPreFecMax,0.00164,CHCGILDTO6Y
MA6813400180,h_OCHCTP,10-L1-10,2019-01-25 09:45:00.0,PmdMin,4.41,CHCGILDTO6Y
MA6813400180,h_OCHCTP,10-L1-10,2019-01-25 09:45:00.0,SoPmdAve,3329.16,CHCGILDTO6Y
MA6813400180,h_OCHCTP,11-L1-1,2019-01-25 09:15:00.0,Qmin,9.18,CHCGILDTO6Y
MA6813400180,h_OCHCTP,11-L1-1,2019-01-25 09:15:00.0,PhaseCorrectionAve,1.01e-07,CHCGILDTO6Y
MA6813400180,h_OCHCTP,11-L1-1,2019-01-25 09:15:00.0,BerPreFecMax,0.00201,CHCGILDTO6Y
MA6813400180,h_OCHCTP,11-L1-1,2019-01-25 09:15:00.0,PmdMin,0.795,CHCGILDTO6Y
MA6813400180,h_OCHCTP,11-L1-1,2019-01-25 09:15:00.0,SoPmdAve,3298.24,CHCGILDTO6Y
MA6813400180,h_OCHCTP,11-L1-1,2019-01-25 09:30:00.0,Qmin,9.12,CHCGILDTO6Y
MA6813400180,h_OCHCTP,11-L1-1,2019-01-25 09:30:00.0,PhaseCorrectionAve,1.11e-07,CHCGILDTO6Y
MA6813400180,h_OCHCTP,11-L1-1,2019-01-25 09:30:00.0,BerPreFecMax,0.00214,CHCGILDTO6Y
MA6813400180,h_OCHCTP,11-L1-1,2019-01-25 09:30:00.0,PmdMin,1.03,CHCGILDTO6Y
MA6813400180,h_OCHCTP,11-L1-1,2019-01-25 09:30:00.0,SoPmdAve,3423.6,CHCGILDTO6Y
MA6813400180,h_OCHCTP,11-L1-1,2019-01-25 09:45:00.0,Qmin,9.09,CHCGILDTO6Y
MA6813400180,h_OCHCTP,11-L1-1,2019-01-25 09:45:00.0,PhaseCorrectionAve,1.27e-07,CHCGILDTO6Y
MA6813400180,h_OCHCTP,11-L1-1,2019-01-25 09:45:00.0,BerPreFecMax,0.00221,CHCGILDTO6Y
MA6813400180,h_OCHCTP,11-L1-1,2019-01-25 09:45:00.0,PmdMin,0.619,CHCGILDTO6Y
MA6813400180,h_OCHCTP,11-L1-1,2019-01-25 09:45:00.0,SoPmdAve,3408.16,CHCGILDTO6Y
MA6813400180,h_OCHCTP,11-L1-2,2019-01-25 09:15:00.0,Qmin,9.02,CHCGILDTO6Y
MA6813400180,h_OCHCTP,11-L1-2,2019-01-25 09:15:00.0,PhaseCorrectionAve,3.02e-07,CHCGILDTO6Y
MA6813400180,h_OCHCTP,11-L1-2,2019-01-25 09:15:00.0,BerPreFecMax,0.00236,CHCGILDTO6Y
MA6813400180,h_OCHCTP,11-L1-2,2019-01-25 09:15:00.0,PmdMin,0.722,CHCGILDTO6Y
MA6813400180,h_OCHCTP,11-L1-2,2019-01-25 09:15:00.0,SoPmdAve,3179.39,CHCGILDTO6Y
MA6813400180,h_OCHCTP,11-L1-2,2019-01-25 09:30:00.0,Qmin,8.99,CHCGILDTO6Y
MA6813400180,h_OCHCTP,11-L1-2,2019-01-25 09:30:00.0,PhaseCorrectionAve,-0.061,CHCGILDTO6Y
MA6813400180,h_OCHCTP,11-L1-2,2019-01-25 09:30:00.0,BerPreFecMax,0.00243,CHCGILDTO6Y
MA6813400180,h_OCHCTP,11-L1-2,2019-01-25 09:30:00.0,PmdMin,0.506,CHCGILDTO6Y
MA6813400180,h_OCHCTP,11-L1-2,2019-01-25 09:30:00.0,SoPmdAve,3235.49,CHCGILDTO6Y
MA6813400180,h_OCHCTP,11-L1-2,2019-01-25 09:45:00.0,Qmin,9.01,CHCGILDTO6Y
MA6813400180,h_OCHCTP,11-L1-2,2019-01-25 09:45:00.0,PhaseCorrectionAve,3.89e-07,CHCGILDTO6Y
MA6813400180,h_OCHCTP,11-L1-2,2019-01-25 09:45:00.0,BerPreFecMax,0.00238,CHCGILDTO6Y
MA6813400180,h_OCHCTP,11-L1-2,2019-01-25 09:45:00.0,PmdMin,0.659,CHCGILDTO6Y
MA6813400180,h_OCHCTP,11-L1-2,2019-01-25 09:45:00.0,SoPmdAve,3142.6,CHCGILDTO6Y
MA6813400180,h_OCHCTP,11-L1-3,2019-01-25 09:15:00.0,Qmin,8.91,CHCGILDTO6Y
MA6813400180,h_OCHCTP,11-L1-3,2019-01-25 09:15:00.0,PhaseCorrectionAve,-0.061,CHCGILDTO6Y
MA6813400180,h_OCHCTP,11-L1-3,2019-01-25 09:15:00.0,BerPreFecMax,0.00263,CHCGILDTO6Y
MA6813400180,h_OCHCTP,11-L1-3,2019-01-25 09:15:00.0,PmdMin,1.07,CHCGILDTO6Y
MA6813400180,h_OCHCTP,11-L1-3,2019-01-25 09:15:00.0,SoPmdAve,2693.02,CHCGILDTO6Y
MA6813400180,h_OCHCTP,11-L1-3,2019-01-25 09:30:00.0,Qmin,8.88,CHCGILDTO6Y
MA6813400180,h_OCHCTP,11-L1-3,2019-01-25 09:30:00.0,PhaseCorrectionAve,-0.061,CHCGILDTO6Y
MA6813400180,h_OCHCTP,11-L1-3,2019-01-25 09:30:00.0,BerPreFecMax,0.00271,CHCGILDTO6Y
MA6813400180,h_OCHCTP,11-L1-3,2019-01-25 09:30:00.0,PmdMin,0.496,CHCGILDTO6Y
MA6813400180,h_OCHCTP,11-L1-3,2019-01-25 09:30:00.0,SoPmdAve,2711.81,CHCGILDTO6Y
MA6813400180,h_OCHCTP,11-L1-3,2019-01-25 09:45:00.0,Qmin,8.92,CHCGILDTO6Y
MA6813400180,h_OCHCTP,11-L1-3,2019-01-25 09:45:00.0,PhaseCorrectionAve,3.61e-07,CHCGILDTO6Y
MA6813400180,h_OCHCTP,11-L1-3,2019-01-25 09:45:00.0,BerPreFecMax,0.00261,CHCGILDTO6Y
MA6813400180,h_OCHCTP,11-L1-3,2019-01-25 09:45:00.0,PmdMin,0.98,CHCGILDTO6Y
MA6813400180,h_OCHCTP,11-L1-3,2019-01-25 09:45:00.0,SoPmdAve,2703.64,CHCGILDTO6Y
MA6813400180,h_OCHCTP,11-L1-4,2019-01-25 09:15:00.0,Qmin,8.71,CHCGILDTO6Y
MA6813400180,h_OCHCTP,11-L1-4,2019-01-25 09:15:00.0,PhaseCorrectionAve,-0.061,CHCGILDTO6Y
MA6813400180,h_OCHCTP,11-L1-4,2019-01-25 09:15:00.0,BerPreFecMax,0.00319,CHCGILDTO6Y
MA6813400180,h_OCHCTP,11-L1-4,2019-01-25 09:15:00.0,PmdMin,0.582,CHCGILDTO6Y
MA6813400180,h_OCHCTP,11-L1-4,2019-01-25 09:15:00.0,SoPmdAve,2997.39,CHCGILDTO6Y
MA6813400180,h_OCHCTP,11-L1-4,2019-01-25 09:30:00.0,Qmin,8.72,CHCGILDTO6Y
MA6813400180,h_OCHCTP,11-L1-4,2019-01-25 09:30:00.0,PhaseCorrectionAve,-0.061,CHCGILDTO6Y
MA6813400180,h_OCHCTP,11-L1-4,2019-01-25 09:30:00.0,BerPreFecMax,0.00318,CHCGILDTO6Y
MA6813400180,h_OCHCTP,11-L1-4,2019-01-25 09:30:00.0,PmdMin,1.05,CHCGILDTO6Y
MA6813400180,h_OCHCTP,11-L1-4,2019-01-25 09:30:00.0,SoPmdAve,3020.73,CHCGILDTO6Y
MA6813400180,h_OCHCTP,11-L1-4,2019-01-25 09:45:00.0,Qmin,8.75,CHCGILDTO6Y
MA6813400180,h_OCHCTP,11-L1-4,2019-01-25 09:45:00.0,PhaseCorrectionAve,5.17e-07,CHCGILDTO6Y
MA6813400180,h_OCHCTP,11-L1-4,2019-01-25 09:45:00.0,BerPreFecMax,0.00307,CHCGILDTO6Y
MA6813400180,h_OCHCTP,11-L1-4,2019-01-25 09:45:00.0,PmdMin,0.7,CHCGILDTO6Y
MA6813400180,h_OCHCTP,11-L1-4,2019-01-25 09:45:00.0,SoPmdAve,2903.61,CHCGILDTO6Y
MA6813400180,h_OCHCTP,11-L1-5,2019-01-25 09:15:00.0,Qmin,8.82,CHCGILDTO6Y
MA6813400180,h_OCHCTP,11-L1-5,2019-01-25 09:15:00.0,PhaseCorrectionAve,-0.061,CHCGILDTO6Y
MA6813400180,h_OCHCTP,11-L1-5,2019-01-25 09:15:00.0,BerPreFecMax,0.00288,CHCGILDTO6Y
MA6813400180,h_OCHCTP,11-L1-5,2019-01-25 09:15:00.0,PmdMin,0.702,CHCGILDTO6Y
MA6813400180,h_OCHCTP,11-L1-5,2019-01-25 09:15:00.0,SoPmdAve,2479.97,CHCGILDTO6Y
MA6813400180,h_OCHCTP,11-L1-5,2019-01-25 09:30:00.0,Qmin,8.85,CHCGILDTO6Y
MA6813400180,h_OCHCTP,11-L1-5,2019-01-25 09:30:00.0,PhaseCorrectionAve,-0.122,CHCGILDTO6Y
MA6813400180,h_OCHCTP,11-L1-5,2019-01-25 09:30:00.0,BerPreFecMax,0.00279,CHCGILDTO6Y
MA6813400180,h_OCHCTP,11-L1-5,2019-01-25 09:30:00.0,PmdMin,0.838,CHCGILDTO6Y
MA6813400180,h_OCHCTP,11-L1-5,2019-01-25 09:30:00.0,SoPmdAve,2510.61,CHCGILDTO6Y
MA6813400180,h_OCHCTP,11-L1-5,2019-01-25 09:45:00.0,Qmin,8.82,CHCGILDTO6Y
MA6813400180,h_OCHCTP,11-L1-5,2019-01-25 09:45:00.0,PhaseCorrectionAve,1.75e-07,CHCGILDTO6Y
MA6813400180,h_OCHCTP,11-L1-5,2019-01-25 09:45:00.0,BerPreFecMax,0.00287,CHCGILDTO6Y
MA6813400180,h_OCHCTP,11-L1-5,2019-01-25 09:45:00.0,PmdMin,0.853,CHCGILDTO6Y
MA6813400180,h_OCHCTP,11-L1-5,2019-01-25 09:45:00.0,SoPmdAve,2584.76,CHCGILDTO6Y
MA6813400180,h_OCHCTP,11-L1-6,2019-01-25 09:15:00.0,Qmin,8.78,CHCGILDTO6Y
MA6813400180,h_OCHCTP,11-L1-6,2019-01-25 09:15:00.0,PhaseCorrectionAve,-0.061,CHCGILDTO6Y
MA6813400180,h_OCHCTP,11-L1-6,2019-01-25 09:15:00.0,BerPreFecMax,0.00299,CHCGILDTO6Y
MA6813400180,h_OCHCTP,11-L1-6,2019-01-25 09:15:00.0,PmdMin,0.705,CHCGILDTO6Y
MA6813400180,h_OCHCTP,11-L1-6,2019-01-25 09:15:00.0,SoPmdAve,2509.29,CHCGILDTO6Y
MA6813400180,h_OCHCTP,11-L1-6,2019-01-25 09:30:00.0,Qmin,8.79,CHCGILDTO6Y
MA6813400180,h_OCHCTP,11-L1-6,2019-01-25 09:30:00.0,PhaseCorrectionAve,-0.122,CHCGILDTO6Y
MA6813400180,h_OCHCTP,11-L1-6,2019-01-25 09:30:00.0,BerPreFecMax,0.00298,CHCGILDTO6Y
MA6813400180,h_OCHCTP,11-L1-6,2019-01-25 09:30:00.0,PmdMin,0.6,CHCGILDTO6Y
MA6813400180,h_OCHCTP,11-L1-6,2019-01-25 09:30:00.0,SoPmdAve,2495.82,CHCGILDTO6Y
MA6813400180,h_OCHCTP,11-L1-6,2019-01-25 09:45:00.0,Qmin,8.78,CHCGILDTO6Y
MA6813400180,h_OCHCTP,11-L1-6,2019-01-25 09:45:00.0,PhaseCorrectionAve,-0.061,CHCGILDTO6Y
MA6813400180,h_OCHCTP,11-L1-6,2019-01-25 09:45:00.0,BerPreFecMax,0.00298,CHCGILDTO6Y
MA6813400180,h_OCHCTP,11-L1-6,2019-01-25 09:45:00.0,PmdMin,0.775,CHCGILDTO6Y
MA6813400180,h_OCHCTP,11-L1-6,2019-01-25 09:45:00.0,SoPmdAve,2502.33,CHCGILDTO6Y
MA6813400180,h_OCHCTP,11-L1-7,2019-01-25 09:15:00.0,Qmin,8.86,CHCGILDTO6Y
MA6813400180,h_OCHCTP,11-L1-7,2019-01-25 09:15:00.0,PhaseCorrectionAve,-0.061,CHCGILDTO6Y
MA6813400180,h_OCHCTP,11-L1-7,2019-01-25 09:15:00.0,BerPreFecMax,0.00276,CHCGILDTO6Y
MA6813400180,h_OCHCTP,11-L1-7,2019-01-25 09:15:00.0,PmdMin,0.687,CHCGILDTO6Y
MA6813400180,h_OCHCTP,11-L1-7,2019-01-25 09:15:00.0,SoPmdAve,2972.98,CHCGILDTO6Y
MA6813400180,h_OCHCTP,11-L1-7,2019-01-25 09:30:00.0,Qmin,8.88,CHCGILDTO6Y
MA6813400180,h_OCHCTP,11-L1-7,2019-01-25 09:30:00.0,PhaseCorrectionAve,-0.183,CHCGILDTO6Y
MA6813400180,h_OCHCTP,11-L1-7,2019-01-25 09:30:00.0,BerPreFecMax,0.00272,CHCGILDTO6Y
MA6813400180,h_OCHCTP,11-L1-7,2019-01-25 09:30:00.0,PmdMin,0.85,CHCGILDTO6Y
MA6813400180,h_OCHCTP,11-L1-7,2019-01-25 09:30:00.0,SoPmdAve,2967.28,CHCGILDTO6Y
MA6813400180,h_OCHCTP,11-L1-7,2019-01-25 09:45:00.0,Qmin,8.87,CHCGILDTO6Y
MA6813400180,h_OCHCTP,11-L1-7,2019-01-25 09:45:00.0,PhaseCorrectionAve,-0.061,CHCGILDTO6Y
MA6813400180,h_OCHCTP,11-L1-7,2019-01-25 09:45:00.0,BerPreFecMax,0.00274,CHCGILDTO6Y
MA6813400180,h_OCHCTP,11-L1-7,2019-01-25 09:45:00.0,PmdMin,0.752,CHCGILDTO6Y
MA6813400180,h_OCHCTP,11-L1-7,2019-01-25 09:45:00.0,SoPmdAve,2947.77,CHCGILDTO6Y
MA6813400180,h_OCHCTP,11-L1-8,2019-01-25 09:15:00.0,Qmin,8.96,CHCGILDTO6Y
MA6813400180,h_OCHCTP,11-L1-8,2019-01-25 09:15:00.0,PhaseCorrectionAve,-0.122,CHCGILDTO6Y
MA6813400180,h_OCHCTP,11-L1-8,2019-01-25 09:15:00.0,BerPreFecMax,0.00252,CHCGILDTO6Y
MA6813400180,h_OCHCTP,11-L1-8,2019-01-25 09:15:00.0,PmdMin,1.33,CHCGILDTO6Y
MA6813400180,h_OCHCTP,11-L1-8,2019-01-25 09:15:00.0,SoPmdAve,3066.67,CHCGILDTO6Y
MA6813400180,h_OCHCTP,11-L1-8,2019-01-25 09:30:00.0,Qmin,9.0,CHCGILDTO6Y
MA6813400180,h_OCHCTP,11-L1-8,2019-01-25 09:30:00.0,PhaseCorrectionAve,-0.183,CHCGILDTO6Y
MA6813400180,h_OCHCTP,11-L1-8,2019-01-25 09:30:00.0,BerPreFecMax,0.00242,CHCGILDTO6Y
MA6813400180,h_OCHCTP,11-L1-8,2019-01-25 09:30:00.0,PmdMin,1.45,CHCGILDTO6Y
MA6813400180,h_OCHCTP,11-L1-8,2019-01-25 09:30:00.0,SoPmdAve,3139.64,CHCGILDTO6Y
MA6813400180,h_OCHCTP,11-L1-8,2019-01-25 09:45:00.0,Qmin,8.97,CHCGILDTO6Y
MA6813400180,h_OCHCTP,11-L1-8,2019-01-25 09:45:00.0,PhaseCorrectionAve,-0.061,CHCGILDTO6Y
MA6813400180,h_OCHCTP,11-L1-8,2019-01-25 09:45:00.0,BerPreFecMax,0.00248,CHCGILDTO6Y
MA6813400180,h_OCHCTP,11-L1-8,2019-01-25 09:45:00.0,PmdMin,0.375,CHCGILDTO6Y
MA6813400180,h_OCHCTP,11-L1-8,2019-01-25 09:45:00.0,SoPmdAve,2987.72,CHCGILDTO6Y
MA6813400180,h_OCHCTP,11-L1-9,2019-01-25 09:15:00.0,Qmin,8.89,CHCGILDTO6Y
MA6813400180,h_OCHCTP,11-L1-9,2019-01-25 09:15:00.0,PhaseCorrectionAve,-0.122,CHCGILDTO6Y
MA6813400180,h_OCHCTP,11-L1-9,2019-01-25 09:15:00.0,BerPreFecMax,0.00268,CHCGILDTO6Y
MA6813400180,h_OCHCTP,11-L1-9,2019-01-25 09:15:00.0,PmdMin,1.01,CHCGILDTO6Y
MA6813400180,h_OCHCTP,11-L1-9,2019-01-25 09:15:00.0,SoPmdAve,3061.28,CHCGILDTO6Y
MA6813400180,h_OCHCTP,11-L1-9,2019-01-25 09:30:00.0,Qmin,8.89,CHCGILDTO6Y
MA6813400180,h_OCHCTP,11-L1-9,2019-01-25 09:30:00.0,PhaseCorrectionAve,-0.183,CHCGILDTO6Y
MA6813400180,h_OCHCTP,11-L1-9,2019-01-25 09:30:00.0,BerPreFecMax,0.00269,CHCGILDTO6Y
MA6813400180,h_OCHCTP,11-L1-9,2019-01-25 09:30:00.0,PmdMin,1.42,CHCGILDTO6Y
MA6813400180,h_OCHCTP,11-L1-9,2019-01-25 09:30:00.0,SoPmdAve,3077.08,CHCGILDTO6Y
MA6813400180,h_OCHCTP,11-L1-9,2019-01-25 09:45:00.0,Qmin,8.9,CHCGILDTO6Y
MA6813400180,h_OCHCTP,11-L1-9,2019-01-25 09:45:00.0,PhaseCorrectionAve,-0.122,CHCGILDTO6Y
MA6813400180,h_OCHCTP,11-L1-9,2019-01-25 09:45:00.0,BerPreFecMax,0.00268,CHCGILDTO6Y
MA6813400180,h_OCHCTP,11-L1-9,2019-01-25 09:45:00.0,PmdMin,0.939,CHCGILDTO6Y
MA6813400180,h_OCHCTP,11-L1-9,2019-01-25 09:45:00.0,SoPmdAve,3091.87,CHCGILDTO6Y
MA6813400180,h_OCHCTP,11-L1-10,2019-01-25 09:15:00.0,Qmin,9.02,CHCGILDTO6Y
MA6813400180,h_OCHCTP,11-L1-10,2019-01-25 09:15:00.0,PhaseCorrectionAve,-0.183,CHCGILDTO6Y
MA6813400180,h_OCHCTP,11-L1-10,2019-01-25 09:15:00.0,BerPreFecMax,0.00237,CHCGILDTO6Y
MA6813400180,h_OCHCTP,11-L1-10,2019-01-25 09:15:00.0,PmdMin,0.948,CHCGILDTO6Y
MA6813400180,h_OCHCTP,11-L1-10,2019-01-25 09:15:00.0,SoPmdAve,3108.94,CHCGILDTO6Y
MA6813400180,h_OCHCTP,11-L1-10,2019-01-25 09:30:00.0,Qmin,9.04,CHCGILDTO6Y
MA6813400180,h_OCHCTP,11-L1-10,2019-01-25 09:30:00.0,PhaseCorrectionAve,-0.305,CHCGILDTO6Y
MA6813400180,h_OCHCTP,11-L1-10,2019-01-25 09:30:00.0,BerPreFecMax,0.00232,CHCGILDTO6Y
MA6813400180,h_OCHCTP,11-L1-10,2019-01-25 09:30:00.0,PmdMin,0.752,CHCGILDTO6Y
MA6813400180,h_OCHCTP,11-L1-10,2019-01-25 09:30:00.0,SoPmdAve,3101.9,CHCGILDTO6Y
MA6813400180,h_OCHCTP,11-L1-10,2019-01-25 09:45:00.0,Qmin,9.0,CHCGILDTO6Y
MA6813400180,h_OCHCTP,11-L1-10,2019-01-25 09:45:00.0,PhaseCorrectionAve,-0.122,CHCGILDTO6Y
MA6813400180,h_OCHCTP,11-L1-10,2019-01-25 09:45:00.0,BerPreFecMax,0.00241,CHCGILDTO6Y
MA6813400180,h_OCHCTP,11-L1-10,2019-01-25 09:45:00.0,PmdMin,0.391,CHCGILDTO6Y
MA6813400180,h_OCHCTP,11-L1-10,2019-01-25 09:45:00.0,SoPmdAve,2980.73,CHCGILDTO6Y
MA6813400180,h_OCHCTP,13-L1-1,2019-01-25 09:15:00.0,Qmin,9.17,CHCGILDTO6Y
MA6813400180,h_OCHCTP,13-L1-1,2019-01-25 09:15:00.0,PhaseCorrectionAve,2.01e-07,CHCGILDTO6Y
MA6813400180,h_OCHCTP,13-L1-1,2019-01-25 09:15:00.0,BerPreFecMax,0.00203,CHCGILDTO6Y
MA6813400180,h_OCHCTP,13-L1-1,2019-01-25 09:15:00.0,PmdMin,0.669,CHCGILDTO6Y
MA6813400180,h_OCHCTP,13-L1-1,2019-01-25 09:15:00.0,SoPmdAve,3576.3,CHCGILDTO6Y
MA6813400180,h_OCHCTP,13-L1-1,2019-01-25 09:30:00.0,Qmin,9.16,CHCGILDTO6Y
MA6813400180,h_OCHCTP,13-L1-1,2019-01-25 09:30:00.0,PhaseCorrectionAve,2.34e-07,CHCGILDTO6Y
MA6813400180,h_OCHCTP,13-L1-1,2019-01-25 09:30:00.0,BerPreFecMax,0.00204,CHCGILDTO6Y
MA6813400180,h_OCHCTP,13-L1-1,2019-01-25 09:30:00.0,PmdMin,1.53,CHCGILDTO6Y
MA6813400180,h_OCHCTP,13-L1-1,2019-01-25 09:30:00.0,SoPmdAve,3525.22,CHCGILDTO6Y
MA6813400180,h_OCHCTP,13-L1-1,2019-01-25 09:45:00.0,Qmin,9.12,CHCGILDTO6Y
MA6813400180,h_OCHCTP,13-L1-1,2019-01-25 09:45:00.0,PhaseCorrectionAve,2.56e-07,CHCGILDTO6Y
MA6813400180,h_OCHCTP,13-L1-1,2019-01-25 09:45:00.0,BerPreFecMax,0.00212,CHCGILDTO6Y
MA6813400180,h_OCHCTP,13-L1-1,2019-01-25 09:45:00.0,PmdMin,0.893,CHCGILDTO6Y
MA6813400180,h_OCHCTP,13-L1-1,2019-01-25 09:45:00.0,SoPmdAve,3545.32,CHCGILDTO6Y
MA6813400180,h_OCHCTP,13-L1-2,2019-01-25 09:15:00.0,Qmin,9.16,CHCGILDTO6Y
MA6813400180,h_OCHCTP,13-L1-2,2019-01-25 09:15:00.0,PhaseCorrectionAve,2.46e-07,CHCGILDTO6Y
MA6813400180,h_OCHCTP,13-L1-2,2019-01-25 09:15:00.0,BerPreFecMax,0.00204,CHCGILDTO6Y
MA6813400180,h_OCHCTP,13-L1-2,2019-01-25 09:15:00.0,PmdMin,0.311,CHCGILDTO6Y
MA6813400180,h_OCHCTP,13-L1-2,2019-01-25 09:15:00.0,SoPmdAve,3539.38,CHCGILDTO6Y
MA6813400180,h_OCHCTP,13-L1-2,2019-01-25 09:30:00.0,Qmin,9.09,CHCGILDTO6Y
MA6813400180,h_OCHCTP,13-L1-2,2019-01-25 09:30:00.0,PhaseCorrectionAve,2.79e-07,CHCGILDTO6Y
MA6813400180,h_OCHCTP,13-L1-2,2019-01-25 09:30:00.0,BerPreFecMax,0.00221,CHCGILDTO6Y
MA6813400180,h_OCHCTP,13-L1-2,2019-01-25 09:30:00.0,PmdMin,0.527,CHCGILDTO6Y
MA6813400180,h_OCHCTP,13-L1-2,2019-01-25 09:30:00.0,SoPmdAve,3421.63,CHCGILDTO6Y
MA6813400180,h_OCHCTP,13-L1-2,2019-01-25 09:45:00.0,Qmin,9.1,CHCGILDTO6Y
MA6813400180,h_OCHCTP,13-L1-2,2019-01-25 09:45:00.0,PhaseCorrectionAve,-0.061,CHCGILDTO6Y
MA6813400180,h_OCHCTP,13-L1-2,2019-01-25 09:45:00.0,BerPreFecMax,0.00217,CHCGILDTO6Y
MA6813400180,h_OCHCTP,13-L1-2,2019-01-25 09:45:00.0,PmdMin,1.1,CHCGILDTO6Y
MA6813400180,h_OCHCTP,13-L1-2,2019-01-25 09:45:00.0,SoPmdAve,3524.16,CHCGILDTO6Y
MA6813400180,h_OCHCTP,13-L1-3,2019-01-25 09:15:00.0,Qmin,8.95,CHCGILDTO6Y
MA6813400180,h_OCHCTP,13-L1-3,2019-01-25 09:15:00.0,PhaseCorrectionAve,4.38e-07,CHCGILDTO6Y
MA6813400180,h_OCHCTP,13-L1-3,2019-01-25 09:15:00.0,BerPreFecMax,0.00252,CHCGILDTO6Y
MA6813400180,h_OCHCTP,13-L1-3,2019-01-25 09:15:00.0,PmdMin,1.08,CHCGILDTO6Y
MA6813400180,h_OCHCTP,13-L1-3,2019-01-25 09:15:00.0,SoPmdAve,3009.81,CHCGILDTO6Y
MA6813400180,h_OCHCTP,13-L1-3,2019-01-25 09:30:00.0,Qmin,8.9,CHCGILDTO6Y
MA6813400180,h_OCHCTP,13-L1-3,2019-01-25 09:30:00.0,PhaseCorrectionAve,-0.061,CHCGILDTO6Y
MA6813400180,h_OCHCTP,13-L1-3,2019-01-25 09:30:00.0,BerPreFecMax,0.00266,CHCGILDTO6Y
MA6813400180,h_OCHCTP,13-L1-3,2019-01-25 09:30:00.0,PmdMin,0.653,CHCGILDTO6Y
MA6813400180,h_OCHCTP,13-L1-3,2019-01-25 09:30:00.0,SoPmdAve,3079.39,CHCGILDTO6Y
MA6813400180,h_OCHCTP,13-L1-3,2019-01-25 09:45:00.0,Qmin,8.93,CHCGILDTO6Y
MA6813400180,h_OCHCTP,13-L1-3,2019-01-25 09:45:00.0,PhaseCorrectionAve,-0.061,CHCGILDTO6Y
MA6813400180,h_OCHCTP,13-L1-3,2019-01-25 09:45:00.0,BerPreFecMax,0.0026,CHCGILDTO6Y
MA6813400180,h_OCHCTP,13-L1-3,2019-01-25 09:45:00.0,PmdMin,0.638,CHCGILDTO6Y
MA6813400180,h_OCHCTP,13-L1-3,2019-01-25 09:45:00.0,SoPmdAve,2996.76,CHCGILDTO6Y
MA6813400180,h_OCHCTP,13-L1-4,2019-01-25 09:15:00.0,Qmin,8.7,CHCGILDTO6Y
MA6813400180,h_OCHCTP,13-L1-4,2019-01-25 09:15:00.0,PhaseCorrectionAve,5.49e-07,CHCGILDTO6Y
MA6813400180,h_OCHCTP,13-L1-4,2019-01-25 09:15:00.0,BerPreFecMax,0.00324,CHCGILDTO6Y
MA6813400180,h_OCHCTP,13-L1-4,2019-01-25 09:15:00.0,PmdMin,0.655,CHCGILDTO6Y
MA6813400180,h_OCHCTP,13-L1-4,2019-01-25 09:15:00.0,SoPmdAve,3402.3,CHCGILDTO6Y
MA6813400180,h_OCHCTP,13-L1-4,2019-01-25 09:30:00.0,Qmin,8.7,CHCGILDTO6Y
MA6813400180,h_OCHCTP,13-L1-4,2019-01-25 09:30:00.0,PhaseCorrectionAve,-0.061,CHCGILDTO6Y
MA6813400180,h_OCHCTP,13-L1-4,2019-01-25 09:30:00.0,BerPreFecMax,0.00325,CHCGILDTO6Y
MA6813400180,h_OCHCTP,13-L1-4,2019-01-25 09:30:00.0,PmdMin,0.928,CHCGILDTO6Y
MA6813400180,h_OCHCTP,13-L1-4,2019-01-25 09:30:00.0,SoPmdAve,3367.6,CHCGILDTO6Y
MA6813400180,h_OCHCTP,13-L1-4,2019-01-25 09:45:00.0,Qmin,8.71,CHCGILDTO6Y
MA6813400180,h_OCHCTP,13-L1-4,2019-01-25 09:45:00.0,PhaseCorrectionAve,-0.122,CHCGILDTO6Y
MA6813400180,h_OCHCTP,13-L1-4,2019-01-25 09:45:00.0,BerPreFecMax,0.00321,CHCGILDTO6Y
MA6813400180,h_OCHCTP,13-L1-4,2019-01-25 09:45:00.0,PmdMin,1.1,CHCGILDTO6Y
MA6813400180,h_OCHCTP,13-L1-4,2019-01-25 09:45:00.0,SoPmdAve,3408.93,CHCGILDTO6Y
MA6813400180,h_OCHCTP,13-L1-5,2019-01-25 09:15:00.0,Qmin,8.74,CHCGILDTO6Y
MA6813400180,h_OCHCTP,13-L1-5,2019-01-25 09:15:00.0,PhaseCorrectionAve,3.09e-07,CHCGILDTO6Y
MA6813400180,h_OCHCTP,13-L1-5,2019-01-25 09:15:00.0,BerPreFecMax,0.00311,CHCGILDTO6Y
MA6813400180,h_OCHCTP,13-L1-5,2019-01-25 09:15:00.0,PmdMin,0.702,CHCGILDTO6Y
MA6813400180,h_OCHCTP,13-L1-5,2019-01-25 09:15:00.0,SoPmdAve,2838.99,CHCGILDTO6Y
MA6813400180,h_OCHCTP,13-L1-5,2019-01-25 09:30:00.0,Qmin,8.71,CHCGILDTO6Y
MA6813400180,h_OCHCTP,13-L1-5,2019-01-25 09:30:00.0,PhaseCorrectionAve,-0.061,CHCGILDTO6Y
MA6813400180,h_OCHCTP,13-L1-5,2019-01-25 09:30:00.0,BerPreFecMax,0.00321,CHCGILDTO6Y
MA6813400180,h_OCHCTP,13-L1-5,2019-01-25 09:30:00.0,PmdMin,1.22,CHCGILDTO6Y
MA6813400180,h_OCHCTP,13-L1-5,2019-01-25 09:30:00.0,SoPmdAve,2829.88,CHCGILDTO6Y
MA6813400180,h_OCHCTP,13-L1-5,2019-01-25 09:45:00.0,Qmin,8.68,CHCGILDTO6Y
MA6813400180,h_OCHCTP,13-L1-5,2019-01-25 09:45:00.0,PhaseCorrectionAve,-0.122,CHCGILDTO6Y
MA6813400180,h_OCHCTP,13-L1-5,2019-01-25 09:45:00.0,BerPreFecMax,0.00329,CHCGILDTO6Y
MA6813400180,h_OCHCTP,13-L1-5,2019-01-25 09:45:00.0,PmdMin,0.567,CHCGILDTO6Y
MA6813400180,h_OCHCTP,13-L1-5,2019-01-25 09:45:00.0,SoPmdAve,2906.67,CHCGILDTO6Y
MA6813400180,h_OCHCTP,13-L1-6,2019-01-25 09:15:00.0,Qmin,8.82,CHCGILDTO6Y
MA6813400180,h_OCHCTP,13-L1-6,2019-01-25 09:15:00.0,PhaseCorrectionAve,4.28e-07,CHCGILDTO6Y
MA6813400180,h_OCHCTP,13-L1-6,2019-01-25 09:15:00.0,BerPreFecMax,0.00289,CHCGILDTO6Y
MA6813400180,h_OCHCTP,13-L1-6,2019-01-25 09:15:00.0,PmdMin,0.506,CHCGILDTO6Y
MA6813400180,h_OCHCTP,13-L1-6,2019-01-25 09:15:00.0,SoPmdAve,2943.39,CHCGILDTO6Y
MA6813400180,h_OCHCTP,13-L1-6,2019-01-25 09:30:00.0,Qmin,8.76,CHCGILDTO6Y
MA6813400180,h_OCHCTP,13-L1-6,2019-01-25 09:30:00.0,PhaseCorrectionAve,-0.061,CHCGILDTO6Y
MA6813400180,h_OCHCTP,13-L1-6,2019-01-25 09:30:00.0,BerPreFecMax,0.00304,CHCGILDTO6Y
MA6813400180,h_OCHCTP,13-L1-6,2019-01-25 09:30:00.0,PmdMin,1.28,CHCGILDTO6Y
MA6813400180,h_OCHCTP,13-L1-6,2019-01-25 09:30:00.0,SoPmdAve,3067.11,CHCGILDTO6Y
MA6813400180,h_OCHCTP,13-L1-6,2019-01-25 09:45:00.0,Qmin,8.8,CHCGILDTO6Y
MA6813400180,h_OCHCTP,13-L1-6,2019-01-25 09:45:00.0,PhaseCorrectionAve,-0.122,CHCGILDTO6Y
MA6813400180,h_OCHCTP,13-L1-6,2019-01-25 09:45:00.0,BerPreFecMax,0.00293,CHCGILDTO6Y
MA6813400180,h_OCHCTP,13-L1-6,2019-01-25 09:45:00.0,PmdMin,1.44,CHCGILDTO6Y
MA6813400180,h_OCHCTP,13-L1-6,2019-01-25 09:45:00.0,SoPmdAve,3005.38,CHCGILDTO6Y
MA6813400180,h_OCHCTP,13-L1-7,2019-01-25 09:15:00.0,Qmin,8.79,CHCGILDTO6Y
MA6813400180,h_OCHCTP,13-L1-7,2019-01-25 09:15:00.0,PhaseCorrectionAve,3.7e-07,CHCGILDTO6Y
MA6813400180,h_OCHCTP,13-L1-7,2019-01-25 09:15:00.0,BerPreFecMax,0.00296,CHCGILDTO6Y
MA6813400180,h_OCHCTP,13-L1-7,2019-01-25 09:15:00.0,PmdMin,1.89,CHCGILDTO6Y
MA6813400180,h_OCHCTP,13-L1-7,2019-01-25 09:15:00.0,SoPmdAve,3694.15,CHCGILDTO6Y
MA6813400180,h_OCHCTP,13-L1-7,2019-01-25 09:30:00.0,Qmin,8.81,CHCGILDTO6Y
MA6813400180,h_OCHCTP,13-L1-7,2019-01-25 09:30:00.0,PhaseCorrectionAve,-0.061,CHCGILDTO6Y
MA6813400180,h_OCHCTP,13-L1-7,2019-01-25 09:30:00.0,BerPreFecMax,0.0029,CHCGILDTO6Y
MA6813400180,h_OCHCTP,13-L1-7,2019-01-25 09:30:00.0,PmdMin,1.1,CHCGILDTO6Y
MA6813400180,h_OCHCTP,13-L1-7,2019-01-25 09:30:00.0,SoPmdAve,3710.54,CHCGILDTO6Y
MA6813400180,h_OCHCTP,13-L1-7,2019-01-25 09:45:00.0,Qmin,8.81,CHCGILDTO6Y
MA6813400180,h_OCHCTP,13-L1-7,2019-01-25 09:45:00.0,PhaseCorrectionAve,-0.122,CHCGILDTO6Y
MA6813400180,h_OCHCTP,13-L1-7,2019-01-25 09:45:00.0,BerPreFecMax,0.00292,CHCGILDTO6Y
MA6813400180,h_OCHCTP,13-L1-7,2019-01-25 09:45:00.0,PmdMin,1.66,CHCGILDTO6Y
MA6813400180,h_OCHCTP,13-L1-7,2019-01-25 09:45:00.0,SoPmdAve,3835.04,CHCGILDTO6Y
MA6813400180,h_OCHCTP,13-L1-8,2019-01-25 09:15:00.0,Qmin,8.88,CHCGILDTO6Y
MA6813400180,h_OCHCTP,13-L1-8,2019-01-25 09:15:00.0,PhaseCorrectionAve,8.3e-07,CHCGILDTO6Y
MA6813400180,h_OCHCTP,13-L1-8,2019-01-25 09:15:00.0,BerPreFecMax,0.00271,CHCGILDTO6Y
MA6813400180,h_OCHCTP,13-L1-8,2019-01-25 09:15:00.0,PmdMin,1.12,CHCGILDTO6Y
MA6813400180,h_OCHCTP,13-L1-8,2019-01-25 09:15:00.0,SoPmdAve,3855.56,CHCGILDTO6Y
MA6813400180,h_OCHCTP,13-L1-8,2019-01-25 09:30:00.0,Qmin,8.91,CHCGILDTO6Y
MA6813400180,h_OCHCTP,13-L1-8,2019-01-25 09:30:00.0,PhaseCorrectionAve,-0.122,CHCGILDTO6Y
MA6813400180,h_OCHCTP,13-L1-8,2019-01-25 09:30:00.0,BerPreFecMax,0.00263,CHCGILDTO6Y
MA6813400180,h_OCHCTP,13-L1-8,2019-01-25 09:30:00.0,PmdMin,1.36,CHCGILDTO6Y
MA6813400180,h_OCHCTP,13-L1-8,2019-01-25 09:30:00.0,SoPmdAve,3936.96,CHCGILDTO6Y
MA6813400180,h_OCHCTP,13-L1-8,2019-01-25 09:45:00.0,Qmin,8.91,CHCGILDTO6Y
MA6813400180,h_OCHCTP,13-L1-8,2019-01-25 09:45:00.0,PhaseCorrectionAve,-0.122,CHCGILDTO6Y
MA6813400180,h_OCHCTP,13-L1-8,2019-01-25 09:45:00.0,BerPreFecMax,0.00265,CHCGILDTO6Y
MA6813400180,h_OCHCTP,13-L1-8,2019-01-25 09:45:00.0,PmdMin,0.923,CHCGILDTO6Y
MA6813400180,h_OCHCTP,13-L1-8,2019-01-25 09:45:00.0,SoPmdAve,3904.52,CHCGILDTO6Y
MA6813400180,h_OCHCTP,13-L1-9,2019-01-25 09:15:00.0,Qmin,8.84,CHCGILDTO6Y
MA6813400180,h_OCHCTP,13-L1-9,2019-01-25 09:15:00.0,PhaseCorrectionAve,3.14e-06,CHCGILDTO6Y
MA6813400180,h_OCHCTP,13-L1-9,2019-01-25 09:15:00.0,BerPreFecMax,0.00284,CHCGILDTO6Y
MA6813400180,h_OCHCTP,13-L1-9,2019-01-25 09:15:00.0,PmdMin,1.21,CHCGILDTO6Y
MA6813400180,h_OCHCTP,13-L1-9,2019-01-25 09:15:00.0,SoPmdAve,3600.45,CHCGILDTO6Y
MA6813400180,h_OCHCTP,13-L1-9,2019-01-25 09:30:00.0,Qmin,8.87,CHCGILDTO6Y
MA6813400180,h_OCHCTP,13-L1-9,2019-01-25 09:30:00.0,PhaseCorrectionAve,-0.122,CHCGILDTO6Y
MA6813400180,h_OCHCTP,13-L1-9,2019-01-25 09:30:00.0,BerPreFecMax,0.00274,CHCGILDTO6Y
MA6813400180,h_OCHCTP,13-L1-9,2019-01-25 09:30:00.0,PmdMin,1.45,CHCGILDTO6Y
MA6813400180,h_OCHCTP,13-L1-9,2019-01-25 09:30:00.0,SoPmdAve,3592.16,CHCGILDTO6Y
MA6813400180,h_OCHCTP,13-L1-9,2019-01-25 09:45:00.0,Qmin,8.87,CHCGILDTO6Y
MA6813400180,h_OCHCTP,13-L1-9,2019-01-25 09:45:00.0,PhaseCorrectionAve,-0.122,CHCGILDTO6Y
MA6813400180,h_OCHCTP,13-L1-9,2019-01-25 09:45:00.0,BerPreFecMax,0.00275,CHCGILDTO6Y
MA6813400180,h_OCHCTP,13-L1-9,2019-01-25 09:45:00.0,PmdMin,0.968,CHCGILDTO6Y
MA6813400180,h_OCHCTP,13-L1-9,2019-01-25 09:45:00.0,SoPmdAve,3473.1,CHCGILDTO6Y
MA6813400180,h_OCHCTP,13-L1-10,2019-01-25 09:15:00.0,Qmin,8.71,CHCGILDTO6Y
MA6813400180,h_OCHCTP,13-L1-10,2019-01-25 09:15:00.0,PhaseCorrectionAve,2.96e-06,CHCGILDTO6Y
MA6813400180,h_OCHCTP,13-L1-10,2019-01-25 09:15:00.0,BerPreFecMax,0.00322,CHCGILDTO6Y
MA6813400180,h_OCHCTP,13-L1-10,2019-01-25 09:15:00.0,PmdMin,0.839,CHCGILDTO6Y
MA6813400180,h_OCHCTP,13-L1-10,2019-01-25 09:15:00.0,SoPmdAve,3723.06,CHCGILDTO6Y
MA6813400180,h_OCHCTP,13-L1-10,2019-01-25 09:30:00.0,Qmin,8.74,CHCGILDTO6Y
MA6813400180,h_OCHCTP,13-L1-10,2019-01-25 09:30:00.0,PhaseCorrectionAve,-0.122,CHCGILDTO6Y
MA6813400180,h_OCHCTP,13-L1-10,2019-01-25 09:30:00.0,BerPreFecMax,0.00311,CHCGILDTO6Y
MA6813400180,h_OCHCTP,13-L1-10,2019-01-25 09:30:00.0,PmdMin,0.668,CHCGILDTO6Y
MA6813400180,h_OCHCTP,13-L1-10,2019-01-25 09:30:00.0,SoPmdAve,3775.17,CHCGILDTO6Y
MA6813400180,h_OCHCTP,13-L1-10,2019-01-25 09:45:00.0,Qmin,8.73,CHCGILDTO6Y
MA6813400180,h_OCHCTP,13-L1-10,2019-01-25 09:45:00.0,PhaseCorrectionAve,-0.183,CHCGILDTO6Y
MA6813400180,h_OCHCTP,13-L1-10,2019-01-25 09:45:00.0,BerPreFecMax,0.00313,CHCGILDTO6Y
MA6813400180,h_OCHCTP,13-L1-10,2019-01-25 09:45:00.0,PmdMin,1.29,CHCGILDTO6Y
MA6813400180,h_OCHCTP,13-L1-10,2019-01-25 09:45:00.0,SoPmdAve,3834.99,CHCGILDTO6Y
