MA6813400180,h_OCHCTP,11-L1-1,2019-02-06 22:15:00.0,Qmin,9.06,CHCGILDTO6Y
MA6813400180,h_OCHCTP,11-L1-1,2019-02-06 22:15:00.0,PhaseCorrectionAve,1.6e-07,CHCGILDTO6Y
MA6813400180,h_OCHCTP,11-L1-1,2019-02-06 22:15:00.0,BerPreFecMax,0.00226,CHCGILDTO6Y
MA6813400180,h_OCHCTP,11-L1-1,2019-02-06 22:15:00.0,PmdMin,0.774,CHCGILDTO6Y
MA6813400180,h_OCHCTP,11-L1-1,2019-02-06 22:15:00.0,SoPmdAve,3296.64,CHCGILDTO6Y
MA6813400180,h_OCHCTP,11-L1-1,2019-02-06 22:30:00.0,Qmin,9.01,CHCGILDTO6Y
MA6813400180,h_OCHCTP,11-L1-1,2019-02-06 22:30:00.0,PhaseCorrectionAve,1.67e-07,CHCGILDTO6Y
MA6813400180,h_OCHCTP,11-L1-1,2019-02-06 22:30:00.0,BerPreFecMax,0.00239,CHCGILDTO6Y
MA6813400180,h_OCHCTP,11-L1-1,2019-02-06 22:30:00.0,PmdMin,1.05,CHCGILDTO6Y
MA6813400180,h_OCHCTP,11-L1-1,2019-02-06 22:30:00.0,SoPmdAve,3279.75,CHCGILDTO6Y
MA6813400180,h_OCHCTP,11-L1-1,2019-02-06 22:45:00.0,Qmin,9.06,CHCGILDTO6Y
MA6813400180,h_OCHCTP,11-L1-1,2019-02-06 22:45:00.0,PhaseCorrectionAve,1.48e-07,CHCGILDTO6Y
MA6813400180,h_OCHCTP,11-L1-1,2019-02-06 22:45:00.0,BerPreFecMax,0.00228,CHCGILDTO6Y
MA6813400180,h_OCHCTP,11-L1-1,2019-02-06 22:45:00.0,PmdMin,0.858,CHCGILDTO6Y
MA6813400180,h_OCHCTP,11-L1-1,2019-02-06 22:45:00.0,SoPmdAve,3342.98,CHCGILDTO6Y
MA6813400180,h_OCHCTP,11-L1-2,2019-02-06 22:15:00.0,Qmin,9.09,CHCGILDTO6Y
MA6813400180,h_OCHCTP,11-L1-2,2019-02-06 22:15:00.0,PhaseCorrectionAve,3.59e-07,CHCGILDTO6Y
MA6813400180,h_OCHCTP,11-L1-2,2019-02-06 22:15:00.0,BerPreFecMax,0.00221,CHCGILDTO6Y
MA6813400180,h_OCHCTP,11-L1-2,2019-02-06 22:15:00.0,PmdMin,0.554,CHCGILDTO6Y
MA6813400180,h_OCHCTP,11-L1-2,2019-02-06 22:15:00.0,SoPmdAve,3114.04,CHCGILDTO6Y
MA6813400180,h_OCHCTP,11-L1-2,2019-02-06 22:30:00.0,Qmin,9.0,CHCGILDTO6Y
MA6813400180,h_OCHCTP,11-L1-2,2019-02-06 22:30:00.0,PhaseCorrectionAve,-0.122,CHCGILDTO6Y
MA6813400180,h_OCHCTP,11-L1-2,2019-02-06 22:30:00.0,BerPreFecMax,0.00241,CHCGILDTO6Y
MA6813400180,h_OCHCTP,11-L1-2,2019-02-06 22:30:00.0,PmdMin,0.603,CHCGILDTO6Y
MA6813400180,h_OCHCTP,11-L1-2,2019-02-06 22:30:00.0,SoPmdAve,3251.71,CHCGILDTO6Y
MA6813400180,h_OCHCTP,11-L1-2,2019-02-06 22:45:00.0,Qmin,8.97,CHCGILDTO6Y
MA6813400180,h_OCHCTP,11-L1-2,2019-02-06 22:45:00.0,PhaseCorrectionAve,5.46e-07,CHCGILDTO6Y
MA6813400180,h_OCHCTP,11-L1-2,2019-02-06 22:45:00.0,BerPreFecMax,0.0025,CHCGILDTO6Y
MA6813400180,h_OCHCTP,11-L1-2,2019-02-06 22:45:00.0,PmdMin,0.791,CHCGILDTO6Y
MA6813400180,h_OCHCTP,11-L1-2,2019-02-06 22:45:00.0,SoPmdAve,3160.73,CHCGILDTO6Y
MA6813400180,h_OCHCTP,11-L1-3,2019-02-06 22:15:00.0,Qmin,8.97,CHCGILDTO6Y
MA6813400180,h_OCHCTP,11-L1-3,2019-02-06 22:15:00.0,PhaseCorrectionAve,4.64e-07,CHCGILDTO6Y
MA6813400180,h_OCHCTP,11-L1-3,2019-02-06 22:15:00.0,BerPreFecMax,0.0025,CHCGILDTO6Y
MA6813400180,h_OCHCTP,11-L1-3,2019-02-06 22:15:00.0,PmdMin,0.802,CHCGILDTO6Y
MA6813400180,h_OCHCTP,11-L1-3,2019-02-06 22:15:00.0,SoPmdAve,2755.45,CHCGILDTO6Y
MA6813400180,h_OCHCTP,11-L1-3,2019-02-06 22:30:00.0,Qmin,8.94,CHCGILDTO6Y
MA6813400180,h_OCHCTP,11-L1-3,2019-02-06 22:30:00.0,PhaseCorrectionAve,-0.122,CHCGILDTO6Y
MA6813400180,h_OCHCTP,11-L1-3,2019-02-06 22:30:00.0,BerPreFecMax,0.00257,CHCGILDTO6Y
MA6813400180,h_OCHCTP,11-L1-3,2019-02-06 22:30:00.0,PmdMin,1.06,CHCGILDTO6Y
MA6813400180,h_OCHCTP,11-L1-3,2019-02-06 22:30:00.0,SoPmdAve,2671.17,CHCGILDTO6Y
MA6813400180,h_OCHCTP,11-L1-3,2019-02-06 22:45:00.0,Qmin,8.87,CHCGILDTO6Y
MA6813400180,h_OCHCTP,11-L1-3,2019-02-06 22:45:00.0,PhaseCorrectionAve,4.46e-07,CHCGILDTO6Y
MA6813400180,h_OCHCTP,11-L1-3,2019-02-06 22:45:00.0,BerPreFecMax,0.00273,CHCGILDTO6Y
MA6813400180,h_OCHCTP,11-L1-3,2019-02-06 22:45:00.0,PmdMin,0.714,CHCGILDTO6Y
MA6813400180,h_OCHCTP,11-L1-3,2019-02-06 22:45:00.0,SoPmdAve,2834.46,CHCGILDTO6Y
MA6813400180,h_OCHCTP,11-L1-4,2019-02-06 22:15:00.0,Qmin,8.78,CHCGILDTO6Y
MA6813400180,h_OCHCTP,11-L1-4,2019-02-06 22:15:00.0,PhaseCorrectionAve,6.42e-07,CHCGILDTO6Y
MA6813400180,h_OCHCTP,11-L1-4,2019-02-06 22:15:00.0,BerPreFecMax,0.00299,CHCGILDTO6Y
MA6813400180,h_OCHCTP,11-L1-4,2019-02-06 22:15:00.0,PmdMin,0.693,CHCGILDTO6Y
MA6813400180,h_OCHCTP,11-L1-4,2019-02-06 22:15:00.0,SoPmdAve,2927.51,CHCGILDTO6Y
MA6813400180,h_OCHCTP,11-L1-4,2019-02-06 22:30:00.0,Qmin,8.81,CHCGILDTO6Y
MA6813400180,h_OCHCTP,11-L1-4,2019-02-06 22:30:00.0,PhaseCorrectionAve,-0.122,CHCGILDTO6Y
MA6813400180,h_OCHCTP,11-L1-4,2019-02-06 22:30:00.0,BerPreFecMax,0.00291,CHCGILDTO6Y
MA6813400180,h_OCHCTP,11-L1-4,2019-02-06 22:30:00.0,PmdMin,1.27,CHCGILDTO6Y
MA6813400180,h_OCHCTP,11-L1-4,2019-02-06 22:30:00.0,SoPmdAve,2882.08,CHCGILDTO6Y
MA6813400180,h_OCHCTP,11-L1-4,2019-02-06 22:45:00.0,Qmin,8.82,CHCGILDTO6Y
MA6813400180,h_OCHCTP,11-L1-4,2019-02-06 22:45:00.0,PhaseCorrectionAve,6.13e-07,CHCGILDTO6Y
MA6813400180,h_OCHCTP,11-L1-4,2019-02-06 22:45:00.0,BerPreFecMax,0.00288,CHCGILDTO6Y
MA6813400180,h_OCHCTP,11-L1-4,2019-02-06 22:45:00.0,PmdMin,0.502,CHCGILDTO6Y
MA6813400180,h_OCHCTP,11-L1-4,2019-02-06 22:45:00.0,SoPmdAve,2928.02,CHCGILDTO6Y
MA6813400180,h_OCHCTP,11-L1-5,2019-02-06 22:15:00.0,Qmin,8.78,CHCGILDTO6Y
MA6813400180,h_OCHCTP,11-L1-5,2019-02-06 22:15:00.0,PhaseCorrectionAve,2.82e-07,CHCGILDTO6Y
MA6813400180,h_OCHCTP,11-L1-5,2019-02-06 22:15:00.0,BerPreFecMax,0.00301,CHCGILDTO6Y
MA6813400180,h_OCHCTP,11-L1-5,2019-02-06 22:15:00.0,PmdMin,0.326,CHCGILDTO6Y
MA6813400180,h_OCHCTP,11-L1-5,2019-02-06 22:15:00.0,SoPmdAve,2502.36,CHCGILDTO6Y
MA6813400180,h_OCHCTP,11-L1-5,2019-02-06 22:30:00.0,Qmin,8.84,CHCGILDTO6Y
MA6813400180,h_OCHCTP,11-L1-5,2019-02-06 22:30:00.0,PhaseCorrectionAve,-0.122,CHCGILDTO6Y
MA6813400180,h_OCHCTP,11-L1-5,2019-02-06 22:30:00.0,BerPreFecMax,0.00282,CHCGILDTO6Y
MA6813400180,h_OCHCTP,11-L1-5,2019-02-06 22:30:00.0,PmdMin,0.894,CHCGILDTO6Y
MA6813400180,h_OCHCTP,11-L1-5,2019-02-06 22:30:00.0,SoPmdAve,2591.25,CHCGILDTO6Y
MA6813400180,h_OCHCTP,11-L1-5,2019-02-06 22:45:00.0,Qmin,8.8,CHCGILDTO6Y
MA6813400180,h_OCHCTP,11-L1-5,2019-02-06 22:45:00.0,PhaseCorrectionAve,-0.122,CHCGILDTO6Y
MA6813400180,h_OCHCTP,11-L1-5,2019-02-06 22:45:00.0,BerPreFecMax,0.00293,CHCGILDTO6Y
MA6813400180,h_OCHCTP,11-L1-5,2019-02-06 22:45:00.0,PmdMin,0.862,CHCGILDTO6Y
MA6813400180,h_OCHCTP,11-L1-5,2019-02-06 22:45:00.0,SoPmdAve,2508.41,CHCGILDTO6Y
MA6813400180,h_OCHCTP,11-L1-6,2019-02-06 22:15:00.0,Qmin,8.85,CHCGILDTO6Y
MA6813400180,h_OCHCTP,11-L1-6,2019-02-06 22:15:00.0,PhaseCorrectionAve,4.42e-07,CHCGILDTO6Y
MA6813400180,h_OCHCTP,11-L1-6,2019-02-06 22:15:00.0,BerPreFecMax,0.00281,CHCGILDTO6Y
MA6813400180,h_OCHCTP,11-L1-6,2019-02-06 22:15:00.0,PmdMin,0.785,CHCGILDTO6Y
MA6813400180,h_OCHCTP,11-L1-6,2019-02-06 22:15:00.0,SoPmdAve,2433.58,CHCGILDTO6Y
MA6813400180,h_OCHCTP,11-L1-6,2019-02-06 22:30:00.0,Qmin,8.83,CHCGILDTO6Y
MA6813400180,h_OCHCTP,11-L1-6,2019-02-06 22:30:00.0,PhaseCorrectionAve,-0.183,CHCGILDTO6Y
MA6813400180,h_OCHCTP,11-L1-6,2019-02-06 22:30:00.0,BerPreFecMax,0.00285,CHCGILDTO6Y
MA6813400180,h_OCHCTP,11-L1-6,2019-02-06 22:30:00.0,PmdMin,0.336,CHCGILDTO6Y
MA6813400180,h_OCHCTP,11-L1-6,2019-02-06 22:30:00.0,SoPmdAve,2497.04,CHCGILDTO6Y
MA6813400180,h_OCHCTP,11-L1-6,2019-02-06 22:45:00.0,Qmin,8.87,CHCGILDTO6Y
MA6813400180,h_OCHCTP,11-L1-6,2019-02-06 22:45:00.0,PhaseCorrectionAve,-0.122,CHCGILDTO6Y
MA6813400180,h_OCHCTP,11-L1-6,2019-02-06 22:45:00.0,BerPreFecMax,0.00276,CHCGILDTO6Y
MA6813400180,h_OCHCTP,11-L1-6,2019-02-06 22:45:00.0,PmdMin,0.838,CHCGILDTO6Y
MA6813400180,h_OCHCTP,11-L1-6,2019-02-06 22:45:00.0,SoPmdAve,2512.72,CHCGILDTO6Y
MA6813400180,h_OCHCTP,11-L1-7,2019-02-06 22:15:00.0,Qmin,8.89,CHCGILDTO6Y
MA6813400180,h_OCHCTP,11-L1-7,2019-02-06 22:15:00.0,PhaseCorrectionAve,3.11e-07,CHCGILDTO6Y
MA6813400180,h_OCHCTP,11-L1-7,2019-02-06 22:15:00.0,BerPreFecMax,0.0027,CHCGILDTO6Y
MA6813400180,h_OCHCTP,11-L1-7,2019-02-06 22:15:00.0,PmdMin,0.595,CHCGILDTO6Y
MA6813400180,h_OCHCTP,11-L1-7,2019-02-06 22:15:00.0,SoPmdAve,3031.6,CHCGILDTO6Y
MA6813400180,h_OCHCTP,11-L1-7,2019-02-06 22:30:00.0,Qmin,8.92,CHCGILDTO6Y
MA6813400180,h_OCHCTP,11-L1-7,2019-02-06 22:30:00.0,PhaseCorrectionAve,-0.183,CHCGILDTO6Y
MA6813400180,h_OCHCTP,11-L1-7,2019-02-06 22:30:00.0,BerPreFecMax,0.00261,CHCGILDTO6Y
MA6813400180,h_OCHCTP,11-L1-7,2019-02-06 22:30:00.0,PmdMin,1.25,CHCGILDTO6Y
MA6813400180,h_OCHCTP,11-L1-7,2019-02-06 22:30:00.0,SoPmdAve,2939.43,CHCGILDTO6Y
MA6813400180,h_OCHCTP,11-L1-7,2019-02-06 22:45:00.0,Qmin,8.88,CHCGILDTO6Y
MA6813400180,h_OCHCTP,11-L1-7,2019-02-06 22:45:00.0,PhaseCorrectionAve,-0.122,CHCGILDTO6Y
MA6813400180,h_OCHCTP,11-L1-7,2019-02-06 22:45:00.0,BerPreFecMax,0.00272,CHCGILDTO6Y
MA6813400180,h_OCHCTP,11-L1-7,2019-02-06 22:45:00.0,PmdMin,0.652,CHCGILDTO6Y
MA6813400180,h_OCHCTP,11-L1-7,2019-02-06 22:45:00.0,SoPmdAve,2994.73,CHCGILDTO6Y
MA6813400180,h_OCHCTP,11-L1-8,2019-02-06 22:15:00.0,Qmin,8.93,CHCGILDTO6Y
MA6813400180,h_OCHCTP,11-L1-8,2019-02-06 22:15:00.0,PhaseCorrectionAve,1.25e-06,CHCGILDTO6Y
MA6813400180,h_OCHCTP,11-L1-8,2019-02-06 22:15:00.0,BerPreFecMax,0.0026,CHCGILDTO6Y
MA6813400180,h_OCHCTP,11-L1-8,2019-02-06 22:15:00.0,PmdMin,0.95,CHCGILDTO6Y
MA6813400180,h_OCHCTP,11-L1-8,2019-02-06 22:15:00.0,SoPmdAve,3179.06,CHCGILDTO6Y
MA6813400180,h_OCHCTP,11-L1-8,2019-02-06 22:30:00.0,Qmin,8.96,CHCGILDTO6Y
MA6813400180,h_OCHCTP,11-L1-8,2019-02-06 22:30:00.0,PhaseCorrectionAve,-0.183,CHCGILDTO6Y
MA6813400180,h_OCHCTP,11-L1-8,2019-02-06 22:30:00.0,BerPreFecMax,0.00251,CHCGILDTO6Y
MA6813400180,h_OCHCTP,11-L1-8,2019-02-06 22:30:00.0,PmdMin,1.01,CHCGILDTO6Y
MA6813400180,h_OCHCTP,11-L1-8,2019-02-06 22:30:00.0,SoPmdAve,3106.19,CHCGILDTO6Y
MA6813400180,h_OCHCTP,11-L1-8,2019-02-06 22:45:00.0,Qmin,8.91,CHCGILDTO6Y
MA6813400180,h_OCHCTP,11-L1-8,2019-02-06 22:45:00.0,PhaseCorrectionAve,-0.122,CHCGILDTO6Y
MA6813400180,h_OCHCTP,11-L1-8,2019-02-06 22:45:00.0,BerPreFecMax,0.00264,CHCGILDTO6Y
MA6813400180,h_OCHCTP,11-L1-8,2019-02-06 22:45:00.0,PmdMin,0.962,CHCGILDTO6Y
MA6813400180,h_OCHCTP,11-L1-8,2019-02-06 22:45:00.0,SoPmdAve,3116.0,CHCGILDTO6Y
MA6813400180,h_OCHCTP,11-L1-9,2019-02-06 22:15:00.0,Qmin,8.8,CHCGILDTO6Y
MA6813400180,h_OCHCTP,11-L1-9,2019-02-06 22:15:00.0,PhaseCorrectionAve,1.82e-06,CHCGILDTO6Y
MA6813400180,h_OCHCTP,11-L1-9,2019-02-06 22:15:00.0,BerPreFecMax,0.00294,CHCGILDTO6Y
MA6813400180,h_OCHCTP,11-L1-9,2019-02-06 22:15:00.0,PmdMin,1.29,CHCGILDTO6Y
MA6813400180,h_OCHCTP,11-L1-9,2019-02-06 22:15:00.0,SoPmdAve,2950.57,CHCGILDTO6Y
MA6813400180,h_OCHCTP,11-L1-9,2019-02-06 22:30:00.0,Qmin,8.81,CHCGILDTO6Y
MA6813400180,h_OCHCTP,11-L1-9,2019-02-06 22:30:00.0,PhaseCorrectionAve,-0.183,CHCGILDTO6Y
MA6813400180,h_OCHCTP,11-L1-9,2019-02-06 22:30:00.0,BerPreFecMax,0.00293,CHCGILDTO6Y
MA6813400180,h_OCHCTP,11-L1-9,2019-02-06 22:30:00.0,PmdMin,0.345,CHCGILDTO6Y
MA6813400180,h_OCHCTP,11-L1-9,2019-02-06 22:30:00.0,SoPmdAve,2988.76,CHCGILDTO6Y
MA6813400180,h_OCHCTP,11-L1-9,2019-02-06 22:45:00.0,Qmin,8.83,CHCGILDTO6Y
MA6813400180,h_OCHCTP,11-L1-9,2019-02-06 22:45:00.0,PhaseCorrectionAve,-0.183,CHCGILDTO6Y
MA6813400180,h_OCHCTP,11-L1-9,2019-02-06 22:45:00.0,BerPreFecMax,0.00287,CHCGILDTO6Y
MA6813400180,h_OCHCTP,11-L1-9,2019-02-06 22:45:00.0,PmdMin,0.542,CHCGILDTO6Y
MA6813400180,h_OCHCTP,11-L1-9,2019-02-06 22:45:00.0,SoPmdAve,3066.16,CHCGILDTO6Y
MA6813400180,h_OCHCTP,11-L1-10,2019-02-06 22:15:00.0,Qmin,8.92,CHCGILDTO6Y
MA6813400180,h_OCHCTP,11-L1-10,2019-02-06 22:15:00.0,PhaseCorrectionAve,2.65e-06,CHCGILDTO6Y
MA6813400180,h_OCHCTP,11-L1-10,2019-02-06 22:15:00.0,BerPreFecMax,0.00261,CHCGILDTO6Y
MA6813400180,h_OCHCTP,11-L1-10,2019-02-06 22:15:00.0,PmdMin,0.881,CHCGILDTO6Y
MA6813400180,h_OCHCTP,11-L1-10,2019-02-06 22:15:00.0,SoPmdAve,3075.6,CHCGILDTO6Y
MA6813400180,h_OCHCTP,11-L1-10,2019-02-06 22:30:00.0,Qmin,8.88,CHCGILDTO6Y
MA6813400180,h_OCHCTP,11-L1-10,2019-02-06 22:30:00.0,PhaseCorrectionAve,-0.183,CHCGILDTO6Y
MA6813400180,h_OCHCTP,11-L1-10,2019-02-06 22:30:00.0,BerPreFecMax,0.00272,CHCGILDTO6Y
MA6813400180,h_OCHCTP,11-L1-10,2019-02-06 22:30:00.0,PmdMin,1.15,CHCGILDTO6Y
MA6813400180,h_OCHCTP,11-L1-10,2019-02-06 22:30:00.0,SoPmdAve,3184.2,CHCGILDTO6Y
MA6813400180,h_OCHCTP,11-L1-10,2019-02-06 22:45:00.0,Qmin,8.91,CHCGILDTO6Y
MA6813400180,h_OCHCTP,11-L1-10,2019-02-06 22:45:00.0,PhaseCorrectionAve,-0.183,CHCGILDTO6Y
MA6813400180,h_OCHCTP,11-L1-10,2019-02-06 22:45:00.0,BerPreFecMax,0.00265,CHCGILDTO6Y
MA6813400180,h_OCHCTP,11-L1-10,2019-02-06 22:45:00.0,PmdMin,0.935,CHCGILDTO6Y
MA6813400180,h_OCHCTP,11-L1-10,2019-02-06 22:45:00.0,SoPmdAve,2996.24,CHCGILDTO6Y
MA6813400180,h_OCHCTP,10-L1-1,2019-02-06 22:15:00.0,Qmin,9.48,CHCGILDTO6Y
MA6813400180,h_OCHCTP,10-L1-1,2019-02-06 22:15:00.0,PhaseCorrectionAve,3.93e-07,CHCGILDTO6Y
MA6813400180,h_OCHCTP,10-L1-1,2019-02-06 22:15:00.0,BerPreFecMax,0.00146,CHCGILDTO6Y
MA6813400180,h_OCHCTP,10-L1-1,2019-02-06 22:15:00.0,PmdMin,0.791,CHCGILDTO6Y
MA6813400180,h_OCHCTP,10-L1-1,2019-02-06 22:15:00.0,SoPmdAve,3553.28,CHCGILDTO6Y
MA6813400180,h_OCHCTP,10-L1-1,2019-02-06 22:30:00.0,Qmin,9.48,CHCGILDTO6Y
MA6813400180,h_OCHCTP,10-L1-1,2019-02-06 22:30:00.0,PhaseCorrectionAve,4.14e-07,CHCGILDTO6Y
MA6813400180,h_OCHCTP,10-L1-1,2019-02-06 22:30:00.0,BerPreFecMax,0.00145,CHCGILDTO6Y
MA6813400180,h_OCHCTP,10-L1-1,2019-02-06 22:30:00.0,PmdMin,1.95,CHCGILDTO6Y
MA6813400180,h_OCHCTP,10-L1-1,2019-02-06 22:30:00.0,SoPmdAve,3602.14,CHCGILDTO6Y
MA6813400180,h_OCHCTP,10-L1-1,2019-02-06 22:45:00.0,Qmin,9.48,CHCGILDTO6Y
MA6813400180,h_OCHCTP,10-L1-1,2019-02-06 22:45:00.0,PhaseCorrectionAve,4.12e-07,CHCGILDTO6Y
MA6813400180,h_OCHCTP,10-L1-1,2019-02-06 22:45:00.0,BerPreFecMax,0.00146,CHCGILDTO6Y
MA6813400180,h_OCHCTP,10-L1-1,2019-02-06 22:45:00.0,PmdMin,1.4,CHCGILDTO6Y
MA6813400180,h_OCHCTP,10-L1-1,2019-02-06 22:45:00.0,SoPmdAve,3433.88,CHCGILDTO6Y
MA6813400180,h_OCHCTP,10-L1-2,2019-02-06 22:15:00.0,Qmin,9.16,CHCGILDTO6Y
MA6813400180,h_OCHCTP,10-L1-2,2019-02-06 22:15:00.0,PhaseCorrectionAve,3e-07,CHCGILDTO6Y
MA6813400180,h_OCHCTP,10-L1-2,2019-02-06 22:15:00.0,BerPreFecMax,0.00205,CHCGILDTO6Y
MA6813400180,h_OCHCTP,10-L1-2,2019-02-06 22:15:00.0,PmdMin,2.48,CHCGILDTO6Y
MA6813400180,h_OCHCTP,10-L1-2,2019-02-06 22:15:00.0,SoPmdAve,3326.94,CHCGILDTO6Y
MA6813400180,h_OCHCTP,10-L1-2,2019-02-06 22:30:00.0,Qmin,9.16,CHCGILDTO6Y
MA6813400180,h_OCHCTP,10-L1-2,2019-02-06 22:30:00.0,PhaseCorrectionAve,3.22e-07,CHCGILDTO6Y
MA6813400180,h_OCHCTP,10-L1-2,2019-02-06 22:30:00.0,BerPreFecMax,0.00206,CHCGILDTO6Y
MA6813400180,h_OCHCTP,10-L1-2,2019-02-06 22:30:00.0,PmdMin,0.635,CHCGILDTO6Y
MA6813400180,h_OCHCTP,10-L1-2,2019-02-06 22:30:00.0,SoPmdAve,3212.9,CHCGILDTO6Y
MA6813400180,h_OCHCTP,10-L1-2,2019-02-06 22:45:00.0,Qmin,9.15,CHCGILDTO6Y
MA6813400180,h_OCHCTP,10-L1-2,2019-02-06 22:45:00.0,PhaseCorrectionAve,-0.061,CHCGILDTO6Y
MA6813400180,h_OCHCTP,10-L1-2,2019-02-06 22:45:00.0,BerPreFecMax,0.00207,CHCGILDTO6Y
MA6813400180,h_OCHCTP,10-L1-2,2019-02-06 22:45:00.0,PmdMin,2.11,CHCGILDTO6Y
MA6813400180,h_OCHCTP,10-L1-2,2019-02-06 22:45:00.0,SoPmdAve,3353.99,CHCGILDTO6Y
MA6813400180,h_OCHCTP,10-L1-3,2019-02-06 22:15:00.0,Qmin,8.85,CHCGILDTO6Y
MA6813400180,h_OCHCTP,10-L1-3,2019-02-06 22:15:00.0,PhaseCorrectionAve,6.14e-07,CHCGILDTO6Y
MA6813400180,h_OCHCTP,10-L1-3,2019-02-06 22:15:00.0,BerPreFecMax,0.00281,CHCGILDTO6Y
MA6813400180,h_OCHCTP,10-L1-3,2019-02-06 22:15:00.0,PmdMin,3.59,CHCGILDTO6Y
MA6813400180,h_OCHCTP,10-L1-3,2019-02-06 22:15:00.0,SoPmdAve,2849.44,CHCGILDTO6Y
MA6813400180,h_OCHCTP,10-L1-3,2019-02-06 22:30:00.0,Qmin,8.86,CHCGILDTO6Y
MA6813400180,h_OCHCTP,10-L1-3,2019-02-06 22:30:00.0,PhaseCorrectionAve,6.18e-07,CHCGILDTO6Y
MA6813400180,h_OCHCTP,10-L1-3,2019-02-06 22:30:00.0,BerPreFecMax,0.00277,CHCGILDTO6Y
MA6813400180,h_OCHCTP,10-L1-3,2019-02-06 22:30:00.0,PmdMin,4.67,CHCGILDTO6Y
MA6813400180,h_OCHCTP,10-L1-3,2019-02-06 22:30:00.0,SoPmdAve,2835.79,CHCGILDTO6Y
MA6813400180,h_OCHCTP,10-L1-3,2019-02-06 22:45:00.0,Qmin,8.86,CHCGILDTO6Y
MA6813400180,h_OCHCTP,10-L1-3,2019-02-06 22:45:00.0,PhaseCorrectionAve,-0.061,CHCGILDTO6Y
MA6813400180,h_OCHCTP,10-L1-3,2019-02-06 22:45:00.0,BerPreFecMax,0.00277,CHCGILDTO6Y
MA6813400180,h_OCHCTP,10-L1-3,2019-02-06 22:45:00.0,PmdMin,2.26,CHCGILDTO6Y
MA6813400180,h_OCHCTP,10-L1-3,2019-02-06 22:45:00.0,SoPmdAve,2888.36,CHCGILDTO6Y
MA6813400180,h_OCHCTP,10-L1-4,2019-02-06 22:15:00.0,Qmin,8.26,CHCGILDTO6Y
MA6813400180,h_OCHCTP,10-L1-4,2019-02-06 22:15:00.0,PhaseCorrectionAve,3.29e-06,CHCGILDTO6Y
MA6813400180,h_OCHCTP,10-L1-4,2019-02-06 22:15:00.0,BerPreFecMax,0.00482,CHCGILDTO6Y
MA6813400180,h_OCHCTP,10-L1-4,2019-02-06 22:15:00.0,PmdMin,1.64,CHCGILDTO6Y
MA6813400180,h_OCHCTP,10-L1-4,2019-02-06 22:15:00.0,SoPmdAve,3183.45,CHCGILDTO6Y
MA6813400180,h_OCHCTP,10-L1-4,2019-02-06 22:30:00.0,Qmin,8.26,CHCGILDTO6Y
MA6813400180,h_OCHCTP,10-L1-4,2019-02-06 22:30:00.0,PhaseCorrectionAve,3.24e-06,CHCGILDTO6Y
MA6813400180,h_OCHCTP,10-L1-4,2019-02-06 22:30:00.0,BerPreFecMax,0.00483,CHCGILDTO6Y
MA6813400180,h_OCHCTP,10-L1-4,2019-02-06 22:30:00.0,PmdMin,1.12,CHCGILDTO6Y
MA6813400180,h_OCHCTP,10-L1-4,2019-02-06 22:30:00.0,SoPmdAve,3160.6,CHCGILDTO6Y
MA6813400180,h_OCHCTP,10-L1-4,2019-02-06 22:45:00.0,Qmin,8.26,CHCGILDTO6Y
MA6813400180,h_OCHCTP,10-L1-4,2019-02-06 22:45:00.0,PhaseCorrectionAve,-0.061,CHCGILDTO6Y
MA6813400180,h_OCHCTP,10-L1-4,2019-02-06 22:45:00.0,BerPreFecMax,0.00483,CHCGILDTO6Y
MA6813400180,h_OCHCTP,10-L1-4,2019-02-06 22:45:00.0,PmdMin,1.37,CHCGILDTO6Y
MA6813400180,h_OCHCTP,10-L1-4,2019-02-06 22:45:00.0,SoPmdAve,3124.24,CHCGILDTO6Y
MA6813400180,h_OCHCTP,10-L1-5,2019-02-06 22:15:00.0,Qmin,8.45,CHCGILDTO6Y
MA6813400180,h_OCHCTP,10-L1-5,2019-02-06 22:15:00.0,PhaseCorrectionAve,1.57e-06,CHCGILDTO6Y
MA6813400180,h_OCHCTP,10-L1-5,2019-02-06 22:15:00.0,BerPreFecMax,0.00406,CHCGILDTO6Y
MA6813400180,h_OCHCTP,10-L1-5,2019-02-06 22:15:00.0,PmdMin,1.3,CHCGILDTO6Y
MA6813400180,h_OCHCTP,10-L1-5,2019-02-06 22:15:00.0,SoPmdAve,2921.85,CHCGILDTO6Y
MA6813400180,h_OCHCTP,10-L1-5,2019-02-06 22:30:00.0,Qmin,8.49,CHCGILDTO6Y
MA6813400180,h_OCHCTP,10-L1-5,2019-02-06 22:30:00.0,PhaseCorrectionAve,1.49e-06,CHCGILDTO6Y
MA6813400180,h_OCHCTP,10-L1-5,2019-02-06 22:30:00.0,BerPreFecMax,0.00391,CHCGILDTO6Y
MA6813400180,h_OCHCTP,10-L1-5,2019-02-06 22:30:00.0,PmdMin,1.6,CHCGILDTO6Y
MA6813400180,h_OCHCTP,10-L1-5,2019-02-06 22:30:00.0,SoPmdAve,2835.38,CHCGILDTO6Y
MA6813400180,h_OCHCTP,10-L1-5,2019-02-06 22:45:00.0,Qmin,8.49,CHCGILDTO6Y
MA6813400180,h_OCHCTP,10-L1-5,2019-02-06 22:45:00.0,PhaseCorrectionAve,-0.122,CHCGILDTO6Y
MA6813400180,h_OCHCTP,10-L1-5,2019-02-06 22:45:00.0,BerPreFecMax,0.00393,CHCGILDTO6Y
MA6813400180,h_OCHCTP,10-L1-5,2019-02-06 22:45:00.0,PmdMin,1.81,CHCGILDTO6Y
MA6813400180,h_OCHCTP,10-L1-5,2019-02-06 22:45:00.0,SoPmdAve,3002.36,CHCGILDTO6Y
MA6813400180,h_OCHCTP,10-L1-6,2019-02-06 22:15:00.0,Qmin,8.7,CHCGILDTO6Y
MA6813400180,h_OCHCTP,10-L1-6,2019-02-06 22:15:00.0,PhaseCorrectionAve,-0.061,CHCGILDTO6Y
MA6813400180,h_OCHCTP,10-L1-6,2019-02-06 22:15:00.0,BerPreFecMax,0.00322,CHCGILDTO6Y
MA6813400180,h_OCHCTP,10-L1-6,2019-02-06 22:15:00.0,PmdMin,0.703,CHCGILDTO6Y
MA6813400180,h_OCHCTP,10-L1-6,2019-02-06 22:15:00.0,SoPmdAve,2859.53,CHCGILDTO6Y
MA6813400180,h_OCHCTP,10-L1-6,2019-02-06 22:30:00.0,Qmin,8.71,CHCGILDTO6Y
MA6813400180,h_OCHCTP,10-L1-6,2019-02-06 22:30:00.0,PhaseCorrectionAve,9.56e-07,CHCGILDTO6Y
MA6813400180,h_OCHCTP,10-L1-6,2019-02-06 22:30:00.0,BerPreFecMax,0.00321,CHCGILDTO6Y
MA6813400180,h_OCHCTP,10-L1-6,2019-02-06 22:30:00.0,PmdMin,1.1,CHCGILDTO6Y
MA6813400180,h_OCHCTP,10-L1-6,2019-02-06 22:30:00.0,SoPmdAve,2917.17,CHCGILDTO6Y
MA6813400180,h_OCHCTP,10-L1-6,2019-02-06 22:45:00.0,Qmin,8.72,CHCGILDTO6Y
MA6813400180,h_OCHCTP,10-L1-6,2019-02-06 22:45:00.0,PhaseCorrectionAve,-0.122,CHCGILDTO6Y
MA6813400180,h_OCHCTP,10-L1-6,2019-02-06 22:45:00.0,BerPreFecMax,0.00319,CHCGILDTO6Y
MA6813400180,h_OCHCTP,10-L1-6,2019-02-06 22:45:00.0,PmdMin,0.465,CHCGILDTO6Y
MA6813400180,h_OCHCTP,10-L1-6,2019-02-06 22:45:00.0,SoPmdAve,2842.24,CHCGILDTO6Y
MA6813400180,h_OCHCTP,10-L1-7,2019-02-06 22:15:00.0,Qmin,8.8,CHCGILDTO6Y
MA6813400180,h_OCHCTP,10-L1-7,2019-02-06 22:15:00.0,PhaseCorrectionAve,-0.061,CHCGILDTO6Y
MA6813400180,h_OCHCTP,10-L1-7,2019-02-06 22:15:00.0,BerPreFecMax,0.00295,CHCGILDTO6Y
MA6813400180,h_OCHCTP,10-L1-7,2019-02-06 22:15:00.0,PmdMin,2.26,CHCGILDTO6Y
MA6813400180,h_OCHCTP,10-L1-7,2019-02-06 22:15:00.0,SoPmdAve,3476.97,CHCGILDTO6Y
MA6813400180,h_OCHCTP,10-L1-7,2019-02-06 22:30:00.0,Qmin,8.8,CHCGILDTO6Y
MA6813400180,h_OCHCTP,10-L1-7,2019-02-06 22:30:00.0,PhaseCorrectionAve,-0.061,CHCGILDTO6Y
MA6813400180,h_OCHCTP,10-L1-7,2019-02-06 22:30:00.0,BerPreFecMax,0.00295,CHCGILDTO6Y
MA6813400180,h_OCHCTP,10-L1-7,2019-02-06 22:30:00.0,PmdMin,1.33,CHCGILDTO6Y
MA6813400180,h_OCHCTP,10-L1-7,2019-02-06 22:30:00.0,SoPmdAve,3345.02,CHCGILDTO6Y
MA6813400180,h_OCHCTP,10-L1-7,2019-02-06 22:45:00.0,Qmin,8.82,CHCGILDTO6Y
MA6813400180,h_OCHCTP,10-L1-7,2019-02-06 22:45:00.0,PhaseCorrectionAve,-0.122,CHCGILDTO6Y
MA6813400180,h_OCHCTP,10-L1-7,2019-02-06 22:45:00.0,BerPreFecMax,0.00287,CHCGILDTO6Y
MA6813400180,h_OCHCTP,10-L1-7,2019-02-06 22:45:00.0,PmdMin,1.3,CHCGILDTO6Y
MA6813400180,h_OCHCTP,10-L1-7,2019-02-06 22:45:00.0,SoPmdAve,3338.44,CHCGILDTO6Y
MA6813400180,h_OCHCTP,10-L1-8,2019-02-06 22:15:00.0,Qmin,9.3,CHCGILDTO6Y
MA6813400180,h_OCHCTP,10-L1-8,2019-02-06 22:15:00.0,PhaseCorrectionAve,-0.061,CHCGILDTO6Y
MA6813400180,h_OCHCTP,10-L1-8,2019-02-06 22:15:00.0,BerPreFecMax,0.00176,CHCGILDTO6Y
MA6813400180,h_OCHCTP,10-L1-8,2019-02-06 22:15:00.0,PmdMin,4.76,CHCGILDTO6Y
MA6813400180,h_OCHCTP,10-L1-8,2019-02-06 22:15:00.0,SoPmdAve,3381.25,CHCGILDTO6Y
MA6813400180,h_OCHCTP,10-L1-8,2019-02-06 22:30:00.0,Qmin,9.31,CHCGILDTO6Y
MA6813400180,h_OCHCTP,10-L1-8,2019-02-06 22:30:00.0,PhaseCorrectionAve,-0.061,CHCGILDTO6Y
MA6813400180,h_OCHCTP,10-L1-8,2019-02-06 22:30:00.0,BerPreFecMax,0.00175,CHCGILDTO6Y
MA6813400180,h_OCHCTP,10-L1-8,2019-02-06 22:30:00.0,PmdMin,3.93,CHCGILDTO6Y
MA6813400180,h_OCHCTP,10-L1-8,2019-02-06 22:30:00.0,SoPmdAve,3429.59,CHCGILDTO6Y
MA6813400180,h_OCHCTP,10-L1-8,2019-02-06 22:45:00.0,Qmin,9.31,CHCGILDTO6Y
MA6813400180,h_OCHCTP,10-L1-8,2019-02-06 22:45:00.0,PhaseCorrectionAve,-0.122,CHCGILDTO6Y
MA6813400180,h_OCHCTP,10-L1-8,2019-02-06 22:45:00.0,BerPreFecMax,0.00175,CHCGILDTO6Y
MA6813400180,h_OCHCTP,10-L1-8,2019-02-06 22:45:00.0,PmdMin,5.3,CHCGILDTO6Y
MA6813400180,h_OCHCTP,10-L1-8,2019-02-06 22:45:00.0,SoPmdAve,3406.92,CHCGILDTO6Y
MA6813400180,h_OCHCTP,10-L1-9,2019-02-06 22:15:00.0,Qmin,9.37,CHCGILDTO6Y
MA6813400180,h_OCHCTP,10-L1-9,2019-02-06 22:15:00.0,PhaseCorrectionAve,-0.061,CHCGILDTO6Y
MA6813400180,h_OCHCTP,10-L1-9,2019-02-06 22:15:00.0,BerPreFecMax,0.00164,CHCGILDTO6Y
MA6813400180,h_OCHCTP,10-L1-9,2019-02-06 22:15:00.0,PmdMin,2.24,CHCGILDTO6Y
MA6813400180,h_OCHCTP,10-L1-9,2019-02-06 22:15:00.0,SoPmdAve,3235.99,CHCGILDTO6Y
MA6813400180,h_OCHCTP,10-L1-9,2019-02-06 22:30:00.0,Qmin,9.34,CHCGILDTO6Y
MA6813400180,h_OCHCTP,10-L1-9,2019-02-06 22:30:00.0,PhaseCorrectionAve,-0.061,CHCGILDTO6Y
MA6813400180,h_OCHCTP,10-L1-9,2019-02-06 22:30:00.0,BerPreFecMax,0.00169,CHCGILDTO6Y
MA6813400180,h_OCHCTP,10-L1-9,2019-02-06 22:30:00.0,PmdMin,1.85,CHCGILDTO6Y
MA6813400180,h_OCHCTP,10-L1-9,2019-02-06 22:30:00.0,SoPmdAve,3276.69,CHCGILDTO6Y
MA6813400180,h_OCHCTP,10-L1-9,2019-02-06 22:45:00.0,Qmin,9.34,CHCGILDTO6Y
MA6813400180,h_OCHCTP,10-L1-9,2019-02-06 22:45:00.0,PhaseCorrectionAve,-0.122,CHCGILDTO6Y
MA6813400180,h_OCHCTP,10-L1-9,2019-02-06 22:45:00.0,BerPreFecMax,0.00168,CHCGILDTO6Y
MA6813400180,h_OCHCTP,10-L1-9,2019-02-06 22:45:00.0,PmdMin,0.462,CHCGILDTO6Y
MA6813400180,h_OCHCTP,10-L1-9,2019-02-06 22:45:00.0,SoPmdAve,3334.88,CHCGILDTO6Y
MA6813400180,h_OCHCTP,10-L1-10,2019-02-06 22:15:00.0,Qmin,9.4,CHCGILDTO6Y
MA6813400180,h_OCHCTP,10-L1-10,2019-02-06 22:15:00.0,PhaseCorrectionAve,-0.061,CHCGILDTO6Y
MA6813400180,h_OCHCTP,10-L1-10,2019-02-06 22:15:00.0,BerPreFecMax,0.00158,CHCGILDTO6Y
MA6813400180,h_OCHCTP,10-L1-10,2019-02-06 22:15:00.0,PmdMin,12.56,CHCGILDTO6Y
MA6813400180,h_OCHCTP,10-L1-10,2019-02-06 22:15:00.0,SoPmdAve,3290.68,CHCGILDTO6Y
MA6813400180,h_OCHCTP,10-L1-10,2019-02-06 22:30:00.0,Qmin,9.38,CHCGILDTO6Y
MA6813400180,h_OCHCTP,10-L1-10,2019-02-06 22:30:00.0,PhaseCorrectionAve,-0.122,CHCGILDTO6Y
MA6813400180,h_OCHCTP,10-L1-10,2019-02-06 22:30:00.0,BerPreFecMax,0.00161,CHCGILDTO6Y
MA6813400180,h_OCHCTP,10-L1-10,2019-02-06 22:30:00.0,PmdMin,10.27,CHCGILDTO6Y
MA6813400180,h_OCHCTP,10-L1-10,2019-02-06 22:30:00.0,SoPmdAve,3270.01,CHCGILDTO6Y
MA6813400180,h_OCHCTP,10-L1-10,2019-02-06 22:45:00.0,Qmin,9.39,CHCGILDTO6Y
MA6813400180,h_OCHCTP,10-L1-10,2019-02-06 22:45:00.0,PhaseCorrectionAve,-0.183,CHCGILDTO6Y
MA6813400180,h_OCHCTP,10-L1-10,2019-02-06 22:45:00.0,BerPreFecMax,0.00161,CHCGILDTO6Y
MA6813400180,h_OCHCTP,10-L1-10,2019-02-06 22:45:00.0,PmdMin,5.91,CHCGILDTO6Y
MA6813400180,h_OCHCTP,10-L1-10,2019-02-06 22:45:00.0,SoPmdAve,3280.13,CHCGILDTO6Y
MA6813400180,h_OCHCTP,13-L1-1,2019-02-06 22:15:00.0,Qmin,9.06,CHCGILDTO6Y
MA6813400180,h_OCHCTP,13-L1-1,2019-02-06 22:15:00.0,PhaseCorrectionAve,2.8e-07,CHCGILDTO6Y
MA6813400180,h_OCHCTP,13-L1-1,2019-02-06 22:15:00.0,BerPreFecMax,0.00226,CHCGILDTO6Y
MA6813400180,h_OCHCTP,13-L1-1,2019-02-06 22:15:00.0,PmdMin,1.1,CHCGILDTO6Y
MA6813400180,h_OCHCTP,13-L1-1,2019-02-06 22:15:00.0,SoPmdAve,3538.62,CHCGILDTO6Y
MA6813400180,h_OCHCTP,13-L1-1,2019-02-06 22:30:00.0,Qmin,9.04,CHCGILDTO6Y
MA6813400180,h_OCHCTP,13-L1-1,2019-02-06 22:30:00.0,PhaseCorrectionAve,3.15e-07,CHCGILDTO6Y
MA6813400180,h_OCHCTP,13-L1-1,2019-02-06 22:30:00.0,BerPreFecMax,0.00231,CHCGILDTO6Y
MA6813400180,h_OCHCTP,13-L1-1,2019-02-06 22:30:00.0,PmdMin,1.39,CHCGILDTO6Y
MA6813400180,h_OCHCTP,13-L1-1,2019-02-06 22:30:00.0,SoPmdAve,3512.7,CHCGILDTO6Y
MA6813400180,h_OCHCTP,13-L1-1,2019-02-06 22:45:00.0,Qmin,9.02,CHCGILDTO6Y
MA6813400180,h_OCHCTP,13-L1-1,2019-02-06 22:45:00.0,PhaseCorrectionAve,2.77e-07,CHCGILDTO6Y
MA6813400180,h_OCHCTP,13-L1-1,2019-02-06 22:45:00.0,BerPreFecMax,0.00237,CHCGILDTO6Y
MA6813400180,h_OCHCTP,13-L1-1,2019-02-06 22:45:00.0,PmdMin,1.09,CHCGILDTO6Y
MA6813400180,h_OCHCTP,13-L1-1,2019-02-06 22:45:00.0,SoPmdAve,3525.72,CHCGILDTO6Y
MA6813400180,h_OCHCTP,13-L1-2,2019-02-06 22:15:00.0,Qmin,9.14,CHCGILDTO6Y
MA6813400180,h_OCHCTP,13-L1-2,2019-02-06 22:15:00.0,PhaseCorrectionAve,-0.0611,CHCGILDTO6Y
MA6813400180,h_OCHCTP,13-L1-2,2019-02-06 22:15:00.0,BerPreFecMax,0.00209,CHCGILDTO6Y
MA6813400180,h_OCHCTP,13-L1-2,2019-02-06 22:15:00.0,PmdMin,1.7,CHCGILDTO6Y
MA6813400180,h_OCHCTP,13-L1-2,2019-02-06 22:15:00.0,SoPmdAve,3511.4,CHCGILDTO6Y
MA6813400180,h_OCHCTP,13-L1-2,2019-02-06 22:30:00.0,Qmin,9.12,CHCGILDTO6Y
MA6813400180,h_OCHCTP,13-L1-2,2019-02-06 22:30:00.0,PhaseCorrectionAve,-0.061,CHCGILDTO6Y
MA6813400180,h_OCHCTP,13-L1-2,2019-02-06 22:30:00.0,BerPreFecMax,0.00213,CHCGILDTO6Y
MA6813400180,h_OCHCTP,13-L1-2,2019-02-06 22:30:00.0,PmdMin,1.0,CHCGILDTO6Y
MA6813400180,h_OCHCTP,13-L1-2,2019-02-06 22:30:00.0,SoPmdAve,3617.48,CHCGILDTO6Y
MA6813400180,h_OCHCTP,13-L1-2,2019-02-06 22:45:00.0,Qmin,8.99,CHCGILDTO6Y
MA6813400180,h_OCHCTP,13-L1-2,2019-02-06 22:45:00.0,PhaseCorrectionAve,4.13e-07,CHCGILDTO6Y
MA6813400180,h_OCHCTP,13-L1-2,2019-02-06 22:45:00.0,BerPreFecMax,0.00243,CHCGILDTO6Y
MA6813400180,h_OCHCTP,13-L1-2,2019-02-06 22:45:00.0,PmdMin,1.36,CHCGILDTO6Y
MA6813400180,h_OCHCTP,13-L1-2,2019-02-06 22:45:00.0,SoPmdAve,3565.19,CHCGILDTO6Y
MA6813400180,h_OCHCTP,13-L1-3,2019-02-06 22:15:00.0,Qmin,8.92,CHCGILDTO6Y
MA6813400180,h_OCHCTP,13-L1-3,2019-02-06 22:15:00.0,PhaseCorrectionAve,-0.0611,CHCGILDTO6Y
MA6813400180,h_OCHCTP,13-L1-3,2019-02-06 22:15:00.0,BerPreFecMax,0.00261,CHCGILDTO6Y
MA6813400180,h_OCHCTP,13-L1-3,2019-02-06 22:15:00.0,PmdMin,0.643,CHCGILDTO6Y
MA6813400180,h_OCHCTP,13-L1-3,2019-02-06 22:15:00.0,SoPmdAve,2953.21,CHCGILDTO6Y
MA6813400180,h_OCHCTP,13-L1-3,2019-02-06 22:30:00.0,Qmin,8.96,CHCGILDTO6Y
MA6813400180,h_OCHCTP,13-L1-3,2019-02-06 22:30:00.0,PhaseCorrectionAve,-0.061,CHCGILDTO6Y
MA6813400180,h_OCHCTP,13-L1-3,2019-02-06 22:30:00.0,BerPreFecMax,0.00251,CHCGILDTO6Y
MA6813400180,h_OCHCTP,13-L1-3,2019-02-06 22:30:00.0,PmdMin,0.723,CHCGILDTO6Y
MA6813400180,h_OCHCTP,13-L1-3,2019-02-06 22:30:00.0,SoPmdAve,2904.41,CHCGILDTO6Y
MA6813400180,h_OCHCTP,13-L1-3,2019-02-06 22:45:00.0,Qmin,8.88,CHCGILDTO6Y
MA6813400180,h_OCHCTP,13-L1-3,2019-02-06 22:45:00.0,PhaseCorrectionAve,7.04e-07,CHCGILDTO6Y
MA6813400180,h_OCHCTP,13-L1-3,2019-02-06 22:45:00.0,BerPreFecMax,0.00271,CHCGILDTO6Y
MA6813400180,h_OCHCTP,13-L1-3,2019-02-06 22:45:00.0,PmdMin,0.303,CHCGILDTO6Y
MA6813400180,h_OCHCTP,13-L1-3,2019-02-06 22:45:00.0,SoPmdAve,2972.77,CHCGILDTO6Y
MA6813400180,h_OCHCTP,13-L1-4,2019-02-06 22:15:00.0,Qmin,8.74,CHCGILDTO6Y
MA6813400180,h_OCHCTP,13-L1-4,2019-02-06 22:15:00.0,PhaseCorrectionAve,-0.0611,CHCGILDTO6Y
MA6813400180,h_OCHCTP,13-L1-4,2019-02-06 22:15:00.0,BerPreFecMax,0.00311,CHCGILDTO6Y
MA6813400180,h_OCHCTP,13-L1-4,2019-02-06 22:15:00.0,PmdMin,0.289,CHCGILDTO6Y
MA6813400180,h_OCHCTP,13-L1-4,2019-02-06 22:15:00.0,SoPmdAve,3421.12,CHCGILDTO6Y
MA6813400180,h_OCHCTP,13-L1-4,2019-02-06 22:30:00.0,Qmin,8.76,CHCGILDTO6Y
MA6813400180,h_OCHCTP,13-L1-4,2019-02-06 22:30:00.0,PhaseCorrectionAve,-0.122,CHCGILDTO6Y
MA6813400180,h_OCHCTP,13-L1-4,2019-02-06 22:30:00.0,BerPreFecMax,0.00304,CHCGILDTO6Y
MA6813400180,h_OCHCTP,13-L1-4,2019-02-06 22:30:00.0,PmdMin,0.805,CHCGILDTO6Y
MA6813400180,h_OCHCTP,13-L1-4,2019-02-06 22:30:00.0,SoPmdAve,3386.13,CHCGILDTO6Y
MA6813400180,h_OCHCTP,13-L1-4,2019-02-06 22:45:00.0,Qmin,8.76,CHCGILDTO6Y
MA6813400180,h_OCHCTP,13-L1-4,2019-02-06 22:45:00.0,PhaseCorrectionAve,4.42e-07,CHCGILDTO6Y
MA6813400180,h_OCHCTP,13-L1-4,2019-02-06 22:45:00.0,BerPreFecMax,0.00307,CHCGILDTO6Y
MA6813400180,h_OCHCTP,13-L1-4,2019-02-06 22:45:00.0,PmdMin,1.02,CHCGILDTO6Y
MA6813400180,h_OCHCTP,13-L1-4,2019-02-06 22:45:00.0,SoPmdAve,3315.02,CHCGILDTO6Y
MA6813400180,h_OCHCTP,13-L1-5,2019-02-06 22:15:00.0,Qmin,8.68,CHCGILDTO6Y
MA6813400180,h_OCHCTP,13-L1-5,2019-02-06 22:15:00.0,PhaseCorrectionAve,-0.122,CHCGILDTO6Y
MA6813400180,h_OCHCTP,13-L1-5,2019-02-06 22:15:00.0,BerPreFecMax,0.00328,CHCGILDTO6Y
MA6813400180,h_OCHCTP,13-L1-5,2019-02-06 22:15:00.0,PmdMin,0.664,CHCGILDTO6Y
MA6813400180,h_OCHCTP,13-L1-5,2019-02-06 22:15:00.0,SoPmdAve,2861.59,CHCGILDTO6Y
MA6813400180,h_OCHCTP,13-L1-5,2019-02-06 22:30:00.0,Qmin,8.76,CHCGILDTO6Y
MA6813400180,h_OCHCTP,13-L1-5,2019-02-06 22:30:00.0,PhaseCorrectionAve,-0.122,CHCGILDTO6Y
MA6813400180,h_OCHCTP,13-L1-5,2019-02-06 22:30:00.0,BerPreFecMax,0.00307,CHCGILDTO6Y
MA6813400180,h_OCHCTP,13-L1-5,2019-02-06 22:30:00.0,PmdMin,0.945,CHCGILDTO6Y
MA6813400180,h_OCHCTP,13-L1-5,2019-02-06 22:30:00.0,SoPmdAve,2871.82,CHCGILDTO6Y
MA6813400180,h_OCHCTP,13-L1-5,2019-02-06 22:45:00.0,Qmin,8.73,CHCGILDTO6Y
MA6813400180,h_OCHCTP,13-L1-5,2019-02-06 22:45:00.0,PhaseCorrectionAve,4.04e-07,CHCGILDTO6Y
MA6813400180,h_OCHCTP,13-L1-5,2019-02-06 22:45:00.0,BerPreFecMax,0.00315,CHCGILDTO6Y
MA6813400180,h_OCHCTP,13-L1-5,2019-02-06 22:45:00.0,PmdMin,0.199,CHCGILDTO6Y
MA6813400180,h_OCHCTP,13-L1-5,2019-02-06 22:45:00.0,SoPmdAve,2910.9,CHCGILDTO6Y
MA6813400180,h_OCHCTP,13-L1-6,2019-02-06 22:15:00.0,Qmin,8.87,CHCGILDTO6Y
MA6813400180,h_OCHCTP,13-L1-6,2019-02-06 22:15:00.0,PhaseCorrectionAve,-0.183,CHCGILDTO6Y
MA6813400180,h_OCHCTP,13-L1-6,2019-02-06 22:15:00.0,BerPreFecMax,0.00274,CHCGILDTO6Y
MA6813400180,h_OCHCTP,13-L1-6,2019-02-06 22:15:00.0,PmdMin,0.81,CHCGILDTO6Y
MA6813400180,h_OCHCTP,13-L1-6,2019-02-06 22:15:00.0,SoPmdAve,3026.82,CHCGILDTO6Y
MA6813400180,h_OCHCTP,13-L1-6,2019-02-06 22:30:00.0,Qmin,8.88,CHCGILDTO6Y
MA6813400180,h_OCHCTP,13-L1-6,2019-02-06 22:30:00.0,PhaseCorrectionAve,-0.122,CHCGILDTO6Y
MA6813400180,h_OCHCTP,13-L1-6,2019-02-06 22:30:00.0,BerPreFecMax,0.00271,CHCGILDTO6Y
MA6813400180,h_OCHCTP,13-L1-6,2019-02-06 22:30:00.0,PmdMin,1.38,CHCGILDTO6Y
MA6813400180,h_OCHCTP,13-L1-6,2019-02-06 22:30:00.0,SoPmdAve,2942.23,CHCGILDTO6Y
MA6813400180,h_OCHCTP,13-L1-6,2019-02-06 22:45:00.0,Qmin,8.87,CHCGILDTO6Y
MA6813400180,h_OCHCTP,13-L1-6,2019-02-06 22:45:00.0,PhaseCorrectionAve,4.86e-07,CHCGILDTO6Y
MA6813400180,h_OCHCTP,13-L1-6,2019-02-06 22:45:00.0,BerPreFecMax,0.00274,CHCGILDTO6Y
MA6813400180,h_OCHCTP,13-L1-6,2019-02-06 22:45:00.0,PmdMin,1.0,CHCGILDTO6Y
MA6813400180,h_OCHCTP,13-L1-6,2019-02-06 22:45:00.0,SoPmdAve,3022.07,CHCGILDTO6Y
MA6813400180,h_OCHCTP,13-L1-7,2019-02-06 22:15:00.0,Qmin,8.78,CHCGILDTO6Y
MA6813400180,h_OCHCTP,13-L1-7,2019-02-06 22:15:00.0,PhaseCorrectionAve,-0.183,CHCGILDTO6Y
MA6813400180,h_OCHCTP,13-L1-7,2019-02-06 22:15:00.0,BerPreFecMax,0.00299,CHCGILDTO6Y
MA6813400180,h_OCHCTP,13-L1-7,2019-02-06 22:15:00.0,PmdMin,1.14,CHCGILDTO6Y
MA6813400180,h_OCHCTP,13-L1-7,2019-02-06 22:15:00.0,SoPmdAve,3853.0,CHCGILDTO6Y
MA6813400180,h_OCHCTP,13-L1-7,2019-02-06 22:30:00.0,Qmin,8.86,CHCGILDTO6Y
MA6813400180,h_OCHCTP,13-L1-7,2019-02-06 22:30:00.0,PhaseCorrectionAve,-0.122,CHCGILDTO6Y
MA6813400180,h_OCHCTP,13-L1-7,2019-02-06 22:30:00.0,BerPreFecMax,0.00278,CHCGILDTO6Y
MA6813400180,h_OCHCTP,13-L1-7,2019-02-06 22:30:00.0,PmdMin,1.21,CHCGILDTO6Y
MA6813400180,h_OCHCTP,13-L1-7,2019-02-06 22:30:00.0,SoPmdAve,3639.55,CHCGILDTO6Y
MA6813400180,h_OCHCTP,13-L1-7,2019-02-06 22:45:00.0,Qmin,8.83,CHCGILDTO6Y
MA6813400180,h_OCHCTP,13-L1-7,2019-02-06 22:45:00.0,PhaseCorrectionAve,4.25e-07,CHCGILDTO6Y
MA6813400180,h_OCHCTP,13-L1-7,2019-02-06 22:45:00.0,BerPreFecMax,0.00285,CHCGILDTO6Y
MA6813400180,h_OCHCTP,13-L1-7,2019-02-06 22:45:00.0,PmdMin,1.3,CHCGILDTO6Y
MA6813400180,h_OCHCTP,13-L1-7,2019-02-06 22:45:00.0,SoPmdAve,3575.79,CHCGILDTO6Y
MA6813400180,h_OCHCTP,13-L1-8,2019-02-06 22:15:00.0,Qmin,8.85,CHCGILDTO6Y
MA6813400180,h_OCHCTP,13-L1-8,2019-02-06 22:15:00.0,PhaseCorrectionAve,-0.306,CHCGILDTO6Y
MA6813400180,h_OCHCTP,13-L1-8,2019-02-06 22:15:00.0,BerPreFecMax,0.00281,CHCGILDTO6Y
MA6813400180,h_OCHCTP,13-L1-8,2019-02-06 22:15:00.0,PmdMin,1.56,CHCGILDTO6Y
MA6813400180,h_OCHCTP,13-L1-8,2019-02-06 22:15:00.0,SoPmdAve,3873.32,CHCGILDTO6Y
MA6813400180,h_OCHCTP,13-L1-8,2019-02-06 22:30:00.0,Qmin,8.84,CHCGILDTO6Y
MA6813400180,h_OCHCTP,13-L1-8,2019-02-06 22:30:00.0,PhaseCorrectionAve,-0.183,CHCGILDTO6Y
MA6813400180,h_OCHCTP,13-L1-8,2019-02-06 22:30:00.0,BerPreFecMax,0.00283,CHCGILDTO6Y
MA6813400180,h_OCHCTP,13-L1-8,2019-02-06 22:30:00.0,PmdMin,1.11,CHCGILDTO6Y
MA6813400180,h_OCHCTP,13-L1-8,2019-02-06 22:30:00.0,SoPmdAve,3789.31,CHCGILDTO6Y
MA6813400180,h_OCHCTP,13-L1-8,2019-02-06 22:45:00.0,Qmin,8.86,CHCGILDTO6Y
MA6813400180,h_OCHCTP,13-L1-8,2019-02-06 22:45:00.0,PhaseCorrectionAve,9.14e-07,CHCGILDTO6Y
MA6813400180,h_OCHCTP,13-L1-8,2019-02-06 22:45:00.0,BerPreFecMax,0.00276,CHCGILDTO6Y
MA6813400180,h_OCHCTP,13-L1-8,2019-02-06 22:45:00.0,PmdMin,0.542,CHCGILDTO6Y
MA6813400180,h_OCHCTP,13-L1-8,2019-02-06 22:45:00.0,SoPmdAve,3772.26,CHCGILDTO6Y
MA6813400180,h_OCHCTP,13-L1-9,2019-02-06 22:15:00.0,Qmin,8.8,CHCGILDTO6Y
MA6813400180,h_OCHCTP,13-L1-9,2019-02-06 22:15:00.0,PhaseCorrectionAve,-0.306,CHCGILDTO6Y
MA6813400180,h_OCHCTP,13-L1-9,2019-02-06 22:15:00.0,BerPreFecMax,0.00293,CHCGILDTO6Y
MA6813400180,h_OCHCTP,13-L1-9,2019-02-06 22:15:00.0,PmdMin,0.826,CHCGILDTO6Y
MA6813400180,h_OCHCTP,13-L1-9,2019-02-06 22:15:00.0,SoPmdAve,3527.64,CHCGILDTO6Y
MA6813400180,h_OCHCTP,13-L1-9,2019-02-06 22:30:00.0,Qmin,8.8,CHCGILDTO6Y
MA6813400180,h_OCHCTP,13-L1-9,2019-02-06 22:30:00.0,PhaseCorrectionAve,-0.183,CHCGILDTO6Y
MA6813400180,h_OCHCTP,13-L1-9,2019-02-06 22:30:00.0,BerPreFecMax,0.00293,CHCGILDTO6Y
MA6813400180,h_OCHCTP,13-L1-9,2019-02-06 22:30:00.0,PmdMin,0.953,CHCGILDTO6Y
MA6813400180,h_OCHCTP,13-L1-9,2019-02-06 22:30:00.0,SoPmdAve,3622.64,CHCGILDTO6Y
MA6813400180,h_OCHCTP,13-L1-9,2019-02-06 22:45:00.0,Qmin,8.81,CHCGILDTO6Y
MA6813400180,h_OCHCTP,13-L1-9,2019-02-06 22:45:00.0,PhaseCorrectionAve,3.44e-06,CHCGILDTO6Y
MA6813400180,h_OCHCTP,13-L1-9,2019-02-06 22:45:00.0,BerPreFecMax,0.00292,CHCGILDTO6Y
MA6813400180,h_OCHCTP,13-L1-9,2019-02-06 22:45:00.0,PmdMin,1.08,CHCGILDTO6Y
MA6813400180,h_OCHCTP,13-L1-9,2019-02-06 22:45:00.0,SoPmdAve,3524.21,CHCGILDTO6Y
MA6813400180,h_OCHCTP,13-L1-10,2019-02-06 22:15:00.0,Qmin,8.64,CHCGILDTO6Y
MA6813400180,h_OCHCTP,13-L1-10,2019-02-06 22:15:00.0,PhaseCorrectionAve,-0.306,CHCGILDTO6Y
MA6813400180,h_OCHCTP,13-L1-10,2019-02-06 22:15:00.0,BerPreFecMax,0.00343,CHCGILDTO6Y
MA6813400180,h_OCHCTP,13-L1-10,2019-02-06 22:15:00.0,PmdMin,0.944,CHCGILDTO6Y
MA6813400180,h_OCHCTP,13-L1-10,2019-02-06 22:15:00.0,SoPmdAve,3895.24,CHCGILDTO6Y
MA6813400180,h_OCHCTP,13-L1-10,2019-02-06 22:30:00.0,Qmin,8.61,CHCGILDTO6Y
MA6813400180,h_OCHCTP,13-L1-10,2019-02-06 22:30:00.0,PhaseCorrectionAve,-0.183,CHCGILDTO6Y
MA6813400180,h_OCHCTP,13-L1-10,2019-02-06 22:30:00.0,BerPreFecMax,0.00352,CHCGILDTO6Y
MA6813400180,h_OCHCTP,13-L1-10,2019-02-06 22:30:00.0,PmdMin,0.695,CHCGILDTO6Y
MA6813400180,h_OCHCTP,13-L1-10,2019-02-06 22:30:00.0,SoPmdAve,3797.12,CHCGILDTO6Y
MA6813400180,h_OCHCTP,13-L1-10,2019-02-06 22:45:00.0,Qmin,8.66,CHCGILDTO6Y
MA6813400180,h_OCHCTP,13-L1-10,2019-02-06 22:45:00.0,PhaseCorrectionAve,4.01e-06,CHCGILDTO6Y
MA6813400180,h_OCHCTP,13-L1-10,2019-02-06 22:45:00.0,BerPreFecMax,0.00337,CHCGILDTO6Y
MA6813400180,h_OCHCTP,13-L1-10,2019-02-06 22:45:00.0,PmdMin,0.532,CHCGILDTO6Y
MA6813400180,h_OCHCTP,13-L1-10,2019-02-06 22:45:00.0,SoPmdAve,4056.14,CHCGILDTO6Y
