MA6813400180,h_OCHCTP,11-L1-1,2019-02-05 22:15:00.0,Qmin,9.05,CHCGILDTO6Y
MA6813400180,h_OCHCTP,11-L1-1,2019-02-05 22:15:00.0,PhaseCorrectionAve,1.98e-07,CHCGILDTO6Y
MA6813400180,h_OCHCTP,11-L1-1,2019-02-05 22:15:00.0,BerPreFecMax,0.00229,CHCGILDTO6Y
MA6813400180,h_OCHCTP,11-L1-1,2019-02-05 22:15:00.0,PmdMin,1.21,CHCGILDTO6Y
MA6813400180,h_OCHCTP,11-L1-1,2019-02-05 22:15:00.0,SoPmdAve,3421.56,CHCGILDTO6Y
MA6813400180,h_OCHCTP,11-L1-1,2019-02-05 22:30:00.0,Qmin,9.1,CHCGILDTO6Y
MA6813400180,h_OCHCTP,11-L1-1,2019-02-05 22:30:00.0,PhaseCorrectionAve,1.83e-07,CHCGILDTO6Y
MA6813400180,h_OCHCTP,11-L1-1,2019-02-05 22:30:00.0,BerPreFecMax,0.00218,CHCGILDTO6Y
MA6813400180,h_OCHCTP,11-L1-1,2019-02-05 22:30:00.0,PmdMin,0.587,CHCGILDTO6Y
MA6813400180,h_OCHCTP,11-L1-1,2019-02-05 22:30:00.0,SoPmdAve,3347.74,CHCGILDTO6Y
MA6813400180,h_OCHCTP,11-L1-1,2019-02-05 22:45:00.0,Qmin,9.0,CHCGILDTO6Y
MA6813400180,h_OCHCTP,11-L1-1,2019-02-05 22:45:00.0,PhaseCorrectionAve,2.01e-07,CHCGILDTO6Y
MA6813400180,h_OCHCTP,11-L1-1,2019-02-05 22:45:00.0,BerPreFecMax,0.00241,CHCGILDTO6Y
MA6813400180,h_OCHCTP,11-L1-1,2019-02-05 22:45:00.0,PmdMin,0.781,CHCGILDTO6Y
MA6813400180,h_OCHCTP,11-L1-1,2019-02-05 22:45:00.0,SoPmdAve,3350.65,CHCGILDTO6Y
MA6813400180,h_OCHCTP,11-L1-2,2019-02-05 22:15:00.0,Qmin,8.98,CHCGILDTO6Y
MA6813400180,h_OCHCTP,11-L1-2,2019-02-05 22:15:00.0,PhaseCorrectionAve,-0.061,CHCGILDTO6Y
MA6813400180,h_OCHCTP,11-L1-2,2019-02-05 22:15:00.0,BerPreFecMax,0.00247,CHCGILDTO6Y
MA6813400180,h_OCHCTP,11-L1-2,2019-02-05 22:15:00.0,PmdMin,1.46,CHCGILDTO6Y
MA6813400180,h_OCHCTP,11-L1-2,2019-02-05 22:15:00.0,SoPmdAve,3086.27,CHCGILDTO6Y
MA6813400180,h_OCHCTP,11-L1-2,2019-02-05 22:30:00.0,Qmin,9.01,CHCGILDTO6Y
MA6813400180,h_OCHCTP,11-L1-2,2019-02-05 22:30:00.0,PhaseCorrectionAve,5.25e-07,CHCGILDTO6Y
MA6813400180,h_OCHCTP,11-L1-2,2019-02-05 22:30:00.0,BerPreFecMax,0.00239,CHCGILDTO6Y
MA6813400180,h_OCHCTP,11-L1-2,2019-02-05 22:30:00.0,PmdMin,1.1,CHCGILDTO6Y
MA6813400180,h_OCHCTP,11-L1-2,2019-02-05 22:30:00.0,SoPmdAve,3137.13,CHCGILDTO6Y
MA6813400180,h_OCHCTP,11-L1-2,2019-02-05 22:45:00.0,Qmin,8.96,CHCGILDTO6Y
MA6813400180,h_OCHCTP,11-L1-2,2019-02-05 22:45:00.0,PhaseCorrectionAve,5.54e-07,CHCGILDTO6Y
MA6813400180,h_OCHCTP,11-L1-2,2019-02-05 22:45:00.0,BerPreFecMax,0.00252,CHCGILDTO6Y
MA6813400180,h_OCHCTP,11-L1-2,2019-02-05 22:45:00.0,PmdMin,0.527,CHCGILDTO6Y
MA6813400180,h_OCHCTP,11-L1-2,2019-02-05 22:45:00.0,SoPmdAve,3176.78,CHCGILDTO6Y
MA6813400180,h_OCHCTP,11-L1-3,2019-02-05 22:15:00.0,Qmin,8.89,CHCGILDTO6Y
MA6813400180,h_OCHCTP,11-L1-3,2019-02-05 22:15:00.0,PhaseCorrectionAve,-0.061,CHCGILDTO6Y
MA6813400180,h_OCHCTP,11-L1-3,2019-02-05 22:15:00.0,BerPreFecMax,0.0027,CHCGILDTO6Y
MA6813400180,h_OCHCTP,11-L1-3,2019-02-05 22:15:00.0,PmdMin,1.03,CHCGILDTO6Y
MA6813400180,h_OCHCTP,11-L1-3,2019-02-05 22:15:00.0,SoPmdAve,2758.44,CHCGILDTO6Y
MA6813400180,h_OCHCTP,11-L1-3,2019-02-05 22:30:00.0,Qmin,8.93,CHCGILDTO6Y
MA6813400180,h_OCHCTP,11-L1-3,2019-02-05 22:30:00.0,PhaseCorrectionAve,4.12e-07,CHCGILDTO6Y
MA6813400180,h_OCHCTP,11-L1-3,2019-02-05 22:30:00.0,BerPreFecMax,0.00258,CHCGILDTO6Y
MA6813400180,h_OCHCTP,11-L1-3,2019-02-05 22:30:00.0,PmdMin,0.204,CHCGILDTO6Y
MA6813400180,h_OCHCTP,11-L1-3,2019-02-05 22:30:00.0,SoPmdAve,2793.62,CHCGILDTO6Y
MA6813400180,h_OCHCTP,11-L1-3,2019-02-05 22:45:00.0,Qmin,8.87,CHCGILDTO6Y
MA6813400180,h_OCHCTP,11-L1-3,2019-02-05 22:45:00.0,PhaseCorrectionAve,4.19e-07,CHCGILDTO6Y
MA6813400180,h_OCHCTP,11-L1-3,2019-02-05 22:45:00.0,BerPreFecMax,0.00275,CHCGILDTO6Y
MA6813400180,h_OCHCTP,11-L1-3,2019-02-05 22:45:00.0,PmdMin,0.836,CHCGILDTO6Y
MA6813400180,h_OCHCTP,11-L1-3,2019-02-05 22:45:00.0,SoPmdAve,2732.71,CHCGILDTO6Y
MA6813400180,h_OCHCTP,11-L1-4,2019-02-05 22:15:00.0,Qmin,8.71,CHCGILDTO6Y
MA6813400180,h_OCHCTP,11-L1-4,2019-02-05 22:15:00.0,PhaseCorrectionAve,-0.061,CHCGILDTO6Y
MA6813400180,h_OCHCTP,11-L1-4,2019-02-05 22:15:00.0,BerPreFecMax,0.00322,CHCGILDTO6Y
MA6813400180,h_OCHCTP,11-L1-4,2019-02-05 22:15:00.0,PmdMin,0.784,CHCGILDTO6Y
MA6813400180,h_OCHCTP,11-L1-4,2019-02-05 22:15:00.0,SoPmdAve,3026.81,CHCGILDTO6Y
MA6813400180,h_OCHCTP,11-L1-4,2019-02-05 22:30:00.0,Qmin,8.66,CHCGILDTO6Y
MA6813400180,h_OCHCTP,11-L1-4,2019-02-05 22:30:00.0,PhaseCorrectionAve,5.08e-07,CHCGILDTO6Y
MA6813400180,h_OCHCTP,11-L1-4,2019-02-05 22:30:00.0,BerPreFecMax,0.00336,CHCGILDTO6Y
MA6813400180,h_OCHCTP,11-L1-4,2019-02-05 22:30:00.0,PmdMin,0.821,CHCGILDTO6Y
MA6813400180,h_OCHCTP,11-L1-4,2019-02-05 22:30:00.0,SoPmdAve,2911.42,CHCGILDTO6Y
MA6813400180,h_OCHCTP,11-L1-4,2019-02-05 22:45:00.0,Qmin,8.74,CHCGILDTO6Y
MA6813400180,h_OCHCTP,11-L1-4,2019-02-05 22:45:00.0,PhaseCorrectionAve,-0.061,CHCGILDTO6Y
MA6813400180,h_OCHCTP,11-L1-4,2019-02-05 22:45:00.0,BerPreFecMax,0.0031,CHCGILDTO6Y
MA6813400180,h_OCHCTP,11-L1-4,2019-02-05 22:45:00.0,PmdMin,0.689,CHCGILDTO6Y
MA6813400180,h_OCHCTP,11-L1-4,2019-02-05 22:45:00.0,SoPmdAve,2966.29,CHCGILDTO6Y
MA6813400180,h_OCHCTP,11-L1-5,2019-02-05 22:15:00.0,Qmin,8.85,CHCGILDTO6Y
MA6813400180,h_OCHCTP,11-L1-5,2019-02-05 22:15:00.0,PhaseCorrectionAve,-0.061,CHCGILDTO6Y
MA6813400180,h_OCHCTP,11-L1-5,2019-02-05 22:15:00.0,BerPreFecMax,0.0028,CHCGILDTO6Y
MA6813400180,h_OCHCTP,11-L1-5,2019-02-05 22:15:00.0,PmdMin,0.851,CHCGILDTO6Y
MA6813400180,h_OCHCTP,11-L1-5,2019-02-05 22:15:00.0,SoPmdAve,2607.28,CHCGILDTO6Y
MA6813400180,h_OCHCTP,11-L1-5,2019-02-05 22:30:00.0,Qmin,8.84,CHCGILDTO6Y
MA6813400180,h_OCHCTP,11-L1-5,2019-02-05 22:30:00.0,PhaseCorrectionAve,2.02e-07,CHCGILDTO6Y
MA6813400180,h_OCHCTP,11-L1-5,2019-02-05 22:30:00.0,BerPreFecMax,0.00284,CHCGILDTO6Y
MA6813400180,h_OCHCTP,11-L1-5,2019-02-05 22:30:00.0,PmdMin,0.343,CHCGILDTO6Y
MA6813400180,h_OCHCTP,11-L1-5,2019-02-05 22:30:00.0,SoPmdAve,2507.28,CHCGILDTO6Y
MA6813400180,h_OCHCTP,11-L1-5,2019-02-05 22:45:00.0,Qmin,8.75,CHCGILDTO6Y
MA6813400180,h_OCHCTP,11-L1-5,2019-02-05 22:45:00.0,PhaseCorrectionAve,-0.061,CHCGILDTO6Y
MA6813400180,h_OCHCTP,11-L1-5,2019-02-05 22:45:00.0,BerPreFecMax,0.00309,CHCGILDTO6Y
MA6813400180,h_OCHCTP,11-L1-5,2019-02-05 22:45:00.0,PmdMin,0.859,CHCGILDTO6Y
MA6813400180,h_OCHCTP,11-L1-5,2019-02-05 22:45:00.0,SoPmdAve,2526.31,CHCGILDTO6Y
MA6813400180,h_OCHCTP,11-L1-6,2019-02-05 22:15:00.0,Qmin,8.76,CHCGILDTO6Y
MA6813400180,h_OCHCTP,11-L1-6,2019-02-05 22:15:00.0,PhaseCorrectionAve,-0.122,CHCGILDTO6Y
MA6813400180,h_OCHCTP,11-L1-6,2019-02-05 22:15:00.0,BerPreFecMax,0.00305,CHCGILDTO6Y
MA6813400180,h_OCHCTP,11-L1-6,2019-02-05 22:15:00.0,PmdMin,1.02,CHCGILDTO6Y
MA6813400180,h_OCHCTP,11-L1-6,2019-02-05 22:15:00.0,SoPmdAve,2536.73,CHCGILDTO6Y
MA6813400180,h_OCHCTP,11-L1-6,2019-02-05 22:30:00.0,Qmin,8.72,CHCGILDTO6Y
MA6813400180,h_OCHCTP,11-L1-6,2019-02-05 22:30:00.0,PhaseCorrectionAve,5.62e-07,CHCGILDTO6Y
MA6813400180,h_OCHCTP,11-L1-6,2019-02-05 22:30:00.0,BerPreFecMax,0.00318,CHCGILDTO6Y
MA6813400180,h_OCHCTP,11-L1-6,2019-02-05 22:30:00.0,PmdMin,0.491,CHCGILDTO6Y
MA6813400180,h_OCHCTP,11-L1-6,2019-02-05 22:30:00.0,SoPmdAve,2533.08,CHCGILDTO6Y
MA6813400180,h_OCHCTP,11-L1-6,2019-02-05 22:45:00.0,Qmin,8.57,CHCGILDTO6Y
MA6813400180,h_OCHCTP,11-L1-6,2019-02-05 22:45:00.0,PhaseCorrectionAve,-0.061,CHCGILDTO6Y
MA6813400180,h_OCHCTP,11-L1-6,2019-02-05 22:45:00.0,BerPreFecMax,0.00365,CHCGILDTO6Y
MA6813400180,h_OCHCTP,11-L1-6,2019-02-05 22:45:00.0,PmdMin,0.876,CHCGILDTO6Y
MA6813400180,h_OCHCTP,11-L1-6,2019-02-05 22:45:00.0,SoPmdAve,2509.49,CHCGILDTO6Y
MA6813400180,h_OCHCTP,11-L1-7,2019-02-05 22:15:00.0,Qmin,8.74,CHCGILDTO6Y
MA6813400180,h_OCHCTP,11-L1-7,2019-02-05 22:15:00.0,PhaseCorrectionAve,-0.183,CHCGILDTO6Y
MA6813400180,h_OCHCTP,11-L1-7,2019-02-05 22:15:00.0,BerPreFecMax,0.00313,CHCGILDTO6Y
MA6813400180,h_OCHCTP,11-L1-7,2019-02-05 22:15:00.0,PmdMin,1.13,CHCGILDTO6Y
MA6813400180,h_OCHCTP,11-L1-7,2019-02-05 22:15:00.0,SoPmdAve,3029.04,CHCGILDTO6Y
MA6813400180,h_OCHCTP,11-L1-7,2019-02-05 22:30:00.0,Qmin,8.83,CHCGILDTO6Y
MA6813400180,h_OCHCTP,11-L1-7,2019-02-05 22:30:00.0,PhaseCorrectionAve,3.34e-07,CHCGILDTO6Y
MA6813400180,h_OCHCTP,11-L1-7,2019-02-05 22:30:00.0,BerPreFecMax,0.00285,CHCGILDTO6Y
MA6813400180,h_OCHCTP,11-L1-7,2019-02-05 22:30:00.0,PmdMin,1.15,CHCGILDTO6Y
MA6813400180,h_OCHCTP,11-L1-7,2019-02-05 22:30:00.0,SoPmdAve,3016.81,CHCGILDTO6Y
MA6813400180,h_OCHCTP,11-L1-7,2019-02-05 22:45:00.0,Qmin,8.75,CHCGILDTO6Y
MA6813400180,h_OCHCTP,11-L1-7,2019-02-05 22:45:00.0,PhaseCorrectionAve,-0.061,CHCGILDTO6Y
MA6813400180,h_OCHCTP,11-L1-7,2019-02-05 22:45:00.0,BerPreFecMax,0.00307,CHCGILDTO6Y
MA6813400180,h_OCHCTP,11-L1-7,2019-02-05 22:45:00.0,PmdMin,0.903,CHCGILDTO6Y
MA6813400180,h_OCHCTP,11-L1-7,2019-02-05 22:45:00.0,SoPmdAve,3066.26,CHCGILDTO6Y
MA6813400180,h_OCHCTP,11-L1-8,2019-02-05 22:15:00.0,Qmin,8.84,CHCGILDTO6Y
MA6813400180,h_OCHCTP,11-L1-8,2019-02-05 22:15:00.0,PhaseCorrectionAve,-0.183,CHCGILDTO6Y
MA6813400180,h_OCHCTP,11-L1-8,2019-02-05 22:15:00.0,BerPreFecMax,0.00282,CHCGILDTO6Y
MA6813400180,h_OCHCTP,11-L1-8,2019-02-05 22:15:00.0,PmdMin,0.64,CHCGILDTO6Y
MA6813400180,h_OCHCTP,11-L1-8,2019-02-05 22:15:00.0,SoPmdAve,3101.07,CHCGILDTO6Y
MA6813400180,h_OCHCTP,11-L1-8,2019-02-05 22:30:00.0,Qmin,8.86,CHCGILDTO6Y
MA6813400180,h_OCHCTP,11-L1-8,2019-02-05 22:30:00.0,PhaseCorrectionAve,1.04e-06,CHCGILDTO6Y
MA6813400180,h_OCHCTP,11-L1-8,2019-02-05 22:30:00.0,BerPreFecMax,0.00278,CHCGILDTO6Y
MA6813400180,h_OCHCTP,11-L1-8,2019-02-05 22:30:00.0,PmdMin,0.763,CHCGILDTO6Y
MA6813400180,h_OCHCTP,11-L1-8,2019-02-05 22:30:00.0,SoPmdAve,3095.19,CHCGILDTO6Y
MA6813400180,h_OCHCTP,11-L1-8,2019-02-05 22:45:00.0,Qmin,8.8,CHCGILDTO6Y
MA6813400180,h_OCHCTP,11-L1-8,2019-02-05 22:45:00.0,PhaseCorrectionAve,-0.061,CHCGILDTO6Y
MA6813400180,h_OCHCTP,11-L1-8,2019-02-05 22:45:00.0,BerPreFecMax,0.00295,CHCGILDTO6Y
MA6813400180,h_OCHCTP,11-L1-8,2019-02-05 22:45:00.0,PmdMin,1.13,CHCGILDTO6Y
MA6813400180,h_OCHCTP,11-L1-8,2019-02-05 22:45:00.0,SoPmdAve,3145.35,CHCGILDTO6Y
MA6813400180,h_OCHCTP,11-L1-9,2019-02-05 22:15:00.0,Qmin,8.76,CHCGILDTO6Y
MA6813400180,h_OCHCTP,11-L1-9,2019-02-05 22:15:00.0,PhaseCorrectionAve,-0.183,CHCGILDTO6Y
MA6813400180,h_OCHCTP,11-L1-9,2019-02-05 22:15:00.0,BerPreFecMax,0.00305,CHCGILDTO6Y
MA6813400180,h_OCHCTP,11-L1-9,2019-02-05 22:15:00.0,PmdMin,0.743,CHCGILDTO6Y
MA6813400180,h_OCHCTP,11-L1-9,2019-02-05 22:15:00.0,SoPmdAve,2897.33,CHCGILDTO6Y
MA6813400180,h_OCHCTP,11-L1-9,2019-02-05 22:30:00.0,Qmin,8.77,CHCGILDTO6Y
MA6813400180,h_OCHCTP,11-L1-9,2019-02-05 22:30:00.0,PhaseCorrectionAve,2.03e-06,CHCGILDTO6Y
MA6813400180,h_OCHCTP,11-L1-9,2019-02-05 22:30:00.0,BerPreFecMax,0.00303,CHCGILDTO6Y
MA6813400180,h_OCHCTP,11-L1-9,2019-02-05 22:30:00.0,PmdMin,0.597,CHCGILDTO6Y
MA6813400180,h_OCHCTP,11-L1-9,2019-02-05 22:30:00.0,SoPmdAve,2931.3,CHCGILDTO6Y
MA6813400180,h_OCHCTP,11-L1-9,2019-02-05 22:45:00.0,Qmin,8.8,CHCGILDTO6Y
MA6813400180,h_OCHCTP,11-L1-9,2019-02-05 22:45:00.0,PhaseCorrectionAve,-0.061,CHCGILDTO6Y
MA6813400180,h_OCHCTP,11-L1-9,2019-02-05 22:45:00.0,BerPreFecMax,0.00294,CHCGILDTO6Y
MA6813400180,h_OCHCTP,11-L1-9,2019-02-05 22:45:00.0,PmdMin,0.352,CHCGILDTO6Y
MA6813400180,h_OCHCTP,11-L1-9,2019-02-05 22:45:00.0,SoPmdAve,2966.71,CHCGILDTO6Y
MA6813400180,h_OCHCTP,11-L1-10,2019-02-05 22:15:00.0,Qmin,8.9,CHCGILDTO6Y
MA6813400180,h_OCHCTP,11-L1-10,2019-02-05 22:15:00.0,PhaseCorrectionAve,-0.183,CHCGILDTO6Y
MA6813400180,h_OCHCTP,11-L1-10,2019-02-05 22:15:00.0,BerPreFecMax,0.00268,CHCGILDTO6Y
MA6813400180,h_OCHCTP,11-L1-10,2019-02-05 22:15:00.0,PmdMin,0.628,CHCGILDTO6Y
MA6813400180,h_OCHCTP,11-L1-10,2019-02-05 22:15:00.0,SoPmdAve,3083.97,CHCGILDTO6Y
MA6813400180,h_OCHCTP,11-L1-10,2019-02-05 22:30:00.0,Qmin,8.83,CHCGILDTO6Y
MA6813400180,h_OCHCTP,11-L1-10,2019-02-05 22:30:00.0,PhaseCorrectionAve,-0.061,CHCGILDTO6Y
MA6813400180,h_OCHCTP,11-L1-10,2019-02-05 22:30:00.0,BerPreFecMax,0.00285,CHCGILDTO6Y
MA6813400180,h_OCHCTP,11-L1-10,2019-02-05 22:30:00.0,PmdMin,0.818,CHCGILDTO6Y
MA6813400180,h_OCHCTP,11-L1-10,2019-02-05 22:30:00.0,SoPmdAve,3091.23,CHCGILDTO6Y
MA6813400180,h_OCHCTP,11-L1-10,2019-02-05 22:45:00.0,Qmin,8.88,CHCGILDTO6Y
MA6813400180,h_OCHCTP,11-L1-10,2019-02-05 22:45:00.0,PhaseCorrectionAve,-0.061,CHCGILDTO6Y
MA6813400180,h_OCHCTP,11-L1-10,2019-02-05 22:45:00.0,BerPreFecMax,0.00271,CHCGILDTO6Y
MA6813400180,h_OCHCTP,11-L1-10,2019-02-05 22:45:00.0,PmdMin,0.849,CHCGILDTO6Y
MA6813400180,h_OCHCTP,11-L1-10,2019-02-05 22:45:00.0,SoPmdAve,3013.9,CHCGILDTO6Y
MA6813400180,h_OCHCTP,10-L1-1,2019-02-05 22:15:00.0,Qmin,9.47,CHCGILDTO6Y
MA6813400180,h_OCHCTP,10-L1-1,2019-02-05 22:15:00.0,PhaseCorrectionAve,4.34e-07,CHCGILDTO6Y
MA6813400180,h_OCHCTP,10-L1-1,2019-02-05 22:15:00.0,BerPreFecMax,0.00147,CHCGILDTO6Y
MA6813400180,h_OCHCTP,10-L1-1,2019-02-05 22:15:00.0,PmdMin,0.379,CHCGILDTO6Y
MA6813400180,h_OCHCTP,10-L1-1,2019-02-05 22:15:00.0,SoPmdAve,3665.66,CHCGILDTO6Y
MA6813400180,h_OCHCTP,10-L1-1,2019-02-05 22:30:00.0,Qmin,9.47,CHCGILDTO6Y
MA6813400180,h_OCHCTP,10-L1-1,2019-02-05 22:30:00.0,PhaseCorrectionAve,4.22e-07,CHCGILDTO6Y
MA6813400180,h_OCHCTP,10-L1-1,2019-02-05 22:30:00.0,BerPreFecMax,0.00147,CHCGILDTO6Y
MA6813400180,h_OCHCTP,10-L1-1,2019-02-05 22:30:00.0,PmdMin,1.64,CHCGILDTO6Y
MA6813400180,h_OCHCTP,10-L1-1,2019-02-05 22:30:00.0,SoPmdAve,3695.07,CHCGILDTO6Y
MA6813400180,h_OCHCTP,10-L1-1,2019-02-05 22:45:00.0,Qmin,9.48,CHCGILDTO6Y
MA6813400180,h_OCHCTP,10-L1-1,2019-02-05 22:45:00.0,PhaseCorrectionAve,4.59e-07,CHCGILDTO6Y
MA6813400180,h_OCHCTP,10-L1-1,2019-02-05 22:45:00.0,BerPreFecMax,0.00145,CHCGILDTO6Y
MA6813400180,h_OCHCTP,10-L1-1,2019-02-05 22:45:00.0,PmdMin,0.95,CHCGILDTO6Y
MA6813400180,h_OCHCTP,10-L1-1,2019-02-05 22:45:00.0,SoPmdAve,3640.86,CHCGILDTO6Y
MA6813400180,h_OCHCTP,10-L1-2,2019-02-05 22:15:00.0,Qmin,9.15,CHCGILDTO6Y
MA6813400180,h_OCHCTP,10-L1-2,2019-02-05 22:15:00.0,PhaseCorrectionAve,3.4e-07,CHCGILDTO6Y
MA6813400180,h_OCHCTP,10-L1-2,2019-02-05 22:15:00.0,BerPreFecMax,0.00207,CHCGILDTO6Y
MA6813400180,h_OCHCTP,10-L1-2,2019-02-05 22:15:00.0,PmdMin,7.29,CHCGILDTO6Y
MA6813400180,h_OCHCTP,10-L1-2,2019-02-05 22:15:00.0,SoPmdAve,3328.06,CHCGILDTO6Y
MA6813400180,h_OCHCTP,10-L1-2,2019-02-05 22:30:00.0,Qmin,9.15,CHCGILDTO6Y
MA6813400180,h_OCHCTP,10-L1-2,2019-02-05 22:30:00.0,PhaseCorrectionAve,-0.0611,CHCGILDTO6Y
MA6813400180,h_OCHCTP,10-L1-2,2019-02-05 22:30:00.0,BerPreFecMax,0.00206,CHCGILDTO6Y
MA6813400180,h_OCHCTP,10-L1-2,2019-02-05 22:30:00.0,PmdMin,5.26,CHCGILDTO6Y
MA6813400180,h_OCHCTP,10-L1-2,2019-02-05 22:30:00.0,SoPmdAve,3205.98,CHCGILDTO6Y
MA6813400180,h_OCHCTP,10-L1-2,2019-02-05 22:45:00.0,Qmin,9.16,CHCGILDTO6Y
MA6813400180,h_OCHCTP,10-L1-2,2019-02-05 22:45:00.0,PhaseCorrectionAve,3.66e-07,CHCGILDTO6Y
MA6813400180,h_OCHCTP,10-L1-2,2019-02-05 22:45:00.0,BerPreFecMax,0.00204,CHCGILDTO6Y
MA6813400180,h_OCHCTP,10-L1-2,2019-02-05 22:45:00.0,PmdMin,5.24,CHCGILDTO6Y
MA6813400180,h_OCHCTP,10-L1-2,2019-02-05 22:45:00.0,SoPmdAve,3304.57,CHCGILDTO6Y
MA6813400180,h_OCHCTP,10-L1-3,2019-02-05 22:15:00.0,Qmin,8.87,CHCGILDTO6Y
MA6813400180,h_OCHCTP,10-L1-3,2019-02-05 22:15:00.0,PhaseCorrectionAve,-0.061,CHCGILDTO6Y
MA6813400180,h_OCHCTP,10-L1-3,2019-02-05 22:15:00.0,BerPreFecMax,0.00274,CHCGILDTO6Y
MA6813400180,h_OCHCTP,10-L1-3,2019-02-05 22:15:00.0,PmdMin,4.92,CHCGILDTO6Y
MA6813400180,h_OCHCTP,10-L1-3,2019-02-05 22:15:00.0,SoPmdAve,2894.28,CHCGILDTO6Y
MA6813400180,h_OCHCTP,10-L1-3,2019-02-05 22:30:00.0,Qmin,8.88,CHCGILDTO6Y
MA6813400180,h_OCHCTP,10-L1-3,2019-02-05 22:30:00.0,PhaseCorrectionAve,-0.0611,CHCGILDTO6Y
MA6813400180,h_OCHCTP,10-L1-3,2019-02-05 22:30:00.0,BerPreFecMax,0.00272,CHCGILDTO6Y
MA6813400180,h_OCHCTP,10-L1-3,2019-02-05 22:30:00.0,PmdMin,5.21,CHCGILDTO6Y
MA6813400180,h_OCHCTP,10-L1-3,2019-02-05 22:30:00.0,SoPmdAve,2851.81,CHCGILDTO6Y
MA6813400180,h_OCHCTP,10-L1-3,2019-02-05 22:45:00.0,Qmin,8.89,CHCGILDTO6Y
MA6813400180,h_OCHCTP,10-L1-3,2019-02-05 22:45:00.0,PhaseCorrectionAve,5.7e-07,CHCGILDTO6Y
MA6813400180,h_OCHCTP,10-L1-3,2019-02-05 22:45:00.0,BerPreFecMax,0.0027,CHCGILDTO6Y
MA6813400180,h_OCHCTP,10-L1-3,2019-02-05 22:45:00.0,PmdMin,4.61,CHCGILDTO6Y
MA6813400180,h_OCHCTP,10-L1-3,2019-02-05 22:45:00.0,SoPmdAve,2879.92,CHCGILDTO6Y
MA6813400180,h_OCHCTP,10-L1-4,2019-02-05 22:15:00.0,Qmin,8.3,CHCGILDTO6Y
MA6813400180,h_OCHCTP,10-L1-4,2019-02-05 22:15:00.0,PhaseCorrectionAve,-0.061,CHCGILDTO6Y
MA6813400180,h_OCHCTP,10-L1-4,2019-02-05 22:15:00.0,BerPreFecMax,0.00466,CHCGILDTO6Y
MA6813400180,h_OCHCTP,10-L1-4,2019-02-05 22:15:00.0,PmdMin,1.09,CHCGILDTO6Y
MA6813400180,h_OCHCTP,10-L1-4,2019-02-05 22:15:00.0,SoPmdAve,3083.48,CHCGILDTO6Y
MA6813400180,h_OCHCTP,10-L1-4,2019-02-05 22:30:00.0,Qmin,8.31,CHCGILDTO6Y
MA6813400180,h_OCHCTP,10-L1-4,2019-02-05 22:30:00.0,PhaseCorrectionAve,-0.0611,CHCGILDTO6Y
MA6813400180,h_OCHCTP,10-L1-4,2019-02-05 22:30:00.0,BerPreFecMax,0.00463,CHCGILDTO6Y
MA6813400180,h_OCHCTP,10-L1-4,2019-02-05 22:30:00.0,PmdMin,1.41,CHCGILDTO6Y
MA6813400180,h_OCHCTP,10-L1-4,2019-02-05 22:30:00.0,SoPmdAve,3183.58,CHCGILDTO6Y
MA6813400180,h_OCHCTP,10-L1-4,2019-02-05 22:45:00.0,Qmin,8.32,CHCGILDTO6Y
MA6813400180,h_OCHCTP,10-L1-4,2019-02-05 22:45:00.0,PhaseCorrectionAve,-0.061,CHCGILDTO6Y
MA6813400180,h_OCHCTP,10-L1-4,2019-02-05 22:45:00.0,BerPreFecMax,0.00459,CHCGILDTO6Y
MA6813400180,h_OCHCTP,10-L1-4,2019-02-05 22:45:00.0,PmdMin,0.67,CHCGILDTO6Y
MA6813400180,h_OCHCTP,10-L1-4,2019-02-05 22:45:00.0,SoPmdAve,3034.69,CHCGILDTO6Y
MA6813400180,h_OCHCTP,10-L1-5,2019-02-05 22:15:00.0,Qmin,8.52,CHCGILDTO6Y
MA6813400180,h_OCHCTP,10-L1-5,2019-02-05 22:15:00.0,PhaseCorrectionAve,-0.061,CHCGILDTO6Y
MA6813400180,h_OCHCTP,10-L1-5,2019-02-05 22:15:00.0,BerPreFecMax,0.00384,CHCGILDTO6Y
MA6813400180,h_OCHCTP,10-L1-5,2019-02-05 22:15:00.0,PmdMin,1.75,CHCGILDTO6Y
MA6813400180,h_OCHCTP,10-L1-5,2019-02-05 22:15:00.0,SoPmdAve,2837.13,CHCGILDTO6Y
MA6813400180,h_OCHCTP,10-L1-5,2019-02-05 22:30:00.0,Qmin,8.52,CHCGILDTO6Y
MA6813400180,h_OCHCTP,10-L1-5,2019-02-05 22:30:00.0,PhaseCorrectionAve,-0.0611,CHCGILDTO6Y
MA6813400180,h_OCHCTP,10-L1-5,2019-02-05 22:30:00.0,BerPreFecMax,0.00382,CHCGILDTO6Y
MA6813400180,h_OCHCTP,10-L1-5,2019-02-05 22:30:00.0,PmdMin,0.738,CHCGILDTO6Y
MA6813400180,h_OCHCTP,10-L1-5,2019-02-05 22:30:00.0,SoPmdAve,2877.64,CHCGILDTO6Y
MA6813400180,h_OCHCTP,10-L1-5,2019-02-05 22:45:00.0,Qmin,8.54,CHCGILDTO6Y
MA6813400180,h_OCHCTP,10-L1-5,2019-02-05 22:45:00.0,PhaseCorrectionAve,-0.061,CHCGILDTO6Y
MA6813400180,h_OCHCTP,10-L1-5,2019-02-05 22:45:00.0,BerPreFecMax,0.00375,CHCGILDTO6Y
MA6813400180,h_OCHCTP,10-L1-5,2019-02-05 22:45:00.0,PmdMin,1.79,CHCGILDTO6Y
MA6813400180,h_OCHCTP,10-L1-5,2019-02-05 22:45:00.0,SoPmdAve,2855.58,CHCGILDTO6Y
MA6813400180,h_OCHCTP,10-L1-6,2019-02-05 22:15:00.0,Qmin,8.74,CHCGILDTO6Y
MA6813400180,h_OCHCTP,10-L1-6,2019-02-05 22:15:00.0,PhaseCorrectionAve,-0.122,CHCGILDTO6Y
MA6813400180,h_OCHCTP,10-L1-6,2019-02-05 22:15:00.0,BerPreFecMax,0.0031,CHCGILDTO6Y
MA6813400180,h_OCHCTP,10-L1-6,2019-02-05 22:15:00.0,PmdMin,0.849,CHCGILDTO6Y
MA6813400180,h_OCHCTP,10-L1-6,2019-02-05 22:15:00.0,SoPmdAve,2898.67,CHCGILDTO6Y
MA6813400180,h_OCHCTP,10-L1-6,2019-02-05 22:30:00.0,Qmin,8.75,CHCGILDTO6Y
MA6813400180,h_OCHCTP,10-L1-6,2019-02-05 22:30:00.0,PhaseCorrectionAve,-0.244,CHCGILDTO6Y
MA6813400180,h_OCHCTP,10-L1-6,2019-02-05 22:30:00.0,BerPreFecMax,0.0031,CHCGILDTO6Y
MA6813400180,h_OCHCTP,10-L1-6,2019-02-05 22:30:00.0,PmdMin,1.03,CHCGILDTO6Y
MA6813400180,h_OCHCTP,10-L1-6,2019-02-05 22:30:00.0,SoPmdAve,2870.38,CHCGILDTO6Y
MA6813400180,h_OCHCTP,10-L1-6,2019-02-05 22:45:00.0,Qmin,8.77,CHCGILDTO6Y
MA6813400180,h_OCHCTP,10-L1-6,2019-02-05 22:45:00.0,PhaseCorrectionAve,-0.122,CHCGILDTO6Y
MA6813400180,h_OCHCTP,10-L1-6,2019-02-05 22:45:00.0,BerPreFecMax,0.00303,CHCGILDTO6Y
MA6813400180,h_OCHCTP,10-L1-6,2019-02-05 22:45:00.0,PmdMin,1.11,CHCGILDTO6Y
MA6813400180,h_OCHCTP,10-L1-6,2019-02-05 22:45:00.0,SoPmdAve,2765.61,CHCGILDTO6Y
MA6813400180,h_OCHCTP,10-L1-7,2019-02-05 22:15:00.0,Qmin,8.83,CHCGILDTO6Y
MA6813400180,h_OCHCTP,10-L1-7,2019-02-05 22:15:00.0,PhaseCorrectionAve,-0.122,CHCGILDTO6Y
MA6813400180,h_OCHCTP,10-L1-7,2019-02-05 22:15:00.0,BerPreFecMax,0.00285,CHCGILDTO6Y
MA6813400180,h_OCHCTP,10-L1-7,2019-02-05 22:15:00.0,PmdMin,1.71,CHCGILDTO6Y
MA6813400180,h_OCHCTP,10-L1-7,2019-02-05 22:15:00.0,SoPmdAve,3516.99,CHCGILDTO6Y
MA6813400180,h_OCHCTP,10-L1-7,2019-02-05 22:30:00.0,Qmin,8.83,CHCGILDTO6Y
MA6813400180,h_OCHCTP,10-L1-7,2019-02-05 22:30:00.0,PhaseCorrectionAve,-0.244,CHCGILDTO6Y
MA6813400180,h_OCHCTP,10-L1-7,2019-02-05 22:30:00.0,BerPreFecMax,0.00286,CHCGILDTO6Y
MA6813400180,h_OCHCTP,10-L1-7,2019-02-05 22:30:00.0,PmdMin,1.01,CHCGILDTO6Y
MA6813400180,h_OCHCTP,10-L1-7,2019-02-05 22:30:00.0,SoPmdAve,3469.12,CHCGILDTO6Y
MA6813400180,h_OCHCTP,10-L1-7,2019-02-05 22:45:00.0,Qmin,8.84,CHCGILDTO6Y
MA6813400180,h_OCHCTP,10-L1-7,2019-02-05 22:45:00.0,PhaseCorrectionAve,-0.122,CHCGILDTO6Y
MA6813400180,h_OCHCTP,10-L1-7,2019-02-05 22:45:00.0,BerPreFecMax,0.00282,CHCGILDTO6Y
MA6813400180,h_OCHCTP,10-L1-7,2019-02-05 22:45:00.0,PmdMin,1.64,CHCGILDTO6Y
MA6813400180,h_OCHCTP,10-L1-7,2019-02-05 22:45:00.0,SoPmdAve,3549.11,CHCGILDTO6Y
MA6813400180,h_OCHCTP,10-L1-8,2019-02-05 22:15:00.0,Qmin,9.33,CHCGILDTO6Y
MA6813400180,h_OCHCTP,10-L1-8,2019-02-05 22:15:00.0,PhaseCorrectionAve,-0.122,CHCGILDTO6Y
MA6813400180,h_OCHCTP,10-L1-8,2019-02-05 22:15:00.0,BerPreFecMax,0.0017,CHCGILDTO6Y
MA6813400180,h_OCHCTP,10-L1-8,2019-02-05 22:15:00.0,PmdMin,1.85,CHCGILDTO6Y
MA6813400180,h_OCHCTP,10-L1-8,2019-02-05 22:15:00.0,SoPmdAve,3373.26,CHCGILDTO6Y
MA6813400180,h_OCHCTP,10-L1-8,2019-02-05 22:30:00.0,Qmin,9.33,CHCGILDTO6Y
MA6813400180,h_OCHCTP,10-L1-8,2019-02-05 22:30:00.0,PhaseCorrectionAve,-0.244,CHCGILDTO6Y
MA6813400180,h_OCHCTP,10-L1-8,2019-02-05 22:30:00.0,BerPreFecMax,0.0017,CHCGILDTO6Y
MA6813400180,h_OCHCTP,10-L1-8,2019-02-05 22:30:00.0,PmdMin,1.94,CHCGILDTO6Y
MA6813400180,h_OCHCTP,10-L1-8,2019-02-05 22:30:00.0,SoPmdAve,3316.15,CHCGILDTO6Y
MA6813400180,h_OCHCTP,10-L1-8,2019-02-05 22:45:00.0,Qmin,9.34,CHCGILDTO6Y
MA6813400180,h_OCHCTP,10-L1-8,2019-02-05 22:45:00.0,PhaseCorrectionAve,-0.183,CHCGILDTO6Y
MA6813400180,h_OCHCTP,10-L1-8,2019-02-05 22:45:00.0,BerPreFecMax,0.00168,CHCGILDTO6Y
MA6813400180,h_OCHCTP,10-L1-8,2019-02-05 22:45:00.0,PmdMin,1.3,CHCGILDTO6Y
MA6813400180,h_OCHCTP,10-L1-8,2019-02-05 22:45:00.0,SoPmdAve,3229.62,CHCGILDTO6Y
MA6813400180,h_OCHCTP,10-L1-9,2019-02-05 22:15:00.0,Qmin,9.34,CHCGILDTO6Y
MA6813400180,h_OCHCTP,10-L1-9,2019-02-05 22:15:00.0,PhaseCorrectionAve,-0.122,CHCGILDTO6Y
MA6813400180,h_OCHCTP,10-L1-9,2019-02-05 22:15:00.0,BerPreFecMax,0.00169,CHCGILDTO6Y
MA6813400180,h_OCHCTP,10-L1-9,2019-02-05 22:15:00.0,PmdMin,2.5,CHCGILDTO6Y
MA6813400180,h_OCHCTP,10-L1-9,2019-02-05 22:15:00.0,SoPmdAve,3191.91,CHCGILDTO6Y
MA6813400180,h_OCHCTP,10-L1-9,2019-02-05 22:30:00.0,Qmin,9.35,CHCGILDTO6Y
MA6813400180,h_OCHCTP,10-L1-9,2019-02-05 22:30:00.0,PhaseCorrectionAve,-0.306,CHCGILDTO6Y
MA6813400180,h_OCHCTP,10-L1-9,2019-02-05 22:30:00.0,BerPreFecMax,0.00167,CHCGILDTO6Y
MA6813400180,h_OCHCTP,10-L1-9,2019-02-05 22:30:00.0,PmdMin,3.45,CHCGILDTO6Y
MA6813400180,h_OCHCTP,10-L1-9,2019-02-05 22:30:00.0,SoPmdAve,3232.17,CHCGILDTO6Y
MA6813400180,h_OCHCTP,10-L1-9,2019-02-05 22:45:00.0,Qmin,9.35,CHCGILDTO6Y
MA6813400180,h_OCHCTP,10-L1-9,2019-02-05 22:45:00.0,PhaseCorrectionAve,-0.244,CHCGILDTO6Y
MA6813400180,h_OCHCTP,10-L1-9,2019-02-05 22:45:00.0,BerPreFecMax,0.00168,CHCGILDTO6Y
MA6813400180,h_OCHCTP,10-L1-9,2019-02-05 22:45:00.0,PmdMin,0.913,CHCGILDTO6Y
MA6813400180,h_OCHCTP,10-L1-9,2019-02-05 22:45:00.0,SoPmdAve,3167.59,CHCGILDTO6Y
MA6813400180,h_OCHCTP,10-L1-10,2019-02-05 22:15:00.0,Qmin,9.38,CHCGILDTO6Y
MA6813400180,h_OCHCTP,10-L1-10,2019-02-05 22:15:00.0,PhaseCorrectionAve,-0.122,CHCGILDTO6Y
MA6813400180,h_OCHCTP,10-L1-10,2019-02-05 22:15:00.0,BerPreFecMax,0.00163,CHCGILDTO6Y
MA6813400180,h_OCHCTP,10-L1-10,2019-02-05 22:15:00.0,PmdMin,4.72,CHCGILDTO6Y
MA6813400180,h_OCHCTP,10-L1-10,2019-02-05 22:15:00.0,SoPmdAve,3159.31,CHCGILDTO6Y
MA6813400180,h_OCHCTP,10-L1-10,2019-02-05 22:30:00.0,Qmin,9.38,CHCGILDTO6Y
MA6813400180,h_OCHCTP,10-L1-10,2019-02-05 22:30:00.0,PhaseCorrectionAve,-0.306,CHCGILDTO6Y
MA6813400180,h_OCHCTP,10-L1-10,2019-02-05 22:30:00.0,BerPreFecMax,0.00163,CHCGILDTO6Y
MA6813400180,h_OCHCTP,10-L1-10,2019-02-05 22:30:00.0,PmdMin,4.66,CHCGILDTO6Y
MA6813400180,h_OCHCTP,10-L1-10,2019-02-05 22:30:00.0,SoPmdAve,3192.77,CHCGILDTO6Y
MA6813400180,h_OCHCTP,10-L1-10,2019-02-05 22:45:00.0,Qmin,9.37,CHCGILDTO6Y
MA6813400180,h_OCHCTP,10-L1-10,2019-02-05 22:45:00.0,PhaseCorrectionAve,-0.244,CHCGILDTO6Y
MA6813400180,h_OCHCTP,10-L1-10,2019-02-05 22:45:00.0,BerPreFecMax,0.00164,CHCGILDTO6Y
MA6813400180,h_OCHCTP,10-L1-10,2019-02-05 22:45:00.0,PmdMin,8.29,CHCGILDTO6Y
MA6813400180,h_OCHCTP,10-L1-10,2019-02-05 22:45:00.0,SoPmdAve,3261.86,CHCGILDTO6Y
MA6813400180,h_OCHCTP,13-L1-1,2019-02-05 22:15:00.0,Qmin,9.05,CHCGILDTO6Y
MA6813400180,h_OCHCTP,13-L1-1,2019-02-05 22:15:00.0,PhaseCorrectionAve,3.2e-07,CHCGILDTO6Y
MA6813400180,h_OCHCTP,13-L1-1,2019-02-05 22:15:00.0,BerPreFecMax,0.0023,CHCGILDTO6Y
MA6813400180,h_OCHCTP,13-L1-1,2019-02-05 22:15:00.0,PmdMin,1.12,CHCGILDTO6Y
MA6813400180,h_OCHCTP,13-L1-1,2019-02-05 22:15:00.0,SoPmdAve,3581.46,CHCGILDTO6Y
MA6813400180,h_OCHCTP,13-L1-1,2019-02-05 22:30:00.0,Qmin,9.07,CHCGILDTO6Y
MA6813400180,h_OCHCTP,13-L1-1,2019-02-05 22:30:00.0,PhaseCorrectionAve,3.51e-07,CHCGILDTO6Y
MA6813400180,h_OCHCTP,13-L1-1,2019-02-05 22:30:00.0,BerPreFecMax,0.00225,CHCGILDTO6Y
MA6813400180,h_OCHCTP,13-L1-1,2019-02-05 22:30:00.0,PmdMin,0.399,CHCGILDTO6Y
MA6813400180,h_OCHCTP,13-L1-1,2019-02-05 22:30:00.0,SoPmdAve,3557.12,CHCGILDTO6Y
MA6813400180,h_OCHCTP,13-L1-1,2019-02-05 22:45:00.0,Qmin,9.03,CHCGILDTO6Y
MA6813400180,h_OCHCTP,13-L1-1,2019-02-05 22:45:00.0,PhaseCorrectionAve,3.35e-07,CHCGILDTO6Y
MA6813400180,h_OCHCTP,13-L1-1,2019-02-05 22:45:00.0,BerPreFecMax,0.00233,CHCGILDTO6Y
MA6813400180,h_OCHCTP,13-L1-1,2019-02-05 22:45:00.0,PmdMin,1.21,CHCGILDTO6Y
MA6813400180,h_OCHCTP,13-L1-1,2019-02-05 22:45:00.0,SoPmdAve,3583.41,CHCGILDTO6Y
MA6813400180,h_OCHCTP,13-L1-2,2019-02-05 22:15:00.0,Qmin,9.05,CHCGILDTO6Y
MA6813400180,h_OCHCTP,13-L1-2,2019-02-05 22:15:00.0,PhaseCorrectionAve,4.62e-07,CHCGILDTO6Y
MA6813400180,h_OCHCTP,13-L1-2,2019-02-05 22:15:00.0,BerPreFecMax,0.0023,CHCGILDTO6Y
MA6813400180,h_OCHCTP,13-L1-2,2019-02-05 22:15:00.0,PmdMin,0.253,CHCGILDTO6Y
MA6813400180,h_OCHCTP,13-L1-2,2019-02-05 22:15:00.0,SoPmdAve,3521.24,CHCGILDTO6Y
MA6813400180,h_OCHCTP,13-L1-2,2019-02-05 22:30:00.0,Qmin,9.02,CHCGILDTO6Y
MA6813400180,h_OCHCTP,13-L1-2,2019-02-05 22:30:00.0,PhaseCorrectionAve,-0.122,CHCGILDTO6Y
MA6813400180,h_OCHCTP,13-L1-2,2019-02-05 22:30:00.0,BerPreFecMax,0.00236,CHCGILDTO6Y
MA6813400180,h_OCHCTP,13-L1-2,2019-02-05 22:30:00.0,PmdMin,0.625,CHCGILDTO6Y
MA6813400180,h_OCHCTP,13-L1-2,2019-02-05 22:30:00.0,SoPmdAve,3467.88,CHCGILDTO6Y
MA6813400180,h_OCHCTP,13-L1-2,2019-02-05 22:45:00.0,Qmin,9.03,CHCGILDTO6Y
MA6813400180,h_OCHCTP,13-L1-2,2019-02-05 22:45:00.0,PhaseCorrectionAve,4.57e-07,CHCGILDTO6Y
MA6813400180,h_OCHCTP,13-L1-2,2019-02-05 22:45:00.0,BerPreFecMax,0.00235,CHCGILDTO6Y
MA6813400180,h_OCHCTP,13-L1-2,2019-02-05 22:45:00.0,PmdMin,0.84,CHCGILDTO6Y
MA6813400180,h_OCHCTP,13-L1-2,2019-02-05 22:45:00.0,SoPmdAve,3459.12,CHCGILDTO6Y
MA6813400180,h_OCHCTP,13-L1-3,2019-02-05 22:15:00.0,Qmin,8.85,CHCGILDTO6Y
MA6813400180,h_OCHCTP,13-L1-3,2019-02-05 22:15:00.0,PhaseCorrectionAve,6.18e-07,CHCGILDTO6Y
MA6813400180,h_OCHCTP,13-L1-3,2019-02-05 22:15:00.0,BerPreFecMax,0.00282,CHCGILDTO6Y
MA6813400180,h_OCHCTP,13-L1-3,2019-02-05 22:15:00.0,PmdMin,0.774,CHCGILDTO6Y
MA6813400180,h_OCHCTP,13-L1-3,2019-02-05 22:15:00.0,SoPmdAve,2849.61,CHCGILDTO6Y
MA6813400180,h_OCHCTP,13-L1-3,2019-02-05 22:30:00.0,Qmin,8.93,CHCGILDTO6Y
MA6813400180,h_OCHCTP,13-L1-3,2019-02-05 22:30:00.0,PhaseCorrectionAve,-0.122,CHCGILDTO6Y
MA6813400180,h_OCHCTP,13-L1-3,2019-02-05 22:30:00.0,BerPreFecMax,0.0026,CHCGILDTO6Y
MA6813400180,h_OCHCTP,13-L1-3,2019-02-05 22:30:00.0,PmdMin,1.4,CHCGILDTO6Y
MA6813400180,h_OCHCTP,13-L1-3,2019-02-05 22:30:00.0,SoPmdAve,2995.97,CHCGILDTO6Y
MA6813400180,h_OCHCTP,13-L1-3,2019-02-05 22:45:00.0,Qmin,8.89,CHCGILDTO6Y
MA6813400180,h_OCHCTP,13-L1-3,2019-02-05 22:45:00.0,PhaseCorrectionAve,-0.061,CHCGILDTO6Y
MA6813400180,h_OCHCTP,13-L1-3,2019-02-05 22:45:00.0,BerPreFecMax,0.0027,CHCGILDTO6Y
MA6813400180,h_OCHCTP,13-L1-3,2019-02-05 22:45:00.0,PmdMin,0.773,CHCGILDTO6Y
MA6813400180,h_OCHCTP,13-L1-3,2019-02-05 22:45:00.0,SoPmdAve,2907.98,CHCGILDTO6Y
MA6813400180,h_OCHCTP,13-L1-4,2019-02-05 22:15:00.0,Qmin,8.69,CHCGILDTO6Y
MA6813400180,h_OCHCTP,13-L1-4,2019-02-05 22:15:00.0,PhaseCorrectionAve,-0.061,CHCGILDTO6Y
MA6813400180,h_OCHCTP,13-L1-4,2019-02-05 22:15:00.0,BerPreFecMax,0.00326,CHCGILDTO6Y
MA6813400180,h_OCHCTP,13-L1-4,2019-02-05 22:15:00.0,PmdMin,1.55,CHCGILDTO6Y
MA6813400180,h_OCHCTP,13-L1-4,2019-02-05 22:15:00.0,SoPmdAve,3382.37,CHCGILDTO6Y
MA6813400180,h_OCHCTP,13-L1-4,2019-02-05 22:30:00.0,Qmin,8.69,CHCGILDTO6Y
MA6813400180,h_OCHCTP,13-L1-4,2019-02-05 22:30:00.0,PhaseCorrectionAve,-0.122,CHCGILDTO6Y
MA6813400180,h_OCHCTP,13-L1-4,2019-02-05 22:30:00.0,BerPreFecMax,0.00326,CHCGILDTO6Y
MA6813400180,h_OCHCTP,13-L1-4,2019-02-05 22:30:00.0,PmdMin,0.861,CHCGILDTO6Y
MA6813400180,h_OCHCTP,13-L1-4,2019-02-05 22:30:00.0,SoPmdAve,3365.0,CHCGILDTO6Y
MA6813400180,h_OCHCTP,13-L1-4,2019-02-05 22:45:00.0,Qmin,8.67,CHCGILDTO6Y
MA6813400180,h_OCHCTP,13-L1-4,2019-02-05 22:45:00.0,PhaseCorrectionAve,-0.061,CHCGILDTO6Y
MA6813400180,h_OCHCTP,13-L1-4,2019-02-05 22:45:00.0,BerPreFecMax,0.00332,CHCGILDTO6Y
MA6813400180,h_OCHCTP,13-L1-4,2019-02-05 22:45:00.0,PmdMin,0.56,CHCGILDTO6Y
MA6813400180,h_OCHCTP,13-L1-4,2019-02-05 22:45:00.0,SoPmdAve,3475.83,CHCGILDTO6Y
MA6813400180,h_OCHCTP,13-L1-5,2019-02-05 22:15:00.0,Qmin,8.72,CHCGILDTO6Y
MA6813400180,h_OCHCTP,13-L1-5,2019-02-05 22:15:00.0,PhaseCorrectionAve,-0.061,CHCGILDTO6Y
MA6813400180,h_OCHCTP,13-L1-5,2019-02-05 22:15:00.0,BerPreFecMax,0.00317,CHCGILDTO6Y
MA6813400180,h_OCHCTP,13-L1-5,2019-02-05 22:15:00.0,PmdMin,1.26,CHCGILDTO6Y
MA6813400180,h_OCHCTP,13-L1-5,2019-02-05 22:15:00.0,SoPmdAve,2822.76,CHCGILDTO6Y
MA6813400180,h_OCHCTP,13-L1-5,2019-02-05 22:30:00.0,Qmin,8.73,CHCGILDTO6Y
MA6813400180,h_OCHCTP,13-L1-5,2019-02-05 22:30:00.0,PhaseCorrectionAve,-0.244,CHCGILDTO6Y
MA6813400180,h_OCHCTP,13-L1-5,2019-02-05 22:30:00.0,BerPreFecMax,0.00316,CHCGILDTO6Y
MA6813400180,h_OCHCTP,13-L1-5,2019-02-05 22:30:00.0,PmdMin,0.672,CHCGILDTO6Y
MA6813400180,h_OCHCTP,13-L1-5,2019-02-05 22:30:00.0,SoPmdAve,2813.84,CHCGILDTO6Y
MA6813400180,h_OCHCTP,13-L1-5,2019-02-05 22:45:00.0,Qmin,8.63,CHCGILDTO6Y
MA6813400180,h_OCHCTP,13-L1-5,2019-02-05 22:45:00.0,PhaseCorrectionAve,-0.061,CHCGILDTO6Y
MA6813400180,h_OCHCTP,13-L1-5,2019-02-05 22:45:00.0,BerPreFecMax,0.00347,CHCGILDTO6Y
MA6813400180,h_OCHCTP,13-L1-5,2019-02-05 22:45:00.0,PmdMin,0.936,CHCGILDTO6Y
MA6813400180,h_OCHCTP,13-L1-5,2019-02-05 22:45:00.0,SoPmdAve,2894.35,CHCGILDTO6Y
MA6813400180,h_OCHCTP,13-L1-6,2019-02-05 22:15:00.0,Qmin,8.75,CHCGILDTO6Y
MA6813400180,h_OCHCTP,13-L1-6,2019-02-05 22:15:00.0,PhaseCorrectionAve,-0.061,CHCGILDTO6Y
MA6813400180,h_OCHCTP,13-L1-6,2019-02-05 22:15:00.0,BerPreFecMax,0.00308,CHCGILDTO6Y
MA6813400180,h_OCHCTP,13-L1-6,2019-02-05 22:15:00.0,PmdMin,1.28,CHCGILDTO6Y
MA6813400180,h_OCHCTP,13-L1-6,2019-02-05 22:15:00.0,SoPmdAve,3042.71,CHCGILDTO6Y
MA6813400180,h_OCHCTP,13-L1-6,2019-02-05 22:30:00.0,Qmin,8.76,CHCGILDTO6Y
MA6813400180,h_OCHCTP,13-L1-6,2019-02-05 22:30:00.0,PhaseCorrectionAve,-0.305,CHCGILDTO6Y
MA6813400180,h_OCHCTP,13-L1-6,2019-02-05 22:30:00.0,BerPreFecMax,0.00305,CHCGILDTO6Y
MA6813400180,h_OCHCTP,13-L1-6,2019-02-05 22:30:00.0,PmdMin,0.936,CHCGILDTO6Y
MA6813400180,h_OCHCTP,13-L1-6,2019-02-05 22:30:00.0,SoPmdAve,3020.81,CHCGILDTO6Y
MA6813400180,h_OCHCTP,13-L1-6,2019-02-05 22:45:00.0,Qmin,8.6,CHCGILDTO6Y
MA6813400180,h_OCHCTP,13-L1-6,2019-02-05 22:45:00.0,PhaseCorrectionAve,-0.061,CHCGILDTO6Y
MA6813400180,h_OCHCTP,13-L1-6,2019-02-05 22:45:00.0,BerPreFecMax,0.00357,CHCGILDTO6Y
MA6813400180,h_OCHCTP,13-L1-6,2019-02-05 22:45:00.0,PmdMin,1.13,CHCGILDTO6Y
MA6813400180,h_OCHCTP,13-L1-6,2019-02-05 22:45:00.0,SoPmdAve,2987.49,CHCGILDTO6Y
MA6813400180,h_OCHCTP,13-L1-7,2019-02-05 22:15:00.0,Qmin,8.77,CHCGILDTO6Y
MA6813400180,h_OCHCTP,13-L1-7,2019-02-05 22:15:00.0,PhaseCorrectionAve,-0.061,CHCGILDTO6Y
MA6813400180,h_OCHCTP,13-L1-7,2019-02-05 22:15:00.0,BerPreFecMax,0.00303,CHCGILDTO6Y
MA6813400180,h_OCHCTP,13-L1-7,2019-02-05 22:15:00.0,PmdMin,1.09,CHCGILDTO6Y
MA6813400180,h_OCHCTP,13-L1-7,2019-02-05 22:15:00.0,SoPmdAve,3747.18,CHCGILDTO6Y
MA6813400180,h_OCHCTP,13-L1-7,2019-02-05 22:30:00.0,Qmin,8.67,CHCGILDTO6Y
MA6813400180,h_OCHCTP,13-L1-7,2019-02-05 22:30:00.0,PhaseCorrectionAve,-0.305,CHCGILDTO6Y
MA6813400180,h_OCHCTP,13-L1-7,2019-02-05 22:30:00.0,BerPreFecMax,0.00332,CHCGILDTO6Y
MA6813400180,h_OCHCTP,13-L1-7,2019-02-05 22:30:00.0,PmdMin,1.06,CHCGILDTO6Y
MA6813400180,h_OCHCTP,13-L1-7,2019-02-05 22:30:00.0,SoPmdAve,3651.35,CHCGILDTO6Y
MA6813400180,h_OCHCTP,13-L1-7,2019-02-05 22:45:00.0,Qmin,8.69,CHCGILDTO6Y
MA6813400180,h_OCHCTP,13-L1-7,2019-02-05 22:45:00.0,PhaseCorrectionAve,-0.061,CHCGILDTO6Y
MA6813400180,h_OCHCTP,13-L1-7,2019-02-05 22:45:00.0,BerPreFecMax,0.00326,CHCGILDTO6Y
MA6813400180,h_OCHCTP,13-L1-7,2019-02-05 22:45:00.0,PmdMin,0.508,CHCGILDTO6Y
MA6813400180,h_OCHCTP,13-L1-7,2019-02-05 22:45:00.0,SoPmdAve,3823.01,CHCGILDTO6Y
MA6813400180,h_OCHCTP,13-L1-8,2019-02-05 22:15:00.0,Qmin,8.81,CHCGILDTO6Y
MA6813400180,h_OCHCTP,13-L1-8,2019-02-05 22:15:00.0,PhaseCorrectionAve,-0.061,CHCGILDTO6Y
MA6813400180,h_OCHCTP,13-L1-8,2019-02-05 22:15:00.0,BerPreFecMax,0.00293,CHCGILDTO6Y
MA6813400180,h_OCHCTP,13-L1-8,2019-02-05 22:15:00.0,PmdMin,1.03,CHCGILDTO6Y
MA6813400180,h_OCHCTP,13-L1-8,2019-02-05 22:15:00.0,SoPmdAve,3788.9,CHCGILDTO6Y
MA6813400180,h_OCHCTP,13-L1-8,2019-02-05 22:30:00.0,Qmin,8.78,CHCGILDTO6Y
MA6813400180,h_OCHCTP,13-L1-8,2019-02-05 22:30:00.0,PhaseCorrectionAve,-0.305,CHCGILDTO6Y
MA6813400180,h_OCHCTP,13-L1-8,2019-02-05 22:30:00.0,BerPreFecMax,0.003,CHCGILDTO6Y
MA6813400180,h_OCHCTP,13-L1-8,2019-02-05 22:30:00.0,PmdMin,0.861,CHCGILDTO6Y
MA6813400180,h_OCHCTP,13-L1-8,2019-02-05 22:30:00.0,SoPmdAve,3767.87,CHCGILDTO6Y
MA6813400180,h_OCHCTP,13-L1-8,2019-02-05 22:45:00.0,Qmin,8.78,CHCGILDTO6Y
MA6813400180,h_OCHCTP,13-L1-8,2019-02-05 22:45:00.0,PhaseCorrectionAve,-0.061,CHCGILDTO6Y
MA6813400180,h_OCHCTP,13-L1-8,2019-02-05 22:45:00.0,BerPreFecMax,0.00301,CHCGILDTO6Y
MA6813400180,h_OCHCTP,13-L1-8,2019-02-05 22:45:00.0,PmdMin,0.769,CHCGILDTO6Y
MA6813400180,h_OCHCTP,13-L1-8,2019-02-05 22:45:00.0,SoPmdAve,3836.99,CHCGILDTO6Y
MA6813400180,h_OCHCTP,13-L1-9,2019-02-05 22:15:00.0,Qmin,8.73,CHCGILDTO6Y
MA6813400180,h_OCHCTP,13-L1-9,2019-02-05 22:15:00.0,PhaseCorrectionAve,-0.122,CHCGILDTO6Y
MA6813400180,h_OCHCTP,13-L1-9,2019-02-05 22:15:00.0,BerPreFecMax,0.00316,CHCGILDTO6Y
MA6813400180,h_OCHCTP,13-L1-9,2019-02-05 22:15:00.0,PmdMin,1.49,CHCGILDTO6Y
MA6813400180,h_OCHCTP,13-L1-9,2019-02-05 22:15:00.0,SoPmdAve,3571.73,CHCGILDTO6Y
MA6813400180,h_OCHCTP,13-L1-9,2019-02-05 22:30:00.0,Qmin,8.73,CHCGILDTO6Y
MA6813400180,h_OCHCTP,13-L1-9,2019-02-05 22:30:00.0,PhaseCorrectionAve,-0.305,CHCGILDTO6Y
MA6813400180,h_OCHCTP,13-L1-9,2019-02-05 22:30:00.0,BerPreFecMax,0.00315,CHCGILDTO6Y
MA6813400180,h_OCHCTP,13-L1-9,2019-02-05 22:30:00.0,PmdMin,0.933,CHCGILDTO6Y
MA6813400180,h_OCHCTP,13-L1-9,2019-02-05 22:30:00.0,SoPmdAve,3601.13,CHCGILDTO6Y
MA6813400180,h_OCHCTP,13-L1-9,2019-02-05 22:45:00.0,Qmin,8.75,CHCGILDTO6Y
MA6813400180,h_OCHCTP,13-L1-9,2019-02-05 22:45:00.0,PhaseCorrectionAve,-0.061,CHCGILDTO6Y
MA6813400180,h_OCHCTP,13-L1-9,2019-02-05 22:45:00.0,BerPreFecMax,0.00308,CHCGILDTO6Y
MA6813400180,h_OCHCTP,13-L1-9,2019-02-05 22:45:00.0,PmdMin,0.817,CHCGILDTO6Y
MA6813400180,h_OCHCTP,13-L1-9,2019-02-05 22:45:00.0,SoPmdAve,3558.3,CHCGILDTO6Y
MA6813400180,h_OCHCTP,13-L1-10,2019-02-05 22:15:00.0,Qmin,8.62,CHCGILDTO6Y
MA6813400180,h_OCHCTP,13-L1-10,2019-02-05 22:15:00.0,PhaseCorrectionAve,-0.122,CHCGILDTO6Y
MA6813400180,h_OCHCTP,13-L1-10,2019-02-05 22:15:00.0,BerPreFecMax,0.00348,CHCGILDTO6Y
MA6813400180,h_OCHCTP,13-L1-10,2019-02-05 22:15:00.0,PmdMin,0.999,CHCGILDTO6Y
MA6813400180,h_OCHCTP,13-L1-10,2019-02-05 22:15:00.0,SoPmdAve,3901.73,CHCGILDTO6Y
MA6813400180,h_OCHCTP,13-L1-10,2019-02-05 22:30:00.0,Qmin,8.56,CHCGILDTO6Y
MA6813400180,h_OCHCTP,13-L1-10,2019-02-05 22:30:00.0,PhaseCorrectionAve,-0.366,CHCGILDTO6Y
MA6813400180,h_OCHCTP,13-L1-10,2019-02-05 22:30:00.0,BerPreFecMax,0.00369,CHCGILDTO6Y
MA6813400180,h_OCHCTP,13-L1-10,2019-02-05 22:30:00.0,PmdMin,0.997,CHCGILDTO6Y
MA6813400180,h_OCHCTP,13-L1-10,2019-02-05 22:30:00.0,SoPmdAve,3957.59,CHCGILDTO6Y
MA6813400180,h_OCHCTP,13-L1-10,2019-02-05 22:45:00.0,Qmin,8.56,CHCGILDTO6Y
MA6813400180,h_OCHCTP,13-L1-10,2019-02-05 22:45:00.0,PhaseCorrectionAve,-0.061,CHCGILDTO6Y
MA6813400180,h_OCHCTP,13-L1-10,2019-02-05 22:45:00.0,BerPreFecMax,0.00368,CHCGILDTO6Y
MA6813400180,h_OCHCTP,13-L1-10,2019-02-05 22:45:00.0,PmdMin,1.44,CHCGILDTO6Y
MA6813400180,h_OCHCTP,13-L1-10,2019-02-05 22:45:00.0,SoPmdAve,3856.6,CHCGILDTO6Y
