MA6813400180,h_OCHCTP,11-L1-1,2019-02-02 01:15:00.0,Qmin,9.18,CHCGILDTO6Y
MA6813400180,h_OCHCTP,11-L1-1,2019-02-02 01:15:00.0,PhaseCorrectionAve,1.03e-07,CHCGILDTO6Y
MA6813400180,h_OCHCTP,11-L1-1,2019-02-02 01:15:00.0,BerPreFecMax,0.002,CHCGILDTO6Y
MA6813400180,h_OCHCTP,11-L1-1,2019-02-02 01:15:00.0,PmdMin,0.784,CHCGILDTO6Y
MA6813400180,h_OCHCTP,11-L1-1,2019-02-02 01:15:00.0,SoPmdAve,3394.69,CHCGILDTO6Y
MA6813400180,h_OCHCTP,11-L1-1,2019-02-02 01:30:00.0,Qmin,9.15,CHCGILDTO6Y
MA6813400180,h_OCHCTP,11-L1-1,2019-02-02 01:30:00.0,PhaseCorrectionAve,1.1e-07,CHCGILDTO6Y
MA6813400180,h_OCHCTP,11-L1-1,2019-02-02 01:30:00.0,BerPreFecMax,0.00206,CHCGILDTO6Y
MA6813400180,h_OCHCTP,11-L1-1,2019-02-02 01:30:00.0,PmdMin,0.389,CHCGILDTO6Y
MA6813400180,h_OCHCTP,11-L1-1,2019-02-02 01:30:00.0,SoPmdAve,3354.73,CHCGILDTO6Y
MA6813400180,h_OCHCTP,11-L1-1,2019-02-02 01:45:00.0,Qmin,9.16,CHCGILDTO6Y
MA6813400180,h_OCHCTP,11-L1-1,2019-02-02 01:45:00.0,PhaseCorrectionAve,-0.0609,CHCGILDTO6Y
MA6813400180,h_OCHCTP,11-L1-1,2019-02-02 01:45:00.0,BerPreFecMax,0.00205,CHCGILDTO6Y
MA6813400180,h_OCHCTP,11-L1-1,2019-02-02 01:45:00.0,PmdMin,0.71,CHCGILDTO6Y
MA6813400180,h_OCHCTP,11-L1-1,2019-02-02 01:45:00.0,SoPmdAve,3411.37,CHCGILDTO6Y
MA6813400180,h_OCHCTP,11-L1-2,2019-02-02 01:15:00.0,Qmin,9.07,CHCGILDTO6Y
MA6813400180,h_OCHCTP,11-L1-2,2019-02-02 01:15:00.0,PhaseCorrectionAve,2.98e-07,CHCGILDTO6Y
MA6813400180,h_OCHCTP,11-L1-2,2019-02-02 01:15:00.0,BerPreFecMax,0.00225,CHCGILDTO6Y
MA6813400180,h_OCHCTP,11-L1-2,2019-02-02 01:15:00.0,PmdMin,0.98,CHCGILDTO6Y
MA6813400180,h_OCHCTP,11-L1-2,2019-02-02 01:15:00.0,SoPmdAve,3162.75,CHCGILDTO6Y
MA6813400180,h_OCHCTP,11-L1-2,2019-02-02 01:30:00.0,Qmin,9.05,CHCGILDTO6Y
MA6813400180,h_OCHCTP,11-L1-2,2019-02-02 01:30:00.0,PhaseCorrectionAve,3.49e-07,CHCGILDTO6Y
MA6813400180,h_OCHCTP,11-L1-2,2019-02-02 01:30:00.0,BerPreFecMax,0.00229,CHCGILDTO6Y
MA6813400180,h_OCHCTP,11-L1-2,2019-02-02 01:30:00.0,PmdMin,1.06,CHCGILDTO6Y
MA6813400180,h_OCHCTP,11-L1-2,2019-02-02 01:30:00.0,SoPmdAve,3173.86,CHCGILDTO6Y
MA6813400180,h_OCHCTP,11-L1-2,2019-02-02 01:45:00.0,Qmin,9.06,CHCGILDTO6Y
MA6813400180,h_OCHCTP,11-L1-2,2019-02-02 01:45:00.0,PhaseCorrectionAve,-0.0609,CHCGILDTO6Y
MA6813400180,h_OCHCTP,11-L1-2,2019-02-02 01:45:00.0,BerPreFecMax,0.00226,CHCGILDTO6Y
MA6813400180,h_OCHCTP,11-L1-2,2019-02-02 01:45:00.0,PmdMin,1.48,CHCGILDTO6Y
MA6813400180,h_OCHCTP,11-L1-2,2019-02-02 01:45:00.0,SoPmdAve,3139.59,CHCGILDTO6Y
MA6813400180,h_OCHCTP,11-L1-3,2019-02-02 01:15:00.0,Qmin,8.89,CHCGILDTO6Y
MA6813400180,h_OCHCTP,11-L1-3,2019-02-02 01:15:00.0,PhaseCorrectionAve,3.54e-07,CHCGILDTO6Y
MA6813400180,h_OCHCTP,11-L1-3,2019-02-02 01:15:00.0,BerPreFecMax,0.00269,CHCGILDTO6Y
MA6813400180,h_OCHCTP,11-L1-3,2019-02-02 01:15:00.0,PmdMin,0.544,CHCGILDTO6Y
MA6813400180,h_OCHCTP,11-L1-3,2019-02-02 01:15:00.0,SoPmdAve,2768.41,CHCGILDTO6Y
MA6813400180,h_OCHCTP,11-L1-3,2019-02-02 01:30:00.0,Qmin,8.89,CHCGILDTO6Y
MA6813400180,h_OCHCTP,11-L1-3,2019-02-02 01:30:00.0,PhaseCorrectionAve,4.57e-07,CHCGILDTO6Y
MA6813400180,h_OCHCTP,11-L1-3,2019-02-02 01:30:00.0,BerPreFecMax,0.00269,CHCGILDTO6Y
MA6813400180,h_OCHCTP,11-L1-3,2019-02-02 01:30:00.0,PmdMin,0.778,CHCGILDTO6Y
MA6813400180,h_OCHCTP,11-L1-3,2019-02-02 01:30:00.0,SoPmdAve,2797.51,CHCGILDTO6Y
MA6813400180,h_OCHCTP,11-L1-3,2019-02-02 01:45:00.0,Qmin,8.99,CHCGILDTO6Y
MA6813400180,h_OCHCTP,11-L1-3,2019-02-02 01:45:00.0,PhaseCorrectionAve,-0.0609,CHCGILDTO6Y
MA6813400180,h_OCHCTP,11-L1-3,2019-02-02 01:45:00.0,BerPreFecMax,0.00244,CHCGILDTO6Y
MA6813400180,h_OCHCTP,11-L1-3,2019-02-02 01:45:00.0,PmdMin,0.81,CHCGILDTO6Y
MA6813400180,h_OCHCTP,11-L1-3,2019-02-02 01:45:00.0,SoPmdAve,2787.25,CHCGILDTO6Y
MA6813400180,h_OCHCTP,11-L1-4,2019-02-02 01:15:00.0,Qmin,8.82,CHCGILDTO6Y
MA6813400180,h_OCHCTP,11-L1-4,2019-02-02 01:15:00.0,PhaseCorrectionAve,3.34e-07,CHCGILDTO6Y
MA6813400180,h_OCHCTP,11-L1-4,2019-02-02 01:15:00.0,BerPreFecMax,0.00287,CHCGILDTO6Y
MA6813400180,h_OCHCTP,11-L1-4,2019-02-02 01:15:00.0,PmdMin,0.843,CHCGILDTO6Y
MA6813400180,h_OCHCTP,11-L1-4,2019-02-02 01:15:00.0,SoPmdAve,2972.21,CHCGILDTO6Y
MA6813400180,h_OCHCTP,11-L1-4,2019-02-02 01:30:00.0,Qmin,8.72,CHCGILDTO6Y
MA6813400180,h_OCHCTP,11-L1-4,2019-02-02 01:30:00.0,PhaseCorrectionAve,3.72e-07,CHCGILDTO6Y
MA6813400180,h_OCHCTP,11-L1-4,2019-02-02 01:30:00.0,BerPreFecMax,0.00318,CHCGILDTO6Y
MA6813400180,h_OCHCTP,11-L1-4,2019-02-02 01:30:00.0,PmdMin,0.492,CHCGILDTO6Y
MA6813400180,h_OCHCTP,11-L1-4,2019-02-02 01:30:00.0,SoPmdAve,2915.82,CHCGILDTO6Y
MA6813400180,h_OCHCTP,11-L1-4,2019-02-02 01:45:00.0,Qmin,8.83,CHCGILDTO6Y
MA6813400180,h_OCHCTP,11-L1-4,2019-02-02 01:45:00.0,PhaseCorrectionAve,-0.122,CHCGILDTO6Y
MA6813400180,h_OCHCTP,11-L1-4,2019-02-02 01:45:00.0,BerPreFecMax,0.00286,CHCGILDTO6Y
MA6813400180,h_OCHCTP,11-L1-4,2019-02-02 01:45:00.0,PmdMin,1.08,CHCGILDTO6Y
MA6813400180,h_OCHCTP,11-L1-4,2019-02-02 01:45:00.0,SoPmdAve,2902.2,CHCGILDTO6Y
MA6813400180,h_OCHCTP,11-L1-5,2019-02-02 01:15:00.0,Qmin,8.88,CHCGILDTO6Y
MA6813400180,h_OCHCTP,11-L1-5,2019-02-02 01:15:00.0,PhaseCorrectionAve,-0.0611,CHCGILDTO6Y
MA6813400180,h_OCHCTP,11-L1-5,2019-02-02 01:15:00.0,BerPreFecMax,0.00271,CHCGILDTO6Y
MA6813400180,h_OCHCTP,11-L1-5,2019-02-02 01:15:00.0,PmdMin,0.501,CHCGILDTO6Y
MA6813400180,h_OCHCTP,11-L1-5,2019-02-02 01:15:00.0,SoPmdAve,2505.49,CHCGILDTO6Y
MA6813400180,h_OCHCTP,11-L1-5,2019-02-02 01:30:00.0,Qmin,8.93,CHCGILDTO6Y
MA6813400180,h_OCHCTP,11-L1-5,2019-02-02 01:30:00.0,PhaseCorrectionAve,1.3e-07,CHCGILDTO6Y
MA6813400180,h_OCHCTP,11-L1-5,2019-02-02 01:30:00.0,BerPreFecMax,0.00259,CHCGILDTO6Y
MA6813400180,h_OCHCTP,11-L1-5,2019-02-02 01:30:00.0,PmdMin,1.07,CHCGILDTO6Y
MA6813400180,h_OCHCTP,11-L1-5,2019-02-02 01:30:00.0,SoPmdAve,2556.58,CHCGILDTO6Y
MA6813400180,h_OCHCTP,11-L1-5,2019-02-02 01:45:00.0,Qmin,8.91,CHCGILDTO6Y
MA6813400180,h_OCHCTP,11-L1-5,2019-02-02 01:45:00.0,PhaseCorrectionAve,-0.122,CHCGILDTO6Y
MA6813400180,h_OCHCTP,11-L1-5,2019-02-02 01:45:00.0,BerPreFecMax,0.00263,CHCGILDTO6Y
MA6813400180,h_OCHCTP,11-L1-5,2019-02-02 01:45:00.0,PmdMin,0.981,CHCGILDTO6Y
MA6813400180,h_OCHCTP,11-L1-5,2019-02-02 01:45:00.0,SoPmdAve,2537.98,CHCGILDTO6Y
MA6813400180,h_OCHCTP,11-L1-6,2019-02-02 01:15:00.0,Qmin,8.74,CHCGILDTO6Y
MA6813400180,h_OCHCTP,11-L1-6,2019-02-02 01:15:00.0,PhaseCorrectionAve,-0.0611,CHCGILDTO6Y
MA6813400180,h_OCHCTP,11-L1-6,2019-02-02 01:15:00.0,BerPreFecMax,0.0031,CHCGILDTO6Y
MA6813400180,h_OCHCTP,11-L1-6,2019-02-02 01:15:00.0,PmdMin,0.887,CHCGILDTO6Y
MA6813400180,h_OCHCTP,11-L1-6,2019-02-02 01:15:00.0,SoPmdAve,2540.54,CHCGILDTO6Y
MA6813400180,h_OCHCTP,11-L1-6,2019-02-02 01:30:00.0,Qmin,8.75,CHCGILDTO6Y
MA6813400180,h_OCHCTP,11-L1-6,2019-02-02 01:30:00.0,PhaseCorrectionAve,-0.061,CHCGILDTO6Y
MA6813400180,h_OCHCTP,11-L1-6,2019-02-02 01:30:00.0,BerPreFecMax,0.00309,CHCGILDTO6Y
MA6813400180,h_OCHCTP,11-L1-6,2019-02-02 01:30:00.0,PmdMin,1.18,CHCGILDTO6Y
MA6813400180,h_OCHCTP,11-L1-6,2019-02-02 01:30:00.0,SoPmdAve,2444.52,CHCGILDTO6Y
MA6813400180,h_OCHCTP,11-L1-6,2019-02-02 01:45:00.0,Qmin,8.83,CHCGILDTO6Y
MA6813400180,h_OCHCTP,11-L1-6,2019-02-02 01:45:00.0,PhaseCorrectionAve,-0.122,CHCGILDTO6Y
MA6813400180,h_OCHCTP,11-L1-6,2019-02-02 01:45:00.0,BerPreFecMax,0.00286,CHCGILDTO6Y
MA6813400180,h_OCHCTP,11-L1-6,2019-02-02 01:45:00.0,PmdMin,0.23,CHCGILDTO6Y
MA6813400180,h_OCHCTP,11-L1-6,2019-02-02 01:45:00.0,SoPmdAve,2466.31,CHCGILDTO6Y
MA6813400180,h_OCHCTP,11-L1-7,2019-02-02 01:15:00.0,Qmin,8.99,CHCGILDTO6Y
MA6813400180,h_OCHCTP,11-L1-7,2019-02-02 01:15:00.0,PhaseCorrectionAve,-0.0611,CHCGILDTO6Y
MA6813400180,h_OCHCTP,11-L1-7,2019-02-02 01:15:00.0,BerPreFecMax,0.00244,CHCGILDTO6Y
MA6813400180,h_OCHCTP,11-L1-7,2019-02-02 01:15:00.0,PmdMin,1.16,CHCGILDTO6Y
MA6813400180,h_OCHCTP,11-L1-7,2019-02-02 01:15:00.0,SoPmdAve,3007.41,CHCGILDTO6Y
MA6813400180,h_OCHCTP,11-L1-7,2019-02-02 01:30:00.0,Qmin,8.94,CHCGILDTO6Y
MA6813400180,h_OCHCTP,11-L1-7,2019-02-02 01:30:00.0,PhaseCorrectionAve,-0.061,CHCGILDTO6Y
MA6813400180,h_OCHCTP,11-L1-7,2019-02-02 01:30:00.0,BerPreFecMax,0.00255,CHCGILDTO6Y
MA6813400180,h_OCHCTP,11-L1-7,2019-02-02 01:30:00.0,PmdMin,1.16,CHCGILDTO6Y
MA6813400180,h_OCHCTP,11-L1-7,2019-02-02 01:30:00.0,SoPmdAve,2977.92,CHCGILDTO6Y
MA6813400180,h_OCHCTP,11-L1-7,2019-02-02 01:45:00.0,Qmin,8.86,CHCGILDTO6Y
MA6813400180,h_OCHCTP,11-L1-7,2019-02-02 01:45:00.0,PhaseCorrectionAve,-0.122,CHCGILDTO6Y
MA6813400180,h_OCHCTP,11-L1-7,2019-02-02 01:45:00.0,BerPreFecMax,0.00277,CHCGILDTO6Y
MA6813400180,h_OCHCTP,11-L1-7,2019-02-02 01:45:00.0,PmdMin,1.36,CHCGILDTO6Y
MA6813400180,h_OCHCTP,11-L1-7,2019-02-02 01:45:00.0,SoPmdAve,2948.12,CHCGILDTO6Y
MA6813400180,h_OCHCTP,11-L1-8,2019-02-02 01:15:00.0,Qmin,9.01,CHCGILDTO6Y
MA6813400180,h_OCHCTP,11-L1-8,2019-02-02 01:15:00.0,PhaseCorrectionAve,-0.0611,CHCGILDTO6Y
MA6813400180,h_OCHCTP,11-L1-8,2019-02-02 01:15:00.0,BerPreFecMax,0.0024,CHCGILDTO6Y
MA6813400180,h_OCHCTP,11-L1-8,2019-02-02 01:15:00.0,PmdMin,1.25,CHCGILDTO6Y
MA6813400180,h_OCHCTP,11-L1-8,2019-02-02 01:15:00.0,SoPmdAve,3105.16,CHCGILDTO6Y
MA6813400180,h_OCHCTP,11-L1-8,2019-02-02 01:30:00.0,Qmin,9.01,CHCGILDTO6Y
MA6813400180,h_OCHCTP,11-L1-8,2019-02-02 01:30:00.0,PhaseCorrectionAve,-0.122,CHCGILDTO6Y
MA6813400180,h_OCHCTP,11-L1-8,2019-02-02 01:30:00.0,BerPreFecMax,0.00238,CHCGILDTO6Y
MA6813400180,h_OCHCTP,11-L1-8,2019-02-02 01:30:00.0,PmdMin,1.11,CHCGILDTO6Y
MA6813400180,h_OCHCTP,11-L1-8,2019-02-02 01:30:00.0,SoPmdAve,3029.37,CHCGILDTO6Y
MA6813400180,h_OCHCTP,11-L1-8,2019-02-02 01:45:00.0,Qmin,8.99,CHCGILDTO6Y
MA6813400180,h_OCHCTP,11-L1-8,2019-02-02 01:45:00.0,PhaseCorrectionAve,-0.183,CHCGILDTO6Y
MA6813400180,h_OCHCTP,11-L1-8,2019-02-02 01:45:00.0,BerPreFecMax,0.00244,CHCGILDTO6Y
MA6813400180,h_OCHCTP,11-L1-8,2019-02-02 01:45:00.0,PmdMin,1.18,CHCGILDTO6Y
MA6813400180,h_OCHCTP,11-L1-8,2019-02-02 01:45:00.0,SoPmdAve,3098.84,CHCGILDTO6Y
MA6813400180,h_OCHCTP,11-L1-9,2019-02-02 01:15:00.0,Qmin,8.86,CHCGILDTO6Y
MA6813400180,h_OCHCTP,11-L1-9,2019-02-02 01:15:00.0,PhaseCorrectionAve,-0.0611,CHCGILDTO6Y
MA6813400180,h_OCHCTP,11-L1-9,2019-02-02 01:15:00.0,BerPreFecMax,0.00278,CHCGILDTO6Y
MA6813400180,h_OCHCTP,11-L1-9,2019-02-02 01:15:00.0,PmdMin,0.437,CHCGILDTO6Y
MA6813400180,h_OCHCTP,11-L1-9,2019-02-02 01:15:00.0,SoPmdAve,2986.7,CHCGILDTO6Y
MA6813400180,h_OCHCTP,11-L1-9,2019-02-02 01:30:00.0,Qmin,8.9,CHCGILDTO6Y
MA6813400180,h_OCHCTP,11-L1-9,2019-02-02 01:30:00.0,PhaseCorrectionAve,-0.122,CHCGILDTO6Y
MA6813400180,h_OCHCTP,11-L1-9,2019-02-02 01:30:00.0,BerPreFecMax,0.00266,CHCGILDTO6Y
MA6813400180,h_OCHCTP,11-L1-9,2019-02-02 01:30:00.0,PmdMin,0.935,CHCGILDTO6Y
MA6813400180,h_OCHCTP,11-L1-9,2019-02-02 01:30:00.0,SoPmdAve,2990.62,CHCGILDTO6Y
MA6813400180,h_OCHCTP,11-L1-9,2019-02-02 01:45:00.0,Qmin,8.9,CHCGILDTO6Y
MA6813400180,h_OCHCTP,11-L1-9,2019-02-02 01:45:00.0,PhaseCorrectionAve,-0.183,CHCGILDTO6Y
MA6813400180,h_OCHCTP,11-L1-9,2019-02-02 01:45:00.0,BerPreFecMax,0.00265,CHCGILDTO6Y
MA6813400180,h_OCHCTP,11-L1-9,2019-02-02 01:45:00.0,PmdMin,1.31,CHCGILDTO6Y
MA6813400180,h_OCHCTP,11-L1-9,2019-02-02 01:45:00.0,SoPmdAve,2946.85,CHCGILDTO6Y
MA6813400180,h_OCHCTP,11-L1-10,2019-02-02 01:15:00.0,Qmin,8.98,CHCGILDTO6Y
MA6813400180,h_OCHCTP,11-L1-10,2019-02-02 01:15:00.0,PhaseCorrectionAve,-0.122,CHCGILDTO6Y
MA6813400180,h_OCHCTP,11-L1-10,2019-02-02 01:15:00.0,BerPreFecMax,0.00245,CHCGILDTO6Y
MA6813400180,h_OCHCTP,11-L1-10,2019-02-02 01:15:00.0,PmdMin,0.808,CHCGILDTO6Y
MA6813400180,h_OCHCTP,11-L1-10,2019-02-02 01:15:00.0,SoPmdAve,3085.86,CHCGILDTO6Y
MA6813400180,h_OCHCTP,11-L1-10,2019-02-02 01:30:00.0,Qmin,8.92,CHCGILDTO6Y
MA6813400180,h_OCHCTP,11-L1-10,2019-02-02 01:30:00.0,PhaseCorrectionAve,-0.122,CHCGILDTO6Y
MA6813400180,h_OCHCTP,11-L1-10,2019-02-02 01:30:00.0,BerPreFecMax,0.0026,CHCGILDTO6Y
MA6813400180,h_OCHCTP,11-L1-10,2019-02-02 01:30:00.0,PmdMin,0.155,CHCGILDTO6Y
MA6813400180,h_OCHCTP,11-L1-10,2019-02-02 01:30:00.0,SoPmdAve,3063.79,CHCGILDTO6Y
MA6813400180,h_OCHCTP,11-L1-10,2019-02-02 01:45:00.0,Qmin,8.93,CHCGILDTO6Y
MA6813400180,h_OCHCTP,11-L1-10,2019-02-02 01:45:00.0,PhaseCorrectionAve,-0.244,CHCGILDTO6Y
MA6813400180,h_OCHCTP,11-L1-10,2019-02-02 01:45:00.0,BerPreFecMax,0.00258,CHCGILDTO6Y
MA6813400180,h_OCHCTP,11-L1-10,2019-02-02 01:45:00.0,PmdMin,0.364,CHCGILDTO6Y
MA6813400180,h_OCHCTP,11-L1-10,2019-02-02 01:45:00.0,SoPmdAve,3117.61,CHCGILDTO6Y
MA6813400180,h_OCHCTP,10-L1-1,2019-02-02 01:15:00.0,Qmin,9.45,CHCGILDTO6Y
MA6813400180,h_OCHCTP,10-L1-1,2019-02-02 01:15:00.0,PhaseCorrectionAve,3.56e-07,CHCGILDTO6Y
MA6813400180,h_OCHCTP,10-L1-1,2019-02-02 01:15:00.0,BerPreFecMax,0.00149,CHCGILDTO6Y
MA6813400180,h_OCHCTP,10-L1-1,2019-02-02 01:15:00.0,PmdMin,0.84,CHCGILDTO6Y
MA6813400180,h_OCHCTP,10-L1-1,2019-02-02 01:15:00.0,SoPmdAve,3545.95,CHCGILDTO6Y
MA6813400180,h_OCHCTP,10-L1-1,2019-02-02 01:30:00.0,Qmin,9.47,CHCGILDTO6Y
MA6813400180,h_OCHCTP,10-L1-1,2019-02-02 01:30:00.0,PhaseCorrectionAve,3.53e-07,CHCGILDTO6Y
MA6813400180,h_OCHCTP,10-L1-1,2019-02-02 01:30:00.0,BerPreFecMax,0.00147,CHCGILDTO6Y
MA6813400180,h_OCHCTP,10-L1-1,2019-02-02 01:30:00.0,PmdMin,1.38,CHCGILDTO6Y
MA6813400180,h_OCHCTP,10-L1-1,2019-02-02 01:30:00.0,SoPmdAve,3669.95,CHCGILDTO6Y
MA6813400180,h_OCHCTP,10-L1-1,2019-02-02 01:45:00.0,Qmin,9.47,CHCGILDTO6Y
MA6813400180,h_OCHCTP,10-L1-1,2019-02-02 01:45:00.0,PhaseCorrectionAve,3.6e-07,CHCGILDTO6Y
MA6813400180,h_OCHCTP,10-L1-1,2019-02-02 01:45:00.0,BerPreFecMax,0.00146,CHCGILDTO6Y
MA6813400180,h_OCHCTP,10-L1-1,2019-02-02 01:45:00.0,PmdMin,1.67,CHCGILDTO6Y
MA6813400180,h_OCHCTP,10-L1-1,2019-02-02 01:45:00.0,SoPmdAve,3626.7,CHCGILDTO6Y
MA6813400180,h_OCHCTP,10-L1-2,2019-02-02 01:15:00.0,Qmin,9.16,CHCGILDTO6Y
MA6813400180,h_OCHCTP,10-L1-2,2019-02-02 01:15:00.0,PhaseCorrectionAve,3.02e-07,CHCGILDTO6Y
MA6813400180,h_OCHCTP,10-L1-2,2019-02-02 01:15:00.0,BerPreFecMax,0.00204,CHCGILDTO6Y
MA6813400180,h_OCHCTP,10-L1-2,2019-02-02 01:15:00.0,PmdMin,2.66,CHCGILDTO6Y
MA6813400180,h_OCHCTP,10-L1-2,2019-02-02 01:15:00.0,SoPmdAve,3473.48,CHCGILDTO6Y
MA6813400180,h_OCHCTP,10-L1-2,2019-02-02 01:30:00.0,Qmin,9.16,CHCGILDTO6Y
MA6813400180,h_OCHCTP,10-L1-2,2019-02-02 01:30:00.0,PhaseCorrectionAve,-0.061,CHCGILDTO6Y
MA6813400180,h_OCHCTP,10-L1-2,2019-02-02 01:30:00.0,BerPreFecMax,0.00204,CHCGILDTO6Y
MA6813400180,h_OCHCTP,10-L1-2,2019-02-02 01:30:00.0,PmdMin,1.58,CHCGILDTO6Y
MA6813400180,h_OCHCTP,10-L1-2,2019-02-02 01:30:00.0,SoPmdAve,3319.6,CHCGILDTO6Y
MA6813400180,h_OCHCTP,10-L1-2,2019-02-02 01:45:00.0,Qmin,9.17,CHCGILDTO6Y
MA6813400180,h_OCHCTP,10-L1-2,2019-02-02 01:45:00.0,PhaseCorrectionAve,3.04e-07,CHCGILDTO6Y
MA6813400180,h_OCHCTP,10-L1-2,2019-02-02 01:45:00.0,BerPreFecMax,0.00202,CHCGILDTO6Y
MA6813400180,h_OCHCTP,10-L1-2,2019-02-02 01:45:00.0,PmdMin,2.02,CHCGILDTO6Y
MA6813400180,h_OCHCTP,10-L1-2,2019-02-02 01:45:00.0,SoPmdAve,3487.29,CHCGILDTO6Y
MA6813400180,h_OCHCTP,10-L1-3,2019-02-02 01:15:00.0,Qmin,8.89,CHCGILDTO6Y
MA6813400180,h_OCHCTP,10-L1-3,2019-02-02 01:15:00.0,PhaseCorrectionAve,-0.061,CHCGILDTO6Y
MA6813400180,h_OCHCTP,10-L1-3,2019-02-02 01:15:00.0,BerPreFecMax,0.0027,CHCGILDTO6Y
MA6813400180,h_OCHCTP,10-L1-3,2019-02-02 01:15:00.0,PmdMin,4.09,CHCGILDTO6Y
MA6813400180,h_OCHCTP,10-L1-3,2019-02-02 01:15:00.0,SoPmdAve,2926.92,CHCGILDTO6Y
MA6813400180,h_OCHCTP,10-L1-3,2019-02-02 01:30:00.0,Qmin,8.89,CHCGILDTO6Y
MA6813400180,h_OCHCTP,10-L1-3,2019-02-02 01:30:00.0,PhaseCorrectionAve,-0.061,CHCGILDTO6Y
MA6813400180,h_OCHCTP,10-L1-3,2019-02-02 01:30:00.0,BerPreFecMax,0.0027,CHCGILDTO6Y
MA6813400180,h_OCHCTP,10-L1-3,2019-02-02 01:30:00.0,PmdMin,4.77,CHCGILDTO6Y
MA6813400180,h_OCHCTP,10-L1-3,2019-02-02 01:30:00.0,SoPmdAve,2924.91,CHCGILDTO6Y
MA6813400180,h_OCHCTP,10-L1-3,2019-02-02 01:45:00.0,Qmin,8.89,CHCGILDTO6Y
MA6813400180,h_OCHCTP,10-L1-3,2019-02-02 01:45:00.0,PhaseCorrectionAve,5.37e-07,CHCGILDTO6Y
MA6813400180,h_OCHCTP,10-L1-3,2019-02-02 01:45:00.0,BerPreFecMax,0.00268,CHCGILDTO6Y
MA6813400180,h_OCHCTP,10-L1-3,2019-02-02 01:45:00.0,PmdMin,2.06,CHCGILDTO6Y
MA6813400180,h_OCHCTP,10-L1-3,2019-02-02 01:45:00.0,SoPmdAve,2865.66,CHCGILDTO6Y
MA6813400180,h_OCHCTP,10-L1-4,2019-02-02 01:15:00.0,Qmin,8.27,CHCGILDTO6Y
MA6813400180,h_OCHCTP,10-L1-4,2019-02-02 01:15:00.0,PhaseCorrectionAve,-0.061,CHCGILDTO6Y
MA6813400180,h_OCHCTP,10-L1-4,2019-02-02 01:15:00.0,BerPreFecMax,0.00477,CHCGILDTO6Y
MA6813400180,h_OCHCTP,10-L1-4,2019-02-02 01:15:00.0,PmdMin,1.69,CHCGILDTO6Y
MA6813400180,h_OCHCTP,10-L1-4,2019-02-02 01:15:00.0,SoPmdAve,3088.21,CHCGILDTO6Y
MA6813400180,h_OCHCTP,10-L1-4,2019-02-02 01:30:00.0,Qmin,8.28,CHCGILDTO6Y
MA6813400180,h_OCHCTP,10-L1-4,2019-02-02 01:30:00.0,PhaseCorrectionAve,-0.061,CHCGILDTO6Y
MA6813400180,h_OCHCTP,10-L1-4,2019-02-02 01:30:00.0,BerPreFecMax,0.00473,CHCGILDTO6Y
MA6813400180,h_OCHCTP,10-L1-4,2019-02-02 01:30:00.0,PmdMin,0.931,CHCGILDTO6Y
MA6813400180,h_OCHCTP,10-L1-4,2019-02-02 01:30:00.0,SoPmdAve,3102.78,CHCGILDTO6Y
MA6813400180,h_OCHCTP,10-L1-4,2019-02-02 01:45:00.0,Qmin,8.27,CHCGILDTO6Y
MA6813400180,h_OCHCTP,10-L1-4,2019-02-02 01:45:00.0,PhaseCorrectionAve,-0.0611,CHCGILDTO6Y
MA6813400180,h_OCHCTP,10-L1-4,2019-02-02 01:45:00.0,BerPreFecMax,0.00479,CHCGILDTO6Y
MA6813400180,h_OCHCTP,10-L1-4,2019-02-02 01:45:00.0,PmdMin,1.49,CHCGILDTO6Y
MA6813400180,h_OCHCTP,10-L1-4,2019-02-02 01:45:00.0,SoPmdAve,3076.13,CHCGILDTO6Y
MA6813400180,h_OCHCTP,10-L1-5,2019-02-02 01:15:00.0,Qmin,8.44,CHCGILDTO6Y
MA6813400180,h_OCHCTP,10-L1-5,2019-02-02 01:15:00.0,PhaseCorrectionAve,-0.061,CHCGILDTO6Y
MA6813400180,h_OCHCTP,10-L1-5,2019-02-02 01:15:00.0,BerPreFecMax,0.00413,CHCGILDTO6Y
MA6813400180,h_OCHCTP,10-L1-5,2019-02-02 01:15:00.0,PmdMin,0.859,CHCGILDTO6Y
MA6813400180,h_OCHCTP,10-L1-5,2019-02-02 01:15:00.0,SoPmdAve,2899.62,CHCGILDTO6Y
MA6813400180,h_OCHCTP,10-L1-5,2019-02-02 01:30:00.0,Qmin,8.43,CHCGILDTO6Y
MA6813400180,h_OCHCTP,10-L1-5,2019-02-02 01:30:00.0,PhaseCorrectionAve,-0.061,CHCGILDTO6Y
MA6813400180,h_OCHCTP,10-L1-5,2019-02-02 01:30:00.0,BerPreFecMax,0.00414,CHCGILDTO6Y
MA6813400180,h_OCHCTP,10-L1-5,2019-02-02 01:30:00.0,PmdMin,0.605,CHCGILDTO6Y
MA6813400180,h_OCHCTP,10-L1-5,2019-02-02 01:30:00.0,SoPmdAve,2899.76,CHCGILDTO6Y
MA6813400180,h_OCHCTP,10-L1-5,2019-02-02 01:45:00.0,Qmin,8.44,CHCGILDTO6Y
MA6813400180,h_OCHCTP,10-L1-5,2019-02-02 01:45:00.0,PhaseCorrectionAve,-0.122,CHCGILDTO6Y
MA6813400180,h_OCHCTP,10-L1-5,2019-02-02 01:45:00.0,BerPreFecMax,0.00413,CHCGILDTO6Y
MA6813400180,h_OCHCTP,10-L1-5,2019-02-02 01:45:00.0,PmdMin,1.7,CHCGILDTO6Y
MA6813400180,h_OCHCTP,10-L1-5,2019-02-02 01:45:00.0,SoPmdAve,2846.77,CHCGILDTO6Y
MA6813400180,h_OCHCTP,10-L1-6,2019-02-02 01:15:00.0,Qmin,8.67,CHCGILDTO6Y
MA6813400180,h_OCHCTP,10-L1-6,2019-02-02 01:15:00.0,PhaseCorrectionAve,-0.061,CHCGILDTO6Y
MA6813400180,h_OCHCTP,10-L1-6,2019-02-02 01:15:00.0,BerPreFecMax,0.00333,CHCGILDTO6Y
MA6813400180,h_OCHCTP,10-L1-6,2019-02-02 01:15:00.0,PmdMin,2.98,CHCGILDTO6Y
MA6813400180,h_OCHCTP,10-L1-6,2019-02-02 01:15:00.0,SoPmdAve,2858.05,CHCGILDTO6Y
MA6813400180,h_OCHCTP,10-L1-6,2019-02-02 01:30:00.0,Qmin,8.66,CHCGILDTO6Y
MA6813400180,h_OCHCTP,10-L1-6,2019-02-02 01:30:00.0,PhaseCorrectionAve,-0.061,CHCGILDTO6Y
MA6813400180,h_OCHCTP,10-L1-6,2019-02-02 01:30:00.0,BerPreFecMax,0.00336,CHCGILDTO6Y
MA6813400180,h_OCHCTP,10-L1-6,2019-02-02 01:30:00.0,PmdMin,2.43,CHCGILDTO6Y
MA6813400180,h_OCHCTP,10-L1-6,2019-02-02 01:30:00.0,SoPmdAve,2830.15,CHCGILDTO6Y
MA6813400180,h_OCHCTP,10-L1-6,2019-02-02 01:45:00.0,Qmin,8.68,CHCGILDTO6Y
MA6813400180,h_OCHCTP,10-L1-6,2019-02-02 01:45:00.0,PhaseCorrectionAve,-0.122,CHCGILDTO6Y
MA6813400180,h_OCHCTP,10-L1-6,2019-02-02 01:45:00.0,BerPreFecMax,0.00331,CHCGILDTO6Y
MA6813400180,h_OCHCTP,10-L1-6,2019-02-02 01:45:00.0,PmdMin,2.8,CHCGILDTO6Y
MA6813400180,h_OCHCTP,10-L1-6,2019-02-02 01:45:00.0,SoPmdAve,2879.63,CHCGILDTO6Y
MA6813400180,h_OCHCTP,10-L1-7,2019-02-02 01:15:00.0,Qmin,8.77,CHCGILDTO6Y
MA6813400180,h_OCHCTP,10-L1-7,2019-02-02 01:15:00.0,PhaseCorrectionAve,-0.122,CHCGILDTO6Y
MA6813400180,h_OCHCTP,10-L1-7,2019-02-02 01:15:00.0,BerPreFecMax,0.00304,CHCGILDTO6Y
MA6813400180,h_OCHCTP,10-L1-7,2019-02-02 01:15:00.0,PmdMin,0.6,CHCGILDTO6Y
MA6813400180,h_OCHCTP,10-L1-7,2019-02-02 01:15:00.0,SoPmdAve,3447.41,CHCGILDTO6Y
MA6813400180,h_OCHCTP,10-L1-7,2019-02-02 01:30:00.0,Qmin,8.74,CHCGILDTO6Y
MA6813400180,h_OCHCTP,10-L1-7,2019-02-02 01:30:00.0,PhaseCorrectionAve,-0.061,CHCGILDTO6Y
MA6813400180,h_OCHCTP,10-L1-7,2019-02-02 01:30:00.0,BerPreFecMax,0.00311,CHCGILDTO6Y
MA6813400180,h_OCHCTP,10-L1-7,2019-02-02 01:30:00.0,PmdMin,2.08,CHCGILDTO6Y
MA6813400180,h_OCHCTP,10-L1-7,2019-02-02 01:30:00.0,SoPmdAve,3545.07,CHCGILDTO6Y
MA6813400180,h_OCHCTP,10-L1-7,2019-02-02 01:45:00.0,Qmin,8.76,CHCGILDTO6Y
MA6813400180,h_OCHCTP,10-L1-7,2019-02-02 01:45:00.0,PhaseCorrectionAve,-0.122,CHCGILDTO6Y
MA6813400180,h_OCHCTP,10-L1-7,2019-02-02 01:45:00.0,BerPreFecMax,0.00306,CHCGILDTO6Y
MA6813400180,h_OCHCTP,10-L1-7,2019-02-02 01:45:00.0,PmdMin,1.27,CHCGILDTO6Y
MA6813400180,h_OCHCTP,10-L1-7,2019-02-02 01:45:00.0,SoPmdAve,3624.36,CHCGILDTO6Y
MA6813400180,h_OCHCTP,10-L1-8,2019-02-02 01:15:00.0,Qmin,9.31,CHCGILDTO6Y
MA6813400180,h_OCHCTP,10-L1-8,2019-02-02 01:15:00.0,PhaseCorrectionAve,-0.122,CHCGILDTO6Y
MA6813400180,h_OCHCTP,10-L1-8,2019-02-02 01:15:00.0,BerPreFecMax,0.00175,CHCGILDTO6Y
MA6813400180,h_OCHCTP,10-L1-8,2019-02-02 01:15:00.0,PmdMin,1.5,CHCGILDTO6Y
MA6813400180,h_OCHCTP,10-L1-8,2019-02-02 01:15:00.0,SoPmdAve,3292.01,CHCGILDTO6Y
MA6813400180,h_OCHCTP,10-L1-8,2019-02-02 01:30:00.0,Qmin,9.29,CHCGILDTO6Y
MA6813400180,h_OCHCTP,10-L1-8,2019-02-02 01:30:00.0,PhaseCorrectionAve,-0.061,CHCGILDTO6Y
MA6813400180,h_OCHCTP,10-L1-8,2019-02-02 01:30:00.0,BerPreFecMax,0.00178,CHCGILDTO6Y
MA6813400180,h_OCHCTP,10-L1-8,2019-02-02 01:30:00.0,PmdMin,1.0,CHCGILDTO6Y
MA6813400180,h_OCHCTP,10-L1-8,2019-02-02 01:30:00.0,SoPmdAve,3303.38,CHCGILDTO6Y
MA6813400180,h_OCHCTP,10-L1-8,2019-02-02 01:45:00.0,Qmin,9.31,CHCGILDTO6Y
MA6813400180,h_OCHCTP,10-L1-8,2019-02-02 01:45:00.0,PhaseCorrectionAve,-0.183,CHCGILDTO6Y
MA6813400180,h_OCHCTP,10-L1-8,2019-02-02 01:45:00.0,BerPreFecMax,0.00175,CHCGILDTO6Y
MA6813400180,h_OCHCTP,10-L1-8,2019-02-02 01:45:00.0,PmdMin,0.184,CHCGILDTO6Y
MA6813400180,h_OCHCTP,10-L1-8,2019-02-02 01:45:00.0,SoPmdAve,3466.72,CHCGILDTO6Y
MA6813400180,h_OCHCTP,10-L1-9,2019-02-02 01:15:00.0,Qmin,9.35,CHCGILDTO6Y
MA6813400180,h_OCHCTP,10-L1-9,2019-02-02 01:15:00.0,PhaseCorrectionAve,-0.122,CHCGILDTO6Y
MA6813400180,h_OCHCTP,10-L1-9,2019-02-02 01:15:00.0,BerPreFecMax,0.00167,CHCGILDTO6Y
MA6813400180,h_OCHCTP,10-L1-9,2019-02-02 01:15:00.0,PmdMin,2.57,CHCGILDTO6Y
MA6813400180,h_OCHCTP,10-L1-9,2019-02-02 01:15:00.0,SoPmdAve,3434.22,CHCGILDTO6Y
MA6813400180,h_OCHCTP,10-L1-9,2019-02-02 01:30:00.0,Qmin,9.33,CHCGILDTO6Y
MA6813400180,h_OCHCTP,10-L1-9,2019-02-02 01:30:00.0,PhaseCorrectionAve,-0.061,CHCGILDTO6Y
MA6813400180,h_OCHCTP,10-L1-9,2019-02-02 01:30:00.0,BerPreFecMax,0.00171,CHCGILDTO6Y
MA6813400180,h_OCHCTP,10-L1-9,2019-02-02 01:30:00.0,PmdMin,1.81,CHCGILDTO6Y
MA6813400180,h_OCHCTP,10-L1-9,2019-02-02 01:30:00.0,SoPmdAve,3528.15,CHCGILDTO6Y
MA6813400180,h_OCHCTP,10-L1-9,2019-02-02 01:45:00.0,Qmin,9.33,CHCGILDTO6Y
MA6813400180,h_OCHCTP,10-L1-9,2019-02-02 01:45:00.0,PhaseCorrectionAve,-0.183,CHCGILDTO6Y
MA6813400180,h_OCHCTP,10-L1-9,2019-02-02 01:45:00.0,BerPreFecMax,0.00171,CHCGILDTO6Y
MA6813400180,h_OCHCTP,10-L1-9,2019-02-02 01:45:00.0,PmdMin,2.17,CHCGILDTO6Y
MA6813400180,h_OCHCTP,10-L1-9,2019-02-02 01:45:00.0,SoPmdAve,3515.77,CHCGILDTO6Y
MA6813400180,h_OCHCTP,10-L1-10,2019-02-02 01:15:00.0,Qmin,9.38,CHCGILDTO6Y
MA6813400180,h_OCHCTP,10-L1-10,2019-02-02 01:15:00.0,PhaseCorrectionAve,-0.122,CHCGILDTO6Y
MA6813400180,h_OCHCTP,10-L1-10,2019-02-02 01:15:00.0,BerPreFecMax,0.00162,CHCGILDTO6Y
MA6813400180,h_OCHCTP,10-L1-10,2019-02-02 01:15:00.0,PmdMin,6.18,CHCGILDTO6Y
MA6813400180,h_OCHCTP,10-L1-10,2019-02-02 01:15:00.0,SoPmdAve,3268.58,CHCGILDTO6Y
MA6813400180,h_OCHCTP,10-L1-10,2019-02-02 01:30:00.0,Qmin,9.37,CHCGILDTO6Y
MA6813400180,h_OCHCTP,10-L1-10,2019-02-02 01:30:00.0,PhaseCorrectionAve,-0.122,CHCGILDTO6Y
MA6813400180,h_OCHCTP,10-L1-10,2019-02-02 01:30:00.0,BerPreFecMax,0.00164,CHCGILDTO6Y
MA6813400180,h_OCHCTP,10-L1-10,2019-02-02 01:30:00.0,PmdMin,3.64,CHCGILDTO6Y
MA6813400180,h_OCHCTP,10-L1-10,2019-02-02 01:30:00.0,SoPmdAve,3323.95,CHCGILDTO6Y
MA6813400180,h_OCHCTP,10-L1-10,2019-02-02 01:45:00.0,Qmin,9.36,CHCGILDTO6Y
MA6813400180,h_OCHCTP,10-L1-10,2019-02-02 01:45:00.0,PhaseCorrectionAve,-0.306,CHCGILDTO6Y
MA6813400180,h_OCHCTP,10-L1-10,2019-02-02 01:45:00.0,BerPreFecMax,0.00165,CHCGILDTO6Y
MA6813400180,h_OCHCTP,10-L1-10,2019-02-02 01:45:00.0,PmdMin,6.56,CHCGILDTO6Y
MA6813400180,h_OCHCTP,10-L1-10,2019-02-02 01:45:00.0,SoPmdAve,3252.17,CHCGILDTO6Y
MA6813400180,h_OCHCTP,13-L1-1,2019-02-02 01:15:00.0,Qmin,9.17,CHCGILDTO6Y
MA6813400180,h_OCHCTP,13-L1-1,2019-02-02 01:15:00.0,PhaseCorrectionAve,2.25e-07,CHCGILDTO6Y
MA6813400180,h_OCHCTP,13-L1-1,2019-02-02 01:15:00.0,BerPreFecMax,0.00203,CHCGILDTO6Y
MA6813400180,h_OCHCTP,13-L1-1,2019-02-02 01:15:00.0,PmdMin,0.658,CHCGILDTO6Y
MA6813400180,h_OCHCTP,13-L1-1,2019-02-02 01:15:00.0,SoPmdAve,3585.77,CHCGILDTO6Y
MA6813400180,h_OCHCTP,13-L1-1,2019-02-02 01:30:00.0,Qmin,9.19,CHCGILDTO6Y
MA6813400180,h_OCHCTP,13-L1-1,2019-02-02 01:30:00.0,PhaseCorrectionAve,2.27e-07,CHCGILDTO6Y
MA6813400180,h_OCHCTP,13-L1-1,2019-02-02 01:30:00.0,BerPreFecMax,0.00199,CHCGILDTO6Y
MA6813400180,h_OCHCTP,13-L1-1,2019-02-02 01:30:00.0,PmdMin,1.01,CHCGILDTO6Y
MA6813400180,h_OCHCTP,13-L1-1,2019-02-02 01:30:00.0,SoPmdAve,3514.74,CHCGILDTO6Y
MA6813400180,h_OCHCTP,13-L1-1,2019-02-02 01:45:00.0,Qmin,9.14,CHCGILDTO6Y
MA6813400180,h_OCHCTP,13-L1-1,2019-02-02 01:45:00.0,PhaseCorrectionAve,2.22e-07,CHCGILDTO6Y
MA6813400180,h_OCHCTP,13-L1-1,2019-02-02 01:45:00.0,BerPreFecMax,0.00208,CHCGILDTO6Y
MA6813400180,h_OCHCTP,13-L1-1,2019-02-02 01:45:00.0,PmdMin,1.01,CHCGILDTO6Y
MA6813400180,h_OCHCTP,13-L1-1,2019-02-02 01:45:00.0,SoPmdAve,3574.96,CHCGILDTO6Y
MA6813400180,h_OCHCTP,13-L1-2,2019-02-02 01:15:00.0,Qmin,9.17,CHCGILDTO6Y
MA6813400180,h_OCHCTP,13-L1-2,2019-02-02 01:15:00.0,PhaseCorrectionAve,2.66e-07,CHCGILDTO6Y
MA6813400180,h_OCHCTP,13-L1-2,2019-02-02 01:15:00.0,BerPreFecMax,0.00203,CHCGILDTO6Y
MA6813400180,h_OCHCTP,13-L1-2,2019-02-02 01:15:00.0,PmdMin,1.04,CHCGILDTO6Y
MA6813400180,h_OCHCTP,13-L1-2,2019-02-02 01:15:00.0,SoPmdAve,3473.67,CHCGILDTO6Y
MA6813400180,h_OCHCTP,13-L1-2,2019-02-02 01:30:00.0,Qmin,9.12,CHCGILDTO6Y
MA6813400180,h_OCHCTP,13-L1-2,2019-02-02 01:30:00.0,PhaseCorrectionAve,2.82e-07,CHCGILDTO6Y
MA6813400180,h_OCHCTP,13-L1-2,2019-02-02 01:30:00.0,BerPreFecMax,0.00214,CHCGILDTO6Y
MA6813400180,h_OCHCTP,13-L1-2,2019-02-02 01:30:00.0,PmdMin,0.727,CHCGILDTO6Y
MA6813400180,h_OCHCTP,13-L1-2,2019-02-02 01:30:00.0,SoPmdAve,3495.17,CHCGILDTO6Y
MA6813400180,h_OCHCTP,13-L1-2,2019-02-02 01:45:00.0,Qmin,9.15,CHCGILDTO6Y
MA6813400180,h_OCHCTP,13-L1-2,2019-02-02 01:45:00.0,PhaseCorrectionAve,2.96e-07,CHCGILDTO6Y
MA6813400180,h_OCHCTP,13-L1-2,2019-02-02 01:45:00.0,BerPreFecMax,0.00206,CHCGILDTO6Y
MA6813400180,h_OCHCTP,13-L1-2,2019-02-02 01:45:00.0,PmdMin,0.732,CHCGILDTO6Y
MA6813400180,h_OCHCTP,13-L1-2,2019-02-02 01:45:00.0,SoPmdAve,3561.22,CHCGILDTO6Y
MA6813400180,h_OCHCTP,13-L1-3,2019-02-02 01:15:00.0,Qmin,8.89,CHCGILDTO6Y
MA6813400180,h_OCHCTP,13-L1-3,2019-02-02 01:15:00.0,PhaseCorrectionAve,4.71e-07,CHCGILDTO6Y
MA6813400180,h_OCHCTP,13-L1-3,2019-02-02 01:15:00.0,BerPreFecMax,0.00268,CHCGILDTO6Y
MA6813400180,h_OCHCTP,13-L1-3,2019-02-02 01:15:00.0,PmdMin,0.715,CHCGILDTO6Y
MA6813400180,h_OCHCTP,13-L1-3,2019-02-02 01:15:00.0,SoPmdAve,2877.5,CHCGILDTO6Y
MA6813400180,h_OCHCTP,13-L1-3,2019-02-02 01:30:00.0,Qmin,8.89,CHCGILDTO6Y
MA6813400180,h_OCHCTP,13-L1-3,2019-02-02 01:30:00.0,PhaseCorrectionAve,5.76e-07,CHCGILDTO6Y
MA6813400180,h_OCHCTP,13-L1-3,2019-02-02 01:30:00.0,BerPreFecMax,0.00269,CHCGILDTO6Y
MA6813400180,h_OCHCTP,13-L1-3,2019-02-02 01:30:00.0,PmdMin,0.727,CHCGILDTO6Y
MA6813400180,h_OCHCTP,13-L1-3,2019-02-02 01:30:00.0,SoPmdAve,2916.7,CHCGILDTO6Y
MA6813400180,h_OCHCTP,13-L1-3,2019-02-02 01:45:00.0,Qmin,8.97,CHCGILDTO6Y
MA6813400180,h_OCHCTP,13-L1-3,2019-02-02 01:45:00.0,PhaseCorrectionAve,5.74e-07,CHCGILDTO6Y
MA6813400180,h_OCHCTP,13-L1-3,2019-02-02 01:45:00.0,BerPreFecMax,0.00248,CHCGILDTO6Y
MA6813400180,h_OCHCTP,13-L1-3,2019-02-02 01:45:00.0,PmdMin,1.15,CHCGILDTO6Y
MA6813400180,h_OCHCTP,13-L1-3,2019-02-02 01:45:00.0,SoPmdAve,2862.92,CHCGILDTO6Y
MA6813400180,h_OCHCTP,13-L1-4,2019-02-02 01:15:00.0,Qmin,8.75,CHCGILDTO6Y
MA6813400180,h_OCHCTP,13-L1-4,2019-02-02 01:15:00.0,PhaseCorrectionAve,5.55e-07,CHCGILDTO6Y
MA6813400180,h_OCHCTP,13-L1-4,2019-02-02 01:15:00.0,BerPreFecMax,0.00309,CHCGILDTO6Y
MA6813400180,h_OCHCTP,13-L1-4,2019-02-02 01:15:00.0,PmdMin,0.798,CHCGILDTO6Y
MA6813400180,h_OCHCTP,13-L1-4,2019-02-02 01:15:00.0,SoPmdAve,3408.09,CHCGILDTO6Y
MA6813400180,h_OCHCTP,13-L1-4,2019-02-02 01:30:00.0,Qmin,8.76,CHCGILDTO6Y
MA6813400180,h_OCHCTP,13-L1-4,2019-02-02 01:30:00.0,PhaseCorrectionAve,-0.061,CHCGILDTO6Y
MA6813400180,h_OCHCTP,13-L1-4,2019-02-02 01:30:00.0,BerPreFecMax,0.00304,CHCGILDTO6Y
MA6813400180,h_OCHCTP,13-L1-4,2019-02-02 01:30:00.0,PmdMin,1.21,CHCGILDTO6Y
MA6813400180,h_OCHCTP,13-L1-4,2019-02-02 01:30:00.0,SoPmdAve,3306.75,CHCGILDTO6Y
MA6813400180,h_OCHCTP,13-L1-4,2019-02-02 01:45:00.0,Qmin,8.8,CHCGILDTO6Y
MA6813400180,h_OCHCTP,13-L1-4,2019-02-02 01:45:00.0,PhaseCorrectionAve,-0.061,CHCGILDTO6Y
MA6813400180,h_OCHCTP,13-L1-4,2019-02-02 01:45:00.0,BerPreFecMax,0.00294,CHCGILDTO6Y
MA6813400180,h_OCHCTP,13-L1-4,2019-02-02 01:45:00.0,PmdMin,1.01,CHCGILDTO6Y
MA6813400180,h_OCHCTP,13-L1-4,2019-02-02 01:45:00.0,SoPmdAve,3386.11,CHCGILDTO6Y
MA6813400180,h_OCHCTP,13-L1-5,2019-02-02 01:15:00.0,Qmin,8.76,CHCGILDTO6Y
MA6813400180,h_OCHCTP,13-L1-5,2019-02-02 01:15:00.0,PhaseCorrectionAve,-0.061,CHCGILDTO6Y
MA6813400180,h_OCHCTP,13-L1-5,2019-02-02 01:15:00.0,BerPreFecMax,0.00305,CHCGILDTO6Y
MA6813400180,h_OCHCTP,13-L1-5,2019-02-02 01:15:00.0,PmdMin,0.855,CHCGILDTO6Y
MA6813400180,h_OCHCTP,13-L1-5,2019-02-02 01:15:00.0,SoPmdAve,2791.14,CHCGILDTO6Y
MA6813400180,h_OCHCTP,13-L1-5,2019-02-02 01:30:00.0,Qmin,8.81,CHCGILDTO6Y
MA6813400180,h_OCHCTP,13-L1-5,2019-02-02 01:30:00.0,PhaseCorrectionAve,-0.061,CHCGILDTO6Y
MA6813400180,h_OCHCTP,13-L1-5,2019-02-02 01:30:00.0,BerPreFecMax,0.00292,CHCGILDTO6Y
MA6813400180,h_OCHCTP,13-L1-5,2019-02-02 01:30:00.0,PmdMin,1.28,CHCGILDTO6Y
MA6813400180,h_OCHCTP,13-L1-5,2019-02-02 01:30:00.0,SoPmdAve,2820.12,CHCGILDTO6Y
MA6813400180,h_OCHCTP,13-L1-5,2019-02-02 01:45:00.0,Qmin,8.78,CHCGILDTO6Y
MA6813400180,h_OCHCTP,13-L1-5,2019-02-02 01:45:00.0,PhaseCorrectionAve,-0.061,CHCGILDTO6Y
MA6813400180,h_OCHCTP,13-L1-5,2019-02-02 01:45:00.0,BerPreFecMax,0.00299,CHCGILDTO6Y
MA6813400180,h_OCHCTP,13-L1-5,2019-02-02 01:45:00.0,PmdMin,0.607,CHCGILDTO6Y
MA6813400180,h_OCHCTP,13-L1-5,2019-02-02 01:45:00.0,SoPmdAve,2885.73,CHCGILDTO6Y
MA6813400180,h_OCHCTP,13-L1-6,2019-02-02 01:15:00.0,Qmin,8.71,CHCGILDTO6Y
MA6813400180,h_OCHCTP,13-L1-6,2019-02-02 01:15:00.0,PhaseCorrectionAve,-0.061,CHCGILDTO6Y
MA6813400180,h_OCHCTP,13-L1-6,2019-02-02 01:15:00.0,BerPreFecMax,0.00319,CHCGILDTO6Y
MA6813400180,h_OCHCTP,13-L1-6,2019-02-02 01:15:00.0,PmdMin,1.03,CHCGILDTO6Y
MA6813400180,h_OCHCTP,13-L1-6,2019-02-02 01:15:00.0,SoPmdAve,3130.61,CHCGILDTO6Y
MA6813400180,h_OCHCTP,13-L1-6,2019-02-02 01:30:00.0,Qmin,8.78,CHCGILDTO6Y
MA6813400180,h_OCHCTP,13-L1-6,2019-02-02 01:30:00.0,PhaseCorrectionAve,-0.061,CHCGILDTO6Y
MA6813400180,h_OCHCTP,13-L1-6,2019-02-02 01:30:00.0,BerPreFecMax,0.00298,CHCGILDTO6Y
MA6813400180,h_OCHCTP,13-L1-6,2019-02-02 01:30:00.0,PmdMin,0.36,CHCGILDTO6Y
MA6813400180,h_OCHCTP,13-L1-6,2019-02-02 01:30:00.0,SoPmdAve,3050.98,CHCGILDTO6Y
MA6813400180,h_OCHCTP,13-L1-6,2019-02-02 01:45:00.0,Qmin,8.85,CHCGILDTO6Y
MA6813400180,h_OCHCTP,13-L1-6,2019-02-02 01:45:00.0,PhaseCorrectionAve,-0.122,CHCGILDTO6Y
MA6813400180,h_OCHCTP,13-L1-6,2019-02-02 01:45:00.0,BerPreFecMax,0.00281,CHCGILDTO6Y
MA6813400180,h_OCHCTP,13-L1-6,2019-02-02 01:45:00.0,PmdMin,0.393,CHCGILDTO6Y
MA6813400180,h_OCHCTP,13-L1-6,2019-02-02 01:45:00.0,SoPmdAve,3095.5,CHCGILDTO6Y
MA6813400180,h_OCHCTP,13-L1-7,2019-02-02 01:15:00.0,Qmin,8.9,CHCGILDTO6Y
MA6813400180,h_OCHCTP,13-L1-7,2019-02-02 01:15:00.0,PhaseCorrectionAve,-0.061,CHCGILDTO6Y
MA6813400180,h_OCHCTP,13-L1-7,2019-02-02 01:15:00.0,BerPreFecMax,0.00267,CHCGILDTO6Y
MA6813400180,h_OCHCTP,13-L1-7,2019-02-02 01:15:00.0,PmdMin,1.14,CHCGILDTO6Y
MA6813400180,h_OCHCTP,13-L1-7,2019-02-02 01:15:00.0,SoPmdAve,3790.82,CHCGILDTO6Y
MA6813400180,h_OCHCTP,13-L1-7,2019-02-02 01:30:00.0,Qmin,8.87,CHCGILDTO6Y
MA6813400180,h_OCHCTP,13-L1-7,2019-02-02 01:30:00.0,PhaseCorrectionAve,-0.061,CHCGILDTO6Y
MA6813400180,h_OCHCTP,13-L1-7,2019-02-02 01:30:00.0,BerPreFecMax,0.00275,CHCGILDTO6Y
MA6813400180,h_OCHCTP,13-L1-7,2019-02-02 01:30:00.0,PmdMin,0.554,CHCGILDTO6Y
MA6813400180,h_OCHCTP,13-L1-7,2019-02-02 01:30:00.0,SoPmdAve,3712.16,CHCGILDTO6Y
MA6813400180,h_OCHCTP,13-L1-7,2019-02-02 01:45:00.0,Qmin,8.82,CHCGILDTO6Y
MA6813400180,h_OCHCTP,13-L1-7,2019-02-02 01:45:00.0,PhaseCorrectionAve,-0.183,CHCGILDTO6Y
MA6813400180,h_OCHCTP,13-L1-7,2019-02-02 01:45:00.0,BerPreFecMax,0.00289,CHCGILDTO6Y
MA6813400180,h_OCHCTP,13-L1-7,2019-02-02 01:45:00.0,PmdMin,0.66,CHCGILDTO6Y
MA6813400180,h_OCHCTP,13-L1-7,2019-02-02 01:45:00.0,SoPmdAve,3698.44,CHCGILDTO6Y
MA6813400180,h_OCHCTP,13-L1-8,2019-02-02 01:15:00.0,Qmin,8.94,CHCGILDTO6Y
MA6813400180,h_OCHCTP,13-L1-8,2019-02-02 01:15:00.0,PhaseCorrectionAve,-0.122,CHCGILDTO6Y
MA6813400180,h_OCHCTP,13-L1-8,2019-02-02 01:15:00.0,BerPreFecMax,0.00256,CHCGILDTO6Y
MA6813400180,h_OCHCTP,13-L1-8,2019-02-02 01:15:00.0,PmdMin,0.875,CHCGILDTO6Y
MA6813400180,h_OCHCTP,13-L1-8,2019-02-02 01:15:00.0,SoPmdAve,3783.62,CHCGILDTO6Y
MA6813400180,h_OCHCTP,13-L1-8,2019-02-02 01:30:00.0,Qmin,8.99,CHCGILDTO6Y
MA6813400180,h_OCHCTP,13-L1-8,2019-02-02 01:30:00.0,PhaseCorrectionAve,-0.061,CHCGILDTO6Y
MA6813400180,h_OCHCTP,13-L1-8,2019-02-02 01:30:00.0,BerPreFecMax,0.00244,CHCGILDTO6Y
MA6813400180,h_OCHCTP,13-L1-8,2019-02-02 01:30:00.0,PmdMin,0.962,CHCGILDTO6Y
MA6813400180,h_OCHCTP,13-L1-8,2019-02-02 01:30:00.0,SoPmdAve,3840.06,CHCGILDTO6Y
MA6813400180,h_OCHCTP,13-L1-8,2019-02-02 01:45:00.0,Qmin,8.86,CHCGILDTO6Y
MA6813400180,h_OCHCTP,13-L1-8,2019-02-02 01:45:00.0,PhaseCorrectionAve,-0.183,CHCGILDTO6Y
MA6813400180,h_OCHCTP,13-L1-8,2019-02-02 01:45:00.0,BerPreFecMax,0.00278,CHCGILDTO6Y
MA6813400180,h_OCHCTP,13-L1-8,2019-02-02 01:45:00.0,PmdMin,0.91,CHCGILDTO6Y
MA6813400180,h_OCHCTP,13-L1-8,2019-02-02 01:45:00.0,SoPmdAve,3842.96,CHCGILDTO6Y
MA6813400180,h_OCHCTP,13-L1-9,2019-02-02 01:15:00.0,Qmin,8.82,CHCGILDTO6Y
MA6813400180,h_OCHCTP,13-L1-9,2019-02-02 01:15:00.0,PhaseCorrectionAve,-0.122,CHCGILDTO6Y
MA6813400180,h_OCHCTP,13-L1-9,2019-02-02 01:15:00.0,BerPreFecMax,0.00287,CHCGILDTO6Y
MA6813400180,h_OCHCTP,13-L1-9,2019-02-02 01:15:00.0,PmdMin,0.769,CHCGILDTO6Y
MA6813400180,h_OCHCTP,13-L1-9,2019-02-02 01:15:00.0,SoPmdAve,3609.03,CHCGILDTO6Y
MA6813400180,h_OCHCTP,13-L1-9,2019-02-02 01:30:00.0,Qmin,8.85,CHCGILDTO6Y
MA6813400180,h_OCHCTP,13-L1-9,2019-02-02 01:30:00.0,PhaseCorrectionAve,-0.061,CHCGILDTO6Y
MA6813400180,h_OCHCTP,13-L1-9,2019-02-02 01:30:00.0,BerPreFecMax,0.00281,CHCGILDTO6Y
MA6813400180,h_OCHCTP,13-L1-9,2019-02-02 01:30:00.0,PmdMin,1.06,CHCGILDTO6Y
MA6813400180,h_OCHCTP,13-L1-9,2019-02-02 01:30:00.0,SoPmdAve,3611.62,CHCGILDTO6Y
MA6813400180,h_OCHCTP,13-L1-9,2019-02-02 01:45:00.0,Qmin,8.86,CHCGILDTO6Y
MA6813400180,h_OCHCTP,13-L1-9,2019-02-02 01:45:00.0,PhaseCorrectionAve,-0.183,CHCGILDTO6Y
MA6813400180,h_OCHCTP,13-L1-9,2019-02-02 01:45:00.0,BerPreFecMax,0.00279,CHCGILDTO6Y
MA6813400180,h_OCHCTP,13-L1-9,2019-02-02 01:45:00.0,PmdMin,0.724,CHCGILDTO6Y
MA6813400180,h_OCHCTP,13-L1-9,2019-02-02 01:45:00.0,SoPmdAve,3580.21,CHCGILDTO6Y
MA6813400180,h_OCHCTP,13-L1-10,2019-02-02 01:15:00.0,Qmin,8.63,CHCGILDTO6Y
MA6813400180,h_OCHCTP,13-L1-10,2019-02-02 01:15:00.0,PhaseCorrectionAve,-0.122,CHCGILDTO6Y
MA6813400180,h_OCHCTP,13-L1-10,2019-02-02 01:15:00.0,BerPreFecMax,0.00346,CHCGILDTO6Y
MA6813400180,h_OCHCTP,13-L1-10,2019-02-02 01:15:00.0,PmdMin,1.1,CHCGILDTO6Y
MA6813400180,h_OCHCTP,13-L1-10,2019-02-02 01:15:00.0,SoPmdAve,3820.63,CHCGILDTO6Y
MA6813400180,h_OCHCTP,13-L1-10,2019-02-02 01:30:00.0,Qmin,8.62,CHCGILDTO6Y
MA6813400180,h_OCHCTP,13-L1-10,2019-02-02 01:30:00.0,PhaseCorrectionAve,-0.061,CHCGILDTO6Y
MA6813400180,h_OCHCTP,13-L1-10,2019-02-02 01:30:00.0,BerPreFecMax,0.0035,CHCGILDTO6Y
MA6813400180,h_OCHCTP,13-L1-10,2019-02-02 01:30:00.0,PmdMin,1.23,CHCGILDTO6Y
MA6813400180,h_OCHCTP,13-L1-10,2019-02-02 01:30:00.0,SoPmdAve,3916.68,CHCGILDTO6Y
MA6813400180,h_OCHCTP,13-L1-10,2019-02-02 01:45:00.0,Qmin,8.64,CHCGILDTO6Y
MA6813400180,h_OCHCTP,13-L1-10,2019-02-02 01:45:00.0,PhaseCorrectionAve,-0.244,CHCGILDTO6Y
MA6813400180,h_OCHCTP,13-L1-10,2019-02-02 01:45:00.0,BerPreFecMax,0.00342,CHCGILDTO6Y
MA6813400180,h_OCHCTP,13-L1-10,2019-02-02 01:45:00.0,PmdMin,1.03,CHCGILDTO6Y
MA6813400180,h_OCHCTP,13-L1-10,2019-02-02 01:45:00.0,SoPmdAve,3775.25,CHCGILDTO6Y
