MA6813400180,h_OCHCTP,11-L1-1,2019-01-29 11:15:00.0,Qmin,9.07,CHCGILDTO6Y
MA6813400180,h_OCHCTP,11-L1-1,2019-01-29 11:15:00.0,PhaseCorrectionAve,1.52e-07,CHCGILDTO6Y
MA6813400180,h_OCHCTP,11-L1-1,2019-01-29 11:15:00.0,BerPreFecMax,0.00224,CHCGILDTO6Y
MA6813400180,h_OCHCTP,11-L1-1,2019-01-29 11:15:00.0,PmdMin,1.03,CHCGILDTO6Y
MA6813400180,h_OCHCTP,11-L1-1,2019-01-29 11:15:00.0,SoPmdAve,3425.86,CHCGILDTO6Y
MA6813400180,h_OCHCTP,11-L1-1,2019-01-29 11:30:00.0,Qmin,9.08,CHCGILDTO6Y
MA6813400180,h_OCHCTP,11-L1-1,2019-01-29 11:30:00.0,PhaseCorrectionAve,1.78e-07,CHCGILDTO6Y
MA6813400180,h_OCHCTP,11-L1-1,2019-01-29 11:30:00.0,BerPreFecMax,0.00222,CHCGILDTO6Y
MA6813400180,h_OCHCTP,11-L1-1,2019-01-29 11:30:00.0,PmdMin,1.28,CHCGILDTO6Y
MA6813400180,h_OCHCTP,11-L1-1,2019-01-29 11:30:00.0,SoPmdAve,3363.23,CHCGILDTO6Y
MA6813400180,h_OCHCTP,11-L1-1,2019-01-29 11:45:00.0,Qmin,9.06,CHCGILDTO6Y
MA6813400180,h_OCHCTP,11-L1-1,2019-01-29 11:45:00.0,PhaseCorrectionAve,1.51e-07,CHCGILDTO6Y
MA6813400180,h_OCHCTP,11-L1-1,2019-01-29 11:45:00.0,BerPreFecMax,0.00226,CHCGILDTO6Y
MA6813400180,h_OCHCTP,11-L1-1,2019-01-29 11:45:00.0,PmdMin,0.467,CHCGILDTO6Y
MA6813400180,h_OCHCTP,11-L1-1,2019-01-29 11:45:00.0,SoPmdAve,3399.84,CHCGILDTO6Y
MA6813400180,h_OCHCTP,11-L1-2,2019-01-29 11:15:00.0,Qmin,9.06,CHCGILDTO6Y
MA6813400180,h_OCHCTP,11-L1-2,2019-01-29 11:15:00.0,PhaseCorrectionAve,-0.061,CHCGILDTO6Y
MA6813400180,h_OCHCTP,11-L1-2,2019-01-29 11:15:00.0,BerPreFecMax,0.00227,CHCGILDTO6Y
MA6813400180,h_OCHCTP,11-L1-2,2019-01-29 11:15:00.0,PmdMin,0.513,CHCGILDTO6Y
MA6813400180,h_OCHCTP,11-L1-2,2019-01-29 11:15:00.0,SoPmdAve,3182.97,CHCGILDTO6Y
MA6813400180,h_OCHCTP,11-L1-2,2019-01-29 11:30:00.0,Qmin,9.05,CHCGILDTO6Y
MA6813400180,h_OCHCTP,11-L1-2,2019-01-29 11:30:00.0,PhaseCorrectionAve,-0.061,CHCGILDTO6Y
MA6813400180,h_OCHCTP,11-L1-2,2019-01-29 11:30:00.0,BerPreFecMax,0.00228,CHCGILDTO6Y
MA6813400180,h_OCHCTP,11-L1-2,2019-01-29 11:30:00.0,PmdMin,0.778,CHCGILDTO6Y
MA6813400180,h_OCHCTP,11-L1-2,2019-01-29 11:30:00.0,SoPmdAve,3175.25,CHCGILDTO6Y
MA6813400180,h_OCHCTP,11-L1-2,2019-01-29 11:45:00.0,Qmin,9.05,CHCGILDTO6Y
MA6813400180,h_OCHCTP,11-L1-2,2019-01-29 11:45:00.0,PhaseCorrectionAve,3.75e-07,CHCGILDTO6Y
MA6813400180,h_OCHCTP,11-L1-2,2019-01-29 11:45:00.0,BerPreFecMax,0.00229,CHCGILDTO6Y
MA6813400180,h_OCHCTP,11-L1-2,2019-01-29 11:45:00.0,PmdMin,0.816,CHCGILDTO6Y
MA6813400180,h_OCHCTP,11-L1-2,2019-01-29 11:45:00.0,SoPmdAve,3079.6,CHCGILDTO6Y
MA6813400180,h_OCHCTP,11-L1-3,2019-01-29 11:15:00.0,Qmin,8.98,CHCGILDTO6Y
MA6813400180,h_OCHCTP,11-L1-3,2019-01-29 11:15:00.0,PhaseCorrectionAve,-0.122,CHCGILDTO6Y
MA6813400180,h_OCHCTP,11-L1-3,2019-01-29 11:15:00.0,BerPreFecMax,0.00245,CHCGILDTO6Y
MA6813400180,h_OCHCTP,11-L1-3,2019-01-29 11:15:00.0,PmdMin,0.559,CHCGILDTO6Y
MA6813400180,h_OCHCTP,11-L1-3,2019-01-29 11:15:00.0,SoPmdAve,2746.26,CHCGILDTO6Y
MA6813400180,h_OCHCTP,11-L1-3,2019-01-29 11:30:00.0,Qmin,8.95,CHCGILDTO6Y
MA6813400180,h_OCHCTP,11-L1-3,2019-01-29 11:30:00.0,PhaseCorrectionAve,-0.061,CHCGILDTO6Y
MA6813400180,h_OCHCTP,11-L1-3,2019-01-29 11:30:00.0,BerPreFecMax,0.00254,CHCGILDTO6Y
MA6813400180,h_OCHCTP,11-L1-3,2019-01-29 11:30:00.0,PmdMin,0.52,CHCGILDTO6Y
MA6813400180,h_OCHCTP,11-L1-3,2019-01-29 11:30:00.0,SoPmdAve,2678.43,CHCGILDTO6Y
MA6813400180,h_OCHCTP,11-L1-3,2019-01-29 11:45:00.0,Qmin,8.94,CHCGILDTO6Y
MA6813400180,h_OCHCTP,11-L1-3,2019-01-29 11:45:00.0,PhaseCorrectionAve,3.18e-07,CHCGILDTO6Y
MA6813400180,h_OCHCTP,11-L1-3,2019-01-29 11:45:00.0,BerPreFecMax,0.00257,CHCGILDTO6Y
MA6813400180,h_OCHCTP,11-L1-3,2019-01-29 11:45:00.0,PmdMin,1.1,CHCGILDTO6Y
MA6813400180,h_OCHCTP,11-L1-3,2019-01-29 11:45:00.0,SoPmdAve,2713.09,CHCGILDTO6Y
MA6813400180,h_OCHCTP,11-L1-4,2019-01-29 11:15:00.0,Qmin,8.8,CHCGILDTO6Y
MA6813400180,h_OCHCTP,11-L1-4,2019-01-29 11:15:00.0,PhaseCorrectionAve,-0.122,CHCGILDTO6Y
MA6813400180,h_OCHCTP,11-L1-4,2019-01-29 11:15:00.0,BerPreFecMax,0.00295,CHCGILDTO6Y
MA6813400180,h_OCHCTP,11-L1-4,2019-01-29 11:15:00.0,PmdMin,1.08,CHCGILDTO6Y
MA6813400180,h_OCHCTP,11-L1-4,2019-01-29 11:15:00.0,SoPmdAve,2965.9,CHCGILDTO6Y
MA6813400180,h_OCHCTP,11-L1-4,2019-01-29 11:30:00.0,Qmin,8.78,CHCGILDTO6Y
MA6813400180,h_OCHCTP,11-L1-4,2019-01-29 11:30:00.0,PhaseCorrectionAve,-0.122,CHCGILDTO6Y
MA6813400180,h_OCHCTP,11-L1-4,2019-01-29 11:30:00.0,BerPreFecMax,0.00299,CHCGILDTO6Y
MA6813400180,h_OCHCTP,11-L1-4,2019-01-29 11:30:00.0,PmdMin,0.222,CHCGILDTO6Y
MA6813400180,h_OCHCTP,11-L1-4,2019-01-29 11:30:00.0,SoPmdAve,2886.38,CHCGILDTO6Y
MA6813400180,h_OCHCTP,11-L1-4,2019-01-29 11:45:00.0,Qmin,8.75,CHCGILDTO6Y
MA6813400180,h_OCHCTP,11-L1-4,2019-01-29 11:45:00.0,PhaseCorrectionAve,4.53e-07,CHCGILDTO6Y
MA6813400180,h_OCHCTP,11-L1-4,2019-01-29 11:45:00.0,BerPreFecMax,0.00309,CHCGILDTO6Y
MA6813400180,h_OCHCTP,11-L1-4,2019-01-29 11:45:00.0,PmdMin,1.72,CHCGILDTO6Y
MA6813400180,h_OCHCTP,11-L1-4,2019-01-29 11:45:00.0,SoPmdAve,2873.93,CHCGILDTO6Y
MA6813400180,h_OCHCTP,11-L1-5,2019-01-29 11:15:00.0,Qmin,8.77,CHCGILDTO6Y
MA6813400180,h_OCHCTP,11-L1-5,2019-01-29 11:15:00.0,PhaseCorrectionAve,-0.122,CHCGILDTO6Y
MA6813400180,h_OCHCTP,11-L1-5,2019-01-29 11:15:00.0,BerPreFecMax,0.00301,CHCGILDTO6Y
MA6813400180,h_OCHCTP,11-L1-5,2019-01-29 11:15:00.0,PmdMin,0.749,CHCGILDTO6Y
MA6813400180,h_OCHCTP,11-L1-5,2019-01-29 11:15:00.0,SoPmdAve,2536.88,CHCGILDTO6Y
MA6813400180,h_OCHCTP,11-L1-5,2019-01-29 11:30:00.0,Qmin,8.76,CHCGILDTO6Y
MA6813400180,h_OCHCTP,11-L1-5,2019-01-29 11:30:00.0,PhaseCorrectionAve,-0.183,CHCGILDTO6Y
MA6813400180,h_OCHCTP,11-L1-5,2019-01-29 11:30:00.0,BerPreFecMax,0.00306,CHCGILDTO6Y
MA6813400180,h_OCHCTP,11-L1-5,2019-01-29 11:30:00.0,PmdMin,1.13,CHCGILDTO6Y
MA6813400180,h_OCHCTP,11-L1-5,2019-01-29 11:30:00.0,SoPmdAve,2516.0,CHCGILDTO6Y
MA6813400180,h_OCHCTP,11-L1-5,2019-01-29 11:45:00.0,Qmin,8.82,CHCGILDTO6Y
MA6813400180,h_OCHCTP,11-L1-5,2019-01-29 11:45:00.0,PhaseCorrectionAve,1.93e-07,CHCGILDTO6Y
MA6813400180,h_OCHCTP,11-L1-5,2019-01-29 11:45:00.0,BerPreFecMax,0.00289,CHCGILDTO6Y
MA6813400180,h_OCHCTP,11-L1-5,2019-01-29 11:45:00.0,PmdMin,0.773,CHCGILDTO6Y
MA6813400180,h_OCHCTP,11-L1-5,2019-01-29 11:45:00.0,SoPmdAve,2463.73,CHCGILDTO6Y
MA6813400180,h_OCHCTP,11-L1-6,2019-01-29 11:15:00.0,Qmin,8.7,CHCGILDTO6Y
MA6813400180,h_OCHCTP,11-L1-6,2019-01-29 11:15:00.0,PhaseCorrectionAve,-0.122,CHCGILDTO6Y
MA6813400180,h_OCHCTP,11-L1-6,2019-01-29 11:15:00.0,BerPreFecMax,0.00325,CHCGILDTO6Y
MA6813400180,h_OCHCTP,11-L1-6,2019-01-29 11:15:00.0,PmdMin,0.361,CHCGILDTO6Y
MA6813400180,h_OCHCTP,11-L1-6,2019-01-29 11:15:00.0,SoPmdAve,2488.26,CHCGILDTO6Y
MA6813400180,h_OCHCTP,11-L1-6,2019-01-29 11:30:00.0,Qmin,8.74,CHCGILDTO6Y
MA6813400180,h_OCHCTP,11-L1-6,2019-01-29 11:30:00.0,PhaseCorrectionAve,-0.183,CHCGILDTO6Y
MA6813400180,h_OCHCTP,11-L1-6,2019-01-29 11:30:00.0,BerPreFecMax,0.00313,CHCGILDTO6Y
MA6813400180,h_OCHCTP,11-L1-6,2019-01-29 11:30:00.0,PmdMin,0.976,CHCGILDTO6Y
MA6813400180,h_OCHCTP,11-L1-6,2019-01-29 11:30:00.0,SoPmdAve,2476.94,CHCGILDTO6Y
MA6813400180,h_OCHCTP,11-L1-6,2019-01-29 11:45:00.0,Qmin,8.77,CHCGILDTO6Y
MA6813400180,h_OCHCTP,11-L1-6,2019-01-29 11:45:00.0,PhaseCorrectionAve,-0.061,CHCGILDTO6Y
MA6813400180,h_OCHCTP,11-L1-6,2019-01-29 11:45:00.0,BerPreFecMax,0.00301,CHCGILDTO6Y
MA6813400180,h_OCHCTP,11-L1-6,2019-01-29 11:45:00.0,PmdMin,0.61,CHCGILDTO6Y
MA6813400180,h_OCHCTP,11-L1-6,2019-01-29 11:45:00.0,SoPmdAve,2534.18,CHCGILDTO6Y
MA6813400180,h_OCHCTP,11-L1-7,2019-01-29 11:15:00.0,Qmin,8.83,CHCGILDTO6Y
MA6813400180,h_OCHCTP,11-L1-7,2019-01-29 11:15:00.0,PhaseCorrectionAve,-0.122,CHCGILDTO6Y
MA6813400180,h_OCHCTP,11-L1-7,2019-01-29 11:15:00.0,BerPreFecMax,0.00285,CHCGILDTO6Y
MA6813400180,h_OCHCTP,11-L1-7,2019-01-29 11:15:00.0,PmdMin,0.928,CHCGILDTO6Y
MA6813400180,h_OCHCTP,11-L1-7,2019-01-29 11:15:00.0,SoPmdAve,3010.48,CHCGILDTO6Y
MA6813400180,h_OCHCTP,11-L1-7,2019-01-29 11:30:00.0,Qmin,8.85,CHCGILDTO6Y
MA6813400180,h_OCHCTP,11-L1-7,2019-01-29 11:30:00.0,PhaseCorrectionAve,-0.183,CHCGILDTO6Y
MA6813400180,h_OCHCTP,11-L1-7,2019-01-29 11:30:00.0,BerPreFecMax,0.00279,CHCGILDTO6Y
MA6813400180,h_OCHCTP,11-L1-7,2019-01-29 11:30:00.0,PmdMin,0.218,CHCGILDTO6Y
MA6813400180,h_OCHCTP,11-L1-7,2019-01-29 11:30:00.0,SoPmdAve,2938.85,CHCGILDTO6Y
MA6813400180,h_OCHCTP,11-L1-7,2019-01-29 11:45:00.0,Qmin,8.86,CHCGILDTO6Y
MA6813400180,h_OCHCTP,11-L1-7,2019-01-29 11:45:00.0,PhaseCorrectionAve,-0.061,CHCGILDTO6Y
MA6813400180,h_OCHCTP,11-L1-7,2019-01-29 11:45:00.0,BerPreFecMax,0.00278,CHCGILDTO6Y
MA6813400180,h_OCHCTP,11-L1-7,2019-01-29 11:45:00.0,PmdMin,0.467,CHCGILDTO6Y
MA6813400180,h_OCHCTP,11-L1-7,2019-01-29 11:45:00.0,SoPmdAve,2996.21,CHCGILDTO6Y
MA6813400180,h_OCHCTP,11-L1-8,2019-01-29 11:15:00.0,Qmin,8.99,CHCGILDTO6Y
MA6813400180,h_OCHCTP,11-L1-8,2019-01-29 11:15:00.0,PhaseCorrectionAve,-0.122,CHCGILDTO6Y
MA6813400180,h_OCHCTP,11-L1-8,2019-01-29 11:15:00.0,BerPreFecMax,0.00244,CHCGILDTO6Y
MA6813400180,h_OCHCTP,11-L1-8,2019-01-29 11:15:00.0,PmdMin,0.573,CHCGILDTO6Y
MA6813400180,h_OCHCTP,11-L1-8,2019-01-29 11:15:00.0,SoPmdAve,3058.98,CHCGILDTO6Y
MA6813400180,h_OCHCTP,11-L1-8,2019-01-29 11:30:00.0,Qmin,9.01,CHCGILDTO6Y
MA6813400180,h_OCHCTP,11-L1-8,2019-01-29 11:30:00.0,PhaseCorrectionAve,-0.183,CHCGILDTO6Y
MA6813400180,h_OCHCTP,11-L1-8,2019-01-29 11:30:00.0,BerPreFecMax,0.00239,CHCGILDTO6Y
MA6813400180,h_OCHCTP,11-L1-8,2019-01-29 11:30:00.0,PmdMin,0.578,CHCGILDTO6Y
MA6813400180,h_OCHCTP,11-L1-8,2019-01-29 11:30:00.0,SoPmdAve,3144.33,CHCGILDTO6Y
MA6813400180,h_OCHCTP,11-L1-8,2019-01-29 11:45:00.0,Qmin,8.98,CHCGILDTO6Y
MA6813400180,h_OCHCTP,11-L1-8,2019-01-29 11:45:00.0,PhaseCorrectionAve,-0.061,CHCGILDTO6Y
MA6813400180,h_OCHCTP,11-L1-8,2019-01-29 11:45:00.0,BerPreFecMax,0.00245,CHCGILDTO6Y
MA6813400180,h_OCHCTP,11-L1-8,2019-01-29 11:45:00.0,PmdMin,0.741,CHCGILDTO6Y
MA6813400180,h_OCHCTP,11-L1-8,2019-01-29 11:45:00.0,SoPmdAve,3045.34,CHCGILDTO6Y
MA6813400180,h_OCHCTP,11-L1-9,2019-01-29 11:15:00.0,Qmin,8.94,CHCGILDTO6Y
MA6813400180,h_OCHCTP,11-L1-9,2019-01-29 11:15:00.0,PhaseCorrectionAve,-0.122,CHCGILDTO6Y
MA6813400180,h_OCHCTP,11-L1-9,2019-01-29 11:15:00.0,BerPreFecMax,0.00256,CHCGILDTO6Y
MA6813400180,h_OCHCTP,11-L1-9,2019-01-29 11:15:00.0,PmdMin,0.917,CHCGILDTO6Y
MA6813400180,h_OCHCTP,11-L1-9,2019-01-29 11:15:00.0,SoPmdAve,3149.96,CHCGILDTO6Y
MA6813400180,h_OCHCTP,11-L1-9,2019-01-29 11:30:00.0,Qmin,8.92,CHCGILDTO6Y
MA6813400180,h_OCHCTP,11-L1-9,2019-01-29 11:30:00.0,PhaseCorrectionAve,-0.244,CHCGILDTO6Y
MA6813400180,h_OCHCTP,11-L1-9,2019-01-29 11:30:00.0,BerPreFecMax,0.00261,CHCGILDTO6Y
MA6813400180,h_OCHCTP,11-L1-9,2019-01-29 11:30:00.0,PmdMin,1.28,CHCGILDTO6Y
MA6813400180,h_OCHCTP,11-L1-9,2019-01-29 11:30:00.0,SoPmdAve,3084.96,CHCGILDTO6Y
MA6813400180,h_OCHCTP,11-L1-9,2019-01-29 11:45:00.0,Qmin,8.94,CHCGILDTO6Y
MA6813400180,h_OCHCTP,11-L1-9,2019-01-29 11:45:00.0,PhaseCorrectionAve,-0.061,CHCGILDTO6Y
MA6813400180,h_OCHCTP,11-L1-9,2019-01-29 11:45:00.0,BerPreFecMax,0.00257,CHCGILDTO6Y
MA6813400180,h_OCHCTP,11-L1-9,2019-01-29 11:45:00.0,PmdMin,0.282,CHCGILDTO6Y
MA6813400180,h_OCHCTP,11-L1-9,2019-01-29 11:45:00.0,SoPmdAve,3113.57,CHCGILDTO6Y
MA6813400180,h_OCHCTP,11-L1-10,2019-01-29 11:15:00.0,Qmin,9.05,CHCGILDTO6Y
MA6813400180,h_OCHCTP,11-L1-10,2019-01-29 11:15:00.0,PhaseCorrectionAve,-0.122,CHCGILDTO6Y
MA6813400180,h_OCHCTP,11-L1-10,2019-01-29 11:15:00.0,BerPreFecMax,0.00229,CHCGILDTO6Y
MA6813400180,h_OCHCTP,11-L1-10,2019-01-29 11:15:00.0,PmdMin,0.738,CHCGILDTO6Y
MA6813400180,h_OCHCTP,11-L1-10,2019-01-29 11:15:00.0,SoPmdAve,3044.8,CHCGILDTO6Y
MA6813400180,h_OCHCTP,11-L1-10,2019-01-29 11:30:00.0,Qmin,9.07,CHCGILDTO6Y
MA6813400180,h_OCHCTP,11-L1-10,2019-01-29 11:30:00.0,PhaseCorrectionAve,-0.244,CHCGILDTO6Y
MA6813400180,h_OCHCTP,11-L1-10,2019-01-29 11:30:00.0,BerPreFecMax,0.00224,CHCGILDTO6Y
MA6813400180,h_OCHCTP,11-L1-10,2019-01-29 11:30:00.0,PmdMin,0.692,CHCGILDTO6Y
MA6813400180,h_OCHCTP,11-L1-10,2019-01-29 11:30:00.0,SoPmdAve,3093.01,CHCGILDTO6Y
MA6813400180,h_OCHCTP,11-L1-10,2019-01-29 11:45:00.0,Qmin,9.06,CHCGILDTO6Y
MA6813400180,h_OCHCTP,11-L1-10,2019-01-29 11:45:00.0,PhaseCorrectionAve,-0.061,CHCGILDTO6Y
MA6813400180,h_OCHCTP,11-L1-10,2019-01-29 11:45:00.0,BerPreFecMax,0.00227,CHCGILDTO6Y
MA6813400180,h_OCHCTP,11-L1-10,2019-01-29 11:45:00.0,PmdMin,0.441,CHCGILDTO6Y
MA6813400180,h_OCHCTP,11-L1-10,2019-01-29 11:45:00.0,SoPmdAve,3126.54,CHCGILDTO6Y
MA6813400180,h_OCHCTP,10-L1-1,2019-01-29 11:15:00.0,Qmin,9.42,CHCGILDTO6Y
MA6813400180,h_OCHCTP,10-L1-1,2019-01-29 11:15:00.0,PhaseCorrectionAve,3.3e-07,CHCGILDTO6Y
MA6813400180,h_OCHCTP,10-L1-1,2019-01-29 11:15:00.0,BerPreFecMax,0.00155,CHCGILDTO6Y
MA6813400180,h_OCHCTP,10-L1-1,2019-01-29 11:15:00.0,PmdMin,0.832,CHCGILDTO6Y
MA6813400180,h_OCHCTP,10-L1-1,2019-01-29 11:15:00.0,SoPmdAve,3282.39,CHCGILDTO6Y
MA6813400180,h_OCHCTP,10-L1-1,2019-01-29 11:30:00.0,PhaseCorrectionAve,-0.302,CHCGILDTO6Y
MA6813400180,h_OCHCTP,10-L1-1,2019-01-29 11:30:00.0,BerPreFecMax,9.9e+37,CHCGILDTO6Y
MA6813400180,h_OCHCTP,10-L1-1,2019-01-29 11:30:00.0,PmdMin,-99.9,CHCGILDTO6Y
MA6813400180,h_OCHCTP,10-L1-1,2019-01-29 11:30:00.0,SoPmdAve,3464.09,CHCGILDTO6Y
MA6813400180,h_OCHCTP,10-L1-1,2019-01-29 11:45:00.0,Qmin,9.44,CHCGILDTO6Y
MA6813400180,h_OCHCTP,10-L1-1,2019-01-29 11:45:00.0,PhaseCorrectionAve,3.19e-07,CHCGILDTO6Y
MA6813400180,h_OCHCTP,10-L1-1,2019-01-29 11:45:00.0,BerPreFecMax,0.00152,CHCGILDTO6Y
MA6813400180,h_OCHCTP,10-L1-1,2019-01-29 11:45:00.0,PmdMin,1.51,CHCGILDTO6Y
MA6813400180,h_OCHCTP,10-L1-1,2019-01-29 11:45:00.0,SoPmdAve,3527.31,CHCGILDTO6Y
MA6813400180,h_OCHCTP,10-L1-2,2019-01-29 11:15:00.0,Qmin,9.12,CHCGILDTO6Y
MA6813400180,h_OCHCTP,10-L1-2,2019-01-29 11:15:00.0,PhaseCorrectionAve,3.11e-07,CHCGILDTO6Y
MA6813400180,h_OCHCTP,10-L1-2,2019-01-29 11:15:00.0,BerPreFecMax,0.00212,CHCGILDTO6Y
MA6813400180,h_OCHCTP,10-L1-2,2019-01-29 11:15:00.0,PmdMin,1.49,CHCGILDTO6Y
MA6813400180,h_OCHCTP,10-L1-2,2019-01-29 11:15:00.0,SoPmdAve,3407.38,CHCGILDTO6Y
MA6813400180,h_OCHCTP,10-L1-2,2019-01-29 11:30:00.0,PhaseCorrectionAve,-0.363,CHCGILDTO6Y
MA6813400180,h_OCHCTP,10-L1-2,2019-01-29 11:30:00.0,BerPreFecMax,9.9e+37,CHCGILDTO6Y
MA6813400180,h_OCHCTP,10-L1-2,2019-01-29 11:30:00.0,PmdMin,-99.9,CHCGILDTO6Y
MA6813400180,h_OCHCTP,10-L1-2,2019-01-29 11:30:00.0,SoPmdAve,3388.71,CHCGILDTO6Y
MA6813400180,h_OCHCTP,10-L1-2,2019-01-29 11:45:00.0,Qmin,9.12,CHCGILDTO6Y
MA6813400180,h_OCHCTP,10-L1-2,2019-01-29 11:45:00.0,PhaseCorrectionAve,-0.061,CHCGILDTO6Y
MA6813400180,h_OCHCTP,10-L1-2,2019-01-29 11:45:00.0,BerPreFecMax,0.00212,CHCGILDTO6Y
MA6813400180,h_OCHCTP,10-L1-2,2019-01-29 11:45:00.0,PmdMin,1.96,CHCGILDTO6Y
MA6813400180,h_OCHCTP,10-L1-2,2019-01-29 11:45:00.0,SoPmdAve,3311.5,CHCGILDTO6Y
MA6813400180,h_OCHCTP,10-L1-3,2019-01-29 11:15:00.0,Qmin,8.8,CHCGILDTO6Y
MA6813400180,h_OCHCTP,10-L1-3,2019-01-29 11:15:00.0,PhaseCorrectionAve,-0.0611,CHCGILDTO6Y
MA6813400180,h_OCHCTP,10-L1-3,2019-01-29 11:15:00.0,BerPreFecMax,0.00294,CHCGILDTO6Y
MA6813400180,h_OCHCTP,10-L1-3,2019-01-29 11:15:00.0,PmdMin,4.4,CHCGILDTO6Y
MA6813400180,h_OCHCTP,10-L1-3,2019-01-29 11:15:00.0,SoPmdAve,2863.6,CHCGILDTO6Y
MA6813400180,h_OCHCTP,10-L1-3,2019-01-29 11:30:00.0,PhaseCorrectionAve,-0.302,CHCGILDTO6Y
MA6813400180,h_OCHCTP,10-L1-3,2019-01-29 11:30:00.0,BerPreFecMax,9.9e+37,CHCGILDTO6Y
MA6813400180,h_OCHCTP,10-L1-3,2019-01-29 11:30:00.0,PmdMin,-99.9,CHCGILDTO6Y
MA6813400180,h_OCHCTP,10-L1-3,2019-01-29 11:30:00.0,SoPmdAve,2831.06,CHCGILDTO6Y
MA6813400180,h_OCHCTP,10-L1-3,2019-01-29 11:45:00.0,Qmin,8.81,CHCGILDTO6Y
MA6813400180,h_OCHCTP,10-L1-3,2019-01-29 11:45:00.0,PhaseCorrectionAve,-0.122,CHCGILDTO6Y
MA6813400180,h_OCHCTP,10-L1-3,2019-01-29 11:45:00.0,BerPreFecMax,0.0029,CHCGILDTO6Y
MA6813400180,h_OCHCTP,10-L1-3,2019-01-29 11:45:00.0,PmdMin,5.96,CHCGILDTO6Y
MA6813400180,h_OCHCTP,10-L1-3,2019-01-29 11:45:00.0,SoPmdAve,2813.04,CHCGILDTO6Y
MA6813400180,h_OCHCTP,10-L1-4,2019-01-29 11:15:00.0,Qmin,8.18,CHCGILDTO6Y
MA6813400180,h_OCHCTP,10-L1-4,2019-01-29 11:15:00.0,PhaseCorrectionAve,-0.0611,CHCGILDTO6Y
MA6813400180,h_OCHCTP,10-L1-4,2019-01-29 11:15:00.0,BerPreFecMax,0.00517,CHCGILDTO6Y
MA6813400180,h_OCHCTP,10-L1-4,2019-01-29 11:15:00.0,PmdMin,1.43,CHCGILDTO6Y
MA6813400180,h_OCHCTP,10-L1-4,2019-01-29 11:15:00.0,SoPmdAve,3108.69,CHCGILDTO6Y
MA6813400180,h_OCHCTP,10-L1-4,2019-01-29 11:30:00.0,PhaseCorrectionAve,-0.242,CHCGILDTO6Y
MA6813400180,h_OCHCTP,10-L1-4,2019-01-29 11:30:00.0,BerPreFecMax,9.9e+37,CHCGILDTO6Y
MA6813400180,h_OCHCTP,10-L1-4,2019-01-29 11:30:00.0,PmdMin,-99.9,CHCGILDTO6Y
MA6813400180,h_OCHCTP,10-L1-4,2019-01-29 11:30:00.0,SoPmdAve,3110.28,CHCGILDTO6Y
MA6813400180,h_OCHCTP,10-L1-4,2019-01-29 11:45:00.0,Qmin,8.19,CHCGILDTO6Y
MA6813400180,h_OCHCTP,10-L1-4,2019-01-29 11:45:00.0,PhaseCorrectionAve,-0.122,CHCGILDTO6Y
MA6813400180,h_OCHCTP,10-L1-4,2019-01-29 11:45:00.0,BerPreFecMax,0.0051,CHCGILDTO6Y
MA6813400180,h_OCHCTP,10-L1-4,2019-01-29 11:45:00.0,PmdMin,0.352,CHCGILDTO6Y
MA6813400180,h_OCHCTP,10-L1-4,2019-01-29 11:45:00.0,SoPmdAve,3182.34,CHCGILDTO6Y
MA6813400180,h_OCHCTP,10-L1-5,2019-01-29 11:15:00.0,Qmin,8.36,CHCGILDTO6Y
MA6813400180,h_OCHCTP,10-L1-5,2019-01-29 11:15:00.0,PhaseCorrectionAve,-0.183,CHCGILDTO6Y
MA6813400180,h_OCHCTP,10-L1-5,2019-01-29 11:15:00.0,BerPreFecMax,0.0044,CHCGILDTO6Y
MA6813400180,h_OCHCTP,10-L1-5,2019-01-29 11:15:00.0,PmdMin,4.43,CHCGILDTO6Y
MA6813400180,h_OCHCTP,10-L1-5,2019-01-29 11:15:00.0,SoPmdAve,2897.89,CHCGILDTO6Y
MA6813400180,h_OCHCTP,10-L1-5,2019-01-29 11:30:00.0,PhaseCorrectionAve,-0.302,CHCGILDTO6Y
MA6813400180,h_OCHCTP,10-L1-5,2019-01-29 11:30:00.0,BerPreFecMax,9.9e+37,CHCGILDTO6Y
MA6813400180,h_OCHCTP,10-L1-5,2019-01-29 11:30:00.0,PmdMin,-99.9,CHCGILDTO6Y
MA6813400180,h_OCHCTP,10-L1-5,2019-01-29 11:30:00.0,SoPmdAve,2784.83,CHCGILDTO6Y
MA6813400180,h_OCHCTP,10-L1-5,2019-01-29 11:45:00.0,Qmin,8.4,CHCGILDTO6Y
MA6813400180,h_OCHCTP,10-L1-5,2019-01-29 11:45:00.0,PhaseCorrectionAve,-0.183,CHCGILDTO6Y
MA6813400180,h_OCHCTP,10-L1-5,2019-01-29 11:45:00.0,BerPreFecMax,0.00428,CHCGILDTO6Y
MA6813400180,h_OCHCTP,10-L1-5,2019-01-29 11:45:00.0,PmdMin,3.27,CHCGILDTO6Y
MA6813400180,h_OCHCTP,10-L1-5,2019-01-29 11:45:00.0,SoPmdAve,2888.77,CHCGILDTO6Y
MA6813400180,h_OCHCTP,10-L1-6,2019-01-29 11:15:00.0,Qmin,8.61,CHCGILDTO6Y
MA6813400180,h_OCHCTP,10-L1-6,2019-01-29 11:15:00.0,PhaseCorrectionAve,-0.183,CHCGILDTO6Y
MA6813400180,h_OCHCTP,10-L1-6,2019-01-29 11:15:00.0,BerPreFecMax,0.00351,CHCGILDTO6Y
MA6813400180,h_OCHCTP,10-L1-6,2019-01-29 11:15:00.0,PmdMin,9.34,CHCGILDTO6Y
MA6813400180,h_OCHCTP,10-L1-6,2019-01-29 11:15:00.0,SoPmdAve,2785.59,CHCGILDTO6Y
MA6813400180,h_OCHCTP,10-L1-6,2019-01-29 11:30:00.0,PhaseCorrectionAve,-0.242,CHCGILDTO6Y
MA6813400180,h_OCHCTP,10-L1-6,2019-01-29 11:30:00.0,BerPreFecMax,9.9e+37,CHCGILDTO6Y
MA6813400180,h_OCHCTP,10-L1-6,2019-01-29 11:30:00.0,PmdMin,-99.9,CHCGILDTO6Y
MA6813400180,h_OCHCTP,10-L1-6,2019-01-29 11:30:00.0,SoPmdAve,2733.85,CHCGILDTO6Y
MA6813400180,h_OCHCTP,10-L1-6,2019-01-29 11:45:00.0,Qmin,8.63,CHCGILDTO6Y
MA6813400180,h_OCHCTP,10-L1-6,2019-01-29 11:45:00.0,PhaseCorrectionAve,-0.183,CHCGILDTO6Y
MA6813400180,h_OCHCTP,10-L1-6,2019-01-29 11:45:00.0,BerPreFecMax,0.00345,CHCGILDTO6Y
MA6813400180,h_OCHCTP,10-L1-6,2019-01-29 11:45:00.0,PmdMin,10.54,CHCGILDTO6Y
MA6813400180,h_OCHCTP,10-L1-6,2019-01-29 11:45:00.0,SoPmdAve,2905.42,CHCGILDTO6Y
MA6813400180,h_OCHCTP,10-L1-7,2019-01-29 11:15:00.0,Qmin,8.75,CHCGILDTO6Y
MA6813400180,h_OCHCTP,10-L1-7,2019-01-29 11:15:00.0,PhaseCorrectionAve,-0.183,CHCGILDTO6Y
MA6813400180,h_OCHCTP,10-L1-7,2019-01-29 11:15:00.0,BerPreFecMax,0.00308,CHCGILDTO6Y
MA6813400180,h_OCHCTP,10-L1-7,2019-01-29 11:15:00.0,PmdMin,1.39,CHCGILDTO6Y
MA6813400180,h_OCHCTP,10-L1-7,2019-01-29 11:15:00.0,SoPmdAve,3554.88,CHCGILDTO6Y
MA6813400180,h_OCHCTP,10-L1-7,2019-01-29 11:30:00.0,PhaseCorrectionAve,-0.302,CHCGILDTO6Y
MA6813400180,h_OCHCTP,10-L1-7,2019-01-29 11:30:00.0,BerPreFecMax,9.9e+37,CHCGILDTO6Y
MA6813400180,h_OCHCTP,10-L1-7,2019-01-29 11:30:00.0,PmdMin,-99.9,CHCGILDTO6Y
MA6813400180,h_OCHCTP,10-L1-7,2019-01-29 11:30:00.0,SoPmdAve,3395.31,CHCGILDTO6Y
MA6813400180,h_OCHCTP,10-L1-7,2019-01-29 11:45:00.0,Qmin,8.74,CHCGILDTO6Y
MA6813400180,h_OCHCTP,10-L1-7,2019-01-29 11:45:00.0,PhaseCorrectionAve,-0.183,CHCGILDTO6Y
MA6813400180,h_OCHCTP,10-L1-7,2019-01-29 11:45:00.0,BerPreFecMax,0.00312,CHCGILDTO6Y
MA6813400180,h_OCHCTP,10-L1-7,2019-01-29 11:45:00.0,PmdMin,0.849,CHCGILDTO6Y
MA6813400180,h_OCHCTP,10-L1-7,2019-01-29 11:45:00.0,SoPmdAve,3317.24,CHCGILDTO6Y
MA6813400180,h_OCHCTP,10-L1-8,2019-01-29 11:15:00.0,Qmin,9.32,CHCGILDTO6Y
MA6813400180,h_OCHCTP,10-L1-8,2019-01-29 11:15:00.0,PhaseCorrectionAve,-0.244,CHCGILDTO6Y
MA6813400180,h_OCHCTP,10-L1-8,2019-01-29 11:15:00.0,BerPreFecMax,0.00173,CHCGILDTO6Y
MA6813400180,h_OCHCTP,10-L1-8,2019-01-29 11:15:00.0,PmdMin,3.0,CHCGILDTO6Y
MA6813400180,h_OCHCTP,10-L1-8,2019-01-29 11:15:00.0,SoPmdAve,3386.56,CHCGILDTO6Y
MA6813400180,h_OCHCTP,10-L1-8,2019-01-29 11:30:00.0,PhaseCorrectionAve,-0.242,CHCGILDTO6Y
MA6813400180,h_OCHCTP,10-L1-8,2019-01-29 11:30:00.0,BerPreFecMax,9.9e+37,CHCGILDTO6Y
MA6813400180,h_OCHCTP,10-L1-8,2019-01-29 11:30:00.0,PmdMin,-99.9,CHCGILDTO6Y
MA6813400180,h_OCHCTP,10-L1-8,2019-01-29 11:30:00.0,SoPmdAve,3305.82,CHCGILDTO6Y
MA6813400180,h_OCHCTP,10-L1-8,2019-01-29 11:45:00.0,Qmin,9.33,CHCGILDTO6Y
MA6813400180,h_OCHCTP,10-L1-8,2019-01-29 11:45:00.0,PhaseCorrectionAve,-0.183,CHCGILDTO6Y
MA6813400180,h_OCHCTP,10-L1-8,2019-01-29 11:45:00.0,BerPreFecMax,0.00172,CHCGILDTO6Y
MA6813400180,h_OCHCTP,10-L1-8,2019-01-29 11:45:00.0,PmdMin,1.81,CHCGILDTO6Y
MA6813400180,h_OCHCTP,10-L1-8,2019-01-29 11:45:00.0,SoPmdAve,3202.95,CHCGILDTO6Y
MA6813400180,h_OCHCTP,10-L1-9,2019-01-29 11:15:00.0,Qmin,9.38,CHCGILDTO6Y
MA6813400180,h_OCHCTP,10-L1-9,2019-01-29 11:15:00.0,PhaseCorrectionAve,-0.244,CHCGILDTO6Y
MA6813400180,h_OCHCTP,10-L1-9,2019-01-29 11:15:00.0,BerPreFecMax,0.00161,CHCGILDTO6Y
MA6813400180,h_OCHCTP,10-L1-9,2019-01-29 11:15:00.0,PmdMin,4.82,CHCGILDTO6Y
MA6813400180,h_OCHCTP,10-L1-9,2019-01-29 11:15:00.0,SoPmdAve,3272.43,CHCGILDTO6Y
MA6813400180,h_OCHCTP,10-L1-9,2019-01-29 11:30:00.0,PhaseCorrectionAve,-0.302,CHCGILDTO6Y
MA6813400180,h_OCHCTP,10-L1-9,2019-01-29 11:30:00.0,BerPreFecMax,9.9e+37,CHCGILDTO6Y
MA6813400180,h_OCHCTP,10-L1-9,2019-01-29 11:30:00.0,PmdMin,-99.9,CHCGILDTO6Y
MA6813400180,h_OCHCTP,10-L1-9,2019-01-29 11:30:00.0,SoPmdAve,3278.71,CHCGILDTO6Y
MA6813400180,h_OCHCTP,10-L1-9,2019-01-29 11:45:00.0,Qmin,9.36,CHCGILDTO6Y
MA6813400180,h_OCHCTP,10-L1-9,2019-01-29 11:45:00.0,PhaseCorrectionAve,-0.183,CHCGILDTO6Y
MA6813400180,h_OCHCTP,10-L1-9,2019-01-29 11:45:00.0,BerPreFecMax,0.00165,CHCGILDTO6Y
MA6813400180,h_OCHCTP,10-L1-9,2019-01-29 11:45:00.0,PmdMin,5.44,CHCGILDTO6Y
MA6813400180,h_OCHCTP,10-L1-9,2019-01-29 11:45:00.0,SoPmdAve,3352.43,CHCGILDTO6Y
MA6813400180,h_OCHCTP,10-L1-10,2019-01-29 11:15:00.0,Qmin,9.39,CHCGILDTO6Y
MA6813400180,h_OCHCTP,10-L1-10,2019-01-29 11:15:00.0,PhaseCorrectionAve,-0.306,CHCGILDTO6Y
MA6813400180,h_OCHCTP,10-L1-10,2019-01-29 11:15:00.0,BerPreFecMax,0.00159,CHCGILDTO6Y
MA6813400180,h_OCHCTP,10-L1-10,2019-01-29 11:15:00.0,PmdMin,2.65,CHCGILDTO6Y
MA6813400180,h_OCHCTP,10-L1-10,2019-01-29 11:15:00.0,SoPmdAve,3165.1,CHCGILDTO6Y
MA6813400180,h_OCHCTP,10-L1-10,2019-01-29 11:30:00.0,PhaseCorrectionAve,-0.302,CHCGILDTO6Y
MA6813400180,h_OCHCTP,10-L1-10,2019-01-29 11:30:00.0,BerPreFecMax,9.9e+37,CHCGILDTO6Y
MA6813400180,h_OCHCTP,10-L1-10,2019-01-29 11:30:00.0,PmdMin,-99.9,CHCGILDTO6Y
MA6813400180,h_OCHCTP,10-L1-10,2019-01-29 11:30:00.0,SoPmdAve,3287.04,CHCGILDTO6Y
MA6813400180,h_OCHCTP,10-L1-10,2019-01-29 11:45:00.0,Qmin,9.41,CHCGILDTO6Y
MA6813400180,h_OCHCTP,10-L1-10,2019-01-29 11:45:00.0,PhaseCorrectionAve,-0.183,CHCGILDTO6Y
MA6813400180,h_OCHCTP,10-L1-10,2019-01-29 11:45:00.0,BerPreFecMax,0.00156,CHCGILDTO6Y
MA6813400180,h_OCHCTP,10-L1-10,2019-01-29 11:45:00.0,PmdMin,3.67,CHCGILDTO6Y
MA6813400180,h_OCHCTP,10-L1-10,2019-01-29 11:45:00.0,SoPmdAve,3352.68,CHCGILDTO6Y
MA6813400180,h_OCHCTP,13-L1-1,2019-01-29 11:15:00.0,Qmin,9.1,CHCGILDTO6Y
MA6813400180,h_OCHCTP,13-L1-1,2019-01-29 11:15:00.0,PhaseCorrectionAve,2.55e-07,CHCGILDTO6Y
MA6813400180,h_OCHCTP,13-L1-1,2019-01-29 11:15:00.0,BerPreFecMax,0.00217,CHCGILDTO6Y
MA6813400180,h_OCHCTP,13-L1-1,2019-01-29 11:15:00.0,PmdMin,0.351,CHCGILDTO6Y
MA6813400180,h_OCHCTP,13-L1-1,2019-01-29 11:15:00.0,SoPmdAve,3610.71,CHCGILDTO6Y
MA6813400180,h_OCHCTP,13-L1-1,2019-01-29 11:30:00.0,Qmin,9.1,CHCGILDTO6Y
MA6813400180,h_OCHCTP,13-L1-1,2019-01-29 11:30:00.0,PhaseCorrectionAve,2.48e-07,CHCGILDTO6Y
MA6813400180,h_OCHCTP,13-L1-1,2019-01-29 11:30:00.0,BerPreFecMax,0.00217,CHCGILDTO6Y
MA6813400180,h_OCHCTP,13-L1-1,2019-01-29 11:30:00.0,PmdMin,0.72,CHCGILDTO6Y
MA6813400180,h_OCHCTP,13-L1-1,2019-01-29 11:30:00.0,SoPmdAve,3653.74,CHCGILDTO6Y
MA6813400180,h_OCHCTP,13-L1-1,2019-01-29 11:45:00.0,Qmin,9.12,CHCGILDTO6Y
MA6813400180,h_OCHCTP,13-L1-1,2019-01-29 11:45:00.0,PhaseCorrectionAve,2.61e-07,CHCGILDTO6Y
MA6813400180,h_OCHCTP,13-L1-1,2019-01-29 11:45:00.0,BerPreFecMax,0.00214,CHCGILDTO6Y
MA6813400180,h_OCHCTP,13-L1-1,2019-01-29 11:45:00.0,PmdMin,1.4,CHCGILDTO6Y
MA6813400180,h_OCHCTP,13-L1-1,2019-01-29 11:45:00.0,SoPmdAve,3605.98,CHCGILDTO6Y
MA6813400180,h_OCHCTP,13-L1-2,2019-01-29 11:15:00.0,Qmin,9.16,CHCGILDTO6Y
MA6813400180,h_OCHCTP,13-L1-2,2019-01-29 11:15:00.0,PhaseCorrectionAve,2.84e-07,CHCGILDTO6Y
MA6813400180,h_OCHCTP,13-L1-2,2019-01-29 11:15:00.0,BerPreFecMax,0.00205,CHCGILDTO6Y
MA6813400180,h_OCHCTP,13-L1-2,2019-01-29 11:15:00.0,PmdMin,0.684,CHCGILDTO6Y
MA6813400180,h_OCHCTP,13-L1-2,2019-01-29 11:15:00.0,SoPmdAve,3525.6,CHCGILDTO6Y
MA6813400180,h_OCHCTP,13-L1-2,2019-01-29 11:30:00.0,Qmin,9.14,CHCGILDTO6Y
MA6813400180,h_OCHCTP,13-L1-2,2019-01-29 11:30:00.0,PhaseCorrectionAve,-0.122,CHCGILDTO6Y
MA6813400180,h_OCHCTP,13-L1-2,2019-01-29 11:30:00.0,BerPreFecMax,0.00208,CHCGILDTO6Y
MA6813400180,h_OCHCTP,13-L1-2,2019-01-29 11:30:00.0,PmdMin,1.27,CHCGILDTO6Y
MA6813400180,h_OCHCTP,13-L1-2,2019-01-29 11:30:00.0,SoPmdAve,3528.03,CHCGILDTO6Y
MA6813400180,h_OCHCTP,13-L1-2,2019-01-29 11:45:00.0,Qmin,9.14,CHCGILDTO6Y
MA6813400180,h_OCHCTP,13-L1-2,2019-01-29 11:45:00.0,PhaseCorrectionAve,-0.061,CHCGILDTO6Y
MA6813400180,h_OCHCTP,13-L1-2,2019-01-29 11:45:00.0,BerPreFecMax,0.00208,CHCGILDTO6Y
MA6813400180,h_OCHCTP,13-L1-2,2019-01-29 11:45:00.0,PmdMin,0.952,CHCGILDTO6Y
MA6813400180,h_OCHCTP,13-L1-2,2019-01-29 11:45:00.0,SoPmdAve,3438.07,CHCGILDTO6Y
MA6813400180,h_OCHCTP,13-L1-3,2019-01-29 11:15:00.0,Qmin,8.97,CHCGILDTO6Y
MA6813400180,h_OCHCTP,13-L1-3,2019-01-29 11:15:00.0,PhaseCorrectionAve,-0.061,CHCGILDTO6Y
MA6813400180,h_OCHCTP,13-L1-3,2019-01-29 11:15:00.0,BerPreFecMax,0.00248,CHCGILDTO6Y
MA6813400180,h_OCHCTP,13-L1-3,2019-01-29 11:15:00.0,PmdMin,0.714,CHCGILDTO6Y
MA6813400180,h_OCHCTP,13-L1-3,2019-01-29 11:15:00.0,SoPmdAve,2939.88,CHCGILDTO6Y
MA6813400180,h_OCHCTP,13-L1-3,2019-01-29 11:30:00.0,Qmin,8.94,CHCGILDTO6Y
MA6813400180,h_OCHCTP,13-L1-3,2019-01-29 11:30:00.0,PhaseCorrectionAve,-0.244,CHCGILDTO6Y
MA6813400180,h_OCHCTP,13-L1-3,2019-01-29 11:30:00.0,BerPreFecMax,0.00256,CHCGILDTO6Y
MA6813400180,h_OCHCTP,13-L1-3,2019-01-29 11:30:00.0,PmdMin,0.869,CHCGILDTO6Y
MA6813400180,h_OCHCTP,13-L1-3,2019-01-29 11:30:00.0,SoPmdAve,3055.4,CHCGILDTO6Y
MA6813400180,h_OCHCTP,13-L1-3,2019-01-29 11:45:00.0,Qmin,8.97,CHCGILDTO6Y
MA6813400180,h_OCHCTP,13-L1-3,2019-01-29 11:45:00.0,PhaseCorrectionAve,-0.061,CHCGILDTO6Y
MA6813400180,h_OCHCTP,13-L1-3,2019-01-29 11:45:00.0,BerPreFecMax,0.0025,CHCGILDTO6Y
MA6813400180,h_OCHCTP,13-L1-3,2019-01-29 11:45:00.0,PmdMin,0.857,CHCGILDTO6Y
MA6813400180,h_OCHCTP,13-L1-3,2019-01-29 11:45:00.0,SoPmdAve,2943.49,CHCGILDTO6Y
MA6813400180,h_OCHCTP,13-L1-4,2019-01-29 11:15:00.0,Qmin,8.7,CHCGILDTO6Y
MA6813400180,h_OCHCTP,13-L1-4,2019-01-29 11:15:00.0,PhaseCorrectionAve,-0.122,CHCGILDTO6Y
MA6813400180,h_OCHCTP,13-L1-4,2019-01-29 11:15:00.0,BerPreFecMax,0.00323,CHCGILDTO6Y
MA6813400180,h_OCHCTP,13-L1-4,2019-01-29 11:15:00.0,PmdMin,0.85,CHCGILDTO6Y
MA6813400180,h_OCHCTP,13-L1-4,2019-01-29 11:15:00.0,SoPmdAve,3348.79,CHCGILDTO6Y
MA6813400180,h_OCHCTP,13-L1-4,2019-01-29 11:30:00.0,Qmin,8.73,CHCGILDTO6Y
MA6813400180,h_OCHCTP,13-L1-4,2019-01-29 11:30:00.0,PhaseCorrectionAve,-0.244,CHCGILDTO6Y
MA6813400180,h_OCHCTP,13-L1-4,2019-01-29 11:30:00.0,BerPreFecMax,0.00314,CHCGILDTO6Y
MA6813400180,h_OCHCTP,13-L1-4,2019-01-29 11:30:00.0,PmdMin,1.08,CHCGILDTO6Y
MA6813400180,h_OCHCTP,13-L1-4,2019-01-29 11:30:00.0,SoPmdAve,3555.99,CHCGILDTO6Y
MA6813400180,h_OCHCTP,13-L1-4,2019-01-29 11:45:00.0,Qmin,8.74,CHCGILDTO6Y
MA6813400180,h_OCHCTP,13-L1-4,2019-01-29 11:45:00.0,PhaseCorrectionAve,-0.061,CHCGILDTO6Y
MA6813400180,h_OCHCTP,13-L1-4,2019-01-29 11:45:00.0,BerPreFecMax,0.00312,CHCGILDTO6Y
MA6813400180,h_OCHCTP,13-L1-4,2019-01-29 11:45:00.0,PmdMin,1.08,CHCGILDTO6Y
MA6813400180,h_OCHCTP,13-L1-4,2019-01-29 11:45:00.0,SoPmdAve,3417.77,CHCGILDTO6Y
MA6813400180,h_OCHCTP,13-L1-5,2019-01-29 11:15:00.0,Qmin,8.65,CHCGILDTO6Y
MA6813400180,h_OCHCTP,13-L1-5,2019-01-29 11:15:00.0,PhaseCorrectionAve,-0.122,CHCGILDTO6Y
MA6813400180,h_OCHCTP,13-L1-5,2019-01-29 11:15:00.0,BerPreFecMax,0.0034,CHCGILDTO6Y
MA6813400180,h_OCHCTP,13-L1-5,2019-01-29 11:15:00.0,PmdMin,0.916,CHCGILDTO6Y
MA6813400180,h_OCHCTP,13-L1-5,2019-01-29 11:15:00.0,SoPmdAve,2799.21,CHCGILDTO6Y
MA6813400180,h_OCHCTP,13-L1-5,2019-01-29 11:30:00.0,Qmin,8.62,CHCGILDTO6Y
MA6813400180,h_OCHCTP,13-L1-5,2019-01-29 11:30:00.0,PhaseCorrectionAve,-0.305,CHCGILDTO6Y
MA6813400180,h_OCHCTP,13-L1-5,2019-01-29 11:30:00.0,BerPreFecMax,0.0035,CHCGILDTO6Y
MA6813400180,h_OCHCTP,13-L1-5,2019-01-29 11:30:00.0,PmdMin,1.14,CHCGILDTO6Y
MA6813400180,h_OCHCTP,13-L1-5,2019-01-29 11:30:00.0,SoPmdAve,2814.39,CHCGILDTO6Y
MA6813400180,h_OCHCTP,13-L1-5,2019-01-29 11:45:00.0,Qmin,8.72,CHCGILDTO6Y
MA6813400180,h_OCHCTP,13-L1-5,2019-01-29 11:45:00.0,PhaseCorrectionAve,-0.061,CHCGILDTO6Y
MA6813400180,h_OCHCTP,13-L1-5,2019-01-29 11:45:00.0,BerPreFecMax,0.00319,CHCGILDTO6Y
MA6813400180,h_OCHCTP,13-L1-5,2019-01-29 11:45:00.0,PmdMin,1.27,CHCGILDTO6Y
MA6813400180,h_OCHCTP,13-L1-5,2019-01-29 11:45:00.0,SoPmdAve,2837.68,CHCGILDTO6Y
MA6813400180,h_OCHCTP,13-L1-6,2019-01-29 11:15:00.0,Qmin,8.76,CHCGILDTO6Y
MA6813400180,h_OCHCTP,13-L1-6,2019-01-29 11:15:00.0,PhaseCorrectionAve,-0.122,CHCGILDTO6Y
MA6813400180,h_OCHCTP,13-L1-6,2019-01-29 11:15:00.0,BerPreFecMax,0.00306,CHCGILDTO6Y
MA6813400180,h_OCHCTP,13-L1-6,2019-01-29 11:15:00.0,PmdMin,0.63,CHCGILDTO6Y
MA6813400180,h_OCHCTP,13-L1-6,2019-01-29 11:15:00.0,SoPmdAve,3033.32,CHCGILDTO6Y
MA6813400180,h_OCHCTP,13-L1-6,2019-01-29 11:30:00.0,Qmin,8.76,CHCGILDTO6Y
MA6813400180,h_OCHCTP,13-L1-6,2019-01-29 11:30:00.0,PhaseCorrectionAve,-0.366,CHCGILDTO6Y
MA6813400180,h_OCHCTP,13-L1-6,2019-01-29 11:30:00.0,BerPreFecMax,0.00306,CHCGILDTO6Y
MA6813400180,h_OCHCTP,13-L1-6,2019-01-29 11:30:00.0,PmdMin,0.927,CHCGILDTO6Y
MA6813400180,h_OCHCTP,13-L1-6,2019-01-29 11:30:00.0,SoPmdAve,3044.08,CHCGILDTO6Y
MA6813400180,h_OCHCTP,13-L1-6,2019-01-29 11:45:00.0,Qmin,8.78,CHCGILDTO6Y
MA6813400180,h_OCHCTP,13-L1-6,2019-01-29 11:45:00.0,PhaseCorrectionAve,-0.061,CHCGILDTO6Y
MA6813400180,h_OCHCTP,13-L1-6,2019-01-29 11:45:00.0,BerPreFecMax,0.00298,CHCGILDTO6Y
MA6813400180,h_OCHCTP,13-L1-6,2019-01-29 11:45:00.0,PmdMin,0.606,CHCGILDTO6Y
MA6813400180,h_OCHCTP,13-L1-6,2019-01-29 11:45:00.0,SoPmdAve,3022.66,CHCGILDTO6Y
MA6813400180,h_OCHCTP,13-L1-7,2019-01-29 11:15:00.0,Qmin,8.73,CHCGILDTO6Y
MA6813400180,h_OCHCTP,13-L1-7,2019-01-29 11:15:00.0,PhaseCorrectionAve,-0.183,CHCGILDTO6Y
MA6813400180,h_OCHCTP,13-L1-7,2019-01-29 11:15:00.0,BerPreFecMax,0.00313,CHCGILDTO6Y
MA6813400180,h_OCHCTP,13-L1-7,2019-01-29 11:15:00.0,PmdMin,0.964,CHCGILDTO6Y
MA6813400180,h_OCHCTP,13-L1-7,2019-01-29 11:15:00.0,SoPmdAve,3777.24,CHCGILDTO6Y
MA6813400180,h_OCHCTP,13-L1-7,2019-01-29 11:30:00.0,Qmin,8.72,CHCGILDTO6Y
MA6813400180,h_OCHCTP,13-L1-7,2019-01-29 11:30:00.0,PhaseCorrectionAve,-0.366,CHCGILDTO6Y
MA6813400180,h_OCHCTP,13-L1-7,2019-01-29 11:30:00.0,BerPreFecMax,0.00317,CHCGILDTO6Y
MA6813400180,h_OCHCTP,13-L1-7,2019-01-29 11:30:00.0,PmdMin,1.56,CHCGILDTO6Y
MA6813400180,h_OCHCTP,13-L1-7,2019-01-29 11:30:00.0,SoPmdAve,3796.15,CHCGILDTO6Y
MA6813400180,h_OCHCTP,13-L1-7,2019-01-29 11:45:00.0,Qmin,8.78,CHCGILDTO6Y
MA6813400180,h_OCHCTP,13-L1-7,2019-01-29 11:45:00.0,PhaseCorrectionAve,-0.061,CHCGILDTO6Y
MA6813400180,h_OCHCTP,13-L1-7,2019-01-29 11:45:00.0,BerPreFecMax,0.00299,CHCGILDTO6Y
MA6813400180,h_OCHCTP,13-L1-7,2019-01-29 11:45:00.0,PmdMin,0.751,CHCGILDTO6Y
MA6813400180,h_OCHCTP,13-L1-7,2019-01-29 11:45:00.0,SoPmdAve,3688.39,CHCGILDTO6Y
MA6813400180,h_OCHCTP,13-L1-8,2019-01-29 11:15:00.0,Qmin,8.92,CHCGILDTO6Y
MA6813400180,h_OCHCTP,13-L1-8,2019-01-29 11:15:00.0,PhaseCorrectionAve,-0.183,CHCGILDTO6Y
MA6813400180,h_OCHCTP,13-L1-8,2019-01-29 11:15:00.0,BerPreFecMax,0.00261,CHCGILDTO6Y
MA6813400180,h_OCHCTP,13-L1-8,2019-01-29 11:15:00.0,PmdMin,0.662,CHCGILDTO6Y
MA6813400180,h_OCHCTP,13-L1-8,2019-01-29 11:15:00.0,SoPmdAve,3984.31,CHCGILDTO6Y
MA6813400180,h_OCHCTP,13-L1-8,2019-01-29 11:30:00.0,Qmin,8.93,CHCGILDTO6Y
MA6813400180,h_OCHCTP,13-L1-8,2019-01-29 11:30:00.0,PhaseCorrectionAve,-0.366,CHCGILDTO6Y
MA6813400180,h_OCHCTP,13-L1-8,2019-01-29 11:30:00.0,BerPreFecMax,0.00258,CHCGILDTO6Y
MA6813400180,h_OCHCTP,13-L1-8,2019-01-29 11:30:00.0,PmdMin,0.273,CHCGILDTO6Y
MA6813400180,h_OCHCTP,13-L1-8,2019-01-29 11:30:00.0,SoPmdAve,3913.16,CHCGILDTO6Y
MA6813400180,h_OCHCTP,13-L1-8,2019-01-29 11:45:00.0,Qmin,8.91,CHCGILDTO6Y
MA6813400180,h_OCHCTP,13-L1-8,2019-01-29 11:45:00.0,PhaseCorrectionAve,-0.061,CHCGILDTO6Y
MA6813400180,h_OCHCTP,13-L1-8,2019-01-29 11:45:00.0,BerPreFecMax,0.00264,CHCGILDTO6Y
MA6813400180,h_OCHCTP,13-L1-8,2019-01-29 11:45:00.0,PmdMin,0.678,CHCGILDTO6Y
MA6813400180,h_OCHCTP,13-L1-8,2019-01-29 11:45:00.0,SoPmdAve,3862.49,CHCGILDTO6Y
MA6813400180,h_OCHCTP,13-L1-9,2019-01-29 11:15:00.0,Qmin,8.89,CHCGILDTO6Y
MA6813400180,h_OCHCTP,13-L1-9,2019-01-29 11:15:00.0,PhaseCorrectionAve,-0.183,CHCGILDTO6Y
MA6813400180,h_OCHCTP,13-L1-9,2019-01-29 11:15:00.0,BerPreFecMax,0.00269,CHCGILDTO6Y
MA6813400180,h_OCHCTP,13-L1-9,2019-01-29 11:15:00.0,PmdMin,0.933,CHCGILDTO6Y
MA6813400180,h_OCHCTP,13-L1-9,2019-01-29 11:15:00.0,SoPmdAve,3410.79,CHCGILDTO6Y
MA6813400180,h_OCHCTP,13-L1-9,2019-01-29 11:30:00.0,Qmin,8.9,CHCGILDTO6Y
MA6813400180,h_OCHCTP,13-L1-9,2019-01-29 11:30:00.0,PhaseCorrectionAve,-0.366,CHCGILDTO6Y
MA6813400180,h_OCHCTP,13-L1-9,2019-01-29 11:30:00.0,BerPreFecMax,0.00265,CHCGILDTO6Y
MA6813400180,h_OCHCTP,13-L1-9,2019-01-29 11:30:00.0,PmdMin,0.62,CHCGILDTO6Y
MA6813400180,h_OCHCTP,13-L1-9,2019-01-29 11:30:00.0,SoPmdAve,3535.02,CHCGILDTO6Y
MA6813400180,h_OCHCTP,13-L1-9,2019-01-29 11:45:00.0,Qmin,8.9,CHCGILDTO6Y
MA6813400180,h_OCHCTP,13-L1-9,2019-01-29 11:45:00.0,PhaseCorrectionAve,-0.061,CHCGILDTO6Y
MA6813400180,h_OCHCTP,13-L1-9,2019-01-29 11:45:00.0,BerPreFecMax,0.00268,CHCGILDTO6Y
MA6813400180,h_OCHCTP,13-L1-9,2019-01-29 11:45:00.0,PmdMin,0.496,CHCGILDTO6Y
MA6813400180,h_OCHCTP,13-L1-9,2019-01-29 11:45:00.0,SoPmdAve,3609.3,CHCGILDTO6Y
MA6813400180,h_OCHCTP,13-L1-10,2019-01-29 11:15:00.0,Qmin,8.8,CHCGILDTO6Y
MA6813400180,h_OCHCTP,13-L1-10,2019-01-29 11:15:00.0,PhaseCorrectionAve,-0.183,CHCGILDTO6Y
MA6813400180,h_OCHCTP,13-L1-10,2019-01-29 11:15:00.0,BerPreFecMax,0.00295,CHCGILDTO6Y
MA6813400180,h_OCHCTP,13-L1-10,2019-01-29 11:15:00.0,PmdMin,1.08,CHCGILDTO6Y
MA6813400180,h_OCHCTP,13-L1-10,2019-01-29 11:15:00.0,SoPmdAve,3752.7,CHCGILDTO6Y
MA6813400180,h_OCHCTP,13-L1-10,2019-01-29 11:30:00.0,Qmin,8.76,CHCGILDTO6Y
MA6813400180,h_OCHCTP,13-L1-10,2019-01-29 11:30:00.0,PhaseCorrectionAve,-0.366,CHCGILDTO6Y
MA6813400180,h_OCHCTP,13-L1-10,2019-01-29 11:30:00.0,BerPreFecMax,0.00307,CHCGILDTO6Y
MA6813400180,h_OCHCTP,13-L1-10,2019-01-29 11:30:00.0,PmdMin,0.862,CHCGILDTO6Y
MA6813400180,h_OCHCTP,13-L1-10,2019-01-29 11:30:00.0,SoPmdAve,3787.51,CHCGILDTO6Y
MA6813400180,h_OCHCTP,13-L1-10,2019-01-29 11:45:00.0,Qmin,8.79,CHCGILDTO6Y
MA6813400180,h_OCHCTP,13-L1-10,2019-01-29 11:45:00.0,PhaseCorrectionAve,-0.061,CHCGILDTO6Y
MA6813400180,h_OCHCTP,13-L1-10,2019-01-29 11:45:00.0,BerPreFecMax,0.00298,CHCGILDTO6Y
MA6813400180,h_OCHCTP,13-L1-10,2019-01-29 11:45:00.0,PmdMin,0.795,CHCGILDTO6Y
MA6813400180,h_OCHCTP,13-L1-10,2019-01-29 11:45:00.0,SoPmdAve,3764.3,CHCGILDTO6Y
