MA6813400180,h_OCHCTP,10-L1-1,2019-02-07 04:15:00.0,Qmin,9.43,CHCGILDTO6Y
MA6813400180,h_OCHCTP,10-L1-1,2019-02-07 04:15:00.0,PhaseCorrectionAve,4.02e-07,CHCGILDTO6Y
MA6813400180,h_OCHCTP,10-L1-1,2019-02-07 04:15:00.0,BerPreFecMax,0.00154,CHCGILDTO6Y
MA6813400180,h_OCHCTP,10-L1-1,2019-02-07 04:15:00.0,PmdMin,0.971,CHCGILDTO6Y
MA6813400180,h_OCHCTP,10-L1-1,2019-02-07 04:15:00.0,SoPmdAve,3584.73,CHCGILDTO6Y
MA6813400180,h_OCHCTP,10-L1-1,2019-02-07 04:30:00.0,Qmin,9.44,CHCGILDTO6Y
MA6813400180,h_OCHCTP,10-L1-1,2019-02-07 04:30:00.0,PhaseCorrectionAve,4.23e-07,CHCGILDTO6Y
MA6813400180,h_OCHCTP,10-L1-1,2019-02-07 04:30:00.0,BerPreFecMax,0.00152,CHCGILDTO6Y
MA6813400180,h_OCHCTP,10-L1-1,2019-02-07 04:30:00.0,PmdMin,1.83,CHCGILDTO6Y
MA6813400180,h_OCHCTP,10-L1-1,2019-02-07 04:30:00.0,SoPmdAve,3593.35,CHCGILDTO6Y
MA6813400180,h_OCHCTP,10-L1-1,2019-02-07 04:45:00.0,Qmin,9.45,CHCGILDTO6Y
MA6813400180,h_OCHCTP,10-L1-1,2019-02-07 04:45:00.0,PhaseCorrectionAve,4.17e-07,CHCGILDTO6Y
MA6813400180,h_OCHCTP,10-L1-1,2019-02-07 04:45:00.0,BerPreFecMax,0.0015,CHCGILDTO6Y
MA6813400180,h_OCHCTP,10-L1-1,2019-02-07 04:45:00.0,PmdMin,0.895,CHCGILDTO6Y
MA6813400180,h_OCHCTP,10-L1-1,2019-02-07 04:45:00.0,SoPmdAve,3535.18,CHCGILDTO6Y
MA6813400180,h_OCHCTP,10-L1-2,2019-02-07 04:15:00.0,Qmin,9.12,CHCGILDTO6Y
MA6813400180,h_OCHCTP,10-L1-2,2019-02-07 04:15:00.0,PhaseCorrectionAve,3.37e-07,CHCGILDTO6Y
MA6813400180,h_OCHCTP,10-L1-2,2019-02-07 04:15:00.0,BerPreFecMax,0.00213,CHCGILDTO6Y
MA6813400180,h_OCHCTP,10-L1-2,2019-02-07 04:15:00.0,PmdMin,6.42,CHCGILDTO6Y
MA6813400180,h_OCHCTP,10-L1-2,2019-02-07 04:15:00.0,SoPmdAve,3322.8,CHCGILDTO6Y
MA6813400180,h_OCHCTP,10-L1-2,2019-02-07 04:30:00.0,Qmin,9.14,CHCGILDTO6Y
MA6813400180,h_OCHCTP,10-L1-2,2019-02-07 04:30:00.0,PhaseCorrectionAve,3.2e-07,CHCGILDTO6Y
MA6813400180,h_OCHCTP,10-L1-2,2019-02-07 04:30:00.0,BerPreFecMax,0.0021,CHCGILDTO6Y
MA6813400180,h_OCHCTP,10-L1-2,2019-02-07 04:30:00.0,PmdMin,5.34,CHCGILDTO6Y
MA6813400180,h_OCHCTP,10-L1-2,2019-02-07 04:30:00.0,SoPmdAve,3310.25,CHCGILDTO6Y
MA6813400180,h_OCHCTP,10-L1-2,2019-02-07 04:45:00.0,Qmin,9.14,CHCGILDTO6Y
MA6813400180,h_OCHCTP,10-L1-2,2019-02-07 04:45:00.0,PhaseCorrectionAve,3.2e-07,CHCGILDTO6Y
MA6813400180,h_OCHCTP,10-L1-2,2019-02-07 04:45:00.0,BerPreFecMax,0.00208,CHCGILDTO6Y
MA6813400180,h_OCHCTP,10-L1-2,2019-02-07 04:45:00.0,PmdMin,5.1,CHCGILDTO6Y
MA6813400180,h_OCHCTP,10-L1-2,2019-02-07 04:45:00.0,SoPmdAve,3252.06,CHCGILDTO6Y
MA6813400180,h_OCHCTP,10-L1-3,2019-02-07 04:15:00.0,Qmin,8.84,CHCGILDTO6Y
MA6813400180,h_OCHCTP,10-L1-3,2019-02-07 04:15:00.0,PhaseCorrectionAve,6.46e-07,CHCGILDTO6Y
MA6813400180,h_OCHCTP,10-L1-3,2019-02-07 04:15:00.0,BerPreFecMax,0.00284,CHCGILDTO6Y
MA6813400180,h_OCHCTP,10-L1-3,2019-02-07 04:15:00.0,PmdMin,2.25,CHCGILDTO6Y
MA6813400180,h_OCHCTP,10-L1-3,2019-02-07 04:15:00.0,SoPmdAve,2888.37,CHCGILDTO6Y
MA6813400180,h_OCHCTP,10-L1-3,2019-02-07 04:30:00.0,Qmin,8.84,CHCGILDTO6Y
MA6813400180,h_OCHCTP,10-L1-3,2019-02-07 04:30:00.0,PhaseCorrectionAve,-0.061,CHCGILDTO6Y
MA6813400180,h_OCHCTP,10-L1-3,2019-02-07 04:30:00.0,BerPreFecMax,0.00284,CHCGILDTO6Y
MA6813400180,h_OCHCTP,10-L1-3,2019-02-07 04:30:00.0,PmdMin,2.11,CHCGILDTO6Y
MA6813400180,h_OCHCTP,10-L1-3,2019-02-07 04:30:00.0,SoPmdAve,2900.62,CHCGILDTO6Y
MA6813400180,h_OCHCTP,10-L1-3,2019-02-07 04:45:00.0,Qmin,8.84,CHCGILDTO6Y
MA6813400180,h_OCHCTP,10-L1-3,2019-02-07 04:45:00.0,PhaseCorrectionAve,-0.061,CHCGILDTO6Y
MA6813400180,h_OCHCTP,10-L1-3,2019-02-07 04:45:00.0,BerPreFecMax,0.00282,CHCGILDTO6Y
MA6813400180,h_OCHCTP,10-L1-3,2019-02-07 04:45:00.0,PmdMin,3.04,CHCGILDTO6Y
MA6813400180,h_OCHCTP,10-L1-3,2019-02-07 04:45:00.0,SoPmdAve,2792.93,CHCGILDTO6Y
MA6813400180,h_OCHCTP,10-L1-4,2019-02-07 04:15:00.0,Qmin,8.25,CHCGILDTO6Y
MA6813400180,h_OCHCTP,10-L1-4,2019-02-07 04:15:00.0,PhaseCorrectionAve,3.2e-06,CHCGILDTO6Y
MA6813400180,h_OCHCTP,10-L1-4,2019-02-07 04:15:00.0,BerPreFecMax,0.00487,CHCGILDTO6Y
MA6813400180,h_OCHCTP,10-L1-4,2019-02-07 04:15:00.0,PmdMin,0.731,CHCGILDTO6Y
MA6813400180,h_OCHCTP,10-L1-4,2019-02-07 04:15:00.0,SoPmdAve,3196.35,CHCGILDTO6Y
MA6813400180,h_OCHCTP,10-L1-4,2019-02-07 04:30:00.0,Qmin,8.26,CHCGILDTO6Y
MA6813400180,h_OCHCTP,10-L1-4,2019-02-07 04:30:00.0,PhaseCorrectionAve,-0.061,CHCGILDTO6Y
MA6813400180,h_OCHCTP,10-L1-4,2019-02-07 04:30:00.0,BerPreFecMax,0.00482,CHCGILDTO6Y
MA6813400180,h_OCHCTP,10-L1-4,2019-02-07 04:30:00.0,PmdMin,0.602,CHCGILDTO6Y
MA6813400180,h_OCHCTP,10-L1-4,2019-02-07 04:30:00.0,SoPmdAve,2992.37,CHCGILDTO6Y
MA6813400180,h_OCHCTP,10-L1-4,2019-02-07 04:45:00.0,Qmin,8.22,CHCGILDTO6Y
MA6813400180,h_OCHCTP,10-L1-4,2019-02-07 04:45:00.0,PhaseCorrectionAve,-0.122,CHCGILDTO6Y
MA6813400180,h_OCHCTP,10-L1-4,2019-02-07 04:45:00.0,BerPreFecMax,0.005,CHCGILDTO6Y
MA6813400180,h_OCHCTP,10-L1-4,2019-02-07 04:45:00.0,PmdMin,0.928,CHCGILDTO6Y
MA6813400180,h_OCHCTP,10-L1-4,2019-02-07 04:45:00.0,SoPmdAve,3194.22,CHCGILDTO6Y
MA6813400180,h_OCHCTP,10-L1-5,2019-02-07 04:15:00.0,Qmin,8.46,CHCGILDTO6Y
MA6813400180,h_OCHCTP,10-L1-5,2019-02-07 04:15:00.0,PhaseCorrectionAve,1.7e-06,CHCGILDTO6Y
MA6813400180,h_OCHCTP,10-L1-5,2019-02-07 04:15:00.0,BerPreFecMax,0.00403,CHCGILDTO6Y
MA6813400180,h_OCHCTP,10-L1-5,2019-02-07 04:15:00.0,PmdMin,2.61,CHCGILDTO6Y
MA6813400180,h_OCHCTP,10-L1-5,2019-02-07 04:15:00.0,SoPmdAve,2807.02,CHCGILDTO6Y
MA6813400180,h_OCHCTP,10-L1-5,2019-02-07 04:30:00.0,Qmin,8.49,CHCGILDTO6Y
MA6813400180,h_OCHCTP,10-L1-5,2019-02-07 04:30:00.0,PhaseCorrectionAve,-0.122,CHCGILDTO6Y
MA6813400180,h_OCHCTP,10-L1-5,2019-02-07 04:30:00.0,BerPreFecMax,0.00394,CHCGILDTO6Y
MA6813400180,h_OCHCTP,10-L1-5,2019-02-07 04:30:00.0,PmdMin,1.44,CHCGILDTO6Y
MA6813400180,h_OCHCTP,10-L1-5,2019-02-07 04:30:00.0,SoPmdAve,2814.69,CHCGILDTO6Y
MA6813400180,h_OCHCTP,10-L1-5,2019-02-07 04:45:00.0,Qmin,8.49,CHCGILDTO6Y
MA6813400180,h_OCHCTP,10-L1-5,2019-02-07 04:45:00.0,PhaseCorrectionAve,-0.122,CHCGILDTO6Y
MA6813400180,h_OCHCTP,10-L1-5,2019-02-07 04:45:00.0,BerPreFecMax,0.00395,CHCGILDTO6Y
MA6813400180,h_OCHCTP,10-L1-5,2019-02-07 04:45:00.0,PmdMin,1.29,CHCGILDTO6Y
MA6813400180,h_OCHCTP,10-L1-5,2019-02-07 04:45:00.0,SoPmdAve,2745.91,CHCGILDTO6Y
MA6813400180,h_OCHCTP,10-L1-6,2019-02-07 04:15:00.0,Qmin,8.7,CHCGILDTO6Y
MA6813400180,h_OCHCTP,10-L1-6,2019-02-07 04:15:00.0,PhaseCorrectionAve,9.86e-07,CHCGILDTO6Y
MA6813400180,h_OCHCTP,10-L1-6,2019-02-07 04:15:00.0,BerPreFecMax,0.00325,CHCGILDTO6Y
MA6813400180,h_OCHCTP,10-L1-6,2019-02-07 04:15:00.0,PmdMin,0.9,CHCGILDTO6Y
MA6813400180,h_OCHCTP,10-L1-6,2019-02-07 04:15:00.0,SoPmdAve,2842.29,CHCGILDTO6Y
MA6813400180,h_OCHCTP,10-L1-6,2019-02-07 04:30:00.0,Qmin,8.71,CHCGILDTO6Y
MA6813400180,h_OCHCTP,10-L1-6,2019-02-07 04:30:00.0,PhaseCorrectionAve,-0.122,CHCGILDTO6Y
MA6813400180,h_OCHCTP,10-L1-6,2019-02-07 04:30:00.0,BerPreFecMax,0.0032,CHCGILDTO6Y
MA6813400180,h_OCHCTP,10-L1-6,2019-02-07 04:30:00.0,PmdMin,0.636,CHCGILDTO6Y
MA6813400180,h_OCHCTP,10-L1-6,2019-02-07 04:30:00.0,SoPmdAve,2857.4,CHCGILDTO6Y
MA6813400180,h_OCHCTP,10-L1-6,2019-02-07 04:45:00.0,Qmin,8.7,CHCGILDTO6Y
MA6813400180,h_OCHCTP,10-L1-6,2019-02-07 04:45:00.0,PhaseCorrectionAve,-0.183,CHCGILDTO6Y
MA6813400180,h_OCHCTP,10-L1-6,2019-02-07 04:45:00.0,BerPreFecMax,0.00323,CHCGILDTO6Y
MA6813400180,h_OCHCTP,10-L1-6,2019-02-07 04:45:00.0,PmdMin,0.972,CHCGILDTO6Y
MA6813400180,h_OCHCTP,10-L1-6,2019-02-07 04:45:00.0,SoPmdAve,2781.44,CHCGILDTO6Y
MA6813400180,h_OCHCTP,10-L1-7,2019-02-07 04:15:00.0,Qmin,8.83,CHCGILDTO6Y
MA6813400180,h_OCHCTP,10-L1-7,2019-02-07 04:15:00.0,PhaseCorrectionAve,5.74e-07,CHCGILDTO6Y
MA6813400180,h_OCHCTP,10-L1-7,2019-02-07 04:15:00.0,BerPreFecMax,0.00286,CHCGILDTO6Y
MA6813400180,h_OCHCTP,10-L1-7,2019-02-07 04:15:00.0,PmdMin,1.5,CHCGILDTO6Y
MA6813400180,h_OCHCTP,10-L1-7,2019-02-07 04:15:00.0,SoPmdAve,3268.49,CHCGILDTO6Y
MA6813400180,h_OCHCTP,10-L1-7,2019-02-07 04:30:00.0,Qmin,8.83,CHCGILDTO6Y
MA6813400180,h_OCHCTP,10-L1-7,2019-02-07 04:30:00.0,PhaseCorrectionAve,-0.122,CHCGILDTO6Y
MA6813400180,h_OCHCTP,10-L1-7,2019-02-07 04:30:00.0,BerPreFecMax,0.00286,CHCGILDTO6Y
MA6813400180,h_OCHCTP,10-L1-7,2019-02-07 04:30:00.0,PmdMin,0.454,CHCGILDTO6Y
MA6813400180,h_OCHCTP,10-L1-7,2019-02-07 04:30:00.0,SoPmdAve,3442.78,CHCGILDTO6Y
MA6813400180,h_OCHCTP,10-L1-7,2019-02-07 04:45:00.0,Qmin,8.8,CHCGILDTO6Y
MA6813400180,h_OCHCTP,10-L1-7,2019-02-07 04:45:00.0,PhaseCorrectionAve,-0.183,CHCGILDTO6Y
MA6813400180,h_OCHCTP,10-L1-7,2019-02-07 04:45:00.0,BerPreFecMax,0.00293,CHCGILDTO6Y
MA6813400180,h_OCHCTP,10-L1-7,2019-02-07 04:45:00.0,PmdMin,3.4,CHCGILDTO6Y
MA6813400180,h_OCHCTP,10-L1-7,2019-02-07 04:45:00.0,SoPmdAve,3412.31,CHCGILDTO6Y
MA6813400180,h_OCHCTP,10-L1-8,2019-02-07 04:15:00.0,Qmin,9.31,CHCGILDTO6Y
MA6813400180,h_OCHCTP,10-L1-8,2019-02-07 04:15:00.0,PhaseCorrectionAve,1.14e-06,CHCGILDTO6Y
MA6813400180,h_OCHCTP,10-L1-8,2019-02-07 04:15:00.0,BerPreFecMax,0.00174,CHCGILDTO6Y
MA6813400180,h_OCHCTP,10-L1-8,2019-02-07 04:15:00.0,PmdMin,7.01,CHCGILDTO6Y
MA6813400180,h_OCHCTP,10-L1-8,2019-02-07 04:15:00.0,SoPmdAve,3371.76,CHCGILDTO6Y
MA6813400180,h_OCHCTP,10-L1-8,2019-02-07 04:30:00.0,Qmin,9.3,CHCGILDTO6Y
MA6813400180,h_OCHCTP,10-L1-8,2019-02-07 04:30:00.0,PhaseCorrectionAve,-0.122,CHCGILDTO6Y
MA6813400180,h_OCHCTP,10-L1-8,2019-02-07 04:30:00.0,BerPreFecMax,0.00176,CHCGILDTO6Y
MA6813400180,h_OCHCTP,10-L1-8,2019-02-07 04:30:00.0,PmdMin,9.63,CHCGILDTO6Y
MA6813400180,h_OCHCTP,10-L1-8,2019-02-07 04:30:00.0,SoPmdAve,3343.45,CHCGILDTO6Y
MA6813400180,h_OCHCTP,10-L1-8,2019-02-07 04:45:00.0,Qmin,9.3,CHCGILDTO6Y
MA6813400180,h_OCHCTP,10-L1-8,2019-02-07 04:45:00.0,PhaseCorrectionAve,-0.183,CHCGILDTO6Y
MA6813400180,h_OCHCTP,10-L1-8,2019-02-07 04:45:00.0,BerPreFecMax,0.00176,CHCGILDTO6Y
MA6813400180,h_OCHCTP,10-L1-8,2019-02-07 04:45:00.0,PmdMin,2.81,CHCGILDTO6Y
MA6813400180,h_OCHCTP,10-L1-8,2019-02-07 04:45:00.0,SoPmdAve,3342.13,CHCGILDTO6Y
MA6813400180,h_OCHCTP,10-L1-9,2019-02-07 04:15:00.0,Qmin,9.35,CHCGILDTO6Y
MA6813400180,h_OCHCTP,10-L1-9,2019-02-07 04:15:00.0,PhaseCorrectionAve,1.79e-06,CHCGILDTO6Y
MA6813400180,h_OCHCTP,10-L1-9,2019-02-07 04:15:00.0,BerPreFecMax,0.00168,CHCGILDTO6Y
MA6813400180,h_OCHCTP,10-L1-9,2019-02-07 04:15:00.0,PmdMin,3.1,CHCGILDTO6Y
MA6813400180,h_OCHCTP,10-L1-9,2019-02-07 04:15:00.0,SoPmdAve,3403.18,CHCGILDTO6Y
MA6813400180,h_OCHCTP,10-L1-9,2019-02-07 04:30:00.0,Qmin,9.34,CHCGILDTO6Y
MA6813400180,h_OCHCTP,10-L1-9,2019-02-07 04:30:00.0,PhaseCorrectionAve,-0.122,CHCGILDTO6Y
MA6813400180,h_OCHCTP,10-L1-9,2019-02-07 04:30:00.0,BerPreFecMax,0.00169,CHCGILDTO6Y
MA6813400180,h_OCHCTP,10-L1-9,2019-02-07 04:30:00.0,PmdMin,3.43,CHCGILDTO6Y
MA6813400180,h_OCHCTP,10-L1-9,2019-02-07 04:30:00.0,SoPmdAve,3408.28,CHCGILDTO6Y
MA6813400180,h_OCHCTP,10-L1-9,2019-02-07 04:45:00.0,Qmin,9.32,CHCGILDTO6Y
MA6813400180,h_OCHCTP,10-L1-9,2019-02-07 04:45:00.0,PhaseCorrectionAve,-0.183,CHCGILDTO6Y
MA6813400180,h_OCHCTP,10-L1-9,2019-02-07 04:45:00.0,BerPreFecMax,0.00172,CHCGILDTO6Y
MA6813400180,h_OCHCTP,10-L1-9,2019-02-07 04:45:00.0,PmdMin,0.512,CHCGILDTO6Y
MA6813400180,h_OCHCTP,10-L1-9,2019-02-07 04:45:00.0,SoPmdAve,3530.25,CHCGILDTO6Y
MA6813400180,h_OCHCTP,10-L1-10,2019-02-07 04:15:00.0,Qmin,9.38,CHCGILDTO6Y
MA6813400180,h_OCHCTP,10-L1-10,2019-02-07 04:15:00.0,PhaseCorrectionAve,1.33e-06,CHCGILDTO6Y
MA6813400180,h_OCHCTP,10-L1-10,2019-02-07 04:15:00.0,BerPreFecMax,0.00161,CHCGILDTO6Y
MA6813400180,h_OCHCTP,10-L1-10,2019-02-07 04:15:00.0,PmdMin,5.9,CHCGILDTO6Y
MA6813400180,h_OCHCTP,10-L1-10,2019-02-07 04:15:00.0,SoPmdAve,3283.09,CHCGILDTO6Y
MA6813400180,h_OCHCTP,10-L1-10,2019-02-07 04:30:00.0,Qmin,9.38,CHCGILDTO6Y
MA6813400180,h_OCHCTP,10-L1-10,2019-02-07 04:30:00.0,PhaseCorrectionAve,-0.122,CHCGILDTO6Y
MA6813400180,h_OCHCTP,10-L1-10,2019-02-07 04:30:00.0,BerPreFecMax,0.00163,CHCGILDTO6Y
MA6813400180,h_OCHCTP,10-L1-10,2019-02-07 04:30:00.0,PmdMin,7.21,CHCGILDTO6Y
MA6813400180,h_OCHCTP,10-L1-10,2019-02-07 04:30:00.0,SoPmdAve,3332.26,CHCGILDTO6Y
MA6813400180,h_OCHCTP,10-L1-10,2019-02-07 04:45:00.0,Qmin,9.39,CHCGILDTO6Y
MA6813400180,h_OCHCTP,10-L1-10,2019-02-07 04:45:00.0,PhaseCorrectionAve,-0.244,CHCGILDTO6Y
MA6813400180,h_OCHCTP,10-L1-10,2019-02-07 04:45:00.0,BerPreFecMax,0.00161,CHCGILDTO6Y
MA6813400180,h_OCHCTP,10-L1-10,2019-02-07 04:45:00.0,PmdMin,7.57,CHCGILDTO6Y
MA6813400180,h_OCHCTP,10-L1-10,2019-02-07 04:45:00.0,SoPmdAve,3374.31,CHCGILDTO6Y
MA6813400180,h_OCHCTP,11-L1-1,2019-02-07 04:15:00.0,Qmin,9.08,CHCGILDTO6Y
MA6813400180,h_OCHCTP,11-L1-1,2019-02-07 04:15:00.0,PhaseCorrectionAve,1.31e-07,CHCGILDTO6Y
MA6813400180,h_OCHCTP,11-L1-1,2019-02-07 04:15:00.0,BerPreFecMax,0.00222,CHCGILDTO6Y
MA6813400180,h_OCHCTP,11-L1-1,2019-02-07 04:15:00.0,PmdMin,1.09,CHCGILDTO6Y
MA6813400180,h_OCHCTP,11-L1-1,2019-02-07 04:15:00.0,SoPmdAve,3404.31,CHCGILDTO6Y
MA6813400180,h_OCHCTP,11-L1-1,2019-02-07 04:30:00.0,Qmin,9.09,CHCGILDTO6Y
MA6813400180,h_OCHCTP,11-L1-1,2019-02-07 04:30:00.0,PhaseCorrectionAve,1.39e-07,CHCGILDTO6Y
MA6813400180,h_OCHCTP,11-L1-1,2019-02-07 04:30:00.0,BerPreFecMax,0.00221,CHCGILDTO6Y
MA6813400180,h_OCHCTP,11-L1-1,2019-02-07 04:30:00.0,PmdMin,0.734,CHCGILDTO6Y
MA6813400180,h_OCHCTP,11-L1-1,2019-02-07 04:30:00.0,SoPmdAve,3394.29,CHCGILDTO6Y
MA6813400180,h_OCHCTP,11-L1-1,2019-02-07 04:45:00.0,Qmin,9.03,CHCGILDTO6Y
MA6813400180,h_OCHCTP,11-L1-1,2019-02-07 04:45:00.0,PhaseCorrectionAve,2.01e-07,CHCGILDTO6Y
MA6813400180,h_OCHCTP,11-L1-1,2019-02-07 04:45:00.0,BerPreFecMax,0.00235,CHCGILDTO6Y
MA6813400180,h_OCHCTP,11-L1-1,2019-02-07 04:45:00.0,PmdMin,0.473,CHCGILDTO6Y
MA6813400180,h_OCHCTP,11-L1-1,2019-02-07 04:45:00.0,SoPmdAve,3264.88,CHCGILDTO6Y
MA6813400180,h_OCHCTP,11-L1-2,2019-02-07 04:15:00.0,Qmin,9.06,CHCGILDTO6Y
MA6813400180,h_OCHCTP,11-L1-2,2019-02-07 04:15:00.0,PhaseCorrectionAve,-0.061,CHCGILDTO6Y
MA6813400180,h_OCHCTP,11-L1-2,2019-02-07 04:15:00.0,BerPreFecMax,0.00228,CHCGILDTO6Y
MA6813400180,h_OCHCTP,11-L1-2,2019-02-07 04:15:00.0,PmdMin,0.834,CHCGILDTO6Y
MA6813400180,h_OCHCTP,11-L1-2,2019-02-07 04:15:00.0,SoPmdAve,3207.91,CHCGILDTO6Y
MA6813400180,h_OCHCTP,11-L1-2,2019-02-07 04:30:00.0,Qmin,9.03,CHCGILDTO6Y
MA6813400180,h_OCHCTP,11-L1-2,2019-02-07 04:30:00.0,PhaseCorrectionAve,4.1e-07,CHCGILDTO6Y
MA6813400180,h_OCHCTP,11-L1-2,2019-02-07 04:30:00.0,BerPreFecMax,0.00235,CHCGILDTO6Y
MA6813400180,h_OCHCTP,11-L1-2,2019-02-07 04:30:00.0,PmdMin,0.431,CHCGILDTO6Y
MA6813400180,h_OCHCTP,11-L1-2,2019-02-07 04:30:00.0,SoPmdAve,3238.44,CHCGILDTO6Y
MA6813400180,h_OCHCTP,11-L1-2,2019-02-07 04:45:00.0,Qmin,8.98,CHCGILDTO6Y
MA6813400180,h_OCHCTP,11-L1-2,2019-02-07 04:45:00.0,PhaseCorrectionAve,4.54e-07,CHCGILDTO6Y
MA6813400180,h_OCHCTP,11-L1-2,2019-02-07 04:45:00.0,BerPreFecMax,0.00247,CHCGILDTO6Y
MA6813400180,h_OCHCTP,11-L1-2,2019-02-07 04:45:00.0,PmdMin,0.574,CHCGILDTO6Y
MA6813400180,h_OCHCTP,11-L1-2,2019-02-07 04:45:00.0,SoPmdAve,3198.31,CHCGILDTO6Y
MA6813400180,h_OCHCTP,11-L1-3,2019-02-07 04:15:00.0,Qmin,8.72,CHCGILDTO6Y
MA6813400180,h_OCHCTP,11-L1-3,2019-02-07 04:15:00.0,PhaseCorrectionAve,-0.061,CHCGILDTO6Y
MA6813400180,h_OCHCTP,11-L1-3,2019-02-07 04:15:00.0,BerPreFecMax,0.00318,CHCGILDTO6Y
MA6813400180,h_OCHCTP,11-L1-3,2019-02-07 04:15:00.0,PmdMin,0.533,CHCGILDTO6Y
MA6813400180,h_OCHCTP,11-L1-3,2019-02-07 04:15:00.0,SoPmdAve,2788.65,CHCGILDTO6Y
MA6813400180,h_OCHCTP,11-L1-3,2019-02-07 04:30:00.0,Qmin,8.9,CHCGILDTO6Y
MA6813400180,h_OCHCTP,11-L1-3,2019-02-07 04:30:00.0,PhaseCorrectionAve,4.47e-07,CHCGILDTO6Y
MA6813400180,h_OCHCTP,11-L1-3,2019-02-07 04:30:00.0,BerPreFecMax,0.00266,CHCGILDTO6Y
MA6813400180,h_OCHCTP,11-L1-3,2019-02-07 04:30:00.0,PmdMin,0.472,CHCGILDTO6Y
MA6813400180,h_OCHCTP,11-L1-3,2019-02-07 04:30:00.0,SoPmdAve,2707.07,CHCGILDTO6Y
MA6813400180,h_OCHCTP,11-L1-3,2019-02-07 04:45:00.0,Qmin,8.9,CHCGILDTO6Y
MA6813400180,h_OCHCTP,11-L1-3,2019-02-07 04:45:00.0,PhaseCorrectionAve,4.52e-07,CHCGILDTO6Y
MA6813400180,h_OCHCTP,11-L1-3,2019-02-07 04:45:00.0,BerPreFecMax,0.00268,CHCGILDTO6Y
MA6813400180,h_OCHCTP,11-L1-3,2019-02-07 04:45:00.0,PmdMin,0.769,CHCGILDTO6Y
MA6813400180,h_OCHCTP,11-L1-3,2019-02-07 04:45:00.0,SoPmdAve,2706.36,CHCGILDTO6Y
MA6813400180,h_OCHCTP,11-L1-4,2019-02-07 04:15:00.0,Qmin,8.72,CHCGILDTO6Y
MA6813400180,h_OCHCTP,11-L1-4,2019-02-07 04:15:00.0,PhaseCorrectionAve,-0.061,CHCGILDTO6Y
MA6813400180,h_OCHCTP,11-L1-4,2019-02-07 04:15:00.0,BerPreFecMax,0.00318,CHCGILDTO6Y
MA6813400180,h_OCHCTP,11-L1-4,2019-02-07 04:15:00.0,PmdMin,0.852,CHCGILDTO6Y
MA6813400180,h_OCHCTP,11-L1-4,2019-02-07 04:15:00.0,SoPmdAve,2948.86,CHCGILDTO6Y
MA6813400180,h_OCHCTP,11-L1-4,2019-02-07 04:30:00.0,Qmin,8.68,CHCGILDTO6Y
MA6813400180,h_OCHCTP,11-L1-4,2019-02-07 04:30:00.0,PhaseCorrectionAve,4.71e-07,CHCGILDTO6Y
MA6813400180,h_OCHCTP,11-L1-4,2019-02-07 04:30:00.0,BerPreFecMax,0.00331,CHCGILDTO6Y
MA6813400180,h_OCHCTP,11-L1-4,2019-02-07 04:30:00.0,PmdMin,0.969,CHCGILDTO6Y
MA6813400180,h_OCHCTP,11-L1-4,2019-02-07 04:30:00.0,SoPmdAve,3021.04,CHCGILDTO6Y
MA6813400180,h_OCHCTP,11-L1-4,2019-02-07 04:45:00.0,Qmin,8.66,CHCGILDTO6Y
MA6813400180,h_OCHCTP,11-L1-4,2019-02-07 04:45:00.0,PhaseCorrectionAve,5.41e-07,CHCGILDTO6Y
MA6813400180,h_OCHCTP,11-L1-4,2019-02-07 04:45:00.0,BerPreFecMax,0.00336,CHCGILDTO6Y
MA6813400180,h_OCHCTP,11-L1-4,2019-02-07 04:45:00.0,PmdMin,0.575,CHCGILDTO6Y
MA6813400180,h_OCHCTP,11-L1-4,2019-02-07 04:45:00.0,SoPmdAve,3051.03,CHCGILDTO6Y
MA6813400180,h_OCHCTP,11-L1-5,2019-02-07 04:15:00.0,Qmin,8.85,CHCGILDTO6Y
MA6813400180,h_OCHCTP,11-L1-5,2019-02-07 04:15:00.0,PhaseCorrectionAve,-0.061,CHCGILDTO6Y
MA6813400180,h_OCHCTP,11-L1-5,2019-02-07 04:15:00.0,BerPreFecMax,0.0028,CHCGILDTO6Y
MA6813400180,h_OCHCTP,11-L1-5,2019-02-07 04:15:00.0,PmdMin,0.745,CHCGILDTO6Y
MA6813400180,h_OCHCTP,11-L1-5,2019-02-07 04:15:00.0,SoPmdAve,2533.74,CHCGILDTO6Y
MA6813400180,h_OCHCTP,11-L1-5,2019-02-07 04:30:00.0,Qmin,8.89,CHCGILDTO6Y
MA6813400180,h_OCHCTP,11-L1-5,2019-02-07 04:30:00.0,PhaseCorrectionAve,1.75e-07,CHCGILDTO6Y
MA6813400180,h_OCHCTP,11-L1-5,2019-02-07 04:30:00.0,BerPreFecMax,0.00269,CHCGILDTO6Y
MA6813400180,h_OCHCTP,11-L1-5,2019-02-07 04:30:00.0,PmdMin,0.74,CHCGILDTO6Y
MA6813400180,h_OCHCTP,11-L1-5,2019-02-07 04:30:00.0,SoPmdAve,2484.4,CHCGILDTO6Y
MA6813400180,h_OCHCTP,11-L1-5,2019-02-07 04:45:00.0,Qmin,8.87,CHCGILDTO6Y
MA6813400180,h_OCHCTP,11-L1-5,2019-02-07 04:45:00.0,PhaseCorrectionAve,2.14e-07,CHCGILDTO6Y
MA6813400180,h_OCHCTP,11-L1-5,2019-02-07 04:45:00.0,BerPreFecMax,0.00274,CHCGILDTO6Y
MA6813400180,h_OCHCTP,11-L1-5,2019-02-07 04:45:00.0,PmdMin,0.942,CHCGILDTO6Y
MA6813400180,h_OCHCTP,11-L1-5,2019-02-07 04:45:00.0,SoPmdAve,2577.82,CHCGILDTO6Y
MA6813400180,h_OCHCTP,11-L1-6,2019-02-07 04:15:00.0,Qmin,8.77,CHCGILDTO6Y
MA6813400180,h_OCHCTP,11-L1-6,2019-02-07 04:15:00.0,PhaseCorrectionAve,-0.061,CHCGILDTO6Y
MA6813400180,h_OCHCTP,11-L1-6,2019-02-07 04:15:00.0,BerPreFecMax,0.00301,CHCGILDTO6Y
MA6813400180,h_OCHCTP,11-L1-6,2019-02-07 04:15:00.0,PmdMin,0.719,CHCGILDTO6Y
MA6813400180,h_OCHCTP,11-L1-6,2019-02-07 04:15:00.0,SoPmdAve,2460.98,CHCGILDTO6Y
MA6813400180,h_OCHCTP,11-L1-6,2019-02-07 04:30:00.0,Qmin,8.86,CHCGILDTO6Y
MA6813400180,h_OCHCTP,11-L1-6,2019-02-07 04:30:00.0,PhaseCorrectionAve,4.71e-07,CHCGILDTO6Y
MA6813400180,h_OCHCTP,11-L1-6,2019-02-07 04:30:00.0,BerPreFecMax,0.00276,CHCGILDTO6Y
MA6813400180,h_OCHCTP,11-L1-6,2019-02-07 04:30:00.0,PmdMin,0.768,CHCGILDTO6Y
MA6813400180,h_OCHCTP,11-L1-6,2019-02-07 04:30:00.0,SoPmdAve,2473.28,CHCGILDTO6Y
MA6813400180,h_OCHCTP,11-L1-6,2019-02-07 04:45:00.0,Qmin,8.8,CHCGILDTO6Y
MA6813400180,h_OCHCTP,11-L1-6,2019-02-07 04:45:00.0,PhaseCorrectionAve,-0.061,CHCGILDTO6Y
MA6813400180,h_OCHCTP,11-L1-6,2019-02-07 04:45:00.0,BerPreFecMax,0.00294,CHCGILDTO6Y
MA6813400180,h_OCHCTP,11-L1-6,2019-02-07 04:45:00.0,PmdMin,0.722,CHCGILDTO6Y
MA6813400180,h_OCHCTP,11-L1-6,2019-02-07 04:45:00.0,SoPmdAve,2473.29,CHCGILDTO6Y
MA6813400180,h_OCHCTP,11-L1-7,2019-02-07 04:15:00.0,Qmin,8.8,CHCGILDTO6Y
MA6813400180,h_OCHCTP,11-L1-7,2019-02-07 04:15:00.0,PhaseCorrectionAve,-0.061,CHCGILDTO6Y
MA6813400180,h_OCHCTP,11-L1-7,2019-02-07 04:15:00.0,BerPreFecMax,0.00295,CHCGILDTO6Y
MA6813400180,h_OCHCTP,11-L1-7,2019-02-07 04:15:00.0,PmdMin,1.03,CHCGILDTO6Y
MA6813400180,h_OCHCTP,11-L1-7,2019-02-07 04:15:00.0,SoPmdAve,3017.52,CHCGILDTO6Y
MA6813400180,h_OCHCTP,11-L1-7,2019-02-07 04:30:00.0,Qmin,8.89,CHCGILDTO6Y
MA6813400180,h_OCHCTP,11-L1-7,2019-02-07 04:30:00.0,PhaseCorrectionAve,3.1e-07,CHCGILDTO6Y
MA6813400180,h_OCHCTP,11-L1-7,2019-02-07 04:30:00.0,BerPreFecMax,0.0027,CHCGILDTO6Y
MA6813400180,h_OCHCTP,11-L1-7,2019-02-07 04:30:00.0,PmdMin,0.851,CHCGILDTO6Y
MA6813400180,h_OCHCTP,11-L1-7,2019-02-07 04:30:00.0,SoPmdAve,3103.26,CHCGILDTO6Y
MA6813400180,h_OCHCTP,11-L1-7,2019-02-07 04:45:00.0,Qmin,8.89,CHCGILDTO6Y
MA6813400180,h_OCHCTP,11-L1-7,2019-02-07 04:45:00.0,PhaseCorrectionAve,-0.061,CHCGILDTO6Y
MA6813400180,h_OCHCTP,11-L1-7,2019-02-07 04:45:00.0,BerPreFecMax,0.00269,CHCGILDTO6Y
MA6813400180,h_OCHCTP,11-L1-7,2019-02-07 04:45:00.0,PmdMin,1.07,CHCGILDTO6Y
MA6813400180,h_OCHCTP,11-L1-7,2019-02-07 04:45:00.0,SoPmdAve,3024.24,CHCGILDTO6Y
MA6813400180,h_OCHCTP,11-L1-8,2019-02-07 04:15:00.0,Qmin,8.85,CHCGILDTO6Y
MA6813400180,h_OCHCTP,11-L1-8,2019-02-07 04:15:00.0,PhaseCorrectionAve,-0.061,CHCGILDTO6Y
MA6813400180,h_OCHCTP,11-L1-8,2019-02-07 04:15:00.0,BerPreFecMax,0.00279,CHCGILDTO6Y
MA6813400180,h_OCHCTP,11-L1-8,2019-02-07 04:15:00.0,PmdMin,1.27,CHCGILDTO6Y
MA6813400180,h_OCHCTP,11-L1-8,2019-02-07 04:15:00.0,SoPmdAve,3162.04,CHCGILDTO6Y
MA6813400180,h_OCHCTP,11-L1-8,2019-02-07 04:30:00.0,Qmin,8.85,CHCGILDTO6Y
MA6813400180,h_OCHCTP,11-L1-8,2019-02-07 04:30:00.0,PhaseCorrectionAve,1.45e-06,CHCGILDTO6Y
MA6813400180,h_OCHCTP,11-L1-8,2019-02-07 04:30:00.0,BerPreFecMax,0.0028,CHCGILDTO6Y
MA6813400180,h_OCHCTP,11-L1-8,2019-02-07 04:30:00.0,PmdMin,0.996,CHCGILDTO6Y
MA6813400180,h_OCHCTP,11-L1-8,2019-02-07 04:30:00.0,SoPmdAve,3075.97,CHCGILDTO6Y
MA6813400180,h_OCHCTP,11-L1-8,2019-02-07 04:45:00.0,Qmin,8.86,CHCGILDTO6Y
MA6813400180,h_OCHCTP,11-L1-8,2019-02-07 04:45:00.0,PhaseCorrectionAve,-0.061,CHCGILDTO6Y
MA6813400180,h_OCHCTP,11-L1-8,2019-02-07 04:45:00.0,BerPreFecMax,0.00278,CHCGILDTO6Y
MA6813400180,h_OCHCTP,11-L1-8,2019-02-07 04:45:00.0,PmdMin,0.884,CHCGILDTO6Y
MA6813400180,h_OCHCTP,11-L1-8,2019-02-07 04:45:00.0,SoPmdAve,3116.35,CHCGILDTO6Y
MA6813400180,h_OCHCTP,11-L1-9,2019-02-07 04:15:00.0,Qmin,8.74,CHCGILDTO6Y
MA6813400180,h_OCHCTP,11-L1-9,2019-02-07 04:15:00.0,PhaseCorrectionAve,-0.061,CHCGILDTO6Y
MA6813400180,h_OCHCTP,11-L1-9,2019-02-07 04:15:00.0,BerPreFecMax,0.00312,CHCGILDTO6Y
MA6813400180,h_OCHCTP,11-L1-9,2019-02-07 04:15:00.0,PmdMin,0.917,CHCGILDTO6Y
MA6813400180,h_OCHCTP,11-L1-9,2019-02-07 04:15:00.0,SoPmdAve,2936.7,CHCGILDTO6Y
MA6813400180,h_OCHCTP,11-L1-9,2019-02-07 04:30:00.0,Qmin,8.75,CHCGILDTO6Y
MA6813400180,h_OCHCTP,11-L1-9,2019-02-07 04:30:00.0,PhaseCorrectionAve,2.74e-06,CHCGILDTO6Y
MA6813400180,h_OCHCTP,11-L1-9,2019-02-07 04:30:00.0,BerPreFecMax,0.00309,CHCGILDTO6Y
MA6813400180,h_OCHCTP,11-L1-9,2019-02-07 04:30:00.0,PmdMin,0.491,CHCGILDTO6Y
MA6813400180,h_OCHCTP,11-L1-9,2019-02-07 04:30:00.0,SoPmdAve,3021.88,CHCGILDTO6Y
MA6813400180,h_OCHCTP,11-L1-9,2019-02-07 04:45:00.0,Qmin,8.71,CHCGILDTO6Y
MA6813400180,h_OCHCTP,11-L1-9,2019-02-07 04:45:00.0,PhaseCorrectionAve,-0.061,CHCGILDTO6Y
MA6813400180,h_OCHCTP,11-L1-9,2019-02-07 04:45:00.0,BerPreFecMax,0.0032,CHCGILDTO6Y
MA6813400180,h_OCHCTP,11-L1-9,2019-02-07 04:45:00.0,PmdMin,0.49,CHCGILDTO6Y
MA6813400180,h_OCHCTP,11-L1-9,2019-02-07 04:45:00.0,SoPmdAve,2973.32,CHCGILDTO6Y
MA6813400180,h_OCHCTP,11-L1-10,2019-02-07 04:15:00.0,Qmin,8.87,CHCGILDTO6Y
MA6813400180,h_OCHCTP,11-L1-10,2019-02-07 04:15:00.0,PhaseCorrectionAve,-0.122,CHCGILDTO6Y
MA6813400180,h_OCHCTP,11-L1-10,2019-02-07 04:15:00.0,BerPreFecMax,0.00275,CHCGILDTO6Y
MA6813400180,h_OCHCTP,11-L1-10,2019-02-07 04:15:00.0,PmdMin,0.55,CHCGILDTO6Y
MA6813400180,h_OCHCTP,11-L1-10,2019-02-07 04:15:00.0,SoPmdAve,3095.3,CHCGILDTO6Y
MA6813400180,h_OCHCTP,11-L1-10,2019-02-07 04:30:00.0,Qmin,8.87,CHCGILDTO6Y
MA6813400180,h_OCHCTP,11-L1-10,2019-02-07 04:30:00.0,PhaseCorrectionAve,-0.061,CHCGILDTO6Y
MA6813400180,h_OCHCTP,11-L1-10,2019-02-07 04:30:00.0,BerPreFecMax,0.00276,CHCGILDTO6Y
MA6813400180,h_OCHCTP,11-L1-10,2019-02-07 04:30:00.0,PmdMin,1.44,CHCGILDTO6Y
MA6813400180,h_OCHCTP,11-L1-10,2019-02-07 04:30:00.0,SoPmdAve,3086.47,CHCGILDTO6Y
MA6813400180,h_OCHCTP,11-L1-10,2019-02-07 04:45:00.0,Qmin,8.9,CHCGILDTO6Y
MA6813400180,h_OCHCTP,11-L1-10,2019-02-07 04:45:00.0,PhaseCorrectionAve,-0.061,CHCGILDTO6Y
MA6813400180,h_OCHCTP,11-L1-10,2019-02-07 04:45:00.0,BerPreFecMax,0.00267,CHCGILDTO6Y
MA6813400180,h_OCHCTP,11-L1-10,2019-02-07 04:45:00.0,PmdMin,0.803,CHCGILDTO6Y
MA6813400180,h_OCHCTP,11-L1-10,2019-02-07 04:45:00.0,SoPmdAve,3093.56,CHCGILDTO6Y
MA6813400180,h_OCHCTP,13-L1-1,2019-02-07 04:15:00.0,Qmin,9.03,CHCGILDTO6Y
MA6813400180,h_OCHCTP,13-L1-1,2019-02-07 04:15:00.0,PhaseCorrectionAve,3.18e-07,CHCGILDTO6Y
MA6813400180,h_OCHCTP,13-L1-1,2019-02-07 04:15:00.0,BerPreFecMax,0.00235,CHCGILDTO6Y
MA6813400180,h_OCHCTP,13-L1-1,2019-02-07 04:15:00.0,PmdMin,1.34,CHCGILDTO6Y
MA6813400180,h_OCHCTP,13-L1-1,2019-02-07 04:15:00.0,SoPmdAve,3669.32,CHCGILDTO6Y
MA6813400180,h_OCHCTP,13-L1-1,2019-02-07 04:30:00.0,Qmin,9.03,CHCGILDTO6Y
MA6813400180,h_OCHCTP,13-L1-1,2019-02-07 04:30:00.0,PhaseCorrectionAve,2.81e-07,CHCGILDTO6Y
MA6813400180,h_OCHCTP,13-L1-1,2019-02-07 04:30:00.0,BerPreFecMax,0.00233,CHCGILDTO6Y
MA6813400180,h_OCHCTP,13-L1-1,2019-02-07 04:30:00.0,PmdMin,0.691,CHCGILDTO6Y
MA6813400180,h_OCHCTP,13-L1-1,2019-02-07 04:30:00.0,SoPmdAve,3650.5,CHCGILDTO6Y
MA6813400180,h_OCHCTP,13-L1-1,2019-02-07 04:45:00.0,Qmin,8.99,CHCGILDTO6Y
MA6813400180,h_OCHCTP,13-L1-1,2019-02-07 04:45:00.0,PhaseCorrectionAve,3.11e-07,CHCGILDTO6Y
MA6813400180,h_OCHCTP,13-L1-1,2019-02-07 04:45:00.0,BerPreFecMax,0.00244,CHCGILDTO6Y
MA6813400180,h_OCHCTP,13-L1-1,2019-02-07 04:45:00.0,PmdMin,0.553,CHCGILDTO6Y
MA6813400180,h_OCHCTP,13-L1-1,2019-02-07 04:45:00.0,SoPmdAve,3573.26,CHCGILDTO6Y
MA6813400180,h_OCHCTP,13-L1-2,2019-02-07 04:15:00.0,Qmin,9.15,CHCGILDTO6Y
MA6813400180,h_OCHCTP,13-L1-2,2019-02-07 04:15:00.0,PhaseCorrectionAve,-0.122,CHCGILDTO6Y
MA6813400180,h_OCHCTP,13-L1-2,2019-02-07 04:15:00.0,BerPreFecMax,0.00206,CHCGILDTO6Y
MA6813400180,h_OCHCTP,13-L1-2,2019-02-07 04:15:00.0,PmdMin,0.384,CHCGILDTO6Y
MA6813400180,h_OCHCTP,13-L1-2,2019-02-07 04:15:00.0,SoPmdAve,3523.94,CHCGILDTO6Y
MA6813400180,h_OCHCTP,13-L1-2,2019-02-07 04:30:00.0,Qmin,9.1,CHCGILDTO6Y
MA6813400180,h_OCHCTP,13-L1-2,2019-02-07 04:30:00.0,PhaseCorrectionAve,3.83e-07,CHCGILDTO6Y
MA6813400180,h_OCHCTP,13-L1-2,2019-02-07 04:30:00.0,BerPreFecMax,0.00217,CHCGILDTO6Y
MA6813400180,h_OCHCTP,13-L1-2,2019-02-07 04:30:00.0,PmdMin,0.845,CHCGILDTO6Y
MA6813400180,h_OCHCTP,13-L1-2,2019-02-07 04:30:00.0,SoPmdAve,3562.96,CHCGILDTO6Y
MA6813400180,h_OCHCTP,13-L1-2,2019-02-07 04:45:00.0,Qmin,9.04,CHCGILDTO6Y
MA6813400180,h_OCHCTP,13-L1-2,2019-02-07 04:45:00.0,PhaseCorrectionAve,-0.061,CHCGILDTO6Y
MA6813400180,h_OCHCTP,13-L1-2,2019-02-07 04:45:00.0,BerPreFecMax,0.00232,CHCGILDTO6Y
MA6813400180,h_OCHCTP,13-L1-2,2019-02-07 04:45:00.0,PmdMin,0.722,CHCGILDTO6Y
MA6813400180,h_OCHCTP,13-L1-2,2019-02-07 04:45:00.0,SoPmdAve,3592.06,CHCGILDTO6Y
MA6813400180,h_OCHCTP,13-L1-3,2019-02-07 04:15:00.0,Qmin,8.75,CHCGILDTO6Y
MA6813400180,h_OCHCTP,13-L1-3,2019-02-07 04:15:00.0,PhaseCorrectionAve,-0.122,CHCGILDTO6Y
MA6813400180,h_OCHCTP,13-L1-3,2019-02-07 04:15:00.0,BerPreFecMax,0.00309,CHCGILDTO6Y
MA6813400180,h_OCHCTP,13-L1-3,2019-02-07 04:15:00.0,PmdMin,0.676,CHCGILDTO6Y
MA6813400180,h_OCHCTP,13-L1-3,2019-02-07 04:15:00.0,SoPmdAve,2882.07,CHCGILDTO6Y
MA6813400180,h_OCHCTP,13-L1-3,2019-02-07 04:30:00.0,Qmin,8.89,CHCGILDTO6Y
MA6813400180,h_OCHCTP,13-L1-3,2019-02-07 04:30:00.0,PhaseCorrectionAve,-0.061,CHCGILDTO6Y
MA6813400180,h_OCHCTP,13-L1-3,2019-02-07 04:30:00.0,BerPreFecMax,0.00269,CHCGILDTO6Y
MA6813400180,h_OCHCTP,13-L1-3,2019-02-07 04:30:00.0,PmdMin,1.22,CHCGILDTO6Y
MA6813400180,h_OCHCTP,13-L1-3,2019-02-07 04:30:00.0,SoPmdAve,2917.63,CHCGILDTO6Y
MA6813400180,h_OCHCTP,13-L1-3,2019-02-07 04:45:00.0,Qmin,8.85,CHCGILDTO6Y
MA6813400180,h_OCHCTP,13-L1-3,2019-02-07 04:45:00.0,PhaseCorrectionAve,-0.122,CHCGILDTO6Y
MA6813400180,h_OCHCTP,13-L1-3,2019-02-07 04:45:00.0,BerPreFecMax,0.00281,CHCGILDTO6Y
MA6813400180,h_OCHCTP,13-L1-3,2019-02-07 04:45:00.0,PmdMin,0.575,CHCGILDTO6Y
MA6813400180,h_OCHCTP,13-L1-3,2019-02-07 04:45:00.0,SoPmdAve,2921.59,CHCGILDTO6Y
MA6813400180,h_OCHCTP,13-L1-4,2019-02-07 04:15:00.0,Qmin,8.67,CHCGILDTO6Y
MA6813400180,h_OCHCTP,13-L1-4,2019-02-07 04:15:00.0,PhaseCorrectionAve,-0.122,CHCGILDTO6Y
MA6813400180,h_OCHCTP,13-L1-4,2019-02-07 04:15:00.0,BerPreFecMax,0.00334,CHCGILDTO6Y
MA6813400180,h_OCHCTP,13-L1-4,2019-02-07 04:15:00.0,PmdMin,0.611,CHCGILDTO6Y
MA6813400180,h_OCHCTP,13-L1-4,2019-02-07 04:15:00.0,SoPmdAve,3354.94,CHCGILDTO6Y
MA6813400180,h_OCHCTP,13-L1-4,2019-02-07 04:30:00.0,Qmin,8.69,CHCGILDTO6Y
MA6813400180,h_OCHCTP,13-L1-4,2019-02-07 04:30:00.0,PhaseCorrectionAve,-0.061,CHCGILDTO6Y
MA6813400180,h_OCHCTP,13-L1-4,2019-02-07 04:30:00.0,BerPreFecMax,0.00327,CHCGILDTO6Y
MA6813400180,h_OCHCTP,13-L1-4,2019-02-07 04:30:00.0,PmdMin,0.994,CHCGILDTO6Y
MA6813400180,h_OCHCTP,13-L1-4,2019-02-07 04:30:00.0,SoPmdAve,3344.0,CHCGILDTO6Y
MA6813400180,h_OCHCTP,13-L1-4,2019-02-07 04:45:00.0,Qmin,8.68,CHCGILDTO6Y
MA6813400180,h_OCHCTP,13-L1-4,2019-02-07 04:45:00.0,PhaseCorrectionAve,-0.122,CHCGILDTO6Y
MA6813400180,h_OCHCTP,13-L1-4,2019-02-07 04:45:00.0,BerPreFecMax,0.00331,CHCGILDTO6Y
MA6813400180,h_OCHCTP,13-L1-4,2019-02-07 04:45:00.0,PmdMin,0.516,CHCGILDTO6Y
MA6813400180,h_OCHCTP,13-L1-4,2019-02-07 04:45:00.0,SoPmdAve,3576.43,CHCGILDTO6Y
MA6813400180,h_OCHCTP,13-L1-5,2019-02-07 04:15:00.0,Qmin,8.74,CHCGILDTO6Y
MA6813400180,h_OCHCTP,13-L1-5,2019-02-07 04:15:00.0,PhaseCorrectionAve,-0.122,CHCGILDTO6Y
MA6813400180,h_OCHCTP,13-L1-5,2019-02-07 04:15:00.0,BerPreFecMax,0.00312,CHCGILDTO6Y
MA6813400180,h_OCHCTP,13-L1-5,2019-02-07 04:15:00.0,PmdMin,0.539,CHCGILDTO6Y
MA6813400180,h_OCHCTP,13-L1-5,2019-02-07 04:15:00.0,SoPmdAve,2810.49,CHCGILDTO6Y
MA6813400180,h_OCHCTP,13-L1-5,2019-02-07 04:30:00.0,Qmin,8.76,CHCGILDTO6Y
MA6813400180,h_OCHCTP,13-L1-5,2019-02-07 04:30:00.0,PhaseCorrectionAve,-0.061,CHCGILDTO6Y
MA6813400180,h_OCHCTP,13-L1-5,2019-02-07 04:30:00.0,BerPreFecMax,0.00305,CHCGILDTO6Y
MA6813400180,h_OCHCTP,13-L1-5,2019-02-07 04:30:00.0,PmdMin,0.431,CHCGILDTO6Y
MA6813400180,h_OCHCTP,13-L1-5,2019-02-07 04:30:00.0,SoPmdAve,2831.4,CHCGILDTO6Y
MA6813400180,h_OCHCTP,13-L1-5,2019-02-07 04:45:00.0,Qmin,8.72,CHCGILDTO6Y
MA6813400180,h_OCHCTP,13-L1-5,2019-02-07 04:45:00.0,PhaseCorrectionAve,-0.183,CHCGILDTO6Y
MA6813400180,h_OCHCTP,13-L1-5,2019-02-07 04:45:00.0,BerPreFecMax,0.00316,CHCGILDTO6Y
MA6813400180,h_OCHCTP,13-L1-5,2019-02-07 04:45:00.0,PmdMin,0.439,CHCGILDTO6Y
MA6813400180,h_OCHCTP,13-L1-5,2019-02-07 04:45:00.0,SoPmdAve,2788.21,CHCGILDTO6Y
MA6813400180,h_OCHCTP,13-L1-6,2019-02-07 04:15:00.0,Qmin,8.85,CHCGILDTO6Y
MA6813400180,h_OCHCTP,13-L1-6,2019-02-07 04:15:00.0,PhaseCorrectionAve,-0.122,CHCGILDTO6Y
MA6813400180,h_OCHCTP,13-L1-6,2019-02-07 04:15:00.0,BerPreFecMax,0.00279,CHCGILDTO6Y
MA6813400180,h_OCHCTP,13-L1-6,2019-02-07 04:15:00.0,PmdMin,1.51,CHCGILDTO6Y
MA6813400180,h_OCHCTP,13-L1-6,2019-02-07 04:15:00.0,SoPmdAve,3052.85,CHCGILDTO6Y
MA6813400180,h_OCHCTP,13-L1-6,2019-02-07 04:30:00.0,Qmin,8.87,CHCGILDTO6Y
MA6813400180,h_OCHCTP,13-L1-6,2019-02-07 04:30:00.0,PhaseCorrectionAve,-0.061,CHCGILDTO6Y
MA6813400180,h_OCHCTP,13-L1-6,2019-02-07 04:30:00.0,BerPreFecMax,0.00274,CHCGILDTO6Y
MA6813400180,h_OCHCTP,13-L1-6,2019-02-07 04:30:00.0,PmdMin,0.662,CHCGILDTO6Y
MA6813400180,h_OCHCTP,13-L1-6,2019-02-07 04:30:00.0,SoPmdAve,2998.26,CHCGILDTO6Y
MA6813400180,h_OCHCTP,13-L1-6,2019-02-07 04:45:00.0,Qmin,8.83,CHCGILDTO6Y
MA6813400180,h_OCHCTP,13-L1-6,2019-02-07 04:45:00.0,PhaseCorrectionAve,-0.183,CHCGILDTO6Y
MA6813400180,h_OCHCTP,13-L1-6,2019-02-07 04:45:00.0,BerPreFecMax,0.00287,CHCGILDTO6Y
MA6813400180,h_OCHCTP,13-L1-6,2019-02-07 04:45:00.0,PmdMin,1.12,CHCGILDTO6Y
MA6813400180,h_OCHCTP,13-L1-6,2019-02-07 04:45:00.0,SoPmdAve,3141.27,CHCGILDTO6Y
MA6813400180,h_OCHCTP,13-L1-7,2019-02-07 04:15:00.0,Qmin,8.81,CHCGILDTO6Y
MA6813400180,h_OCHCTP,13-L1-7,2019-02-07 04:15:00.0,PhaseCorrectionAve,-0.122,CHCGILDTO6Y
MA6813400180,h_OCHCTP,13-L1-7,2019-02-07 04:15:00.0,BerPreFecMax,0.00291,CHCGILDTO6Y
MA6813400180,h_OCHCTP,13-L1-7,2019-02-07 04:15:00.0,PmdMin,1.36,CHCGILDTO6Y
MA6813400180,h_OCHCTP,13-L1-7,2019-02-07 04:15:00.0,SoPmdAve,3686.04,CHCGILDTO6Y
MA6813400180,h_OCHCTP,13-L1-7,2019-02-07 04:30:00.0,Qmin,8.85,CHCGILDTO6Y
MA6813400180,h_OCHCTP,13-L1-7,2019-02-07 04:30:00.0,PhaseCorrectionAve,-0.122,CHCGILDTO6Y
MA6813400180,h_OCHCTP,13-L1-7,2019-02-07 04:30:00.0,BerPreFecMax,0.0028,CHCGILDTO6Y
MA6813400180,h_OCHCTP,13-L1-7,2019-02-07 04:30:00.0,PmdMin,0.989,CHCGILDTO6Y
MA6813400180,h_OCHCTP,13-L1-7,2019-02-07 04:30:00.0,SoPmdAve,3737.91,CHCGILDTO6Y
MA6813400180,h_OCHCTP,13-L1-7,2019-02-07 04:45:00.0,Qmin,8.84,CHCGILDTO6Y
MA6813400180,h_OCHCTP,13-L1-7,2019-02-07 04:45:00.0,PhaseCorrectionAve,-0.183,CHCGILDTO6Y
MA6813400180,h_OCHCTP,13-L1-7,2019-02-07 04:45:00.0,BerPreFecMax,0.00284,CHCGILDTO6Y
MA6813400180,h_OCHCTP,13-L1-7,2019-02-07 04:45:00.0,PmdMin,0.602,CHCGILDTO6Y
MA6813400180,h_OCHCTP,13-L1-7,2019-02-07 04:45:00.0,SoPmdAve,3709.78,CHCGILDTO6Y
MA6813400180,h_OCHCTP,13-L1-8,2019-02-07 04:15:00.0,Qmin,8.85,CHCGILDTO6Y
MA6813400180,h_OCHCTP,13-L1-8,2019-02-07 04:15:00.0,PhaseCorrectionAve,-0.122,CHCGILDTO6Y
MA6813400180,h_OCHCTP,13-L1-8,2019-02-07 04:15:00.0,BerPreFecMax,0.0028,CHCGILDTO6Y
MA6813400180,h_OCHCTP,13-L1-8,2019-02-07 04:15:00.0,PmdMin,0.899,CHCGILDTO6Y
MA6813400180,h_OCHCTP,13-L1-8,2019-02-07 04:15:00.0,SoPmdAve,3761.32,CHCGILDTO6Y
MA6813400180,h_OCHCTP,13-L1-8,2019-02-07 04:30:00.0,Qmin,8.81,CHCGILDTO6Y
MA6813400180,h_OCHCTP,13-L1-8,2019-02-07 04:30:00.0,PhaseCorrectionAve,-0.183,CHCGILDTO6Y
MA6813400180,h_OCHCTP,13-L1-8,2019-02-07 04:30:00.0,BerPreFecMax,0.0029,CHCGILDTO6Y
MA6813400180,h_OCHCTP,13-L1-8,2019-02-07 04:30:00.0,PmdMin,1.72,CHCGILDTO6Y
MA6813400180,h_OCHCTP,13-L1-8,2019-02-07 04:30:00.0,SoPmdAve,3770.34,CHCGILDTO6Y
MA6813400180,h_OCHCTP,13-L1-8,2019-02-07 04:45:00.0,Qmin,8.81,CHCGILDTO6Y
MA6813400180,h_OCHCTP,13-L1-8,2019-02-07 04:45:00.0,PhaseCorrectionAve,-0.244,CHCGILDTO6Y
MA6813400180,h_OCHCTP,13-L1-8,2019-02-07 04:45:00.0,BerPreFecMax,0.00292,CHCGILDTO6Y
MA6813400180,h_OCHCTP,13-L1-8,2019-02-07 04:45:00.0,PmdMin,0.883,CHCGILDTO6Y
MA6813400180,h_OCHCTP,13-L1-8,2019-02-07 04:45:00.0,SoPmdAve,3835.03,CHCGILDTO6Y
MA6813400180,h_OCHCTP,13-L1-9,2019-02-07 04:15:00.0,Qmin,8.75,CHCGILDTO6Y
MA6813400180,h_OCHCTP,13-L1-9,2019-02-07 04:15:00.0,PhaseCorrectionAve,-0.122,CHCGILDTO6Y
MA6813400180,h_OCHCTP,13-L1-9,2019-02-07 04:15:00.0,BerPreFecMax,0.0031,CHCGILDTO6Y
MA6813400180,h_OCHCTP,13-L1-9,2019-02-07 04:15:00.0,PmdMin,0.503,CHCGILDTO6Y
MA6813400180,h_OCHCTP,13-L1-9,2019-02-07 04:15:00.0,SoPmdAve,3555.18,CHCGILDTO6Y
MA6813400180,h_OCHCTP,13-L1-9,2019-02-07 04:30:00.0,Qmin,8.75,CHCGILDTO6Y
MA6813400180,h_OCHCTP,13-L1-9,2019-02-07 04:30:00.0,PhaseCorrectionAve,-0.244,CHCGILDTO6Y
MA6813400180,h_OCHCTP,13-L1-9,2019-02-07 04:30:00.0,BerPreFecMax,0.00307,CHCGILDTO6Y
MA6813400180,h_OCHCTP,13-L1-9,2019-02-07 04:30:00.0,PmdMin,0.952,CHCGILDTO6Y
MA6813400180,h_OCHCTP,13-L1-9,2019-02-07 04:30:00.0,SoPmdAve,3631.41,CHCGILDTO6Y
MA6813400180,h_OCHCTP,13-L1-9,2019-02-07 04:45:00.0,Qmin,8.65,CHCGILDTO6Y
MA6813400180,h_OCHCTP,13-L1-9,2019-02-07 04:45:00.0,PhaseCorrectionAve,-0.305,CHCGILDTO6Y
MA6813400180,h_OCHCTP,13-L1-9,2019-02-07 04:45:00.0,BerPreFecMax,0.00338,CHCGILDTO6Y
MA6813400180,h_OCHCTP,13-L1-9,2019-02-07 04:45:00.0,PmdMin,0.39,CHCGILDTO6Y
MA6813400180,h_OCHCTP,13-L1-9,2019-02-07 04:45:00.0,SoPmdAve,3599.71,CHCGILDTO6Y
MA6813400180,h_OCHCTP,13-L1-10,2019-02-07 04:15:00.0,Qmin,8.6,CHCGILDTO6Y
MA6813400180,h_OCHCTP,13-L1-10,2019-02-07 04:15:00.0,PhaseCorrectionAve,-0.122,CHCGILDTO6Y
MA6813400180,h_OCHCTP,13-L1-10,2019-02-07 04:15:00.0,BerPreFecMax,0.00354,CHCGILDTO6Y
MA6813400180,h_OCHCTP,13-L1-10,2019-02-07 04:15:00.0,PmdMin,0.423,CHCGILDTO6Y
MA6813400180,h_OCHCTP,13-L1-10,2019-02-07 04:15:00.0,SoPmdAve,3896.16,CHCGILDTO6Y
MA6813400180,h_OCHCTP,13-L1-10,2019-02-07 04:30:00.0,Qmin,8.61,CHCGILDTO6Y
MA6813400180,h_OCHCTP,13-L1-10,2019-02-07 04:30:00.0,PhaseCorrectionAve,-0.244,CHCGILDTO6Y
MA6813400180,h_OCHCTP,13-L1-10,2019-02-07 04:30:00.0,BerPreFecMax,0.00351,CHCGILDTO6Y
MA6813400180,h_OCHCTP,13-L1-10,2019-02-07 04:30:00.0,PmdMin,0.749,CHCGILDTO6Y
MA6813400180,h_OCHCTP,13-L1-10,2019-02-07 04:30:00.0,SoPmdAve,3881.73,CHCGILDTO6Y
MA6813400180,h_OCHCTP,13-L1-10,2019-02-07 04:45:00.0,Qmin,8.59,CHCGILDTO6Y
MA6813400180,h_OCHCTP,13-L1-10,2019-02-07 04:45:00.0,PhaseCorrectionAve,-0.305,CHCGILDTO6Y
MA6813400180,h_OCHCTP,13-L1-10,2019-02-07 04:45:00.0,BerPreFecMax,0.00359,CHCGILDTO6Y
MA6813400180,h_OCHCTP,13-L1-10,2019-02-07 04:45:00.0,PmdMin,1.21,CHCGILDTO6Y
MA6813400180,h_OCHCTP,13-L1-10,2019-02-07 04:45:00.0,SoPmdAve,3916.57,CHCGILDTO6Y
