MA6813400180,h_OCHCTP,11-L1-1,2019-01-25 08:15:00.0,Qmin,9.1,CHCGILDTO6Y
MA6813400180,h_OCHCTP,11-L1-1,2019-01-25 08:15:00.0,PhaseCorrectionAve,1.1e-07,CHCGILDTO6Y
MA6813400180,h_OCHCTP,11-L1-1,2019-01-25 08:15:00.0,BerPreFecMax,0.00219,CHCGILDTO6Y
MA6813400180,h_OCHCTP,11-L1-1,2019-01-25 08:15:00.0,PmdMin,1.38,CHCGILDTO6Y
MA6813400180,h_OCHCTP,11-L1-1,2019-01-25 08:15:00.0,SoPmdAve,3356.58,CHCGILDTO6Y
MA6813400180,h_OCHCTP,11-L1-1,2019-01-25 08:30:00.0,Qmin,9.12,CHCGILDTO6Y
MA6813400180,h_OCHCTP,11-L1-1,2019-01-25 08:30:00.0,PhaseCorrectionAve,1.01e-07,CHCGILDTO6Y
MA6813400180,h_OCHCTP,11-L1-1,2019-01-25 08:30:00.0,BerPreFecMax,0.00214,CHCGILDTO6Y
MA6813400180,h_OCHCTP,11-L1-1,2019-01-25 08:30:00.0,PmdMin,0.696,CHCGILDTO6Y
MA6813400180,h_OCHCTP,11-L1-1,2019-01-25 08:30:00.0,SoPmdAve,3382.82,CHCGILDTO6Y
MA6813400180,h_OCHCTP,11-L1-1,2019-01-25 08:45:00.0,Qmin,9.13,CHCGILDTO6Y
MA6813400180,h_OCHCTP,11-L1-1,2019-01-25 08:45:00.0,PhaseCorrectionAve,1.04e-07,CHCGILDTO6Y
MA6813400180,h_OCHCTP,11-L1-1,2019-01-25 08:45:00.0,BerPreFecMax,0.00212,CHCGILDTO6Y
MA6813400180,h_OCHCTP,11-L1-1,2019-01-25 08:45:00.0,PmdMin,1.55,CHCGILDTO6Y
MA6813400180,h_OCHCTP,11-L1-1,2019-01-25 08:45:00.0,SoPmdAve,3317.34,CHCGILDTO6Y
MA6813400180,h_OCHCTP,11-L1-2,2019-01-25 08:15:00.0,Qmin,8.99,CHCGILDTO6Y
MA6813400180,h_OCHCTP,11-L1-2,2019-01-25 08:15:00.0,PhaseCorrectionAve,-0.061,CHCGILDTO6Y
MA6813400180,h_OCHCTP,11-L1-2,2019-01-25 08:15:00.0,BerPreFecMax,0.00244,CHCGILDTO6Y
MA6813400180,h_OCHCTP,11-L1-2,2019-01-25 08:15:00.0,PmdMin,0.759,CHCGILDTO6Y
MA6813400180,h_OCHCTP,11-L1-2,2019-01-25 08:15:00.0,SoPmdAve,3173.14,CHCGILDTO6Y
MA6813400180,h_OCHCTP,11-L1-2,2019-01-25 08:30:00.0,Qmin,9.06,CHCGILDTO6Y
MA6813400180,h_OCHCTP,11-L1-2,2019-01-25 08:30:00.0,PhaseCorrectionAve,-0.061,CHCGILDTO6Y
MA6813400180,h_OCHCTP,11-L1-2,2019-01-25 08:30:00.0,BerPreFecMax,0.00228,CHCGILDTO6Y
MA6813400180,h_OCHCTP,11-L1-2,2019-01-25 08:30:00.0,PmdMin,0.528,CHCGILDTO6Y
MA6813400180,h_OCHCTP,11-L1-2,2019-01-25 08:30:00.0,SoPmdAve,3168.8,CHCGILDTO6Y
MA6813400180,h_OCHCTP,11-L1-2,2019-01-25 08:45:00.0,Qmin,9.06,CHCGILDTO6Y
MA6813400180,h_OCHCTP,11-L1-2,2019-01-25 08:45:00.0,PhaseCorrectionAve,-0.061,CHCGILDTO6Y
MA6813400180,h_OCHCTP,11-L1-2,2019-01-25 08:45:00.0,BerPreFecMax,0.00227,CHCGILDTO6Y
MA6813400180,h_OCHCTP,11-L1-2,2019-01-25 08:45:00.0,PmdMin,1.14,CHCGILDTO6Y
MA6813400180,h_OCHCTP,11-L1-2,2019-01-25 08:45:00.0,SoPmdAve,3134.91,CHCGILDTO6Y
MA6813400180,h_OCHCTP,11-L1-3,2019-01-25 08:15:00.0,Qmin,8.93,CHCGILDTO6Y
MA6813400180,h_OCHCTP,11-L1-3,2019-01-25 08:15:00.0,PhaseCorrectionAve,-0.061,CHCGILDTO6Y
MA6813400180,h_OCHCTP,11-L1-3,2019-01-25 08:15:00.0,BerPreFecMax,0.00258,CHCGILDTO6Y
MA6813400180,h_OCHCTP,11-L1-3,2019-01-25 08:15:00.0,PmdMin,0.769,CHCGILDTO6Y
MA6813400180,h_OCHCTP,11-L1-3,2019-01-25 08:15:00.0,SoPmdAve,2658.09,CHCGILDTO6Y
MA6813400180,h_OCHCTP,11-L1-3,2019-01-25 08:30:00.0,Qmin,8.94,CHCGILDTO6Y
MA6813400180,h_OCHCTP,11-L1-3,2019-01-25 08:30:00.0,PhaseCorrectionAve,-0.183,CHCGILDTO6Y
MA6813400180,h_OCHCTP,11-L1-3,2019-01-25 08:30:00.0,BerPreFecMax,0.00255,CHCGILDTO6Y
MA6813400180,h_OCHCTP,11-L1-3,2019-01-25 08:30:00.0,PmdMin,0.457,CHCGILDTO6Y
MA6813400180,h_OCHCTP,11-L1-3,2019-01-25 08:30:00.0,SoPmdAve,2731.29,CHCGILDTO6Y
MA6813400180,h_OCHCTP,11-L1-3,2019-01-25 08:45:00.0,Qmin,8.98,CHCGILDTO6Y
MA6813400180,h_OCHCTP,11-L1-3,2019-01-25 08:45:00.0,PhaseCorrectionAve,-0.061,CHCGILDTO6Y
MA6813400180,h_OCHCTP,11-L1-3,2019-01-25 08:45:00.0,BerPreFecMax,0.00247,CHCGILDTO6Y
MA6813400180,h_OCHCTP,11-L1-3,2019-01-25 08:45:00.0,PmdMin,0.749,CHCGILDTO6Y
MA6813400180,h_OCHCTP,11-L1-3,2019-01-25 08:45:00.0,SoPmdAve,2690.06,CHCGILDTO6Y
MA6813400180,h_OCHCTP,11-L1-4,2019-01-25 08:15:00.0,Qmin,8.73,CHCGILDTO6Y
MA6813400180,h_OCHCTP,11-L1-4,2019-01-25 08:15:00.0,PhaseCorrectionAve,-0.061,CHCGILDTO6Y
MA6813400180,h_OCHCTP,11-L1-4,2019-01-25 08:15:00.0,BerPreFecMax,0.00314,CHCGILDTO6Y
MA6813400180,h_OCHCTP,11-L1-4,2019-01-25 08:15:00.0,PmdMin,0.43,CHCGILDTO6Y
MA6813400180,h_OCHCTP,11-L1-4,2019-01-25 08:15:00.0,SoPmdAve,2998.24,CHCGILDTO6Y
MA6813400180,h_OCHCTP,11-L1-4,2019-01-25 08:30:00.0,Qmin,8.76,CHCGILDTO6Y
MA6813400180,h_OCHCTP,11-L1-4,2019-01-25 08:30:00.0,PhaseCorrectionAve,-0.183,CHCGILDTO6Y
MA6813400180,h_OCHCTP,11-L1-4,2019-01-25 08:30:00.0,BerPreFecMax,0.00307,CHCGILDTO6Y
MA6813400180,h_OCHCTP,11-L1-4,2019-01-25 08:30:00.0,PmdMin,0.887,CHCGILDTO6Y
MA6813400180,h_OCHCTP,11-L1-4,2019-01-25 08:30:00.0,SoPmdAve,2933.73,CHCGILDTO6Y
MA6813400180,h_OCHCTP,11-L1-4,2019-01-25 08:45:00.0,Qmin,8.73,CHCGILDTO6Y
MA6813400180,h_OCHCTP,11-L1-4,2019-01-25 08:45:00.0,PhaseCorrectionAve,-0.061,CHCGILDTO6Y
MA6813400180,h_OCHCTP,11-L1-4,2019-01-25 08:45:00.0,BerPreFecMax,0.00313,CHCGILDTO6Y
MA6813400180,h_OCHCTP,11-L1-4,2019-01-25 08:45:00.0,PmdMin,0.784,CHCGILDTO6Y
MA6813400180,h_OCHCTP,11-L1-4,2019-01-25 08:45:00.0,SoPmdAve,2970.46,CHCGILDTO6Y
MA6813400180,h_OCHCTP,11-L1-5,2019-01-25 08:15:00.0,Qmin,8.83,CHCGILDTO6Y
MA6813400180,h_OCHCTP,11-L1-5,2019-01-25 08:15:00.0,PhaseCorrectionAve,-0.061,CHCGILDTO6Y
MA6813400180,h_OCHCTP,11-L1-5,2019-01-25 08:15:00.0,BerPreFecMax,0.00285,CHCGILDTO6Y
MA6813400180,h_OCHCTP,11-L1-5,2019-01-25 08:15:00.0,PmdMin,0.488,CHCGILDTO6Y
MA6813400180,h_OCHCTP,11-L1-5,2019-01-25 08:15:00.0,SoPmdAve,2596.89,CHCGILDTO6Y
MA6813400180,h_OCHCTP,11-L1-5,2019-01-25 08:30:00.0,Qmin,8.83,CHCGILDTO6Y
MA6813400180,h_OCHCTP,11-L1-5,2019-01-25 08:30:00.0,PhaseCorrectionAve,-0.244,CHCGILDTO6Y
MA6813400180,h_OCHCTP,11-L1-5,2019-01-25 08:30:00.0,BerPreFecMax,0.00285,CHCGILDTO6Y
MA6813400180,h_OCHCTP,11-L1-5,2019-01-25 08:30:00.0,PmdMin,0.197,CHCGILDTO6Y
MA6813400180,h_OCHCTP,11-L1-5,2019-01-25 08:30:00.0,SoPmdAve,2504.34,CHCGILDTO6Y
MA6813400180,h_OCHCTP,11-L1-5,2019-01-25 08:45:00.0,Qmin,8.79,CHCGILDTO6Y
MA6813400180,h_OCHCTP,11-L1-5,2019-01-25 08:45:00.0,PhaseCorrectionAve,-0.122,CHCGILDTO6Y
MA6813400180,h_OCHCTP,11-L1-5,2019-01-25 08:45:00.0,BerPreFecMax,0.00296,CHCGILDTO6Y
MA6813400180,h_OCHCTP,11-L1-5,2019-01-25 08:45:00.0,PmdMin,0.45,CHCGILDTO6Y
MA6813400180,h_OCHCTP,11-L1-5,2019-01-25 08:45:00.0,SoPmdAve,2467.22,CHCGILDTO6Y
MA6813400180,h_OCHCTP,11-L1-6,2019-01-25 08:15:00.0,Qmin,8.78,CHCGILDTO6Y
MA6813400180,h_OCHCTP,11-L1-6,2019-01-25 08:15:00.0,PhaseCorrectionAve,-0.061,CHCGILDTO6Y
MA6813400180,h_OCHCTP,11-L1-6,2019-01-25 08:15:00.0,BerPreFecMax,0.00298,CHCGILDTO6Y
MA6813400180,h_OCHCTP,11-L1-6,2019-01-25 08:15:00.0,PmdMin,0.547,CHCGILDTO6Y
MA6813400180,h_OCHCTP,11-L1-6,2019-01-25 08:15:00.0,SoPmdAve,2478.83,CHCGILDTO6Y
MA6813400180,h_OCHCTP,11-L1-6,2019-01-25 08:30:00.0,Qmin,8.83,CHCGILDTO6Y
MA6813400180,h_OCHCTP,11-L1-6,2019-01-25 08:30:00.0,PhaseCorrectionAve,-0.244,CHCGILDTO6Y
MA6813400180,h_OCHCTP,11-L1-6,2019-01-25 08:30:00.0,BerPreFecMax,0.00285,CHCGILDTO6Y
MA6813400180,h_OCHCTP,11-L1-6,2019-01-25 08:30:00.0,PmdMin,0.97,CHCGILDTO6Y
MA6813400180,h_OCHCTP,11-L1-6,2019-01-25 08:30:00.0,SoPmdAve,2510.66,CHCGILDTO6Y
MA6813400180,h_OCHCTP,11-L1-6,2019-01-25 08:45:00.0,Qmin,8.74,CHCGILDTO6Y
MA6813400180,h_OCHCTP,11-L1-6,2019-01-25 08:45:00.0,PhaseCorrectionAve,-0.183,CHCGILDTO6Y
MA6813400180,h_OCHCTP,11-L1-6,2019-01-25 08:45:00.0,BerPreFecMax,0.00311,CHCGILDTO6Y
MA6813400180,h_OCHCTP,11-L1-6,2019-01-25 08:45:00.0,PmdMin,0.717,CHCGILDTO6Y
MA6813400180,h_OCHCTP,11-L1-6,2019-01-25 08:45:00.0,SoPmdAve,2499.31,CHCGILDTO6Y
MA6813400180,h_OCHCTP,11-L1-7,2019-01-25 08:15:00.0,Qmin,8.89,CHCGILDTO6Y
MA6813400180,h_OCHCTP,11-L1-7,2019-01-25 08:15:00.0,PhaseCorrectionAve,-0.061,CHCGILDTO6Y
MA6813400180,h_OCHCTP,11-L1-7,2019-01-25 08:15:00.0,BerPreFecMax,0.0027,CHCGILDTO6Y
MA6813400180,h_OCHCTP,11-L1-7,2019-01-25 08:15:00.0,PmdMin,0.489,CHCGILDTO6Y
MA6813400180,h_OCHCTP,11-L1-7,2019-01-25 08:15:00.0,SoPmdAve,2983.21,CHCGILDTO6Y
MA6813400180,h_OCHCTP,11-L1-7,2019-01-25 08:30:00.0,Qmin,8.89,CHCGILDTO6Y
MA6813400180,h_OCHCTP,11-L1-7,2019-01-25 08:30:00.0,PhaseCorrectionAve,-0.244,CHCGILDTO6Y
MA6813400180,h_OCHCTP,11-L1-7,2019-01-25 08:30:00.0,BerPreFecMax,0.0027,CHCGILDTO6Y
MA6813400180,h_OCHCTP,11-L1-7,2019-01-25 08:30:00.0,PmdMin,0.768,CHCGILDTO6Y
MA6813400180,h_OCHCTP,11-L1-7,2019-01-25 08:30:00.0,SoPmdAve,3018.42,CHCGILDTO6Y
MA6813400180,h_OCHCTP,11-L1-7,2019-01-25 08:45:00.0,Qmin,8.84,CHCGILDTO6Y
MA6813400180,h_OCHCTP,11-L1-7,2019-01-25 08:45:00.0,PhaseCorrectionAve,-0.183,CHCGILDTO6Y
MA6813400180,h_OCHCTP,11-L1-7,2019-01-25 08:45:00.0,BerPreFecMax,0.00284,CHCGILDTO6Y
MA6813400180,h_OCHCTP,11-L1-7,2019-01-25 08:45:00.0,PmdMin,0.592,CHCGILDTO6Y
MA6813400180,h_OCHCTP,11-L1-7,2019-01-25 08:45:00.0,SoPmdAve,3070.99,CHCGILDTO6Y
MA6813400180,h_OCHCTP,11-L1-8,2019-01-25 08:15:00.0,Qmin,8.96,CHCGILDTO6Y
MA6813400180,h_OCHCTP,11-L1-8,2019-01-25 08:15:00.0,PhaseCorrectionAve,-0.122,CHCGILDTO6Y
MA6813400180,h_OCHCTP,11-L1-8,2019-01-25 08:15:00.0,BerPreFecMax,0.00252,CHCGILDTO6Y
MA6813400180,h_OCHCTP,11-L1-8,2019-01-25 08:15:00.0,PmdMin,0.963,CHCGILDTO6Y
MA6813400180,h_OCHCTP,11-L1-8,2019-01-25 08:15:00.0,SoPmdAve,3133.7,CHCGILDTO6Y
MA6813400180,h_OCHCTP,11-L1-8,2019-01-25 08:30:00.0,Qmin,8.94,CHCGILDTO6Y
MA6813400180,h_OCHCTP,11-L1-8,2019-01-25 08:30:00.0,PhaseCorrectionAve,-0.305,CHCGILDTO6Y
MA6813400180,h_OCHCTP,11-L1-8,2019-01-25 08:30:00.0,BerPreFecMax,0.00257,CHCGILDTO6Y
MA6813400180,h_OCHCTP,11-L1-8,2019-01-25 08:30:00.0,PmdMin,0.488,CHCGILDTO6Y
MA6813400180,h_OCHCTP,11-L1-8,2019-01-25 08:30:00.0,SoPmdAve,3142.59,CHCGILDTO6Y
MA6813400180,h_OCHCTP,11-L1-8,2019-01-25 08:45:00.0,Qmin,8.93,CHCGILDTO6Y
MA6813400180,h_OCHCTP,11-L1-8,2019-01-25 08:45:00.0,PhaseCorrectionAve,-0.183,CHCGILDTO6Y
MA6813400180,h_OCHCTP,11-L1-8,2019-01-25 08:45:00.0,BerPreFecMax,0.00258,CHCGILDTO6Y
MA6813400180,h_OCHCTP,11-L1-8,2019-01-25 08:45:00.0,PmdMin,0.545,CHCGILDTO6Y
MA6813400180,h_OCHCTP,11-L1-8,2019-01-25 08:45:00.0,SoPmdAve,3204.64,CHCGILDTO6Y
MA6813400180,h_OCHCTP,11-L1-9,2019-01-25 08:15:00.0,Qmin,8.86,CHCGILDTO6Y
MA6813400180,h_OCHCTP,11-L1-9,2019-01-25 08:15:00.0,PhaseCorrectionAve,-0.122,CHCGILDTO6Y
MA6813400180,h_OCHCTP,11-L1-9,2019-01-25 08:15:00.0,BerPreFecMax,0.00276,CHCGILDTO6Y
MA6813400180,h_OCHCTP,11-L1-9,2019-01-25 08:15:00.0,PmdMin,0.874,CHCGILDTO6Y
MA6813400180,h_OCHCTP,11-L1-9,2019-01-25 08:15:00.0,SoPmdAve,3053.34,CHCGILDTO6Y
MA6813400180,h_OCHCTP,11-L1-9,2019-01-25 08:30:00.0,Qmin,8.84,CHCGILDTO6Y
MA6813400180,h_OCHCTP,11-L1-9,2019-01-25 08:30:00.0,PhaseCorrectionAve,-0.305,CHCGILDTO6Y
MA6813400180,h_OCHCTP,11-L1-9,2019-01-25 08:30:00.0,BerPreFecMax,0.00284,CHCGILDTO6Y
MA6813400180,h_OCHCTP,11-L1-9,2019-01-25 08:30:00.0,PmdMin,0.346,CHCGILDTO6Y
MA6813400180,h_OCHCTP,11-L1-9,2019-01-25 08:30:00.0,SoPmdAve,3138.83,CHCGILDTO6Y
MA6813400180,h_OCHCTP,11-L1-9,2019-01-25 08:45:00.0,Qmin,8.87,CHCGILDTO6Y
MA6813400180,h_OCHCTP,11-L1-9,2019-01-25 08:45:00.0,PhaseCorrectionAve,-0.183,CHCGILDTO6Y
MA6813400180,h_OCHCTP,11-L1-9,2019-01-25 08:45:00.0,BerPreFecMax,0.00275,CHCGILDTO6Y
MA6813400180,h_OCHCTP,11-L1-9,2019-01-25 08:45:00.0,PmdMin,1.04,CHCGILDTO6Y
MA6813400180,h_OCHCTP,11-L1-9,2019-01-25 08:45:00.0,SoPmdAve,3092.6,CHCGILDTO6Y
MA6813400180,h_OCHCTP,11-L1-10,2019-01-25 08:15:00.0,Qmin,9.02,CHCGILDTO6Y
MA6813400180,h_OCHCTP,11-L1-10,2019-01-25 08:15:00.0,PhaseCorrectionAve,-0.122,CHCGILDTO6Y
MA6813400180,h_OCHCTP,11-L1-10,2019-01-25 08:15:00.0,BerPreFecMax,0.00236,CHCGILDTO6Y
MA6813400180,h_OCHCTP,11-L1-10,2019-01-25 08:15:00.0,PmdMin,1.07,CHCGILDTO6Y
MA6813400180,h_OCHCTP,11-L1-10,2019-01-25 08:15:00.0,SoPmdAve,3117.04,CHCGILDTO6Y
MA6813400180,h_OCHCTP,11-L1-10,2019-01-25 08:30:00.0,Qmin,9.01,CHCGILDTO6Y
MA6813400180,h_OCHCTP,11-L1-10,2019-01-25 08:30:00.0,PhaseCorrectionAve,-0.305,CHCGILDTO6Y
MA6813400180,h_OCHCTP,11-L1-10,2019-01-25 08:30:00.0,BerPreFecMax,0.00238,CHCGILDTO6Y
MA6813400180,h_OCHCTP,11-L1-10,2019-01-25 08:30:00.0,PmdMin,1.23,CHCGILDTO6Y
MA6813400180,h_OCHCTP,11-L1-10,2019-01-25 08:30:00.0,SoPmdAve,3047.74,CHCGILDTO6Y
MA6813400180,h_OCHCTP,11-L1-10,2019-01-25 08:45:00.0,Qmin,8.97,CHCGILDTO6Y
MA6813400180,h_OCHCTP,11-L1-10,2019-01-25 08:45:00.0,PhaseCorrectionAve,-0.244,CHCGILDTO6Y
MA6813400180,h_OCHCTP,11-L1-10,2019-01-25 08:45:00.0,BerPreFecMax,0.00249,CHCGILDTO6Y
MA6813400180,h_OCHCTP,11-L1-10,2019-01-25 08:45:00.0,PmdMin,0.69,CHCGILDTO6Y
MA6813400180,h_OCHCTP,11-L1-10,2019-01-25 08:45:00.0,SoPmdAve,3168.53,CHCGILDTO6Y
MA6813400180,h_OCHCTP,10-L1-1,2019-01-25 08:15:00.0,Qmin,9.43,CHCGILDTO6Y
MA6813400180,h_OCHCTP,10-L1-1,2019-01-25 08:15:00.0,PhaseCorrectionAve,3.35e-07,CHCGILDTO6Y
MA6813400180,h_OCHCTP,10-L1-1,2019-01-25 08:15:00.0,BerPreFecMax,0.00153,CHCGILDTO6Y
MA6813400180,h_OCHCTP,10-L1-1,2019-01-25 08:15:00.0,PmdMin,1.76,CHCGILDTO6Y
MA6813400180,h_OCHCTP,10-L1-1,2019-01-25 08:15:00.0,SoPmdAve,3216.82,CHCGILDTO6Y
MA6813400180,h_OCHCTP,10-L1-1,2019-01-25 08:30:00.0,Qmin,9.43,CHCGILDTO6Y
MA6813400180,h_OCHCTP,10-L1-1,2019-01-25 08:30:00.0,PhaseCorrectionAve,3.24e-07,CHCGILDTO6Y
MA6813400180,h_OCHCTP,10-L1-1,2019-01-25 08:30:00.0,BerPreFecMax,0.00153,CHCGILDTO6Y
MA6813400180,h_OCHCTP,10-L1-1,2019-01-25 08:30:00.0,PmdMin,3.38,CHCGILDTO6Y
MA6813400180,h_OCHCTP,10-L1-1,2019-01-25 08:30:00.0,SoPmdAve,3371.81,CHCGILDTO6Y
MA6813400180,h_OCHCTP,10-L1-1,2019-01-25 08:45:00.0,Qmin,9.43,CHCGILDTO6Y
MA6813400180,h_OCHCTP,10-L1-1,2019-01-25 08:45:00.0,PhaseCorrectionAve,3.2e-07,CHCGILDTO6Y
MA6813400180,h_OCHCTP,10-L1-1,2019-01-25 08:45:00.0,BerPreFecMax,0.00153,CHCGILDTO6Y
MA6813400180,h_OCHCTP,10-L1-1,2019-01-25 08:45:00.0,PmdMin,1.23,CHCGILDTO6Y
MA6813400180,h_OCHCTP,10-L1-1,2019-01-25 08:45:00.0,SoPmdAve,3320.09,CHCGILDTO6Y
MA6813400180,h_OCHCTP,10-L1-2,2019-01-25 08:15:00.0,Qmin,9.09,CHCGILDTO6Y
MA6813400180,h_OCHCTP,10-L1-2,2019-01-25 08:15:00.0,PhaseCorrectionAve,3.29e-07,CHCGILDTO6Y
MA6813400180,h_OCHCTP,10-L1-2,2019-01-25 08:15:00.0,BerPreFecMax,0.00219,CHCGILDTO6Y
MA6813400180,h_OCHCTP,10-L1-2,2019-01-25 08:15:00.0,PmdMin,0.566,CHCGILDTO6Y
MA6813400180,h_OCHCTP,10-L1-2,2019-01-25 08:15:00.0,SoPmdAve,3390.17,CHCGILDTO6Y
MA6813400180,h_OCHCTP,10-L1-2,2019-01-25 08:30:00.0,Qmin,9.1,CHCGILDTO6Y
MA6813400180,h_OCHCTP,10-L1-2,2019-01-25 08:30:00.0,PhaseCorrectionAve,-0.061,CHCGILDTO6Y
MA6813400180,h_OCHCTP,10-L1-2,2019-01-25 08:30:00.0,BerPreFecMax,0.00218,CHCGILDTO6Y
MA6813400180,h_OCHCTP,10-L1-2,2019-01-25 08:30:00.0,PmdMin,0.849,CHCGILDTO6Y
MA6813400180,h_OCHCTP,10-L1-2,2019-01-25 08:30:00.0,SoPmdAve,3415.5,CHCGILDTO6Y
MA6813400180,h_OCHCTP,10-L1-2,2019-01-25 08:45:00.0,Qmin,9.11,CHCGILDTO6Y
MA6813400180,h_OCHCTP,10-L1-2,2019-01-25 08:45:00.0,PhaseCorrectionAve,3.2e-07,CHCGILDTO6Y
MA6813400180,h_OCHCTP,10-L1-2,2019-01-25 08:45:00.0,BerPreFecMax,0.00216,CHCGILDTO6Y
MA6813400180,h_OCHCTP,10-L1-2,2019-01-25 08:45:00.0,PmdMin,1.08,CHCGILDTO6Y
MA6813400180,h_OCHCTP,10-L1-2,2019-01-25 08:45:00.0,SoPmdAve,3318.42,CHCGILDTO6Y
MA6813400180,h_OCHCTP,10-L1-3,2019-01-25 08:15:00.0,Qmin,8.78,CHCGILDTO6Y
MA6813400180,h_OCHCTP,10-L1-3,2019-01-25 08:15:00.0,PhaseCorrectionAve,6.47e-07,CHCGILDTO6Y
MA6813400180,h_OCHCTP,10-L1-3,2019-01-25 08:15:00.0,BerPreFecMax,0.00299,CHCGILDTO6Y
MA6813400180,h_OCHCTP,10-L1-3,2019-01-25 08:15:00.0,PmdMin,1.99,CHCGILDTO6Y
MA6813400180,h_OCHCTP,10-L1-3,2019-01-25 08:15:00.0,SoPmdAve,2867.2,CHCGILDTO6Y
MA6813400180,h_OCHCTP,10-L1-3,2019-01-25 08:30:00.0,Qmin,8.77,CHCGILDTO6Y
MA6813400180,h_OCHCTP,10-L1-3,2019-01-25 08:30:00.0,PhaseCorrectionAve,-0.061,CHCGILDTO6Y
MA6813400180,h_OCHCTP,10-L1-3,2019-01-25 08:30:00.0,BerPreFecMax,0.00302,CHCGILDTO6Y
MA6813400180,h_OCHCTP,10-L1-3,2019-01-25 08:30:00.0,PmdMin,1.66,CHCGILDTO6Y
MA6813400180,h_OCHCTP,10-L1-3,2019-01-25 08:30:00.0,SoPmdAve,2821.25,CHCGILDTO6Y
MA6813400180,h_OCHCTP,10-L1-3,2019-01-25 08:45:00.0,Qmin,8.77,CHCGILDTO6Y
MA6813400180,h_OCHCTP,10-L1-3,2019-01-25 08:45:00.0,PhaseCorrectionAve,-0.0611,CHCGILDTO6Y
MA6813400180,h_OCHCTP,10-L1-3,2019-01-25 08:45:00.0,BerPreFecMax,0.00301,CHCGILDTO6Y
MA6813400180,h_OCHCTP,10-L1-3,2019-01-25 08:45:00.0,PmdMin,1.05,CHCGILDTO6Y
MA6813400180,h_OCHCTP,10-L1-3,2019-01-25 08:45:00.0,SoPmdAve,2851.92,CHCGILDTO6Y
MA6813400180,h_OCHCTP,10-L1-4,2019-01-25 08:15:00.0,Qmin,8.15,CHCGILDTO6Y
MA6813400180,h_OCHCTP,10-L1-4,2019-01-25 08:15:00.0,PhaseCorrectionAve,4.4e-06,CHCGILDTO6Y
MA6813400180,h_OCHCTP,10-L1-4,2019-01-25 08:15:00.0,BerPreFecMax,0.00528,CHCGILDTO6Y
MA6813400180,h_OCHCTP,10-L1-4,2019-01-25 08:15:00.0,PmdMin,2.35,CHCGILDTO6Y
MA6813400180,h_OCHCTP,10-L1-4,2019-01-25 08:15:00.0,SoPmdAve,3125.09,CHCGILDTO6Y
MA6813400180,h_OCHCTP,10-L1-4,2019-01-25 08:30:00.0,Qmin,8.15,CHCGILDTO6Y
MA6813400180,h_OCHCTP,10-L1-4,2019-01-25 08:30:00.0,PhaseCorrectionAve,-0.061,CHCGILDTO6Y
MA6813400180,h_OCHCTP,10-L1-4,2019-01-25 08:30:00.0,BerPreFecMax,0.00531,CHCGILDTO6Y
MA6813400180,h_OCHCTP,10-L1-4,2019-01-25 08:30:00.0,PmdMin,0.937,CHCGILDTO6Y
MA6813400180,h_OCHCTP,10-L1-4,2019-01-25 08:30:00.0,SoPmdAve,3026.72,CHCGILDTO6Y
MA6813400180,h_OCHCTP,10-L1-4,2019-01-25 08:45:00.0,Qmin,8.16,CHCGILDTO6Y
MA6813400180,h_OCHCTP,10-L1-4,2019-01-25 08:45:00.0,PhaseCorrectionAve,-0.0611,CHCGILDTO6Y
MA6813400180,h_OCHCTP,10-L1-4,2019-01-25 08:45:00.0,BerPreFecMax,0.00525,CHCGILDTO6Y
MA6813400180,h_OCHCTP,10-L1-4,2019-01-25 08:45:00.0,PmdMin,2.76,CHCGILDTO6Y
MA6813400180,h_OCHCTP,10-L1-4,2019-01-25 08:45:00.0,SoPmdAve,3086.92,CHCGILDTO6Y
MA6813400180,h_OCHCTP,10-L1-5,2019-01-25 08:15:00.0,Qmin,8.36,CHCGILDTO6Y
MA6813400180,h_OCHCTP,10-L1-5,2019-01-25 08:15:00.0,PhaseCorrectionAve,2.01e-06,CHCGILDTO6Y
MA6813400180,h_OCHCTP,10-L1-5,2019-01-25 08:15:00.0,BerPreFecMax,0.00443,CHCGILDTO6Y
MA6813400180,h_OCHCTP,10-L1-5,2019-01-25 08:15:00.0,PmdMin,1.67,CHCGILDTO6Y
MA6813400180,h_OCHCTP,10-L1-5,2019-01-25 08:15:00.0,SoPmdAve,2895.37,CHCGILDTO6Y
MA6813400180,h_OCHCTP,10-L1-5,2019-01-25 08:30:00.0,Qmin,8.34,CHCGILDTO6Y
MA6813400180,h_OCHCTP,10-L1-5,2019-01-25 08:30:00.0,PhaseCorrectionAve,-0.061,CHCGILDTO6Y
MA6813400180,h_OCHCTP,10-L1-5,2019-01-25 08:30:00.0,BerPreFecMax,0.00452,CHCGILDTO6Y
MA6813400180,h_OCHCTP,10-L1-5,2019-01-25 08:30:00.0,PmdMin,1.04,CHCGILDTO6Y
MA6813400180,h_OCHCTP,10-L1-5,2019-01-25 08:30:00.0,SoPmdAve,2898.87,CHCGILDTO6Y
MA6813400180,h_OCHCTP,10-L1-5,2019-01-25 08:45:00.0,Qmin,8.34,CHCGILDTO6Y
MA6813400180,h_OCHCTP,10-L1-5,2019-01-25 08:45:00.0,PhaseCorrectionAve,-0.0611,CHCGILDTO6Y
MA6813400180,h_OCHCTP,10-L1-5,2019-01-25 08:45:00.0,BerPreFecMax,0.0045,CHCGILDTO6Y
MA6813400180,h_OCHCTP,10-L1-5,2019-01-25 08:45:00.0,PmdMin,1.88,CHCGILDTO6Y
MA6813400180,h_OCHCTP,10-L1-5,2019-01-25 08:45:00.0,SoPmdAve,2913.09,CHCGILDTO6Y
MA6813400180,h_OCHCTP,10-L1-6,2019-01-25 08:15:00.0,Qmin,8.6,CHCGILDTO6Y
MA6813400180,h_OCHCTP,10-L1-6,2019-01-25 08:15:00.0,PhaseCorrectionAve,-0.061,CHCGILDTO6Y
MA6813400180,h_OCHCTP,10-L1-6,2019-01-25 08:15:00.0,BerPreFecMax,0.00356,CHCGILDTO6Y
MA6813400180,h_OCHCTP,10-L1-6,2019-01-25 08:15:00.0,PmdMin,3.45,CHCGILDTO6Y
MA6813400180,h_OCHCTP,10-L1-6,2019-01-25 08:15:00.0,SoPmdAve,2751.07,CHCGILDTO6Y
MA6813400180,h_OCHCTP,10-L1-6,2019-01-25 08:30:00.0,Qmin,8.58,CHCGILDTO6Y
MA6813400180,h_OCHCTP,10-L1-6,2019-01-25 08:30:00.0,PhaseCorrectionAve,-0.061,CHCGILDTO6Y
MA6813400180,h_OCHCTP,10-L1-6,2019-01-25 08:30:00.0,BerPreFecMax,0.00362,CHCGILDTO6Y
MA6813400180,h_OCHCTP,10-L1-6,2019-01-25 08:30:00.0,PmdMin,3.67,CHCGILDTO6Y
MA6813400180,h_OCHCTP,10-L1-6,2019-01-25 08:30:00.0,SoPmdAve,2763.76,CHCGILDTO6Y
MA6813400180,h_OCHCTP,10-L1-6,2019-01-25 08:45:00.0,Qmin,8.59,CHCGILDTO6Y
MA6813400180,h_OCHCTP,10-L1-6,2019-01-25 08:45:00.0,PhaseCorrectionAve,-0.0611,CHCGILDTO6Y
MA6813400180,h_OCHCTP,10-L1-6,2019-01-25 08:45:00.0,BerPreFecMax,0.00359,CHCGILDTO6Y
MA6813400180,h_OCHCTP,10-L1-6,2019-01-25 08:45:00.0,PmdMin,4.54,CHCGILDTO6Y
MA6813400180,h_OCHCTP,10-L1-6,2019-01-25 08:45:00.0,SoPmdAve,2846.92,CHCGILDTO6Y
MA6813400180,h_OCHCTP,10-L1-7,2019-01-25 08:15:00.0,Qmin,8.7,CHCGILDTO6Y
MA6813400180,h_OCHCTP,10-L1-7,2019-01-25 08:15:00.0,PhaseCorrectionAve,-0.061,CHCGILDTO6Y
MA6813400180,h_OCHCTP,10-L1-7,2019-01-25 08:15:00.0,BerPreFecMax,0.00325,CHCGILDTO6Y
MA6813400180,h_OCHCTP,10-L1-7,2019-01-25 08:15:00.0,PmdMin,2.76,CHCGILDTO6Y
MA6813400180,h_OCHCTP,10-L1-7,2019-01-25 08:15:00.0,SoPmdAve,3385.9,CHCGILDTO6Y
MA6813400180,h_OCHCTP,10-L1-7,2019-01-25 08:30:00.0,Qmin,8.7,CHCGILDTO6Y
MA6813400180,h_OCHCTP,10-L1-7,2019-01-25 08:30:00.0,PhaseCorrectionAve,-0.122,CHCGILDTO6Y
MA6813400180,h_OCHCTP,10-L1-7,2019-01-25 08:30:00.0,BerPreFecMax,0.00324,CHCGILDTO6Y
MA6813400180,h_OCHCTP,10-L1-7,2019-01-25 08:30:00.0,PmdMin,2.16,CHCGILDTO6Y
MA6813400180,h_OCHCTP,10-L1-7,2019-01-25 08:30:00.0,SoPmdAve,3418.7,CHCGILDTO6Y
MA6813400180,h_OCHCTP,10-L1-7,2019-01-25 08:45:00.0,Qmin,8.7,CHCGILDTO6Y
MA6813400180,h_OCHCTP,10-L1-7,2019-01-25 08:45:00.0,PhaseCorrectionAve,-0.122,CHCGILDTO6Y
MA6813400180,h_OCHCTP,10-L1-7,2019-01-25 08:45:00.0,BerPreFecMax,0.00322,CHCGILDTO6Y
MA6813400180,h_OCHCTP,10-L1-7,2019-01-25 08:45:00.0,PmdMin,3.56,CHCGILDTO6Y
MA6813400180,h_OCHCTP,10-L1-7,2019-01-25 08:45:00.0,SoPmdAve,3465.18,CHCGILDTO6Y
MA6813400180,h_OCHCTP,10-L1-8,2019-01-25 08:15:00.0,Qmin,9.29,CHCGILDTO6Y
MA6813400180,h_OCHCTP,10-L1-8,2019-01-25 08:15:00.0,PhaseCorrectionAve,-0.122,CHCGILDTO6Y
MA6813400180,h_OCHCTP,10-L1-8,2019-01-25 08:15:00.0,BerPreFecMax,0.00179,CHCGILDTO6Y
MA6813400180,h_OCHCTP,10-L1-8,2019-01-25 08:15:00.0,PmdMin,1.61,CHCGILDTO6Y
MA6813400180,h_OCHCTP,10-L1-8,2019-01-25 08:15:00.0,SoPmdAve,3410.87,CHCGILDTO6Y
MA6813400180,h_OCHCTP,10-L1-8,2019-01-25 08:30:00.0,Qmin,9.27,CHCGILDTO6Y
MA6813400180,h_OCHCTP,10-L1-8,2019-01-25 08:30:00.0,PhaseCorrectionAve,-0.183,CHCGILDTO6Y
MA6813400180,h_OCHCTP,10-L1-8,2019-01-25 08:30:00.0,BerPreFecMax,0.00181,CHCGILDTO6Y
MA6813400180,h_OCHCTP,10-L1-8,2019-01-25 08:30:00.0,PmdMin,1.11,CHCGILDTO6Y
MA6813400180,h_OCHCTP,10-L1-8,2019-01-25 08:30:00.0,SoPmdAve,3507.87,CHCGILDTO6Y
MA6813400180,h_OCHCTP,10-L1-8,2019-01-25 08:45:00.0,Qmin,9.3,CHCGILDTO6Y
MA6813400180,h_OCHCTP,10-L1-8,2019-01-25 08:45:00.0,PhaseCorrectionAve,-0.122,CHCGILDTO6Y
MA6813400180,h_OCHCTP,10-L1-8,2019-01-25 08:45:00.0,BerPreFecMax,0.00177,CHCGILDTO6Y
MA6813400180,h_OCHCTP,10-L1-8,2019-01-25 08:45:00.0,PmdMin,2.24,CHCGILDTO6Y
MA6813400180,h_OCHCTP,10-L1-8,2019-01-25 08:45:00.0,SoPmdAve,3471.72,CHCGILDTO6Y
MA6813400180,h_OCHCTP,10-L1-9,2019-01-25 08:15:00.0,Qmin,9.33,CHCGILDTO6Y
MA6813400180,h_OCHCTP,10-L1-9,2019-01-25 08:15:00.0,PhaseCorrectionAve,-0.122,CHCGILDTO6Y
MA6813400180,h_OCHCTP,10-L1-9,2019-01-25 08:15:00.0,BerPreFecMax,0.0017,CHCGILDTO6Y
MA6813400180,h_OCHCTP,10-L1-9,2019-01-25 08:15:00.0,PmdMin,1.25,CHCGILDTO6Y
MA6813400180,h_OCHCTP,10-L1-9,2019-01-25 08:15:00.0,SoPmdAve,3340.97,CHCGILDTO6Y
MA6813400180,h_OCHCTP,10-L1-9,2019-01-25 08:30:00.0,Qmin,9.34,CHCGILDTO6Y
MA6813400180,h_OCHCTP,10-L1-9,2019-01-25 08:30:00.0,PhaseCorrectionAve,-0.305,CHCGILDTO6Y
MA6813400180,h_OCHCTP,10-L1-9,2019-01-25 08:30:00.0,BerPreFecMax,0.00168,CHCGILDTO6Y
MA6813400180,h_OCHCTP,10-L1-9,2019-01-25 08:30:00.0,PmdMin,0.991,CHCGILDTO6Y
MA6813400180,h_OCHCTP,10-L1-9,2019-01-25 08:30:00.0,SoPmdAve,3327.4,CHCGILDTO6Y
MA6813400180,h_OCHCTP,10-L1-9,2019-01-25 08:45:00.0,Qmin,9.35,CHCGILDTO6Y
MA6813400180,h_OCHCTP,10-L1-9,2019-01-25 08:45:00.0,PhaseCorrectionAve,-0.183,CHCGILDTO6Y
MA6813400180,h_OCHCTP,10-L1-9,2019-01-25 08:45:00.0,BerPreFecMax,0.00167,CHCGILDTO6Y
MA6813400180,h_OCHCTP,10-L1-9,2019-01-25 08:45:00.0,PmdMin,2.51,CHCGILDTO6Y
MA6813400180,h_OCHCTP,10-L1-9,2019-01-25 08:45:00.0,SoPmdAve,3425.94,CHCGILDTO6Y
MA6813400180,h_OCHCTP,10-L1-10,2019-01-25 08:15:00.0,Qmin,9.38,CHCGILDTO6Y
MA6813400180,h_OCHCTP,10-L1-10,2019-01-25 08:15:00.0,PhaseCorrectionAve,-0.122,CHCGILDTO6Y
MA6813400180,h_OCHCTP,10-L1-10,2019-01-25 08:15:00.0,BerPreFecMax,0.00161,CHCGILDTO6Y
MA6813400180,h_OCHCTP,10-L1-10,2019-01-25 08:15:00.0,PmdMin,2.74,CHCGILDTO6Y
MA6813400180,h_OCHCTP,10-L1-10,2019-01-25 08:15:00.0,SoPmdAve,3226.27,CHCGILDTO6Y
MA6813400180,h_OCHCTP,10-L1-10,2019-01-25 08:30:00.0,Qmin,9.37,CHCGILDTO6Y
MA6813400180,h_OCHCTP,10-L1-10,2019-01-25 08:30:00.0,PhaseCorrectionAve,-0.305,CHCGILDTO6Y
MA6813400180,h_OCHCTP,10-L1-10,2019-01-25 08:30:00.0,BerPreFecMax,0.00163,CHCGILDTO6Y
MA6813400180,h_OCHCTP,10-L1-10,2019-01-25 08:30:00.0,PmdMin,3.67,CHCGILDTO6Y
MA6813400180,h_OCHCTP,10-L1-10,2019-01-25 08:30:00.0,SoPmdAve,3273.66,CHCGILDTO6Y
MA6813400180,h_OCHCTP,10-L1-10,2019-01-25 08:45:00.0,Qmin,9.38,CHCGILDTO6Y
MA6813400180,h_OCHCTP,10-L1-10,2019-01-25 08:45:00.0,PhaseCorrectionAve,-0.183,CHCGILDTO6Y
MA6813400180,h_OCHCTP,10-L1-10,2019-01-25 08:45:00.0,BerPreFecMax,0.00162,CHCGILDTO6Y
MA6813400180,h_OCHCTP,10-L1-10,2019-01-25 08:45:00.0,PmdMin,2.36,CHCGILDTO6Y
MA6813400180,h_OCHCTP,10-L1-10,2019-01-25 08:45:00.0,SoPmdAve,3294.77,CHCGILDTO6Y
MA6813400180,h_OCHCTP,13-L1-1,2019-01-25 08:15:00.0,Qmin,9.11,CHCGILDTO6Y
MA6813400180,h_OCHCTP,13-L1-1,2019-01-25 08:15:00.0,PhaseCorrectionAve,2.13e-07,CHCGILDTO6Y
MA6813400180,h_OCHCTP,13-L1-1,2019-01-25 08:15:00.0,BerPreFecMax,0.00215,CHCGILDTO6Y
MA6813400180,h_OCHCTP,13-L1-1,2019-01-25 08:15:00.0,PmdMin,0.809,CHCGILDTO6Y
MA6813400180,h_OCHCTP,13-L1-1,2019-01-25 08:15:00.0,SoPmdAve,3552.5,CHCGILDTO6Y
MA6813400180,h_OCHCTP,13-L1-1,2019-01-25 08:30:00.0,Qmin,9.15,CHCGILDTO6Y
MA6813400180,h_OCHCTP,13-L1-1,2019-01-25 08:30:00.0,PhaseCorrectionAve,2.08e-07,CHCGILDTO6Y
MA6813400180,h_OCHCTP,13-L1-1,2019-01-25 08:30:00.0,BerPreFecMax,0.00208,CHCGILDTO6Y
MA6813400180,h_OCHCTP,13-L1-1,2019-01-25 08:30:00.0,PmdMin,0.866,CHCGILDTO6Y
MA6813400180,h_OCHCTP,13-L1-1,2019-01-25 08:30:00.0,SoPmdAve,3454.04,CHCGILDTO6Y
MA6813400180,h_OCHCTP,13-L1-1,2019-01-25 08:45:00.0,Qmin,9.18,CHCGILDTO6Y
MA6813400180,h_OCHCTP,13-L1-1,2019-01-25 08:45:00.0,PhaseCorrectionAve,-0.061,CHCGILDTO6Y
MA6813400180,h_OCHCTP,13-L1-1,2019-01-25 08:45:00.0,BerPreFecMax,0.00201,CHCGILDTO6Y
MA6813400180,h_OCHCTP,13-L1-1,2019-01-25 08:45:00.0,PmdMin,1.48,CHCGILDTO6Y
MA6813400180,h_OCHCTP,13-L1-1,2019-01-25 08:45:00.0,SoPmdAve,3600.91,CHCGILDTO6Y
MA6813400180,h_OCHCTP,13-L1-2,2019-01-25 08:15:00.0,Qmin,9.09,CHCGILDTO6Y
MA6813400180,h_OCHCTP,13-L1-2,2019-01-25 08:15:00.0,PhaseCorrectionAve,2.76e-07,CHCGILDTO6Y
MA6813400180,h_OCHCTP,13-L1-2,2019-01-25 08:15:00.0,BerPreFecMax,0.0022,CHCGILDTO6Y
MA6813400180,h_OCHCTP,13-L1-2,2019-01-25 08:15:00.0,PmdMin,1.03,CHCGILDTO6Y
MA6813400180,h_OCHCTP,13-L1-2,2019-01-25 08:15:00.0,SoPmdAve,3556.15,CHCGILDTO6Y
MA6813400180,h_OCHCTP,13-L1-2,2019-01-25 08:30:00.0,Qmin,9.16,CHCGILDTO6Y
MA6813400180,h_OCHCTP,13-L1-2,2019-01-25 08:30:00.0,PhaseCorrectionAve,-0.061,CHCGILDTO6Y
MA6813400180,h_OCHCTP,13-L1-2,2019-01-25 08:30:00.0,BerPreFecMax,0.00204,CHCGILDTO6Y
MA6813400180,h_OCHCTP,13-L1-2,2019-01-25 08:30:00.0,PmdMin,0.786,CHCGILDTO6Y
MA6813400180,h_OCHCTP,13-L1-2,2019-01-25 08:30:00.0,SoPmdAve,3505.8,CHCGILDTO6Y
MA6813400180,h_OCHCTP,13-L1-2,2019-01-25 08:45:00.0,Qmin,9.14,CHCGILDTO6Y
MA6813400180,h_OCHCTP,13-L1-2,2019-01-25 08:45:00.0,PhaseCorrectionAve,-0.122,CHCGILDTO6Y
MA6813400180,h_OCHCTP,13-L1-2,2019-01-25 08:45:00.0,BerPreFecMax,0.00209,CHCGILDTO6Y
MA6813400180,h_OCHCTP,13-L1-2,2019-01-25 08:45:00.0,PmdMin,0.889,CHCGILDTO6Y
MA6813400180,h_OCHCTP,13-L1-2,2019-01-25 08:45:00.0,SoPmdAve,3546.43,CHCGILDTO6Y
MA6813400180,h_OCHCTP,13-L1-3,2019-01-25 08:15:00.0,Qmin,8.92,CHCGILDTO6Y
MA6813400180,h_OCHCTP,13-L1-3,2019-01-25 08:15:00.0,PhaseCorrectionAve,4.57e-07,CHCGILDTO6Y
MA6813400180,h_OCHCTP,13-L1-3,2019-01-25 08:15:00.0,BerPreFecMax,0.0026,CHCGILDTO6Y
MA6813400180,h_OCHCTP,13-L1-3,2019-01-25 08:15:00.0,PmdMin,0.588,CHCGILDTO6Y
MA6813400180,h_OCHCTP,13-L1-3,2019-01-25 08:15:00.0,SoPmdAve,2910.59,CHCGILDTO6Y
MA6813400180,h_OCHCTP,13-L1-3,2019-01-25 08:30:00.0,Qmin,8.94,CHCGILDTO6Y
MA6813400180,h_OCHCTP,13-L1-3,2019-01-25 08:30:00.0,PhaseCorrectionAve,-0.122,CHCGILDTO6Y
MA6813400180,h_OCHCTP,13-L1-3,2019-01-25 08:30:00.0,BerPreFecMax,0.00257,CHCGILDTO6Y
MA6813400180,h_OCHCTP,13-L1-3,2019-01-25 08:30:00.0,PmdMin,0.544,CHCGILDTO6Y
MA6813400180,h_OCHCTP,13-L1-3,2019-01-25 08:30:00.0,SoPmdAve,3011.78,CHCGILDTO6Y
MA6813400180,h_OCHCTP,13-L1-3,2019-01-25 08:45:00.0,Qmin,8.96,CHCGILDTO6Y
MA6813400180,h_OCHCTP,13-L1-3,2019-01-25 08:45:00.0,PhaseCorrectionAve,-0.122,CHCGILDTO6Y
MA6813400180,h_OCHCTP,13-L1-3,2019-01-25 08:45:00.0,BerPreFecMax,0.00252,CHCGILDTO6Y
MA6813400180,h_OCHCTP,13-L1-3,2019-01-25 08:45:00.0,PmdMin,0.489,CHCGILDTO6Y
MA6813400180,h_OCHCTP,13-L1-3,2019-01-25 08:45:00.0,SoPmdAve,2935.88,CHCGILDTO6Y
MA6813400180,h_OCHCTP,13-L1-4,2019-01-25 08:15:00.0,Qmin,8.71,CHCGILDTO6Y
MA6813400180,h_OCHCTP,13-L1-4,2019-01-25 08:15:00.0,PhaseCorrectionAve,-0.061,CHCGILDTO6Y
MA6813400180,h_OCHCTP,13-L1-4,2019-01-25 08:15:00.0,BerPreFecMax,0.00319,CHCGILDTO6Y
MA6813400180,h_OCHCTP,13-L1-4,2019-01-25 08:15:00.0,PmdMin,1.41,CHCGILDTO6Y
MA6813400180,h_OCHCTP,13-L1-4,2019-01-25 08:15:00.0,SoPmdAve,3450.96,CHCGILDTO6Y
MA6813400180,h_OCHCTP,13-L1-4,2019-01-25 08:30:00.0,Qmin,8.7,CHCGILDTO6Y
MA6813400180,h_OCHCTP,13-L1-4,2019-01-25 08:30:00.0,PhaseCorrectionAve,-0.183,CHCGILDTO6Y
MA6813400180,h_OCHCTP,13-L1-4,2019-01-25 08:30:00.0,BerPreFecMax,0.00325,CHCGILDTO6Y
MA6813400180,h_OCHCTP,13-L1-4,2019-01-25 08:30:00.0,PmdMin,0.865,CHCGILDTO6Y
MA6813400180,h_OCHCTP,13-L1-4,2019-01-25 08:30:00.0,SoPmdAve,3400.42,CHCGILDTO6Y
MA6813400180,h_OCHCTP,13-L1-4,2019-01-25 08:45:00.0,Qmin,8.64,CHCGILDTO6Y
MA6813400180,h_OCHCTP,13-L1-4,2019-01-25 08:45:00.0,PhaseCorrectionAve,-0.122,CHCGILDTO6Y
MA6813400180,h_OCHCTP,13-L1-4,2019-01-25 08:45:00.0,BerPreFecMax,0.00343,CHCGILDTO6Y
MA6813400180,h_OCHCTP,13-L1-4,2019-01-25 08:45:00.0,PmdMin,0.765,CHCGILDTO6Y
MA6813400180,h_OCHCTP,13-L1-4,2019-01-25 08:45:00.0,SoPmdAve,3354.17,CHCGILDTO6Y
MA6813400180,h_OCHCTP,13-L1-5,2019-01-25 08:15:00.0,Qmin,8.73,CHCGILDTO6Y
MA6813400180,h_OCHCTP,13-L1-5,2019-01-25 08:15:00.0,PhaseCorrectionAve,-0.061,CHCGILDTO6Y
MA6813400180,h_OCHCTP,13-L1-5,2019-01-25 08:15:00.0,BerPreFecMax,0.00315,CHCGILDTO6Y
MA6813400180,h_OCHCTP,13-L1-5,2019-01-25 08:15:00.0,PmdMin,0.832,CHCGILDTO6Y
MA6813400180,h_OCHCTP,13-L1-5,2019-01-25 08:15:00.0,SoPmdAve,2831.02,CHCGILDTO6Y
MA6813400180,h_OCHCTP,13-L1-5,2019-01-25 08:30:00.0,Qmin,8.72,CHCGILDTO6Y
MA6813400180,h_OCHCTP,13-L1-5,2019-01-25 08:30:00.0,PhaseCorrectionAve,-0.183,CHCGILDTO6Y
MA6813400180,h_OCHCTP,13-L1-5,2019-01-25 08:30:00.0,BerPreFecMax,0.00318,CHCGILDTO6Y
MA6813400180,h_OCHCTP,13-L1-5,2019-01-25 08:30:00.0,PmdMin,1.08,CHCGILDTO6Y
MA6813400180,h_OCHCTP,13-L1-5,2019-01-25 08:30:00.0,SoPmdAve,2818.11,CHCGILDTO6Y
MA6813400180,h_OCHCTP,13-L1-5,2019-01-25 08:45:00.0,Qmin,8.69,CHCGILDTO6Y
MA6813400180,h_OCHCTP,13-L1-5,2019-01-25 08:45:00.0,PhaseCorrectionAve,-0.183,CHCGILDTO6Y
MA6813400180,h_OCHCTP,13-L1-5,2019-01-25 08:45:00.0,BerPreFecMax,0.00326,CHCGILDTO6Y
MA6813400180,h_OCHCTP,13-L1-5,2019-01-25 08:45:00.0,PmdMin,0.398,CHCGILDTO6Y
MA6813400180,h_OCHCTP,13-L1-5,2019-01-25 08:45:00.0,SoPmdAve,2869.2,CHCGILDTO6Y
MA6813400180,h_OCHCTP,13-L1-6,2019-01-25 08:15:00.0,Qmin,8.82,CHCGILDTO6Y
MA6813400180,h_OCHCTP,13-L1-6,2019-01-25 08:15:00.0,PhaseCorrectionAve,-0.122,CHCGILDTO6Y
MA6813400180,h_OCHCTP,13-L1-6,2019-01-25 08:15:00.0,BerPreFecMax,0.00287,CHCGILDTO6Y
MA6813400180,h_OCHCTP,13-L1-6,2019-01-25 08:15:00.0,PmdMin,1.37,CHCGILDTO6Y
MA6813400180,h_OCHCTP,13-L1-6,2019-01-25 08:15:00.0,SoPmdAve,3091.46,CHCGILDTO6Y
MA6813400180,h_OCHCTP,13-L1-6,2019-01-25 08:30:00.0,Qmin,8.85,CHCGILDTO6Y
MA6813400180,h_OCHCTP,13-L1-6,2019-01-25 08:30:00.0,PhaseCorrectionAve,-0.244,CHCGILDTO6Y
MA6813400180,h_OCHCTP,13-L1-6,2019-01-25 08:30:00.0,BerPreFecMax,0.00279,CHCGILDTO6Y
MA6813400180,h_OCHCTP,13-L1-6,2019-01-25 08:30:00.0,PmdMin,1.04,CHCGILDTO6Y
MA6813400180,h_OCHCTP,13-L1-6,2019-01-25 08:30:00.0,SoPmdAve,3114.7,CHCGILDTO6Y
MA6813400180,h_OCHCTP,13-L1-6,2019-01-25 08:45:00.0,Qmin,8.8,CHCGILDTO6Y
MA6813400180,h_OCHCTP,13-L1-6,2019-01-25 08:45:00.0,PhaseCorrectionAve,-0.183,CHCGILDTO6Y
MA6813400180,h_OCHCTP,13-L1-6,2019-01-25 08:45:00.0,BerPreFecMax,0.00296,CHCGILDTO6Y
MA6813400180,h_OCHCTP,13-L1-6,2019-01-25 08:45:00.0,PmdMin,0.356,CHCGILDTO6Y
MA6813400180,h_OCHCTP,13-L1-6,2019-01-25 08:45:00.0,SoPmdAve,3052.47,CHCGILDTO6Y
MA6813400180,h_OCHCTP,13-L1-7,2019-01-25 08:15:00.0,Qmin,8.78,CHCGILDTO6Y
MA6813400180,h_OCHCTP,13-L1-7,2019-01-25 08:15:00.0,PhaseCorrectionAve,-0.122,CHCGILDTO6Y
MA6813400180,h_OCHCTP,13-L1-7,2019-01-25 08:15:00.0,BerPreFecMax,0.00299,CHCGILDTO6Y
MA6813400180,h_OCHCTP,13-L1-7,2019-01-25 08:15:00.0,PmdMin,1.74,CHCGILDTO6Y
MA6813400180,h_OCHCTP,13-L1-7,2019-01-25 08:15:00.0,SoPmdAve,3833.19,CHCGILDTO6Y
MA6813400180,h_OCHCTP,13-L1-7,2019-01-25 08:30:00.0,Qmin,8.81,CHCGILDTO6Y
MA6813400180,h_OCHCTP,13-L1-7,2019-01-25 08:30:00.0,PhaseCorrectionAve,-0.244,CHCGILDTO6Y
MA6813400180,h_OCHCTP,13-L1-7,2019-01-25 08:30:00.0,BerPreFecMax,0.0029,CHCGILDTO6Y
MA6813400180,h_OCHCTP,13-L1-7,2019-01-25 08:30:00.0,PmdMin,0.628,CHCGILDTO6Y
MA6813400180,h_OCHCTP,13-L1-7,2019-01-25 08:30:00.0,SoPmdAve,3664.77,CHCGILDTO6Y
MA6813400180,h_OCHCTP,13-L1-7,2019-01-25 08:45:00.0,Qmin,8.78,CHCGILDTO6Y
MA6813400180,h_OCHCTP,13-L1-7,2019-01-25 08:45:00.0,PhaseCorrectionAve,-0.183,CHCGILDTO6Y
MA6813400180,h_OCHCTP,13-L1-7,2019-01-25 08:45:00.0,BerPreFecMax,0.00299,CHCGILDTO6Y
MA6813400180,h_OCHCTP,13-L1-7,2019-01-25 08:45:00.0,PmdMin,0.58,CHCGILDTO6Y
MA6813400180,h_OCHCTP,13-L1-7,2019-01-25 08:45:00.0,SoPmdAve,3751.98,CHCGILDTO6Y
MA6813400180,h_OCHCTP,13-L1-8,2019-01-25 08:15:00.0,Qmin,8.91,CHCGILDTO6Y
MA6813400180,h_OCHCTP,13-L1-8,2019-01-25 08:15:00.0,PhaseCorrectionAve,-0.122,CHCGILDTO6Y
MA6813400180,h_OCHCTP,13-L1-8,2019-01-25 08:15:00.0,BerPreFecMax,0.00265,CHCGILDTO6Y
MA6813400180,h_OCHCTP,13-L1-8,2019-01-25 08:15:00.0,PmdMin,0.671,CHCGILDTO6Y
MA6813400180,h_OCHCTP,13-L1-8,2019-01-25 08:15:00.0,SoPmdAve,3964.62,CHCGILDTO6Y
MA6813400180,h_OCHCTP,13-L1-8,2019-01-25 08:30:00.0,Qmin,8.91,CHCGILDTO6Y
MA6813400180,h_OCHCTP,13-L1-8,2019-01-25 08:30:00.0,PhaseCorrectionAve,-0.305,CHCGILDTO6Y
MA6813400180,h_OCHCTP,13-L1-8,2019-01-25 08:30:00.0,BerPreFecMax,0.00263,CHCGILDTO6Y
MA6813400180,h_OCHCTP,13-L1-8,2019-01-25 08:30:00.0,PmdMin,0.994,CHCGILDTO6Y
MA6813400180,h_OCHCTP,13-L1-8,2019-01-25 08:30:00.0,SoPmdAve,3987.36,CHCGILDTO6Y
MA6813400180,h_OCHCTP,13-L1-8,2019-01-25 08:45:00.0,Qmin,8.89,CHCGILDTO6Y
MA6813400180,h_OCHCTP,13-L1-8,2019-01-25 08:45:00.0,PhaseCorrectionAve,-0.244,CHCGILDTO6Y
MA6813400180,h_OCHCTP,13-L1-8,2019-01-25 08:45:00.0,BerPreFecMax,0.0027,CHCGILDTO6Y
MA6813400180,h_OCHCTP,13-L1-8,2019-01-25 08:45:00.0,PmdMin,0.219,CHCGILDTO6Y
MA6813400180,h_OCHCTP,13-L1-8,2019-01-25 08:45:00.0,SoPmdAve,3838.82,CHCGILDTO6Y
MA6813400180,h_OCHCTP,13-L1-9,2019-01-25 08:15:00.0,Qmin,8.85,CHCGILDTO6Y
MA6813400180,h_OCHCTP,13-L1-9,2019-01-25 08:15:00.0,PhaseCorrectionAve,-0.122,CHCGILDTO6Y
MA6813400180,h_OCHCTP,13-L1-9,2019-01-25 08:15:00.0,BerPreFecMax,0.0028,CHCGILDTO6Y
MA6813400180,h_OCHCTP,13-L1-9,2019-01-25 08:15:00.0,PmdMin,1.42,CHCGILDTO6Y
MA6813400180,h_OCHCTP,13-L1-9,2019-01-25 08:15:00.0,SoPmdAve,3462.14,CHCGILDTO6Y
MA6813400180,h_OCHCTP,13-L1-9,2019-01-25 08:30:00.0,Qmin,8.82,CHCGILDTO6Y
MA6813400180,h_OCHCTP,13-L1-9,2019-01-25 08:30:00.0,PhaseCorrectionAve,-0.305,CHCGILDTO6Y
MA6813400180,h_OCHCTP,13-L1-9,2019-01-25 08:30:00.0,BerPreFecMax,0.00289,CHCGILDTO6Y
MA6813400180,h_OCHCTP,13-L1-9,2019-01-25 08:30:00.0,PmdMin,0.856,CHCGILDTO6Y
MA6813400180,h_OCHCTP,13-L1-9,2019-01-25 08:30:00.0,SoPmdAve,3554.01,CHCGILDTO6Y
MA6813400180,h_OCHCTP,13-L1-9,2019-01-25 08:45:00.0,Qmin,8.83,CHCGILDTO6Y
MA6813400180,h_OCHCTP,13-L1-9,2019-01-25 08:45:00.0,PhaseCorrectionAve,-0.244,CHCGILDTO6Y
MA6813400180,h_OCHCTP,13-L1-9,2019-01-25 08:45:00.0,BerPreFecMax,0.00284,CHCGILDTO6Y
MA6813400180,h_OCHCTP,13-L1-9,2019-01-25 08:45:00.0,PmdMin,0.904,CHCGILDTO6Y
MA6813400180,h_OCHCTP,13-L1-9,2019-01-25 08:45:00.0,SoPmdAve,3513.76,CHCGILDTO6Y
MA6813400180,h_OCHCTP,13-L1-10,2019-01-25 08:15:00.0,Qmin,8.77,CHCGILDTO6Y
MA6813400180,h_OCHCTP,13-L1-10,2019-01-25 08:15:00.0,PhaseCorrectionAve,-0.183,CHCGILDTO6Y
MA6813400180,h_OCHCTP,13-L1-10,2019-01-25 08:15:00.0,BerPreFecMax,0.00302,CHCGILDTO6Y
MA6813400180,h_OCHCTP,13-L1-10,2019-01-25 08:15:00.0,PmdMin,0.96,CHCGILDTO6Y
MA6813400180,h_OCHCTP,13-L1-10,2019-01-25 08:15:00.0,SoPmdAve,3702.59,CHCGILDTO6Y
MA6813400180,h_OCHCTP,13-L1-10,2019-01-25 08:30:00.0,Qmin,8.76,CHCGILDTO6Y
MA6813400180,h_OCHCTP,13-L1-10,2019-01-25 08:30:00.0,PhaseCorrectionAve,-0.305,CHCGILDTO6Y
MA6813400180,h_OCHCTP,13-L1-10,2019-01-25 08:30:00.0,BerPreFecMax,0.00306,CHCGILDTO6Y
MA6813400180,h_OCHCTP,13-L1-10,2019-01-25 08:30:00.0,PmdMin,1.29,CHCGILDTO6Y
MA6813400180,h_OCHCTP,13-L1-10,2019-01-25 08:30:00.0,SoPmdAve,3705.66,CHCGILDTO6Y
MA6813400180,h_OCHCTP,13-L1-10,2019-01-25 08:45:00.0,Qmin,8.69,CHCGILDTO6Y
MA6813400180,h_OCHCTP,13-L1-10,2019-01-25 08:45:00.0,PhaseCorrectionAve,-0.244,CHCGILDTO6Y
MA6813400180,h_OCHCTP,13-L1-10,2019-01-25 08:45:00.0,BerPreFecMax,0.00325,CHCGILDTO6Y
MA6813400180,h_OCHCTP,13-L1-10,2019-01-25 08:45:00.0,PmdMin,1.31,CHCGILDTO6Y
MA6813400180,h_OCHCTP,13-L1-10,2019-01-25 08:45:00.0,SoPmdAve,3773.22,CHCGILDTO6Y
