MA6813400180,h_OCHCTP,10-L1-1,2019-01-22 01:15:00.0,Qmin,9.49,CHCGILDTO6Y
MA6813400180,h_OCHCTP,10-L1-1,2019-01-22 01:15:00.0,PhaseCorrectionAve,-0.061,CHCGILDTO6Y
MA6813400180,h_OCHCTP,10-L1-1,2019-01-22 01:15:00.0,BerPreFecMax,0.00143,CHCGILDTO6Y
MA6813400180,h_OCHCTP,10-L1-1,2019-01-22 01:15:00.0,PmdMin,3.97,CHCGILDTO6Y
MA6813400180,h_OCHCTP,10-L1-1,2019-01-22 01:15:00.0,SoPmdAve,3302.83,CHCGILDTO6Y
MA6813400180,h_OCHCTP,10-L1-1,2019-01-22 01:30:00.0,Qmin,9.48,CHCGILDTO6Y
MA6813400180,h_OCHCTP,10-L1-1,2019-01-22 01:30:00.0,PhaseCorrectionAve,4.87e-07,CHCGILDTO6Y
MA6813400180,h_OCHCTP,10-L1-1,2019-01-22 01:30:00.0,BerPreFecMax,0.00145,CHCGILDTO6Y
MA6813400180,h_OCHCTP,10-L1-1,2019-01-22 01:30:00.0,PmdMin,7.16,CHCGILDTO6Y
MA6813400180,h_OCHCTP,10-L1-1,2019-01-22 01:30:00.0,SoPmdAve,3398.8,CHCGILDTO6Y
MA6813400180,h_OCHCTP,10-L1-1,2019-01-22 01:45:00.0,Qmin,9.48,CHCGILDTO6Y
MA6813400180,h_OCHCTP,10-L1-1,2019-01-22 01:45:00.0,PhaseCorrectionAve,5.28e-07,CHCGILDTO6Y
MA6813400180,h_OCHCTP,10-L1-1,2019-01-22 01:45:00.0,BerPreFecMax,0.00145,CHCGILDTO6Y
MA6813400180,h_OCHCTP,10-L1-1,2019-01-22 01:45:00.0,PmdMin,5.49,CHCGILDTO6Y
MA6813400180,h_OCHCTP,10-L1-1,2019-01-22 01:45:00.0,SoPmdAve,3344.08,CHCGILDTO6Y
MA6813400180,h_OCHCTP,10-L1-2,2019-01-22 01:15:00.0,Qmin,9.2,CHCGILDTO6Y
MA6813400180,h_OCHCTP,10-L1-2,2019-01-22 01:15:00.0,PhaseCorrectionAve,-0.122,CHCGILDTO6Y
MA6813400180,h_OCHCTP,10-L1-2,2019-01-22 01:15:00.0,BerPreFecMax,0.00195,CHCGILDTO6Y
MA6813400180,h_OCHCTP,10-L1-2,2019-01-22 01:15:00.0,PmdMin,1.59,CHCGILDTO6Y
MA6813400180,h_OCHCTP,10-L1-2,2019-01-22 01:15:00.0,SoPmdAve,3345.38,CHCGILDTO6Y
MA6813400180,h_OCHCTP,10-L1-2,2019-01-22 01:30:00.0,Qmin,9.21,CHCGILDTO6Y
MA6813400180,h_OCHCTP,10-L1-2,2019-01-22 01:30:00.0,PhaseCorrectionAve,-0.061,CHCGILDTO6Y
MA6813400180,h_OCHCTP,10-L1-2,2019-01-22 01:30:00.0,BerPreFecMax,0.00194,CHCGILDTO6Y
MA6813400180,h_OCHCTP,10-L1-2,2019-01-22 01:30:00.0,PmdMin,1.58,CHCGILDTO6Y
MA6813400180,h_OCHCTP,10-L1-2,2019-01-22 01:30:00.0,SoPmdAve,3268.24,CHCGILDTO6Y
MA6813400180,h_OCHCTP,10-L1-2,2019-01-22 01:45:00.0,Qmin,9.21,CHCGILDTO6Y
MA6813400180,h_OCHCTP,10-L1-2,2019-01-22 01:45:00.0,PhaseCorrectionAve,3.6e-07,CHCGILDTO6Y
MA6813400180,h_OCHCTP,10-L1-2,2019-01-22 01:45:00.0,BerPreFecMax,0.00194,CHCGILDTO6Y
MA6813400180,h_OCHCTP,10-L1-2,2019-01-22 01:45:00.0,PmdMin,1.15,CHCGILDTO6Y
MA6813400180,h_OCHCTP,10-L1-2,2019-01-22 01:45:00.0,SoPmdAve,3236.08,CHCGILDTO6Y
MA6813400180,h_OCHCTP,10-L1-3,2019-01-22 01:15:00.0,Qmin,8.99,CHCGILDTO6Y
MA6813400180,h_OCHCTP,10-L1-3,2019-01-22 01:15:00.0,PhaseCorrectionAve,-0.122,CHCGILDTO6Y
MA6813400180,h_OCHCTP,10-L1-3,2019-01-22 01:15:00.0,BerPreFecMax,0.00243,CHCGILDTO6Y
MA6813400180,h_OCHCTP,10-L1-3,2019-01-22 01:15:00.0,PmdMin,0.831,CHCGILDTO6Y
MA6813400180,h_OCHCTP,10-L1-3,2019-01-22 01:15:00.0,SoPmdAve,2907.4,CHCGILDTO6Y
MA6813400180,h_OCHCTP,10-L1-3,2019-01-22 01:30:00.0,Qmin,8.98,CHCGILDTO6Y
MA6813400180,h_OCHCTP,10-L1-3,2019-01-22 01:30:00.0,PhaseCorrectionAve,-0.061,CHCGILDTO6Y
MA6813400180,h_OCHCTP,10-L1-3,2019-01-22 01:30:00.0,BerPreFecMax,0.00245,CHCGILDTO6Y
MA6813400180,h_OCHCTP,10-L1-3,2019-01-22 01:30:00.0,PmdMin,0.892,CHCGILDTO6Y
MA6813400180,h_OCHCTP,10-L1-3,2019-01-22 01:30:00.0,SoPmdAve,2875.01,CHCGILDTO6Y
MA6813400180,h_OCHCTP,10-L1-3,2019-01-22 01:45:00.0,Qmin,8.99,CHCGILDTO6Y
MA6813400180,h_OCHCTP,10-L1-3,2019-01-22 01:45:00.0,PhaseCorrectionAve,-0.061,CHCGILDTO6Y
MA6813400180,h_OCHCTP,10-L1-3,2019-01-22 01:45:00.0,BerPreFecMax,0.00244,CHCGILDTO6Y
MA6813400180,h_OCHCTP,10-L1-3,2019-01-22 01:45:00.0,PmdMin,0.836,CHCGILDTO6Y
MA6813400180,h_OCHCTP,10-L1-3,2019-01-22 01:45:00.0,SoPmdAve,2850.82,CHCGILDTO6Y
MA6813400180,h_OCHCTP,10-L1-4,2019-01-22 01:15:00.0,Qmin,8.46,CHCGILDTO6Y
MA6813400180,h_OCHCTP,10-L1-4,2019-01-22 01:15:00.0,PhaseCorrectionAve,-0.122,CHCGILDTO6Y
MA6813400180,h_OCHCTP,10-L1-4,2019-01-22 01:15:00.0,BerPreFecMax,0.00403,CHCGILDTO6Y
MA6813400180,h_OCHCTP,10-L1-4,2019-01-22 01:15:00.0,PmdMin,4.28,CHCGILDTO6Y
MA6813400180,h_OCHCTP,10-L1-4,2019-01-22 01:15:00.0,SoPmdAve,3007.93,CHCGILDTO6Y
MA6813400180,h_OCHCTP,10-L1-4,2019-01-22 01:30:00.0,Qmin,8.45,CHCGILDTO6Y
MA6813400180,h_OCHCTP,10-L1-4,2019-01-22 01:30:00.0,PhaseCorrectionAve,-0.061,CHCGILDTO6Y
MA6813400180,h_OCHCTP,10-L1-4,2019-01-22 01:30:00.0,BerPreFecMax,0.00406,CHCGILDTO6Y
MA6813400180,h_OCHCTP,10-L1-4,2019-01-22 01:30:00.0,PmdMin,3.26,CHCGILDTO6Y
MA6813400180,h_OCHCTP,10-L1-4,2019-01-22 01:30:00.0,SoPmdAve,2977.19,CHCGILDTO6Y
MA6813400180,h_OCHCTP,10-L1-4,2019-01-22 01:45:00.0,Qmin,8.46,CHCGILDTO6Y
MA6813400180,h_OCHCTP,10-L1-4,2019-01-22 01:45:00.0,PhaseCorrectionAve,-0.061,CHCGILDTO6Y
MA6813400180,h_OCHCTP,10-L1-4,2019-01-22 01:45:00.0,BerPreFecMax,0.00403,CHCGILDTO6Y
MA6813400180,h_OCHCTP,10-L1-4,2019-01-22 01:45:00.0,PmdMin,3.75,CHCGILDTO6Y
MA6813400180,h_OCHCTP,10-L1-4,2019-01-22 01:45:00.0,SoPmdAve,2939.54,CHCGILDTO6Y
MA6813400180,h_OCHCTP,10-L1-5,2019-01-22 01:15:00.0,Qmin,8.63,CHCGILDTO6Y
MA6813400180,h_OCHCTP,10-L1-5,2019-01-22 01:15:00.0,PhaseCorrectionAve,-0.122,CHCGILDTO6Y
MA6813400180,h_OCHCTP,10-L1-5,2019-01-22 01:15:00.0,BerPreFecMax,0.00345,CHCGILDTO6Y
MA6813400180,h_OCHCTP,10-L1-5,2019-01-22 01:15:00.0,PmdMin,3.91,CHCGILDTO6Y
MA6813400180,h_OCHCTP,10-L1-5,2019-01-22 01:15:00.0,SoPmdAve,2749.47,CHCGILDTO6Y
MA6813400180,h_OCHCTP,10-L1-5,2019-01-22 01:30:00.0,Qmin,8.61,CHCGILDTO6Y
MA6813400180,h_OCHCTP,10-L1-5,2019-01-22 01:30:00.0,PhaseCorrectionAve,-0.061,CHCGILDTO6Y
MA6813400180,h_OCHCTP,10-L1-5,2019-01-22 01:30:00.0,BerPreFecMax,0.00353,CHCGILDTO6Y
MA6813400180,h_OCHCTP,10-L1-5,2019-01-22 01:30:00.0,PmdMin,3.36,CHCGILDTO6Y
MA6813400180,h_OCHCTP,10-L1-5,2019-01-22 01:30:00.0,SoPmdAve,2837.64,CHCGILDTO6Y
MA6813400180,h_OCHCTP,10-L1-5,2019-01-22 01:45:00.0,Qmin,8.64,CHCGILDTO6Y
MA6813400180,h_OCHCTP,10-L1-5,2019-01-22 01:45:00.0,PhaseCorrectionAve,-0.061,CHCGILDTO6Y
MA6813400180,h_OCHCTP,10-L1-5,2019-01-22 01:45:00.0,BerPreFecMax,0.00344,CHCGILDTO6Y
MA6813400180,h_OCHCTP,10-L1-5,2019-01-22 01:45:00.0,PmdMin,3.21,CHCGILDTO6Y
MA6813400180,h_OCHCTP,10-L1-5,2019-01-22 01:45:00.0,SoPmdAve,2820.06,CHCGILDTO6Y
MA6813400180,h_OCHCTP,10-L1-6,2019-01-22 01:15:00.0,Qmin,8.82,CHCGILDTO6Y
MA6813400180,h_OCHCTP,10-L1-6,2019-01-22 01:15:00.0,PhaseCorrectionAve,-0.122,CHCGILDTO6Y
MA6813400180,h_OCHCTP,10-L1-6,2019-01-22 01:15:00.0,BerPreFecMax,0.00287,CHCGILDTO6Y
MA6813400180,h_OCHCTP,10-L1-6,2019-01-22 01:15:00.0,PmdMin,2.05,CHCGILDTO6Y
MA6813400180,h_OCHCTP,10-L1-6,2019-01-22 01:15:00.0,SoPmdAve,2844.43,CHCGILDTO6Y
MA6813400180,h_OCHCTP,10-L1-6,2019-01-22 01:30:00.0,Qmin,8.82,CHCGILDTO6Y
MA6813400180,h_OCHCTP,10-L1-6,2019-01-22 01:30:00.0,PhaseCorrectionAve,-0.061,CHCGILDTO6Y
MA6813400180,h_OCHCTP,10-L1-6,2019-01-22 01:30:00.0,BerPreFecMax,0.0029,CHCGILDTO6Y
MA6813400180,h_OCHCTP,10-L1-6,2019-01-22 01:30:00.0,PmdMin,1.7,CHCGILDTO6Y
MA6813400180,h_OCHCTP,10-L1-6,2019-01-22 01:30:00.0,SoPmdAve,2791.67,CHCGILDTO6Y
MA6813400180,h_OCHCTP,10-L1-6,2019-01-22 01:45:00.0,Qmin,8.78,CHCGILDTO6Y
MA6813400180,h_OCHCTP,10-L1-6,2019-01-22 01:45:00.0,PhaseCorrectionAve,-0.122,CHCGILDTO6Y
MA6813400180,h_OCHCTP,10-L1-6,2019-01-22 01:45:00.0,BerPreFecMax,0.00298,CHCGILDTO6Y
MA6813400180,h_OCHCTP,10-L1-6,2019-01-22 01:45:00.0,PmdMin,0.988,CHCGILDTO6Y
MA6813400180,h_OCHCTP,10-L1-6,2019-01-22 01:45:00.0,SoPmdAve,2839.72,CHCGILDTO6Y
MA6813400180,h_OCHCTP,10-L1-7,2019-01-22 01:15:00.0,Qmin,8.9,CHCGILDTO6Y
MA6813400180,h_OCHCTP,10-L1-7,2019-01-22 01:15:00.0,PhaseCorrectionAve,-0.122,CHCGILDTO6Y
MA6813400180,h_OCHCTP,10-L1-7,2019-01-22 01:15:00.0,BerPreFecMax,0.00268,CHCGILDTO6Y
MA6813400180,h_OCHCTP,10-L1-7,2019-01-22 01:15:00.0,PmdMin,0.815,CHCGILDTO6Y
MA6813400180,h_OCHCTP,10-L1-7,2019-01-22 01:15:00.0,SoPmdAve,3393.85,CHCGILDTO6Y
MA6813400180,h_OCHCTP,10-L1-7,2019-01-22 01:30:00.0,Qmin,8.9,CHCGILDTO6Y
MA6813400180,h_OCHCTP,10-L1-7,2019-01-22 01:30:00.0,PhaseCorrectionAve,-0.061,CHCGILDTO6Y
MA6813400180,h_OCHCTP,10-L1-7,2019-01-22 01:30:00.0,BerPreFecMax,0.00267,CHCGILDTO6Y
MA6813400180,h_OCHCTP,10-L1-7,2019-01-22 01:30:00.0,PmdMin,1.52,CHCGILDTO6Y
MA6813400180,h_OCHCTP,10-L1-7,2019-01-22 01:30:00.0,SoPmdAve,3391.27,CHCGILDTO6Y
MA6813400180,h_OCHCTP,10-L1-7,2019-01-22 01:45:00.0,Qmin,8.89,CHCGILDTO6Y
MA6813400180,h_OCHCTP,10-L1-7,2019-01-22 01:45:00.0,PhaseCorrectionAve,-0.122,CHCGILDTO6Y
MA6813400180,h_OCHCTP,10-L1-7,2019-01-22 01:45:00.0,BerPreFecMax,0.00268,CHCGILDTO6Y
MA6813400180,h_OCHCTP,10-L1-7,2019-01-22 01:45:00.0,PmdMin,1.53,CHCGILDTO6Y
MA6813400180,h_OCHCTP,10-L1-7,2019-01-22 01:45:00.0,SoPmdAve,3331.71,CHCGILDTO6Y
MA6813400180,h_OCHCTP,10-L1-8,2019-01-22 01:15:00.0,Qmin,9.3,CHCGILDTO6Y
MA6813400180,h_OCHCTP,10-L1-8,2019-01-22 01:15:00.0,PhaseCorrectionAve,-0.183,CHCGILDTO6Y
MA6813400180,h_OCHCTP,10-L1-8,2019-01-22 01:15:00.0,BerPreFecMax,0.00177,CHCGILDTO6Y
MA6813400180,h_OCHCTP,10-L1-8,2019-01-22 01:15:00.0,PmdMin,0.84,CHCGILDTO6Y
MA6813400180,h_OCHCTP,10-L1-8,2019-01-22 01:15:00.0,SoPmdAve,3447.94,CHCGILDTO6Y
MA6813400180,h_OCHCTP,10-L1-8,2019-01-22 01:30:00.0,Qmin,9.28,CHCGILDTO6Y
MA6813400180,h_OCHCTP,10-L1-8,2019-01-22 01:30:00.0,PhaseCorrectionAve,-0.122,CHCGILDTO6Y
MA6813400180,h_OCHCTP,10-L1-8,2019-01-22 01:30:00.0,BerPreFecMax,0.00179,CHCGILDTO6Y
MA6813400180,h_OCHCTP,10-L1-8,2019-01-22 01:30:00.0,PmdMin,1.13,CHCGILDTO6Y
MA6813400180,h_OCHCTP,10-L1-8,2019-01-22 01:30:00.0,SoPmdAve,3524.01,CHCGILDTO6Y
MA6813400180,h_OCHCTP,10-L1-8,2019-01-22 01:45:00.0,Qmin,9.27,CHCGILDTO6Y
MA6813400180,h_OCHCTP,10-L1-8,2019-01-22 01:45:00.0,PhaseCorrectionAve,-0.122,CHCGILDTO6Y
MA6813400180,h_OCHCTP,10-L1-8,2019-01-22 01:45:00.0,BerPreFecMax,0.00182,CHCGILDTO6Y
MA6813400180,h_OCHCTP,10-L1-8,2019-01-22 01:45:00.0,PmdMin,1.15,CHCGILDTO6Y
MA6813400180,h_OCHCTP,10-L1-8,2019-01-22 01:45:00.0,SoPmdAve,3577.8,CHCGILDTO6Y
MA6813400180,h_OCHCTP,10-L1-9,2019-01-22 01:15:00.0,Qmin,9.31,CHCGILDTO6Y
MA6813400180,h_OCHCTP,10-L1-9,2019-01-22 01:15:00.0,PhaseCorrectionAve,-0.183,CHCGILDTO6Y
MA6813400180,h_OCHCTP,10-L1-9,2019-01-22 01:15:00.0,BerPreFecMax,0.00175,CHCGILDTO6Y
MA6813400180,h_OCHCTP,10-L1-9,2019-01-22 01:15:00.0,PmdMin,1.51,CHCGILDTO6Y
MA6813400180,h_OCHCTP,10-L1-9,2019-01-22 01:15:00.0,SoPmdAve,3579.68,CHCGILDTO6Y
MA6813400180,h_OCHCTP,10-L1-9,2019-01-22 01:30:00.0,Qmin,9.31,CHCGILDTO6Y
MA6813400180,h_OCHCTP,10-L1-9,2019-01-22 01:30:00.0,PhaseCorrectionAve,-0.122,CHCGILDTO6Y
MA6813400180,h_OCHCTP,10-L1-9,2019-01-22 01:30:00.0,BerPreFecMax,0.00175,CHCGILDTO6Y
MA6813400180,h_OCHCTP,10-L1-9,2019-01-22 01:30:00.0,PmdMin,1.35,CHCGILDTO6Y
MA6813400180,h_OCHCTP,10-L1-9,2019-01-22 01:30:00.0,SoPmdAve,3474.69,CHCGILDTO6Y
MA6813400180,h_OCHCTP,10-L1-9,2019-01-22 01:45:00.0,Qmin,9.29,CHCGILDTO6Y
MA6813400180,h_OCHCTP,10-L1-9,2019-01-22 01:45:00.0,PhaseCorrectionAve,-0.122,CHCGILDTO6Y
MA6813400180,h_OCHCTP,10-L1-9,2019-01-22 01:45:00.0,BerPreFecMax,0.00178,CHCGILDTO6Y
MA6813400180,h_OCHCTP,10-L1-9,2019-01-22 01:45:00.0,PmdMin,1.04,CHCGILDTO6Y
MA6813400180,h_OCHCTP,10-L1-9,2019-01-22 01:45:00.0,SoPmdAve,3492.73,CHCGILDTO6Y
MA6813400180,h_OCHCTP,10-L1-10,2019-01-22 01:15:00.0,Qmin,9.37,CHCGILDTO6Y
MA6813400180,h_OCHCTP,10-L1-10,2019-01-22 01:15:00.0,PhaseCorrectionAve,-0.183,CHCGILDTO6Y
MA6813400180,h_OCHCTP,10-L1-10,2019-01-22 01:15:00.0,BerPreFecMax,0.00164,CHCGILDTO6Y
MA6813400180,h_OCHCTP,10-L1-10,2019-01-22 01:15:00.0,PmdMin,3.54,CHCGILDTO6Y
MA6813400180,h_OCHCTP,10-L1-10,2019-01-22 01:15:00.0,SoPmdAve,3052.64,CHCGILDTO6Y
MA6813400180,h_OCHCTP,10-L1-10,2019-01-22 01:30:00.0,Qmin,9.36,CHCGILDTO6Y
MA6813400180,h_OCHCTP,10-L1-10,2019-01-22 01:30:00.0,PhaseCorrectionAve,-0.183,CHCGILDTO6Y
MA6813400180,h_OCHCTP,10-L1-10,2019-01-22 01:30:00.0,BerPreFecMax,0.00165,CHCGILDTO6Y
MA6813400180,h_OCHCTP,10-L1-10,2019-01-22 01:30:00.0,PmdMin,3.11,CHCGILDTO6Y
MA6813400180,h_OCHCTP,10-L1-10,2019-01-22 01:30:00.0,SoPmdAve,3123.45,CHCGILDTO6Y
MA6813400180,h_OCHCTP,10-L1-10,2019-01-22 01:45:00.0,Qmin,9.36,CHCGILDTO6Y
MA6813400180,h_OCHCTP,10-L1-10,2019-01-22 01:45:00.0,PhaseCorrectionAve,-0.122,CHCGILDTO6Y
MA6813400180,h_OCHCTP,10-L1-10,2019-01-22 01:45:00.0,BerPreFecMax,0.00166,CHCGILDTO6Y
MA6813400180,h_OCHCTP,10-L1-10,2019-01-22 01:45:00.0,PmdMin,3.05,CHCGILDTO6Y
MA6813400180,h_OCHCTP,10-L1-10,2019-01-22 01:45:00.0,SoPmdAve,3117.83,CHCGILDTO6Y
MA6813400180,h_OCHCTP,11-L1-1,2019-01-22 01:15:00.0,Qmin,9.2,CHCGILDTO6Y
MA6813400180,h_OCHCTP,11-L1-1,2019-01-22 01:15:00.0,PhaseCorrectionAve,1.49e-07,CHCGILDTO6Y
MA6813400180,h_OCHCTP,11-L1-1,2019-01-22 01:15:00.0,BerPreFecMax,0.00196,CHCGILDTO6Y
MA6813400180,h_OCHCTP,11-L1-1,2019-01-22 01:15:00.0,PmdMin,1.23,CHCGILDTO6Y
MA6813400180,h_OCHCTP,11-L1-1,2019-01-22 01:15:00.0,SoPmdAve,3332.46,CHCGILDTO6Y
MA6813400180,h_OCHCTP,11-L1-1,2019-01-22 01:30:00.0,Qmin,9.24,CHCGILDTO6Y
MA6813400180,h_OCHCTP,11-L1-1,2019-01-22 01:30:00.0,PhaseCorrectionAve,1.11e-07,CHCGILDTO6Y
MA6813400180,h_OCHCTP,11-L1-1,2019-01-22 01:30:00.0,BerPreFecMax,0.00187,CHCGILDTO6Y
MA6813400180,h_OCHCTP,11-L1-1,2019-01-22 01:30:00.0,PmdMin,0.481,CHCGILDTO6Y
MA6813400180,h_OCHCTP,11-L1-1,2019-01-22 01:30:00.0,SoPmdAve,3327.89,CHCGILDTO6Y
MA6813400180,h_OCHCTP,11-L1-1,2019-01-22 01:45:00.0,Qmin,9.23,CHCGILDTO6Y
MA6813400180,h_OCHCTP,11-L1-1,2019-01-22 01:45:00.0,PhaseCorrectionAve,1.57e-07,CHCGILDTO6Y
MA6813400180,h_OCHCTP,11-L1-1,2019-01-22 01:45:00.0,BerPreFecMax,0.0019,CHCGILDTO6Y
MA6813400180,h_OCHCTP,11-L1-1,2019-01-22 01:45:00.0,PmdMin,1.13,CHCGILDTO6Y
MA6813400180,h_OCHCTP,11-L1-1,2019-01-22 01:45:00.0,SoPmdAve,3341.82,CHCGILDTO6Y
MA6813400180,h_OCHCTP,11-L1-2,2019-01-22 01:15:00.0,Qmin,9.01,CHCGILDTO6Y
MA6813400180,h_OCHCTP,11-L1-2,2019-01-22 01:15:00.0,PhaseCorrectionAve,5.65e-07,CHCGILDTO6Y
MA6813400180,h_OCHCTP,11-L1-2,2019-01-22 01:15:00.0,BerPreFecMax,0.00239,CHCGILDTO6Y
MA6813400180,h_OCHCTP,11-L1-2,2019-01-22 01:15:00.0,PmdMin,0.738,CHCGILDTO6Y
MA6813400180,h_OCHCTP,11-L1-2,2019-01-22 01:15:00.0,SoPmdAve,3180.16,CHCGILDTO6Y
MA6813400180,h_OCHCTP,11-L1-2,2019-01-22 01:30:00.0,Qmin,9.06,CHCGILDTO6Y
MA6813400180,h_OCHCTP,11-L1-2,2019-01-22 01:30:00.0,PhaseCorrectionAve,4.17e-07,CHCGILDTO6Y
MA6813400180,h_OCHCTP,11-L1-2,2019-01-22 01:30:00.0,BerPreFecMax,0.00226,CHCGILDTO6Y
MA6813400180,h_OCHCTP,11-L1-2,2019-01-22 01:30:00.0,PmdMin,1.2,CHCGILDTO6Y
MA6813400180,h_OCHCTP,11-L1-2,2019-01-22 01:30:00.0,SoPmdAve,3119.56,CHCGILDTO6Y
MA6813400180,h_OCHCTP,11-L1-2,2019-01-22 01:45:00.0,Qmin,9.12,CHCGILDTO6Y
MA6813400180,h_OCHCTP,11-L1-2,2019-01-22 01:45:00.0,PhaseCorrectionAve,4.09e-07,CHCGILDTO6Y
MA6813400180,h_OCHCTP,11-L1-2,2019-01-22 01:45:00.0,BerPreFecMax,0.00213,CHCGILDTO6Y
MA6813400180,h_OCHCTP,11-L1-2,2019-01-22 01:45:00.0,PmdMin,0.906,CHCGILDTO6Y
MA6813400180,h_OCHCTP,11-L1-2,2019-01-22 01:45:00.0,SoPmdAve,3077.4,CHCGILDTO6Y
MA6813400180,h_OCHCTP,11-L1-3,2019-01-22 01:15:00.0,Qmin,9.0,CHCGILDTO6Y
MA6813400180,h_OCHCTP,11-L1-3,2019-01-22 01:15:00.0,PhaseCorrectionAve,3.46e-07,CHCGILDTO6Y
MA6813400180,h_OCHCTP,11-L1-3,2019-01-22 01:15:00.0,BerPreFecMax,0.00241,CHCGILDTO6Y
MA6813400180,h_OCHCTP,11-L1-3,2019-01-22 01:15:00.0,PmdMin,1.47,CHCGILDTO6Y
MA6813400180,h_OCHCTP,11-L1-3,2019-01-22 01:15:00.0,SoPmdAve,2655.56,CHCGILDTO6Y
MA6813400180,h_OCHCTP,11-L1-3,2019-01-22 01:30:00.0,Qmin,9.02,CHCGILDTO6Y
MA6813400180,h_OCHCTP,11-L1-3,2019-01-22 01:30:00.0,PhaseCorrectionAve,3.39e-07,CHCGILDTO6Y
MA6813400180,h_OCHCTP,11-L1-3,2019-01-22 01:30:00.0,BerPreFecMax,0.00238,CHCGILDTO6Y
MA6813400180,h_OCHCTP,11-L1-3,2019-01-22 01:30:00.0,PmdMin,0.771,CHCGILDTO6Y
MA6813400180,h_OCHCTP,11-L1-3,2019-01-22 01:30:00.0,SoPmdAve,2717.82,CHCGILDTO6Y
MA6813400180,h_OCHCTP,11-L1-3,2019-01-22 01:45:00.0,Qmin,9.06,CHCGILDTO6Y
MA6813400180,h_OCHCTP,11-L1-3,2019-01-22 01:45:00.0,PhaseCorrectionAve,-0.061,CHCGILDTO6Y
MA6813400180,h_OCHCTP,11-L1-3,2019-01-22 01:45:00.0,BerPreFecMax,0.00226,CHCGILDTO6Y
MA6813400180,h_OCHCTP,11-L1-3,2019-01-22 01:45:00.0,PmdMin,0.903,CHCGILDTO6Y
MA6813400180,h_OCHCTP,11-L1-3,2019-01-22 01:45:00.0,SoPmdAve,2746.31,CHCGILDTO6Y
MA6813400180,h_OCHCTP,11-L1-4,2019-01-22 01:15:00.0,Qmin,8.76,CHCGILDTO6Y
MA6813400180,h_OCHCTP,11-L1-4,2019-01-22 01:15:00.0,PhaseCorrectionAve,-0.061,CHCGILDTO6Y
MA6813400180,h_OCHCTP,11-L1-4,2019-01-22 01:15:00.0,BerPreFecMax,0.00304,CHCGILDTO6Y
MA6813400180,h_OCHCTP,11-L1-4,2019-01-22 01:15:00.0,PmdMin,1.17,CHCGILDTO6Y
MA6813400180,h_OCHCTP,11-L1-4,2019-01-22 01:15:00.0,SoPmdAve,2971.05,CHCGILDTO6Y
MA6813400180,h_OCHCTP,11-L1-4,2019-01-22 01:30:00.0,Qmin,8.77,CHCGILDTO6Y
MA6813400180,h_OCHCTP,11-L1-4,2019-01-22 01:30:00.0,PhaseCorrectionAve,-0.061,CHCGILDTO6Y
MA6813400180,h_OCHCTP,11-L1-4,2019-01-22 01:30:00.0,BerPreFecMax,0.00303,CHCGILDTO6Y
MA6813400180,h_OCHCTP,11-L1-4,2019-01-22 01:30:00.0,PmdMin,1.36,CHCGILDTO6Y
MA6813400180,h_OCHCTP,11-L1-4,2019-01-22 01:30:00.0,SoPmdAve,3067.6,CHCGILDTO6Y
MA6813400180,h_OCHCTP,11-L1-4,2019-01-22 01:45:00.0,Qmin,8.77,CHCGILDTO6Y
MA6813400180,h_OCHCTP,11-L1-4,2019-01-22 01:45:00.0,PhaseCorrectionAve,-0.122,CHCGILDTO6Y
MA6813400180,h_OCHCTP,11-L1-4,2019-01-22 01:45:00.0,BerPreFecMax,0.00303,CHCGILDTO6Y
MA6813400180,h_OCHCTP,11-L1-4,2019-01-22 01:45:00.0,PmdMin,0.148,CHCGILDTO6Y
MA6813400180,h_OCHCTP,11-L1-4,2019-01-22 01:45:00.0,SoPmdAve,2987.15,CHCGILDTO6Y
MA6813400180,h_OCHCTP,11-L1-5,2019-01-22 01:15:00.0,Qmin,8.8,CHCGILDTO6Y
MA6813400180,h_OCHCTP,11-L1-5,2019-01-22 01:15:00.0,PhaseCorrectionAve,-0.061,CHCGILDTO6Y
MA6813400180,h_OCHCTP,11-L1-5,2019-01-22 01:15:00.0,BerPreFecMax,0.00295,CHCGILDTO6Y
MA6813400180,h_OCHCTP,11-L1-5,2019-01-22 01:15:00.0,PmdMin,0.435,CHCGILDTO6Y
MA6813400180,h_OCHCTP,11-L1-5,2019-01-22 01:15:00.0,SoPmdAve,2505.46,CHCGILDTO6Y
MA6813400180,h_OCHCTP,11-L1-5,2019-01-22 01:30:00.0,Qmin,8.77,CHCGILDTO6Y
MA6813400180,h_OCHCTP,11-L1-5,2019-01-22 01:30:00.0,PhaseCorrectionAve,-0.061,CHCGILDTO6Y
MA6813400180,h_OCHCTP,11-L1-5,2019-01-22 01:30:00.0,BerPreFecMax,0.00304,CHCGILDTO6Y
MA6813400180,h_OCHCTP,11-L1-5,2019-01-22 01:30:00.0,PmdMin,0.867,CHCGILDTO6Y
MA6813400180,h_OCHCTP,11-L1-5,2019-01-22 01:30:00.0,SoPmdAve,2500.03,CHCGILDTO6Y
MA6813400180,h_OCHCTP,11-L1-5,2019-01-22 01:45:00.0,Qmin,8.83,CHCGILDTO6Y
MA6813400180,h_OCHCTP,11-L1-5,2019-01-22 01:45:00.0,PhaseCorrectionAve,-0.122,CHCGILDTO6Y
MA6813400180,h_OCHCTP,11-L1-5,2019-01-22 01:45:00.0,BerPreFecMax,0.00287,CHCGILDTO6Y
MA6813400180,h_OCHCTP,11-L1-5,2019-01-22 01:45:00.0,PmdMin,0.541,CHCGILDTO6Y
MA6813400180,h_OCHCTP,11-L1-5,2019-01-22 01:45:00.0,SoPmdAve,2556.1,CHCGILDTO6Y
MA6813400180,h_OCHCTP,11-L1-6,2019-01-22 01:15:00.0,Qmin,8.77,CHCGILDTO6Y
MA6813400180,h_OCHCTP,11-L1-6,2019-01-22 01:15:00.0,PhaseCorrectionAve,-0.122,CHCGILDTO6Y
MA6813400180,h_OCHCTP,11-L1-6,2019-01-22 01:15:00.0,BerPreFecMax,0.00303,CHCGILDTO6Y
MA6813400180,h_OCHCTP,11-L1-6,2019-01-22 01:15:00.0,PmdMin,0.64,CHCGILDTO6Y
MA6813400180,h_OCHCTP,11-L1-6,2019-01-22 01:15:00.0,SoPmdAve,2477.06,CHCGILDTO6Y
MA6813400180,h_OCHCTP,11-L1-6,2019-01-22 01:30:00.0,Qmin,8.73,CHCGILDTO6Y
MA6813400180,h_OCHCTP,11-L1-6,2019-01-22 01:30:00.0,PhaseCorrectionAve,-0.061,CHCGILDTO6Y
MA6813400180,h_OCHCTP,11-L1-6,2019-01-22 01:30:00.0,BerPreFecMax,0.00314,CHCGILDTO6Y
MA6813400180,h_OCHCTP,11-L1-6,2019-01-22 01:30:00.0,PmdMin,0.697,CHCGILDTO6Y
MA6813400180,h_OCHCTP,11-L1-6,2019-01-22 01:30:00.0,SoPmdAve,2444.6,CHCGILDTO6Y
MA6813400180,h_OCHCTP,11-L1-6,2019-01-22 01:45:00.0,Qmin,8.8,CHCGILDTO6Y
MA6813400180,h_OCHCTP,11-L1-6,2019-01-22 01:45:00.0,PhaseCorrectionAve,-0.122,CHCGILDTO6Y
MA6813400180,h_OCHCTP,11-L1-6,2019-01-22 01:45:00.0,BerPreFecMax,0.00295,CHCGILDTO6Y
MA6813400180,h_OCHCTP,11-L1-6,2019-01-22 01:45:00.0,PmdMin,0.289,CHCGILDTO6Y
MA6813400180,h_OCHCTP,11-L1-6,2019-01-22 01:45:00.0,SoPmdAve,2464.44,CHCGILDTO6Y
MA6813400180,h_OCHCTP,11-L1-7,2019-01-22 01:15:00.0,Qmin,8.87,CHCGILDTO6Y
MA6813400180,h_OCHCTP,11-L1-7,2019-01-22 01:15:00.0,PhaseCorrectionAve,-0.183,CHCGILDTO6Y
MA6813400180,h_OCHCTP,11-L1-7,2019-01-22 01:15:00.0,BerPreFecMax,0.00274,CHCGILDTO6Y
MA6813400180,h_OCHCTP,11-L1-7,2019-01-22 01:15:00.0,PmdMin,1.15,CHCGILDTO6Y
MA6813400180,h_OCHCTP,11-L1-7,2019-01-22 01:15:00.0,SoPmdAve,3009.31,CHCGILDTO6Y
MA6813400180,h_OCHCTP,11-L1-7,2019-01-22 01:30:00.0,Qmin,8.9,CHCGILDTO6Y
MA6813400180,h_OCHCTP,11-L1-7,2019-01-22 01:30:00.0,PhaseCorrectionAve,-0.061,CHCGILDTO6Y
MA6813400180,h_OCHCTP,11-L1-7,2019-01-22 01:30:00.0,BerPreFecMax,0.00267,CHCGILDTO6Y
MA6813400180,h_OCHCTP,11-L1-7,2019-01-22 01:30:00.0,PmdMin,0.676,CHCGILDTO6Y
MA6813400180,h_OCHCTP,11-L1-7,2019-01-22 01:30:00.0,SoPmdAve,3006.46,CHCGILDTO6Y
MA6813400180,h_OCHCTP,11-L1-7,2019-01-22 01:45:00.0,Qmin,8.86,CHCGILDTO6Y
MA6813400180,h_OCHCTP,11-L1-7,2019-01-22 01:45:00.0,PhaseCorrectionAve,-0.122,CHCGILDTO6Y
MA6813400180,h_OCHCTP,11-L1-7,2019-01-22 01:45:00.0,BerPreFecMax,0.00276,CHCGILDTO6Y
MA6813400180,h_OCHCTP,11-L1-7,2019-01-22 01:45:00.0,PmdMin,0.958,CHCGILDTO6Y
MA6813400180,h_OCHCTP,11-L1-7,2019-01-22 01:45:00.0,SoPmdAve,3042.58,CHCGILDTO6Y
MA6813400180,h_OCHCTP,11-L1-8,2019-01-22 01:15:00.0,Qmin,9.0,CHCGILDTO6Y
MA6813400180,h_OCHCTP,11-L1-8,2019-01-22 01:15:00.0,PhaseCorrectionAve,-0.183,CHCGILDTO6Y
MA6813400180,h_OCHCTP,11-L1-8,2019-01-22 01:15:00.0,BerPreFecMax,0.00242,CHCGILDTO6Y
MA6813400180,h_OCHCTP,11-L1-8,2019-01-22 01:15:00.0,PmdMin,1.18,CHCGILDTO6Y
MA6813400180,h_OCHCTP,11-L1-8,2019-01-22 01:15:00.0,SoPmdAve,3142.56,CHCGILDTO6Y
MA6813400180,h_OCHCTP,11-L1-8,2019-01-22 01:30:00.0,Qmin,8.95,CHCGILDTO6Y
MA6813400180,h_OCHCTP,11-L1-8,2019-01-22 01:30:00.0,PhaseCorrectionAve,-0.122,CHCGILDTO6Y
MA6813400180,h_OCHCTP,11-L1-8,2019-01-22 01:30:00.0,BerPreFecMax,0.00253,CHCGILDTO6Y
MA6813400180,h_OCHCTP,11-L1-8,2019-01-22 01:30:00.0,PmdMin,0.332,CHCGILDTO6Y
MA6813400180,h_OCHCTP,11-L1-8,2019-01-22 01:30:00.0,SoPmdAve,3050.16,CHCGILDTO6Y
MA6813400180,h_OCHCTP,11-L1-8,2019-01-22 01:45:00.0,Qmin,8.98,CHCGILDTO6Y
MA6813400180,h_OCHCTP,11-L1-8,2019-01-22 01:45:00.0,PhaseCorrectionAve,-0.122,CHCGILDTO6Y
MA6813400180,h_OCHCTP,11-L1-8,2019-01-22 01:45:00.0,BerPreFecMax,0.00247,CHCGILDTO6Y
MA6813400180,h_OCHCTP,11-L1-8,2019-01-22 01:45:00.0,PmdMin,0.9,CHCGILDTO6Y
MA6813400180,h_OCHCTP,11-L1-8,2019-01-22 01:45:00.0,SoPmdAve,3088.63,CHCGILDTO6Y
MA6813400180,h_OCHCTP,11-L1-9,2019-01-22 01:15:00.0,Qmin,8.91,CHCGILDTO6Y
MA6813400180,h_OCHCTP,11-L1-9,2019-01-22 01:15:00.0,PhaseCorrectionAve,-0.183,CHCGILDTO6Y
MA6813400180,h_OCHCTP,11-L1-9,2019-01-22 01:15:00.0,BerPreFecMax,0.00264,CHCGILDTO6Y
MA6813400180,h_OCHCTP,11-L1-9,2019-01-22 01:15:00.0,PmdMin,0.824,CHCGILDTO6Y
MA6813400180,h_OCHCTP,11-L1-9,2019-01-22 01:15:00.0,SoPmdAve,3066.99,CHCGILDTO6Y
MA6813400180,h_OCHCTP,11-L1-9,2019-01-22 01:30:00.0,Qmin,8.89,CHCGILDTO6Y
MA6813400180,h_OCHCTP,11-L1-9,2019-01-22 01:30:00.0,PhaseCorrectionAve,-0.183,CHCGILDTO6Y
MA6813400180,h_OCHCTP,11-L1-9,2019-01-22 01:30:00.0,BerPreFecMax,0.0027,CHCGILDTO6Y
MA6813400180,h_OCHCTP,11-L1-9,2019-01-22 01:30:00.0,PmdMin,0.973,CHCGILDTO6Y
MA6813400180,h_OCHCTP,11-L1-9,2019-01-22 01:30:00.0,SoPmdAve,3053.12,CHCGILDTO6Y
MA6813400180,h_OCHCTP,11-L1-9,2019-01-22 01:45:00.0,Qmin,8.74,CHCGILDTO6Y
MA6813400180,h_OCHCTP,11-L1-9,2019-01-22 01:45:00.0,PhaseCorrectionAve,-0.122,CHCGILDTO6Y
MA6813400180,h_OCHCTP,11-L1-9,2019-01-22 01:45:00.0,BerPreFecMax,0.00311,CHCGILDTO6Y
MA6813400180,h_OCHCTP,11-L1-9,2019-01-22 01:45:00.0,PmdMin,1.11,CHCGILDTO6Y
MA6813400180,h_OCHCTP,11-L1-9,2019-01-22 01:45:00.0,SoPmdAve,3102.24,CHCGILDTO6Y
MA6813400180,h_OCHCTP,11-L1-10,2019-01-22 01:15:00.0,Qmin,9.05,CHCGILDTO6Y
MA6813400180,h_OCHCTP,11-L1-10,2019-01-22 01:15:00.0,PhaseCorrectionAve,-0.244,CHCGILDTO6Y
MA6813400180,h_OCHCTP,11-L1-10,2019-01-22 01:15:00.0,BerPreFecMax,0.0023,CHCGILDTO6Y
MA6813400180,h_OCHCTP,11-L1-10,2019-01-22 01:15:00.0,PmdMin,0.348,CHCGILDTO6Y
MA6813400180,h_OCHCTP,11-L1-10,2019-01-22 01:15:00.0,SoPmdAve,2997.01,CHCGILDTO6Y
MA6813400180,h_OCHCTP,11-L1-10,2019-01-22 01:30:00.0,Qmin,9.04,CHCGILDTO6Y
MA6813400180,h_OCHCTP,11-L1-10,2019-01-22 01:30:00.0,PhaseCorrectionAve,-0.183,CHCGILDTO6Y
MA6813400180,h_OCHCTP,11-L1-10,2019-01-22 01:30:00.0,BerPreFecMax,0.00233,CHCGILDTO6Y
MA6813400180,h_OCHCTP,11-L1-10,2019-01-22 01:30:00.0,PmdMin,1.0,CHCGILDTO6Y
MA6813400180,h_OCHCTP,11-L1-10,2019-01-22 01:30:00.0,SoPmdAve,3079.16,CHCGILDTO6Y
MA6813400180,h_OCHCTP,11-L1-10,2019-01-22 01:45:00.0,Qmin,8.9,CHCGILDTO6Y
MA6813400180,h_OCHCTP,11-L1-10,2019-01-22 01:45:00.0,PhaseCorrectionAve,-0.122,CHCGILDTO6Y
MA6813400180,h_OCHCTP,11-L1-10,2019-01-22 01:45:00.0,BerPreFecMax,0.00268,CHCGILDTO6Y
MA6813400180,h_OCHCTP,11-L1-10,2019-01-22 01:45:00.0,PmdMin,1.03,CHCGILDTO6Y
MA6813400180,h_OCHCTP,11-L1-10,2019-01-22 01:45:00.0,SoPmdAve,3039.26,CHCGILDTO6Y
MA6813400180,h_OCHCTP,13-L1-1,2019-01-22 01:15:00.0,Qmin,9.26,CHCGILDTO6Y
MA6813400180,h_OCHCTP,13-L1-1,2019-01-22 01:15:00.0,PhaseCorrectionAve,2.53e-07,CHCGILDTO6Y
MA6813400180,h_OCHCTP,13-L1-1,2019-01-22 01:15:00.0,BerPreFecMax,0.00184,CHCGILDTO6Y
MA6813400180,h_OCHCTP,13-L1-1,2019-01-22 01:15:00.0,PmdMin,1.42,CHCGILDTO6Y
MA6813400180,h_OCHCTP,13-L1-1,2019-01-22 01:15:00.0,SoPmdAve,3525.23,CHCGILDTO6Y
MA6813400180,h_OCHCTP,13-L1-1,2019-01-22 01:30:00.0,Qmin,9.25,CHCGILDTO6Y
MA6813400180,h_OCHCTP,13-L1-1,2019-01-22 01:30:00.0,PhaseCorrectionAve,2.33e-07,CHCGILDTO6Y
MA6813400180,h_OCHCTP,13-L1-1,2019-01-22 01:30:00.0,BerPreFecMax,0.00185,CHCGILDTO6Y
MA6813400180,h_OCHCTP,13-L1-1,2019-01-22 01:30:00.0,PmdMin,1.06,CHCGILDTO6Y
MA6813400180,h_OCHCTP,13-L1-1,2019-01-22 01:30:00.0,SoPmdAve,3521.11,CHCGILDTO6Y
MA6813400180,h_OCHCTP,13-L1-1,2019-01-22 01:45:00.0,Qmin,9.25,CHCGILDTO6Y
MA6813400180,h_OCHCTP,13-L1-1,2019-01-22 01:45:00.0,PhaseCorrectionAve,2.71e-07,CHCGILDTO6Y
MA6813400180,h_OCHCTP,13-L1-1,2019-01-22 01:45:00.0,BerPreFecMax,0.00186,CHCGILDTO6Y
MA6813400180,h_OCHCTP,13-L1-1,2019-01-22 01:45:00.0,PmdMin,0.989,CHCGILDTO6Y
MA6813400180,h_OCHCTP,13-L1-1,2019-01-22 01:45:00.0,SoPmdAve,3549.86,CHCGILDTO6Y
MA6813400180,h_OCHCTP,13-L1-2,2019-01-22 01:15:00.0,Qmin,9.08,CHCGILDTO6Y
MA6813400180,h_OCHCTP,13-L1-2,2019-01-22 01:15:00.0,PhaseCorrectionAve,5.32e-07,CHCGILDTO6Y
MA6813400180,h_OCHCTP,13-L1-2,2019-01-22 01:15:00.0,BerPreFecMax,0.00222,CHCGILDTO6Y
MA6813400180,h_OCHCTP,13-L1-2,2019-01-22 01:15:00.0,PmdMin,0.499,CHCGILDTO6Y
MA6813400180,h_OCHCTP,13-L1-2,2019-01-22 01:15:00.0,SoPmdAve,3586.14,CHCGILDTO6Y
MA6813400180,h_OCHCTP,13-L1-2,2019-01-22 01:30:00.0,Qmin,9.11,CHCGILDTO6Y
MA6813400180,h_OCHCTP,13-L1-2,2019-01-22 01:30:00.0,PhaseCorrectionAve,3.67e-07,CHCGILDTO6Y
MA6813400180,h_OCHCTP,13-L1-2,2019-01-22 01:30:00.0,BerPreFecMax,0.00215,CHCGILDTO6Y
MA6813400180,h_OCHCTP,13-L1-2,2019-01-22 01:30:00.0,PmdMin,1.1,CHCGILDTO6Y
MA6813400180,h_OCHCTP,13-L1-2,2019-01-22 01:30:00.0,SoPmdAve,3590.92,CHCGILDTO6Y
MA6813400180,h_OCHCTP,13-L1-2,2019-01-22 01:45:00.0,Qmin,9.19,CHCGILDTO6Y
MA6813400180,h_OCHCTP,13-L1-2,2019-01-22 01:45:00.0,PhaseCorrectionAve,-0.061,CHCGILDTO6Y
MA6813400180,h_OCHCTP,13-L1-2,2019-01-22 01:45:00.0,BerPreFecMax,0.00198,CHCGILDTO6Y
MA6813400180,h_OCHCTP,13-L1-2,2019-01-22 01:45:00.0,PmdMin,0.705,CHCGILDTO6Y
MA6813400180,h_OCHCTP,13-L1-2,2019-01-22 01:45:00.0,SoPmdAve,3475.84,CHCGILDTO6Y
MA6813400180,h_OCHCTP,13-L1-3,2019-01-22 01:15:00.0,Qmin,8.99,CHCGILDTO6Y
MA6813400180,h_OCHCTP,13-L1-3,2019-01-22 01:15:00.0,PhaseCorrectionAve,4.44e-07,CHCGILDTO6Y
MA6813400180,h_OCHCTP,13-L1-3,2019-01-22 01:15:00.0,BerPreFecMax,0.00244,CHCGILDTO6Y
MA6813400180,h_OCHCTP,13-L1-3,2019-01-22 01:15:00.0,PmdMin,0.56,CHCGILDTO6Y
MA6813400180,h_OCHCTP,13-L1-3,2019-01-22 01:15:00.0,SoPmdAve,2895.62,CHCGILDTO6Y
MA6813400180,h_OCHCTP,13-L1-3,2019-01-22 01:30:00.0,Qmin,8.98,CHCGILDTO6Y
MA6813400180,h_OCHCTP,13-L1-3,2019-01-22 01:30:00.0,PhaseCorrectionAve,-0.061,CHCGILDTO6Y
MA6813400180,h_OCHCTP,13-L1-3,2019-01-22 01:30:00.0,BerPreFecMax,0.00246,CHCGILDTO6Y
MA6813400180,h_OCHCTP,13-L1-3,2019-01-22 01:30:00.0,PmdMin,0.676,CHCGILDTO6Y
MA6813400180,h_OCHCTP,13-L1-3,2019-01-22 01:30:00.0,SoPmdAve,2935.53,CHCGILDTO6Y
MA6813400180,h_OCHCTP,13-L1-3,2019-01-22 01:45:00.0,Qmin,9.07,CHCGILDTO6Y
MA6813400180,h_OCHCTP,13-L1-3,2019-01-22 01:45:00.0,PhaseCorrectionAve,-0.061,CHCGILDTO6Y
MA6813400180,h_OCHCTP,13-L1-3,2019-01-22 01:45:00.0,BerPreFecMax,0.00225,CHCGILDTO6Y
MA6813400180,h_OCHCTP,13-L1-3,2019-01-22 01:45:00.0,PmdMin,0.554,CHCGILDTO6Y
MA6813400180,h_OCHCTP,13-L1-3,2019-01-22 01:45:00.0,SoPmdAve,2983.07,CHCGILDTO6Y
MA6813400180,h_OCHCTP,13-L1-4,2019-01-22 01:15:00.0,Qmin,8.73,CHCGILDTO6Y
MA6813400180,h_OCHCTP,13-L1-4,2019-01-22 01:15:00.0,PhaseCorrectionAve,-0.061,CHCGILDTO6Y
MA6813400180,h_OCHCTP,13-L1-4,2019-01-22 01:15:00.0,BerPreFecMax,0.00316,CHCGILDTO6Y
MA6813400180,h_OCHCTP,13-L1-4,2019-01-22 01:15:00.0,PmdMin,0.785,CHCGILDTO6Y
MA6813400180,h_OCHCTP,13-L1-4,2019-01-22 01:15:00.0,SoPmdAve,3368.75,CHCGILDTO6Y
MA6813400180,h_OCHCTP,13-L1-4,2019-01-22 01:30:00.0,Qmin,8.72,CHCGILDTO6Y
MA6813400180,h_OCHCTP,13-L1-4,2019-01-22 01:30:00.0,PhaseCorrectionAve,-0.061,CHCGILDTO6Y
MA6813400180,h_OCHCTP,13-L1-4,2019-01-22 01:30:00.0,BerPreFecMax,0.00317,CHCGILDTO6Y
MA6813400180,h_OCHCTP,13-L1-4,2019-01-22 01:30:00.0,PmdMin,0.798,CHCGILDTO6Y
MA6813400180,h_OCHCTP,13-L1-4,2019-01-22 01:30:00.0,SoPmdAve,3264.61,CHCGILDTO6Y
MA6813400180,h_OCHCTP,13-L1-4,2019-01-22 01:45:00.0,Qmin,8.74,CHCGILDTO6Y
MA6813400180,h_OCHCTP,13-L1-4,2019-01-22 01:45:00.0,PhaseCorrectionAve,-0.122,CHCGILDTO6Y
MA6813400180,h_OCHCTP,13-L1-4,2019-01-22 01:45:00.0,BerPreFecMax,0.00311,CHCGILDTO6Y
MA6813400180,h_OCHCTP,13-L1-4,2019-01-22 01:45:00.0,PmdMin,0.937,CHCGILDTO6Y
MA6813400180,h_OCHCTP,13-L1-4,2019-01-22 01:45:00.0,SoPmdAve,3288.09,CHCGILDTO6Y
MA6813400180,h_OCHCTP,13-L1-5,2019-01-22 01:15:00.0,Qmin,8.67,CHCGILDTO6Y
MA6813400180,h_OCHCTP,13-L1-5,2019-01-22 01:15:00.0,PhaseCorrectionAve,-0.061,CHCGILDTO6Y
MA6813400180,h_OCHCTP,13-L1-5,2019-01-22 01:15:00.0,BerPreFecMax,0.00332,CHCGILDTO6Y
MA6813400180,h_OCHCTP,13-L1-5,2019-01-22 01:15:00.0,PmdMin,0.768,CHCGILDTO6Y
MA6813400180,h_OCHCTP,13-L1-5,2019-01-22 01:15:00.0,SoPmdAve,2841.45,CHCGILDTO6Y
MA6813400180,h_OCHCTP,13-L1-5,2019-01-22 01:30:00.0,Qmin,8.65,CHCGILDTO6Y
MA6813400180,h_OCHCTP,13-L1-5,2019-01-22 01:30:00.0,PhaseCorrectionAve,-0.061,CHCGILDTO6Y
MA6813400180,h_OCHCTP,13-L1-5,2019-01-22 01:30:00.0,BerPreFecMax,0.00339,CHCGILDTO6Y
MA6813400180,h_OCHCTP,13-L1-5,2019-01-22 01:30:00.0,PmdMin,0.139,CHCGILDTO6Y
MA6813400180,h_OCHCTP,13-L1-5,2019-01-22 01:30:00.0,SoPmdAve,2808.73,CHCGILDTO6Y
MA6813400180,h_OCHCTP,13-L1-5,2019-01-22 01:45:00.0,Qmin,8.71,CHCGILDTO6Y
MA6813400180,h_OCHCTP,13-L1-5,2019-01-22 01:45:00.0,PhaseCorrectionAve,-0.183,CHCGILDTO6Y
MA6813400180,h_OCHCTP,13-L1-5,2019-01-22 01:45:00.0,BerPreFecMax,0.00321,CHCGILDTO6Y
MA6813400180,h_OCHCTP,13-L1-5,2019-01-22 01:45:00.0,PmdMin,0.535,CHCGILDTO6Y
MA6813400180,h_OCHCTP,13-L1-5,2019-01-22 01:45:00.0,SoPmdAve,2789.53,CHCGILDTO6Y
MA6813400180,h_OCHCTP,13-L1-6,2019-01-22 01:15:00.0,Qmin,8.78,CHCGILDTO6Y
MA6813400180,h_OCHCTP,13-L1-6,2019-01-22 01:15:00.0,PhaseCorrectionAve,-0.061,CHCGILDTO6Y
MA6813400180,h_OCHCTP,13-L1-6,2019-01-22 01:15:00.0,BerPreFecMax,0.00299,CHCGILDTO6Y
MA6813400180,h_OCHCTP,13-L1-6,2019-01-22 01:15:00.0,PmdMin,1.01,CHCGILDTO6Y
MA6813400180,h_OCHCTP,13-L1-6,2019-01-22 01:15:00.0,SoPmdAve,3056.55,CHCGILDTO6Y
MA6813400180,h_OCHCTP,13-L1-6,2019-01-22 01:30:00.0,Qmin,8.73,CHCGILDTO6Y
MA6813400180,h_OCHCTP,13-L1-6,2019-01-22 01:30:00.0,PhaseCorrectionAve,-0.061,CHCGILDTO6Y
MA6813400180,h_OCHCTP,13-L1-6,2019-01-22 01:30:00.0,BerPreFecMax,0.00314,CHCGILDTO6Y
MA6813400180,h_OCHCTP,13-L1-6,2019-01-22 01:30:00.0,PmdMin,1.41,CHCGILDTO6Y
MA6813400180,h_OCHCTP,13-L1-6,2019-01-22 01:30:00.0,SoPmdAve,3094.75,CHCGILDTO6Y
MA6813400180,h_OCHCTP,13-L1-6,2019-01-22 01:45:00.0,Qmin,8.79,CHCGILDTO6Y
MA6813400180,h_OCHCTP,13-L1-6,2019-01-22 01:45:00.0,PhaseCorrectionAve,-0.183,CHCGILDTO6Y
MA6813400180,h_OCHCTP,13-L1-6,2019-01-22 01:45:00.0,BerPreFecMax,0.00297,CHCGILDTO6Y
MA6813400180,h_OCHCTP,13-L1-6,2019-01-22 01:45:00.0,PmdMin,0.942,CHCGILDTO6Y
MA6813400180,h_OCHCTP,13-L1-6,2019-01-22 01:45:00.0,SoPmdAve,3088.21,CHCGILDTO6Y
MA6813400180,h_OCHCTP,13-L1-7,2019-01-22 01:15:00.0,Qmin,8.78,CHCGILDTO6Y
MA6813400180,h_OCHCTP,13-L1-7,2019-01-22 01:15:00.0,PhaseCorrectionAve,-0.061,CHCGILDTO6Y
MA6813400180,h_OCHCTP,13-L1-7,2019-01-22 01:15:00.0,BerPreFecMax,0.003,CHCGILDTO6Y
MA6813400180,h_OCHCTP,13-L1-7,2019-01-22 01:15:00.0,PmdMin,1.03,CHCGILDTO6Y
MA6813400180,h_OCHCTP,13-L1-7,2019-01-22 01:15:00.0,SoPmdAve,3806.18,CHCGILDTO6Y
MA6813400180,h_OCHCTP,13-L1-7,2019-01-22 01:30:00.0,Qmin,8.81,CHCGILDTO6Y
MA6813400180,h_OCHCTP,13-L1-7,2019-01-22 01:30:00.0,PhaseCorrectionAve,-0.061,CHCGILDTO6Y
MA6813400180,h_OCHCTP,13-L1-7,2019-01-22 01:30:00.0,BerPreFecMax,0.00293,CHCGILDTO6Y
MA6813400180,h_OCHCTP,13-L1-7,2019-01-22 01:30:00.0,PmdMin,0.908,CHCGILDTO6Y
MA6813400180,h_OCHCTP,13-L1-7,2019-01-22 01:30:00.0,SoPmdAve,3686.16,CHCGILDTO6Y
MA6813400180,h_OCHCTP,13-L1-7,2019-01-22 01:45:00.0,Qmin,8.73,CHCGILDTO6Y
MA6813400180,h_OCHCTP,13-L1-7,2019-01-22 01:45:00.0,PhaseCorrectionAve,-0.183,CHCGILDTO6Y
MA6813400180,h_OCHCTP,13-L1-7,2019-01-22 01:45:00.0,BerPreFecMax,0.00313,CHCGILDTO6Y
MA6813400180,h_OCHCTP,13-L1-7,2019-01-22 01:45:00.0,PmdMin,1.03,CHCGILDTO6Y
MA6813400180,h_OCHCTP,13-L1-7,2019-01-22 01:45:00.0,SoPmdAve,3766.78,CHCGILDTO6Y
MA6813400180,h_OCHCTP,13-L1-8,2019-01-22 01:15:00.0,Qmin,8.96,CHCGILDTO6Y
MA6813400180,h_OCHCTP,13-L1-8,2019-01-22 01:15:00.0,PhaseCorrectionAve,-0.061,CHCGILDTO6Y
MA6813400180,h_OCHCTP,13-L1-8,2019-01-22 01:15:00.0,BerPreFecMax,0.00251,CHCGILDTO6Y
MA6813400180,h_OCHCTP,13-L1-8,2019-01-22 01:15:00.0,PmdMin,0.935,CHCGILDTO6Y
MA6813400180,h_OCHCTP,13-L1-8,2019-01-22 01:15:00.0,SoPmdAve,3914.16,CHCGILDTO6Y
MA6813400180,h_OCHCTP,13-L1-8,2019-01-22 01:30:00.0,Qmin,8.89,CHCGILDTO6Y
MA6813400180,h_OCHCTP,13-L1-8,2019-01-22 01:30:00.0,PhaseCorrectionAve,-0.061,CHCGILDTO6Y
MA6813400180,h_OCHCTP,13-L1-8,2019-01-22 01:30:00.0,BerPreFecMax,0.00268,CHCGILDTO6Y
MA6813400180,h_OCHCTP,13-L1-8,2019-01-22 01:30:00.0,PmdMin,1.12,CHCGILDTO6Y
MA6813400180,h_OCHCTP,13-L1-8,2019-01-22 01:30:00.0,SoPmdAve,3883.14,CHCGILDTO6Y
MA6813400180,h_OCHCTP,13-L1-8,2019-01-22 01:45:00.0,Qmin,8.9,CHCGILDTO6Y
MA6813400180,h_OCHCTP,13-L1-8,2019-01-22 01:45:00.0,PhaseCorrectionAve,-0.183,CHCGILDTO6Y
MA6813400180,h_OCHCTP,13-L1-8,2019-01-22 01:45:00.0,BerPreFecMax,0.00266,CHCGILDTO6Y
MA6813400180,h_OCHCTP,13-L1-8,2019-01-22 01:45:00.0,PmdMin,0.611,CHCGILDTO6Y
MA6813400180,h_OCHCTP,13-L1-8,2019-01-22 01:45:00.0,SoPmdAve,3945.57,CHCGILDTO6Y
MA6813400180,h_OCHCTP,13-L1-9,2019-01-22 01:15:00.0,Qmin,8.91,CHCGILDTO6Y
MA6813400180,h_OCHCTP,13-L1-9,2019-01-22 01:15:00.0,PhaseCorrectionAve,-0.061,CHCGILDTO6Y
MA6813400180,h_OCHCTP,13-L1-9,2019-01-22 01:15:00.0,BerPreFecMax,0.00265,CHCGILDTO6Y
MA6813400180,h_OCHCTP,13-L1-9,2019-01-22 01:15:00.0,PmdMin,0.611,CHCGILDTO6Y
MA6813400180,h_OCHCTP,13-L1-9,2019-01-22 01:15:00.0,SoPmdAve,3419.24,CHCGILDTO6Y
MA6813400180,h_OCHCTP,13-L1-9,2019-01-22 01:30:00.0,Qmin,8.87,CHCGILDTO6Y
MA6813400180,h_OCHCTP,13-L1-9,2019-01-22 01:30:00.0,PhaseCorrectionAve,-0.122,CHCGILDTO6Y
MA6813400180,h_OCHCTP,13-L1-9,2019-01-22 01:30:00.0,BerPreFecMax,0.00275,CHCGILDTO6Y
MA6813400180,h_OCHCTP,13-L1-9,2019-01-22 01:30:00.0,PmdMin,0.551,CHCGILDTO6Y
MA6813400180,h_OCHCTP,13-L1-9,2019-01-22 01:30:00.0,SoPmdAve,3522.8,CHCGILDTO6Y
MA6813400180,h_OCHCTP,13-L1-9,2019-01-22 01:45:00.0,Qmin,8.77,CHCGILDTO6Y
MA6813400180,h_OCHCTP,13-L1-9,2019-01-22 01:45:00.0,PhaseCorrectionAve,-0.183,CHCGILDTO6Y
MA6813400180,h_OCHCTP,13-L1-9,2019-01-22 01:45:00.0,BerPreFecMax,0.00303,CHCGILDTO6Y
MA6813400180,h_OCHCTP,13-L1-9,2019-01-22 01:45:00.0,PmdMin,1.13,CHCGILDTO6Y
MA6813400180,h_OCHCTP,13-L1-9,2019-01-22 01:45:00.0,SoPmdAve,3561.67,CHCGILDTO6Y
MA6813400180,h_OCHCTP,13-L1-10,2019-01-22 01:15:00.0,Qmin,8.75,CHCGILDTO6Y
MA6813400180,h_OCHCTP,13-L1-10,2019-01-22 01:15:00.0,PhaseCorrectionAve,-0.061,CHCGILDTO6Y
MA6813400180,h_OCHCTP,13-L1-10,2019-01-22 01:15:00.0,BerPreFecMax,0.00308,CHCGILDTO6Y
MA6813400180,h_OCHCTP,13-L1-10,2019-01-22 01:15:00.0,PmdMin,0.967,CHCGILDTO6Y
MA6813400180,h_OCHCTP,13-L1-10,2019-01-22 01:15:00.0,SoPmdAve,3762.44,CHCGILDTO6Y
MA6813400180,h_OCHCTP,13-L1-10,2019-01-22 01:30:00.0,Qmin,8.78,CHCGILDTO6Y
MA6813400180,h_OCHCTP,13-L1-10,2019-01-22 01:30:00.0,PhaseCorrectionAve,-0.122,CHCGILDTO6Y
MA6813400180,h_OCHCTP,13-L1-10,2019-01-22 01:30:00.0,BerPreFecMax,0.003,CHCGILDTO6Y
MA6813400180,h_OCHCTP,13-L1-10,2019-01-22 01:30:00.0,PmdMin,1.03,CHCGILDTO6Y
MA6813400180,h_OCHCTP,13-L1-10,2019-01-22 01:30:00.0,SoPmdAve,3755.47,CHCGILDTO6Y
MA6813400180,h_OCHCTP,13-L1-10,2019-01-22 01:45:00.0,Qmin,8.66,CHCGILDTO6Y
MA6813400180,h_OCHCTP,13-L1-10,2019-01-22 01:45:00.0,PhaseCorrectionAve,-0.183,CHCGILDTO6Y
MA6813400180,h_OCHCTP,13-L1-10,2019-01-22 01:45:00.0,BerPreFecMax,0.00336,CHCGILDTO6Y
MA6813400180,h_OCHCTP,13-L1-10,2019-01-22 01:45:00.0,PmdMin,0.805,CHCGILDTO6Y
MA6813400180,h_OCHCTP,13-L1-10,2019-01-22 01:45:00.0,SoPmdAve,3674.39,CHCGILDTO6Y
