MA6813400180,h_OCHCTP,10-L1-1,2019-01-23 11:15:00.0,Qmin,9.53,CHCGILDTO6Y
MA6813400180,h_OCHCTP,10-L1-1,2019-01-23 11:15:00.0,PhaseCorrectionAve,4.81e-07,CHCGILDTO6Y
MA6813400180,h_OCHCTP,10-L1-1,2019-01-23 11:15:00.0,BerPreFecMax,0.00136,CHCGILDTO6Y
MA6813400180,h_OCHCTP,10-L1-1,2019-01-23 11:15:00.0,PmdMin,2.1,CHCGILDTO6Y
MA6813400180,h_OCHCTP,10-L1-1,2019-01-23 11:15:00.0,SoPmdAve,3292.77,CHCGILDTO6Y
MA6813400180,h_OCHCTP,10-L1-1,2019-01-23 11:30:00.0,Qmin,9.53,CHCGILDTO6Y
MA6813400180,h_OCHCTP,10-L1-1,2019-01-23 11:30:00.0,PhaseCorrectionAve,5.19e-07,CHCGILDTO6Y
MA6813400180,h_OCHCTP,10-L1-1,2019-01-23 11:30:00.0,BerPreFecMax,0.00136,CHCGILDTO6Y
MA6813400180,h_OCHCTP,10-L1-1,2019-01-23 11:30:00.0,PmdMin,4.62,CHCGILDTO6Y
MA6813400180,h_OCHCTP,10-L1-1,2019-01-23 11:30:00.0,SoPmdAve,3328.93,CHCGILDTO6Y
MA6813400180,h_OCHCTP,10-L1-1,2019-01-23 11:45:00.0,Qmin,9.54,CHCGILDTO6Y
MA6813400180,h_OCHCTP,10-L1-1,2019-01-23 11:45:00.0,PhaseCorrectionAve,4.87e-07,CHCGILDTO6Y
MA6813400180,h_OCHCTP,10-L1-1,2019-01-23 11:45:00.0,BerPreFecMax,0.00136,CHCGILDTO6Y
MA6813400180,h_OCHCTP,10-L1-1,2019-01-23 11:45:00.0,PmdMin,2.2,CHCGILDTO6Y
MA6813400180,h_OCHCTP,10-L1-1,2019-01-23 11:45:00.0,SoPmdAve,3330.74,CHCGILDTO6Y
MA6813400180,h_OCHCTP,10-L1-2,2019-01-23 11:15:00.0,Qmin,9.24,CHCGILDTO6Y
MA6813400180,h_OCHCTP,10-L1-2,2019-01-23 11:15:00.0,PhaseCorrectionAve,3.36e-07,CHCGILDTO6Y
MA6813400180,h_OCHCTP,10-L1-2,2019-01-23 11:15:00.0,BerPreFecMax,0.00187,CHCGILDTO6Y
MA6813400180,h_OCHCTP,10-L1-2,2019-01-23 11:15:00.0,PmdMin,4.09,CHCGILDTO6Y
MA6813400180,h_OCHCTP,10-L1-2,2019-01-23 11:15:00.0,SoPmdAve,3251.88,CHCGILDTO6Y
MA6813400180,h_OCHCTP,10-L1-2,2019-01-23 11:30:00.0,Qmin,9.22,CHCGILDTO6Y
MA6813400180,h_OCHCTP,10-L1-2,2019-01-23 11:30:00.0,PhaseCorrectionAve,3.53e-07,CHCGILDTO6Y
MA6813400180,h_OCHCTP,10-L1-2,2019-01-23 11:30:00.0,BerPreFecMax,0.00192,CHCGILDTO6Y
MA6813400180,h_OCHCTP,10-L1-2,2019-01-23 11:30:00.0,PmdMin,1.57,CHCGILDTO6Y
MA6813400180,h_OCHCTP,10-L1-2,2019-01-23 11:30:00.0,SoPmdAve,3311.66,CHCGILDTO6Y
MA6813400180,h_OCHCTP,10-L1-2,2019-01-23 11:45:00.0,Qmin,9.22,CHCGILDTO6Y
MA6813400180,h_OCHCTP,10-L1-2,2019-01-23 11:45:00.0,PhaseCorrectionAve,-0.061,CHCGILDTO6Y
MA6813400180,h_OCHCTP,10-L1-2,2019-01-23 11:45:00.0,BerPreFecMax,0.00193,CHCGILDTO6Y
MA6813400180,h_OCHCTP,10-L1-2,2019-01-23 11:45:00.0,PmdMin,0.913,CHCGILDTO6Y
MA6813400180,h_OCHCTP,10-L1-2,2019-01-23 11:45:00.0,SoPmdAve,3397.04,CHCGILDTO6Y
MA6813400180,h_OCHCTP,10-L1-3,2019-01-23 11:15:00.0,Qmin,9.05,CHCGILDTO6Y
MA6813400180,h_OCHCTP,10-L1-3,2019-01-23 11:15:00.0,PhaseCorrectionAve,4.69e-07,CHCGILDTO6Y
MA6813400180,h_OCHCTP,10-L1-3,2019-01-23 11:15:00.0,BerPreFecMax,0.00229,CHCGILDTO6Y
MA6813400180,h_OCHCTP,10-L1-3,2019-01-23 11:15:00.0,PmdMin,1.71,CHCGILDTO6Y
MA6813400180,h_OCHCTP,10-L1-3,2019-01-23 11:15:00.0,SoPmdAve,2784.61,CHCGILDTO6Y
MA6813400180,h_OCHCTP,10-L1-3,2019-01-23 11:30:00.0,Qmin,9.05,CHCGILDTO6Y
MA6813400180,h_OCHCTP,10-L1-3,2019-01-23 11:30:00.0,PhaseCorrectionAve,-0.061,CHCGILDTO6Y
MA6813400180,h_OCHCTP,10-L1-3,2019-01-23 11:30:00.0,BerPreFecMax,0.0023,CHCGILDTO6Y
MA6813400180,h_OCHCTP,10-L1-3,2019-01-23 11:30:00.0,PmdMin,1.57,CHCGILDTO6Y
MA6813400180,h_OCHCTP,10-L1-3,2019-01-23 11:30:00.0,SoPmdAve,2826.83,CHCGILDTO6Y
MA6813400180,h_OCHCTP,10-L1-3,2019-01-23 11:45:00.0,Qmin,9.03,CHCGILDTO6Y
MA6813400180,h_OCHCTP,10-L1-3,2019-01-23 11:45:00.0,PhaseCorrectionAve,-0.122,CHCGILDTO6Y
MA6813400180,h_OCHCTP,10-L1-3,2019-01-23 11:45:00.0,BerPreFecMax,0.00234,CHCGILDTO6Y
MA6813400180,h_OCHCTP,10-L1-3,2019-01-23 11:45:00.0,PmdMin,1.86,CHCGILDTO6Y
MA6813400180,h_OCHCTP,10-L1-3,2019-01-23 11:45:00.0,SoPmdAve,2825.49,CHCGILDTO6Y
MA6813400180,h_OCHCTP,10-L1-4,2019-01-23 11:15:00.0,Qmin,8.54,CHCGILDTO6Y
MA6813400180,h_OCHCTP,10-L1-4,2019-01-23 11:15:00.0,PhaseCorrectionAve,1.59e-06,CHCGILDTO6Y
MA6813400180,h_OCHCTP,10-L1-4,2019-01-23 11:15:00.0,BerPreFecMax,0.00376,CHCGILDTO6Y
MA6813400180,h_OCHCTP,10-L1-4,2019-01-23 11:15:00.0,PmdMin,1.97,CHCGILDTO6Y
MA6813400180,h_OCHCTP,10-L1-4,2019-01-23 11:15:00.0,SoPmdAve,3040.53,CHCGILDTO6Y
MA6813400180,h_OCHCTP,10-L1-4,2019-01-23 11:30:00.0,Qmin,8.53,CHCGILDTO6Y
MA6813400180,h_OCHCTP,10-L1-4,2019-01-23 11:30:00.0,PhaseCorrectionAve,-0.061,CHCGILDTO6Y
MA6813400180,h_OCHCTP,10-L1-4,2019-01-23 11:30:00.0,BerPreFecMax,0.00378,CHCGILDTO6Y
MA6813400180,h_OCHCTP,10-L1-4,2019-01-23 11:30:00.0,PmdMin,1.86,CHCGILDTO6Y
MA6813400180,h_OCHCTP,10-L1-4,2019-01-23 11:30:00.0,SoPmdAve,3075.82,CHCGILDTO6Y
MA6813400180,h_OCHCTP,10-L1-4,2019-01-23 11:45:00.0,Qmin,8.52,CHCGILDTO6Y
MA6813400180,h_OCHCTP,10-L1-4,2019-01-23 11:45:00.0,PhaseCorrectionAve,-0.183,CHCGILDTO6Y
MA6813400180,h_OCHCTP,10-L1-4,2019-01-23 11:45:00.0,BerPreFecMax,0.00384,CHCGILDTO6Y
MA6813400180,h_OCHCTP,10-L1-4,2019-01-23 11:45:00.0,PmdMin,4.8,CHCGILDTO6Y
MA6813400180,h_OCHCTP,10-L1-4,2019-01-23 11:45:00.0,SoPmdAve,3009.72,CHCGILDTO6Y
MA6813400180,h_OCHCTP,10-L1-5,2019-01-23 11:15:00.0,Qmin,8.69,CHCGILDTO6Y
MA6813400180,h_OCHCTP,10-L1-5,2019-01-23 11:15:00.0,PhaseCorrectionAve,9.8e-07,CHCGILDTO6Y
MA6813400180,h_OCHCTP,10-L1-5,2019-01-23 11:15:00.0,BerPreFecMax,0.00327,CHCGILDTO6Y
MA6813400180,h_OCHCTP,10-L1-5,2019-01-23 11:15:00.0,PmdMin,2.37,CHCGILDTO6Y
MA6813400180,h_OCHCTP,10-L1-5,2019-01-23 11:15:00.0,SoPmdAve,2872.48,CHCGILDTO6Y
MA6813400180,h_OCHCTP,10-L1-5,2019-01-23 11:30:00.0,Qmin,8.69,CHCGILDTO6Y
MA6813400180,h_OCHCTP,10-L1-5,2019-01-23 11:30:00.0,PhaseCorrectionAve,-0.122,CHCGILDTO6Y
MA6813400180,h_OCHCTP,10-L1-5,2019-01-23 11:30:00.0,BerPreFecMax,0.00326,CHCGILDTO6Y
MA6813400180,h_OCHCTP,10-L1-5,2019-01-23 11:30:00.0,PmdMin,3.46,CHCGILDTO6Y
MA6813400180,h_OCHCTP,10-L1-5,2019-01-23 11:30:00.0,SoPmdAve,2804.85,CHCGILDTO6Y
MA6813400180,h_OCHCTP,10-L1-5,2019-01-23 11:45:00.0,Qmin,8.67,CHCGILDTO6Y
MA6813400180,h_OCHCTP,10-L1-5,2019-01-23 11:45:00.0,PhaseCorrectionAve,-0.183,CHCGILDTO6Y
MA6813400180,h_OCHCTP,10-L1-5,2019-01-23 11:45:00.0,BerPreFecMax,0.00332,CHCGILDTO6Y
MA6813400180,h_OCHCTP,10-L1-5,2019-01-23 11:45:00.0,PmdMin,4.52,CHCGILDTO6Y
MA6813400180,h_OCHCTP,10-L1-5,2019-01-23 11:45:00.0,SoPmdAve,2808.88,CHCGILDTO6Y
MA6813400180,h_OCHCTP,10-L1-6,2019-01-23 11:15:00.0,Qmin,8.89,CHCGILDTO6Y
MA6813400180,h_OCHCTP,10-L1-6,2019-01-23 11:15:00.0,PhaseCorrectionAve,-0.061,CHCGILDTO6Y
MA6813400180,h_OCHCTP,10-L1-6,2019-01-23 11:15:00.0,BerPreFecMax,0.0027,CHCGILDTO6Y
MA6813400180,h_OCHCTP,10-L1-6,2019-01-23 11:15:00.0,PmdMin,2.08,CHCGILDTO6Y
MA6813400180,h_OCHCTP,10-L1-6,2019-01-23 11:15:00.0,SoPmdAve,2754.18,CHCGILDTO6Y
MA6813400180,h_OCHCTP,10-L1-6,2019-01-23 11:30:00.0,Qmin,8.87,CHCGILDTO6Y
MA6813400180,h_OCHCTP,10-L1-6,2019-01-23 11:30:00.0,PhaseCorrectionAve,-0.183,CHCGILDTO6Y
MA6813400180,h_OCHCTP,10-L1-6,2019-01-23 11:30:00.0,BerPreFecMax,0.00274,CHCGILDTO6Y
MA6813400180,h_OCHCTP,10-L1-6,2019-01-23 11:30:00.0,PmdMin,2.0,CHCGILDTO6Y
MA6813400180,h_OCHCTP,10-L1-6,2019-01-23 11:30:00.0,SoPmdAve,2902.72,CHCGILDTO6Y
MA6813400180,h_OCHCTP,10-L1-6,2019-01-23 11:45:00.0,Qmin,8.87,CHCGILDTO6Y
MA6813400180,h_OCHCTP,10-L1-6,2019-01-23 11:45:00.0,PhaseCorrectionAve,-0.183,CHCGILDTO6Y
MA6813400180,h_OCHCTP,10-L1-6,2019-01-23 11:45:00.0,BerPreFecMax,0.00274,CHCGILDTO6Y
MA6813400180,h_OCHCTP,10-L1-6,2019-01-23 11:45:00.0,PmdMin,2.2,CHCGILDTO6Y
MA6813400180,h_OCHCTP,10-L1-6,2019-01-23 11:45:00.0,SoPmdAve,2843.18,CHCGILDTO6Y
MA6813400180,h_OCHCTP,10-L1-7,2019-01-23 11:15:00.0,Qmin,8.95,CHCGILDTO6Y
MA6813400180,h_OCHCTP,10-L1-7,2019-01-23 11:15:00.0,PhaseCorrectionAve,-0.061,CHCGILDTO6Y
MA6813400180,h_OCHCTP,10-L1-7,2019-01-23 11:15:00.0,BerPreFecMax,0.00253,CHCGILDTO6Y
MA6813400180,h_OCHCTP,10-L1-7,2019-01-23 11:15:00.0,PmdMin,3.76,CHCGILDTO6Y
MA6813400180,h_OCHCTP,10-L1-7,2019-01-23 11:15:00.0,SoPmdAve,3338.59,CHCGILDTO6Y
MA6813400180,h_OCHCTP,10-L1-7,2019-01-23 11:30:00.0,Qmin,8.95,CHCGILDTO6Y
MA6813400180,h_OCHCTP,10-L1-7,2019-01-23 11:30:00.0,PhaseCorrectionAve,-0.183,CHCGILDTO6Y
MA6813400180,h_OCHCTP,10-L1-7,2019-01-23 11:30:00.0,BerPreFecMax,0.00254,CHCGILDTO6Y
MA6813400180,h_OCHCTP,10-L1-7,2019-01-23 11:30:00.0,PmdMin,1.24,CHCGILDTO6Y
MA6813400180,h_OCHCTP,10-L1-7,2019-01-23 11:30:00.0,SoPmdAve,3497.9,CHCGILDTO6Y
MA6813400180,h_OCHCTP,10-L1-7,2019-01-23 11:45:00.0,Qmin,8.94,CHCGILDTO6Y
MA6813400180,h_OCHCTP,10-L1-7,2019-01-23 11:45:00.0,PhaseCorrectionAve,-0.244,CHCGILDTO6Y
MA6813400180,h_OCHCTP,10-L1-7,2019-01-23 11:45:00.0,BerPreFecMax,0.00256,CHCGILDTO6Y
MA6813400180,h_OCHCTP,10-L1-7,2019-01-23 11:45:00.0,PmdMin,0.326,CHCGILDTO6Y
MA6813400180,h_OCHCTP,10-L1-7,2019-01-23 11:45:00.0,SoPmdAve,3286.39,CHCGILDTO6Y
MA6813400180,h_OCHCTP,10-L1-8,2019-01-23 11:15:00.0,Qmin,9.35,CHCGILDTO6Y
MA6813400180,h_OCHCTP,10-L1-8,2019-01-23 11:15:00.0,PhaseCorrectionAve,-0.061,CHCGILDTO6Y
MA6813400180,h_OCHCTP,10-L1-8,2019-01-23 11:15:00.0,BerPreFecMax,0.00167,CHCGILDTO6Y
MA6813400180,h_OCHCTP,10-L1-8,2019-01-23 11:15:00.0,PmdMin,1.77,CHCGILDTO6Y
MA6813400180,h_OCHCTP,10-L1-8,2019-01-23 11:15:00.0,SoPmdAve,3508.26,CHCGILDTO6Y
MA6813400180,h_OCHCTP,10-L1-8,2019-01-23 11:30:00.0,Qmin,9.34,CHCGILDTO6Y
MA6813400180,h_OCHCTP,10-L1-8,2019-01-23 11:30:00.0,PhaseCorrectionAve,-0.183,CHCGILDTO6Y
MA6813400180,h_OCHCTP,10-L1-8,2019-01-23 11:30:00.0,BerPreFecMax,0.0017,CHCGILDTO6Y
MA6813400180,h_OCHCTP,10-L1-8,2019-01-23 11:30:00.0,PmdMin,1.09,CHCGILDTO6Y
MA6813400180,h_OCHCTP,10-L1-8,2019-01-23 11:30:00.0,SoPmdAve,3456.93,CHCGILDTO6Y
MA6813400180,h_OCHCTP,10-L1-8,2019-01-23 11:45:00.0,Qmin,9.33,CHCGILDTO6Y
MA6813400180,h_OCHCTP,10-L1-8,2019-01-23 11:45:00.0,PhaseCorrectionAve,-0.305,CHCGILDTO6Y
MA6813400180,h_OCHCTP,10-L1-8,2019-01-23 11:45:00.0,BerPreFecMax,0.00171,CHCGILDTO6Y
MA6813400180,h_OCHCTP,10-L1-8,2019-01-23 11:45:00.0,PmdMin,1.34,CHCGILDTO6Y
MA6813400180,h_OCHCTP,10-L1-8,2019-01-23 11:45:00.0,SoPmdAve,3529.78,CHCGILDTO6Y
MA6813400180,h_OCHCTP,10-L1-9,2019-01-23 11:15:00.0,Qmin,9.34,CHCGILDTO6Y
MA6813400180,h_OCHCTP,10-L1-9,2019-01-23 11:15:00.0,PhaseCorrectionAve,-0.061,CHCGILDTO6Y
MA6813400180,h_OCHCTP,10-L1-9,2019-01-23 11:15:00.0,BerPreFecMax,0.00168,CHCGILDTO6Y
MA6813400180,h_OCHCTP,10-L1-9,2019-01-23 11:15:00.0,PmdMin,0.781,CHCGILDTO6Y
MA6813400180,h_OCHCTP,10-L1-9,2019-01-23 11:15:00.0,SoPmdAve,3528.47,CHCGILDTO6Y
MA6813400180,h_OCHCTP,10-L1-9,2019-01-23 11:30:00.0,Qmin,9.33,CHCGILDTO6Y
MA6813400180,h_OCHCTP,10-L1-9,2019-01-23 11:30:00.0,PhaseCorrectionAve,-0.183,CHCGILDTO6Y
MA6813400180,h_OCHCTP,10-L1-9,2019-01-23 11:30:00.0,BerPreFecMax,0.00171,CHCGILDTO6Y
MA6813400180,h_OCHCTP,10-L1-9,2019-01-23 11:30:00.0,PmdMin,1.16,CHCGILDTO6Y
MA6813400180,h_OCHCTP,10-L1-9,2019-01-23 11:30:00.0,SoPmdAve,3472.41,CHCGILDTO6Y
MA6813400180,h_OCHCTP,10-L1-9,2019-01-23 11:45:00.0,Qmin,9.33,CHCGILDTO6Y
MA6813400180,h_OCHCTP,10-L1-9,2019-01-23 11:45:00.0,PhaseCorrectionAve,-0.305,CHCGILDTO6Y
MA6813400180,h_OCHCTP,10-L1-9,2019-01-23 11:45:00.0,BerPreFecMax,0.0017,CHCGILDTO6Y
MA6813400180,h_OCHCTP,10-L1-9,2019-01-23 11:45:00.0,PmdMin,0.321,CHCGILDTO6Y
MA6813400180,h_OCHCTP,10-L1-9,2019-01-23 11:45:00.0,SoPmdAve,3523.78,CHCGILDTO6Y
MA6813400180,h_OCHCTP,10-L1-10,2019-01-23 11:15:00.0,Qmin,9.39,CHCGILDTO6Y
MA6813400180,h_OCHCTP,10-L1-10,2019-01-23 11:15:00.0,PhaseCorrectionAve,-0.061,CHCGILDTO6Y
MA6813400180,h_OCHCTP,10-L1-10,2019-01-23 11:15:00.0,BerPreFecMax,0.00161,CHCGILDTO6Y
MA6813400180,h_OCHCTP,10-L1-10,2019-01-23 11:15:00.0,PmdMin,4.64,CHCGILDTO6Y
MA6813400180,h_OCHCTP,10-L1-10,2019-01-23 11:15:00.0,SoPmdAve,3181.53,CHCGILDTO6Y
MA6813400180,h_OCHCTP,10-L1-10,2019-01-23 11:30:00.0,Qmin,9.38,CHCGILDTO6Y
MA6813400180,h_OCHCTP,10-L1-10,2019-01-23 11:30:00.0,PhaseCorrectionAve,-0.305,CHCGILDTO6Y
MA6813400180,h_OCHCTP,10-L1-10,2019-01-23 11:30:00.0,BerPreFecMax,0.00162,CHCGILDTO6Y
MA6813400180,h_OCHCTP,10-L1-10,2019-01-23 11:30:00.0,PmdMin,4.12,CHCGILDTO6Y
MA6813400180,h_OCHCTP,10-L1-10,2019-01-23 11:30:00.0,SoPmdAve,3345.53,CHCGILDTO6Y
MA6813400180,h_OCHCTP,10-L1-10,2019-01-23 11:45:00.0,Qmin,9.38,CHCGILDTO6Y
MA6813400180,h_OCHCTP,10-L1-10,2019-01-23 11:45:00.0,PhaseCorrectionAve,-0.305,CHCGILDTO6Y
MA6813400180,h_OCHCTP,10-L1-10,2019-01-23 11:45:00.0,BerPreFecMax,0.00162,CHCGILDTO6Y
MA6813400180,h_OCHCTP,10-L1-10,2019-01-23 11:45:00.0,PmdMin,2.98,CHCGILDTO6Y
MA6813400180,h_OCHCTP,10-L1-10,2019-01-23 11:45:00.0,SoPmdAve,3308.86,CHCGILDTO6Y
MA6813400180,h_OCHCTP,11-L1-1,2019-01-23 11:15:00.0,Qmin,9.13,CHCGILDTO6Y
MA6813400180,h_OCHCTP,11-L1-1,2019-01-23 11:15:00.0,PhaseCorrectionAve,1.24e-07,CHCGILDTO6Y
MA6813400180,h_OCHCTP,11-L1-1,2019-01-23 11:15:00.0,BerPreFecMax,0.00212,CHCGILDTO6Y
MA6813400180,h_OCHCTP,11-L1-1,2019-01-23 11:15:00.0,PmdMin,1.08,CHCGILDTO6Y
MA6813400180,h_OCHCTP,11-L1-1,2019-01-23 11:15:00.0,SoPmdAve,3381.8,CHCGILDTO6Y
MA6813400180,h_OCHCTP,11-L1-1,2019-01-23 11:30:00.0,Qmin,9.14,CHCGILDTO6Y
MA6813400180,h_OCHCTP,11-L1-1,2019-01-23 11:30:00.0,PhaseCorrectionAve,1.29e-07,CHCGILDTO6Y
MA6813400180,h_OCHCTP,11-L1-1,2019-01-23 11:30:00.0,BerPreFecMax,0.00209,CHCGILDTO6Y
MA6813400180,h_OCHCTP,11-L1-1,2019-01-23 11:30:00.0,PmdMin,1.04,CHCGILDTO6Y
MA6813400180,h_OCHCTP,11-L1-1,2019-01-23 11:30:00.0,SoPmdAve,3348.83,CHCGILDTO6Y
MA6813400180,h_OCHCTP,11-L1-1,2019-01-23 11:45:00.0,Qmin,9.15,CHCGILDTO6Y
MA6813400180,h_OCHCTP,11-L1-1,2019-01-23 11:45:00.0,PhaseCorrectionAve,1.26e-07,CHCGILDTO6Y
MA6813400180,h_OCHCTP,11-L1-1,2019-01-23 11:45:00.0,BerPreFecMax,0.00206,CHCGILDTO6Y
MA6813400180,h_OCHCTP,11-L1-1,2019-01-23 11:45:00.0,PmdMin,0.678,CHCGILDTO6Y
MA6813400180,h_OCHCTP,11-L1-1,2019-01-23 11:45:00.0,SoPmdAve,3373.59,CHCGILDTO6Y
MA6813400180,h_OCHCTP,11-L1-2,2019-01-23 11:15:00.0,Qmin,9.05,CHCGILDTO6Y
MA6813400180,h_OCHCTP,11-L1-2,2019-01-23 11:15:00.0,PhaseCorrectionAve,3.16e-07,CHCGILDTO6Y
MA6813400180,h_OCHCTP,11-L1-2,2019-01-23 11:15:00.0,BerPreFecMax,0.00229,CHCGILDTO6Y
MA6813400180,h_OCHCTP,11-L1-2,2019-01-23 11:15:00.0,PmdMin,1.12,CHCGILDTO6Y
MA6813400180,h_OCHCTP,11-L1-2,2019-01-23 11:15:00.0,SoPmdAve,3174.75,CHCGILDTO6Y
MA6813400180,h_OCHCTP,11-L1-2,2019-01-23 11:30:00.0,Qmin,9.07,CHCGILDTO6Y
MA6813400180,h_OCHCTP,11-L1-2,2019-01-23 11:30:00.0,PhaseCorrectionAve,-0.0611,CHCGILDTO6Y
MA6813400180,h_OCHCTP,11-L1-2,2019-01-23 11:30:00.0,BerPreFecMax,0.00224,CHCGILDTO6Y
MA6813400180,h_OCHCTP,11-L1-2,2019-01-23 11:30:00.0,PmdMin,0.842,CHCGILDTO6Y
MA6813400180,h_OCHCTP,11-L1-2,2019-01-23 11:30:00.0,SoPmdAve,3162.14,CHCGILDTO6Y
MA6813400180,h_OCHCTP,11-L1-2,2019-01-23 11:45:00.0,Qmin,9.07,CHCGILDTO6Y
MA6813400180,h_OCHCTP,11-L1-2,2019-01-23 11:45:00.0,PhaseCorrectionAve,3.39e-07,CHCGILDTO6Y
MA6813400180,h_OCHCTP,11-L1-2,2019-01-23 11:45:00.0,BerPreFecMax,0.00225,CHCGILDTO6Y
MA6813400180,h_OCHCTP,11-L1-2,2019-01-23 11:45:00.0,PmdMin,0.615,CHCGILDTO6Y
MA6813400180,h_OCHCTP,11-L1-2,2019-01-23 11:45:00.0,SoPmdAve,3213.79,CHCGILDTO6Y
MA6813400180,h_OCHCTP,11-L1-3,2019-01-23 11:15:00.0,Qmin,8.96,CHCGILDTO6Y
MA6813400180,h_OCHCTP,11-L1-3,2019-01-23 11:15:00.0,PhaseCorrectionAve,3.46e-07,CHCGILDTO6Y
MA6813400180,h_OCHCTP,11-L1-3,2019-01-23 11:15:00.0,BerPreFecMax,0.00251,CHCGILDTO6Y
MA6813400180,h_OCHCTP,11-L1-3,2019-01-23 11:15:00.0,PmdMin,1.26,CHCGILDTO6Y
MA6813400180,h_OCHCTP,11-L1-3,2019-01-23 11:15:00.0,SoPmdAve,2694.23,CHCGILDTO6Y
MA6813400180,h_OCHCTP,11-L1-3,2019-01-23 11:30:00.0,Qmin,8.96,CHCGILDTO6Y
MA6813400180,h_OCHCTP,11-L1-3,2019-01-23 11:30:00.0,PhaseCorrectionAve,-0.0611,CHCGILDTO6Y
MA6813400180,h_OCHCTP,11-L1-3,2019-01-23 11:30:00.0,BerPreFecMax,0.00252,CHCGILDTO6Y
MA6813400180,h_OCHCTP,11-L1-3,2019-01-23 11:30:00.0,PmdMin,0.571,CHCGILDTO6Y
MA6813400180,h_OCHCTP,11-L1-3,2019-01-23 11:30:00.0,SoPmdAve,2644.93,CHCGILDTO6Y
MA6813400180,h_OCHCTP,11-L1-3,2019-01-23 11:45:00.0,Qmin,8.94,CHCGILDTO6Y
MA6813400180,h_OCHCTP,11-L1-3,2019-01-23 11:45:00.0,PhaseCorrectionAve,3.59e-07,CHCGILDTO6Y
MA6813400180,h_OCHCTP,11-L1-3,2019-01-23 11:45:00.0,BerPreFecMax,0.00256,CHCGILDTO6Y
MA6813400180,h_OCHCTP,11-L1-3,2019-01-23 11:45:00.0,PmdMin,0.604,CHCGILDTO6Y
MA6813400180,h_OCHCTP,11-L1-3,2019-01-23 11:45:00.0,SoPmdAve,2658.78,CHCGILDTO6Y
MA6813400180,h_OCHCTP,11-L1-4,2019-01-23 11:15:00.0,Qmin,8.72,CHCGILDTO6Y
MA6813400180,h_OCHCTP,11-L1-4,2019-01-23 11:15:00.0,PhaseCorrectionAve,5.66e-07,CHCGILDTO6Y
MA6813400180,h_OCHCTP,11-L1-4,2019-01-23 11:15:00.0,BerPreFecMax,0.00318,CHCGILDTO6Y
MA6813400180,h_OCHCTP,11-L1-4,2019-01-23 11:15:00.0,PmdMin,0.4,CHCGILDTO6Y
MA6813400180,h_OCHCTP,11-L1-4,2019-01-23 11:15:00.0,SoPmdAve,2914.0,CHCGILDTO6Y
MA6813400180,h_OCHCTP,11-L1-4,2019-01-23 11:30:00.0,Qmin,8.71,CHCGILDTO6Y
MA6813400180,h_OCHCTP,11-L1-4,2019-01-23 11:30:00.0,PhaseCorrectionAve,-0.0611,CHCGILDTO6Y
MA6813400180,h_OCHCTP,11-L1-4,2019-01-23 11:30:00.0,BerPreFecMax,0.0032,CHCGILDTO6Y
MA6813400180,h_OCHCTP,11-L1-4,2019-01-23 11:30:00.0,PmdMin,1.16,CHCGILDTO6Y
MA6813400180,h_OCHCTP,11-L1-4,2019-01-23 11:30:00.0,SoPmdAve,2975.28,CHCGILDTO6Y
MA6813400180,h_OCHCTP,11-L1-4,2019-01-23 11:45:00.0,Qmin,8.72,CHCGILDTO6Y
MA6813400180,h_OCHCTP,11-L1-4,2019-01-23 11:45:00.0,PhaseCorrectionAve,-0.061,CHCGILDTO6Y
MA6813400180,h_OCHCTP,11-L1-4,2019-01-23 11:45:00.0,BerPreFecMax,0.00318,CHCGILDTO6Y
MA6813400180,h_OCHCTP,11-L1-4,2019-01-23 11:45:00.0,PmdMin,0.533,CHCGILDTO6Y
MA6813400180,h_OCHCTP,11-L1-4,2019-01-23 11:45:00.0,SoPmdAve,2945.76,CHCGILDTO6Y
MA6813400180,h_OCHCTP,11-L1-5,2019-01-23 11:15:00.0,Qmin,8.83,CHCGILDTO6Y
MA6813400180,h_OCHCTP,11-L1-5,2019-01-23 11:15:00.0,PhaseCorrectionAve,-0.061,CHCGILDTO6Y
MA6813400180,h_OCHCTP,11-L1-5,2019-01-23 11:15:00.0,BerPreFecMax,0.00286,CHCGILDTO6Y
MA6813400180,h_OCHCTP,11-L1-5,2019-01-23 11:15:00.0,PmdMin,0.851,CHCGILDTO6Y
MA6813400180,h_OCHCTP,11-L1-5,2019-01-23 11:15:00.0,SoPmdAve,2542.85,CHCGILDTO6Y
MA6813400180,h_OCHCTP,11-L1-5,2019-01-23 11:30:00.0,Qmin,8.78,CHCGILDTO6Y
MA6813400180,h_OCHCTP,11-L1-5,2019-01-23 11:30:00.0,PhaseCorrectionAve,-0.122,CHCGILDTO6Y
MA6813400180,h_OCHCTP,11-L1-5,2019-01-23 11:30:00.0,BerPreFecMax,0.00299,CHCGILDTO6Y
MA6813400180,h_OCHCTP,11-L1-5,2019-01-23 11:30:00.0,PmdMin,0.448,CHCGILDTO6Y
MA6813400180,h_OCHCTP,11-L1-5,2019-01-23 11:30:00.0,SoPmdAve,2486.91,CHCGILDTO6Y
MA6813400180,h_OCHCTP,11-L1-5,2019-01-23 11:45:00.0,Qmin,8.8,CHCGILDTO6Y
MA6813400180,h_OCHCTP,11-L1-5,2019-01-23 11:45:00.0,PhaseCorrectionAve,-0.061,CHCGILDTO6Y
MA6813400180,h_OCHCTP,11-L1-5,2019-01-23 11:45:00.0,BerPreFecMax,0.00293,CHCGILDTO6Y
MA6813400180,h_OCHCTP,11-L1-5,2019-01-23 11:45:00.0,PmdMin,1.1,CHCGILDTO6Y
MA6813400180,h_OCHCTP,11-L1-5,2019-01-23 11:45:00.0,SoPmdAve,2532.85,CHCGILDTO6Y
MA6813400180,h_OCHCTP,11-L1-6,2019-01-23 11:15:00.0,Qmin,8.77,CHCGILDTO6Y
MA6813400180,h_OCHCTP,11-L1-6,2019-01-23 11:15:00.0,PhaseCorrectionAve,-0.061,CHCGILDTO6Y
MA6813400180,h_OCHCTP,11-L1-6,2019-01-23 11:15:00.0,BerPreFecMax,0.00303,CHCGILDTO6Y
MA6813400180,h_OCHCTP,11-L1-6,2019-01-23 11:15:00.0,PmdMin,0.643,CHCGILDTO6Y
MA6813400180,h_OCHCTP,11-L1-6,2019-01-23 11:15:00.0,SoPmdAve,2552.58,CHCGILDTO6Y
MA6813400180,h_OCHCTP,11-L1-6,2019-01-23 11:30:00.0,Qmin,8.78,CHCGILDTO6Y
MA6813400180,h_OCHCTP,11-L1-6,2019-01-23 11:30:00.0,PhaseCorrectionAve,-0.122,CHCGILDTO6Y
MA6813400180,h_OCHCTP,11-L1-6,2019-01-23 11:30:00.0,BerPreFecMax,0.003,CHCGILDTO6Y
MA6813400180,h_OCHCTP,11-L1-6,2019-01-23 11:30:00.0,PmdMin,0.574,CHCGILDTO6Y
MA6813400180,h_OCHCTP,11-L1-6,2019-01-23 11:30:00.0,SoPmdAve,2498.47,CHCGILDTO6Y
MA6813400180,h_OCHCTP,11-L1-6,2019-01-23 11:45:00.0,Qmin,8.75,CHCGILDTO6Y
MA6813400180,h_OCHCTP,11-L1-6,2019-01-23 11:45:00.0,PhaseCorrectionAve,-0.061,CHCGILDTO6Y
MA6813400180,h_OCHCTP,11-L1-6,2019-01-23 11:45:00.0,BerPreFecMax,0.00309,CHCGILDTO6Y
MA6813400180,h_OCHCTP,11-L1-6,2019-01-23 11:45:00.0,PmdMin,0.334,CHCGILDTO6Y
MA6813400180,h_OCHCTP,11-L1-6,2019-01-23 11:45:00.0,SoPmdAve,2514.78,CHCGILDTO6Y
MA6813400180,h_OCHCTP,11-L1-7,2019-01-23 11:15:00.0,Qmin,8.88,CHCGILDTO6Y
MA6813400180,h_OCHCTP,11-L1-7,2019-01-23 11:15:00.0,PhaseCorrectionAve,-0.061,CHCGILDTO6Y
MA6813400180,h_OCHCTP,11-L1-7,2019-01-23 11:15:00.0,BerPreFecMax,0.00271,CHCGILDTO6Y
MA6813400180,h_OCHCTP,11-L1-7,2019-01-23 11:15:00.0,PmdMin,1.03,CHCGILDTO6Y
MA6813400180,h_OCHCTP,11-L1-7,2019-01-23 11:15:00.0,SoPmdAve,2968.85,CHCGILDTO6Y
MA6813400180,h_OCHCTP,11-L1-7,2019-01-23 11:30:00.0,Qmin,8.88,CHCGILDTO6Y
MA6813400180,h_OCHCTP,11-L1-7,2019-01-23 11:30:00.0,PhaseCorrectionAve,-0.183,CHCGILDTO6Y
MA6813400180,h_OCHCTP,11-L1-7,2019-01-23 11:30:00.0,BerPreFecMax,0.00272,CHCGILDTO6Y
MA6813400180,h_OCHCTP,11-L1-7,2019-01-23 11:30:00.0,PmdMin,0.581,CHCGILDTO6Y
MA6813400180,h_OCHCTP,11-L1-7,2019-01-23 11:30:00.0,SoPmdAve,3061.65,CHCGILDTO6Y
MA6813400180,h_OCHCTP,11-L1-7,2019-01-23 11:45:00.0,Qmin,8.84,CHCGILDTO6Y
MA6813400180,h_OCHCTP,11-L1-7,2019-01-23 11:45:00.0,PhaseCorrectionAve,-0.122,CHCGILDTO6Y
MA6813400180,h_OCHCTP,11-L1-7,2019-01-23 11:45:00.0,BerPreFecMax,0.00283,CHCGILDTO6Y
MA6813400180,h_OCHCTP,11-L1-7,2019-01-23 11:45:00.0,PmdMin,0.846,CHCGILDTO6Y
MA6813400180,h_OCHCTP,11-L1-7,2019-01-23 11:45:00.0,SoPmdAve,3111.73,CHCGILDTO6Y
MA6813400180,h_OCHCTP,11-L1-8,2019-01-23 11:15:00.0,Qmin,8.97,CHCGILDTO6Y
MA6813400180,h_OCHCTP,11-L1-8,2019-01-23 11:15:00.0,PhaseCorrectionAve,-0.061,CHCGILDTO6Y
MA6813400180,h_OCHCTP,11-L1-8,2019-01-23 11:15:00.0,BerPreFecMax,0.00248,CHCGILDTO6Y
MA6813400180,h_OCHCTP,11-L1-8,2019-01-23 11:15:00.0,PmdMin,0.901,CHCGILDTO6Y
MA6813400180,h_OCHCTP,11-L1-8,2019-01-23 11:15:00.0,SoPmdAve,3054.22,CHCGILDTO6Y
MA6813400180,h_OCHCTP,11-L1-8,2019-01-23 11:30:00.0,Qmin,8.96,CHCGILDTO6Y
MA6813400180,h_OCHCTP,11-L1-8,2019-01-23 11:30:00.0,PhaseCorrectionAve,-0.183,CHCGILDTO6Y
MA6813400180,h_OCHCTP,11-L1-8,2019-01-23 11:30:00.0,BerPreFecMax,0.00252,CHCGILDTO6Y
MA6813400180,h_OCHCTP,11-L1-8,2019-01-23 11:30:00.0,PmdMin,0.552,CHCGILDTO6Y
MA6813400180,h_OCHCTP,11-L1-8,2019-01-23 11:30:00.0,SoPmdAve,3180.84,CHCGILDTO6Y
MA6813400180,h_OCHCTP,11-L1-8,2019-01-23 11:45:00.0,Qmin,8.93,CHCGILDTO6Y
MA6813400180,h_OCHCTP,11-L1-8,2019-01-23 11:45:00.0,PhaseCorrectionAve,-0.122,CHCGILDTO6Y
MA6813400180,h_OCHCTP,11-L1-8,2019-01-23 11:45:00.0,BerPreFecMax,0.00259,CHCGILDTO6Y
MA6813400180,h_OCHCTP,11-L1-8,2019-01-23 11:45:00.0,PmdMin,0.483,CHCGILDTO6Y
MA6813400180,h_OCHCTP,11-L1-8,2019-01-23 11:45:00.0,SoPmdAve,3118.21,CHCGILDTO6Y
MA6813400180,h_OCHCTP,11-L1-9,2019-01-23 11:15:00.0,Qmin,8.91,CHCGILDTO6Y
MA6813400180,h_OCHCTP,11-L1-9,2019-01-23 11:15:00.0,PhaseCorrectionAve,-0.061,CHCGILDTO6Y
MA6813400180,h_OCHCTP,11-L1-9,2019-01-23 11:15:00.0,BerPreFecMax,0.00263,CHCGILDTO6Y
MA6813400180,h_OCHCTP,11-L1-9,2019-01-23 11:15:00.0,PmdMin,0.901,CHCGILDTO6Y
MA6813400180,h_OCHCTP,11-L1-9,2019-01-23 11:15:00.0,SoPmdAve,3057.54,CHCGILDTO6Y
MA6813400180,h_OCHCTP,11-L1-9,2019-01-23 11:30:00.0,Qmin,8.93,CHCGILDTO6Y
MA6813400180,h_OCHCTP,11-L1-9,2019-01-23 11:30:00.0,PhaseCorrectionAve,-0.183,CHCGILDTO6Y
MA6813400180,h_OCHCTP,11-L1-9,2019-01-23 11:30:00.0,BerPreFecMax,0.00259,CHCGILDTO6Y
MA6813400180,h_OCHCTP,11-L1-9,2019-01-23 11:30:00.0,PmdMin,0.556,CHCGILDTO6Y
MA6813400180,h_OCHCTP,11-L1-9,2019-01-23 11:30:00.0,SoPmdAve,3023.29,CHCGILDTO6Y
MA6813400180,h_OCHCTP,11-L1-9,2019-01-23 11:45:00.0,Qmin,8.9,CHCGILDTO6Y
MA6813400180,h_OCHCTP,11-L1-9,2019-01-23 11:45:00.0,PhaseCorrectionAve,-0.122,CHCGILDTO6Y
MA6813400180,h_OCHCTP,11-L1-9,2019-01-23 11:45:00.0,BerPreFecMax,0.00266,CHCGILDTO6Y
MA6813400180,h_OCHCTP,11-L1-9,2019-01-23 11:45:00.0,PmdMin,1.03,CHCGILDTO6Y
MA6813400180,h_OCHCTP,11-L1-9,2019-01-23 11:45:00.0,SoPmdAve,3147.61,CHCGILDTO6Y
MA6813400180,h_OCHCTP,11-L1-10,2019-01-23 11:15:00.0,Qmin,9.03,CHCGILDTO6Y
MA6813400180,h_OCHCTP,11-L1-10,2019-01-23 11:15:00.0,PhaseCorrectionAve,-0.122,CHCGILDTO6Y
MA6813400180,h_OCHCTP,11-L1-10,2019-01-23 11:15:00.0,BerPreFecMax,0.00233,CHCGILDTO6Y
MA6813400180,h_OCHCTP,11-L1-10,2019-01-23 11:15:00.0,PmdMin,0.729,CHCGILDTO6Y
MA6813400180,h_OCHCTP,11-L1-10,2019-01-23 11:15:00.0,SoPmdAve,3073.23,CHCGILDTO6Y
MA6813400180,h_OCHCTP,11-L1-10,2019-01-23 11:30:00.0,Qmin,9.02,CHCGILDTO6Y
MA6813400180,h_OCHCTP,11-L1-10,2019-01-23 11:30:00.0,PhaseCorrectionAve,-0.244,CHCGILDTO6Y
MA6813400180,h_OCHCTP,11-L1-10,2019-01-23 11:30:00.0,BerPreFecMax,0.00236,CHCGILDTO6Y
MA6813400180,h_OCHCTP,11-L1-10,2019-01-23 11:30:00.0,PmdMin,0.875,CHCGILDTO6Y
MA6813400180,h_OCHCTP,11-L1-10,2019-01-23 11:30:00.0,SoPmdAve,3021.36,CHCGILDTO6Y
MA6813400180,h_OCHCTP,11-L1-10,2019-01-23 11:45:00.0,Qmin,9.05,CHCGILDTO6Y
MA6813400180,h_OCHCTP,11-L1-10,2019-01-23 11:45:00.0,PhaseCorrectionAve,-0.183,CHCGILDTO6Y
MA6813400180,h_OCHCTP,11-L1-10,2019-01-23 11:45:00.0,BerPreFecMax,0.0023,CHCGILDTO6Y
MA6813400180,h_OCHCTP,11-L1-10,2019-01-23 11:45:00.0,PmdMin,0.742,CHCGILDTO6Y
MA6813400180,h_OCHCTP,11-L1-10,2019-01-23 11:45:00.0,SoPmdAve,3179.7,CHCGILDTO6Y
MA6813400180,h_OCHCTP,13-L1-1,2019-01-23 11:15:00.0,Qmin,9.13,CHCGILDTO6Y
MA6813400180,h_OCHCTP,13-L1-1,2019-01-23 11:15:00.0,PhaseCorrectionAve,2.46e-07,CHCGILDTO6Y
MA6813400180,h_OCHCTP,13-L1-1,2019-01-23 11:15:00.0,BerPreFecMax,0.00211,CHCGILDTO6Y
MA6813400180,h_OCHCTP,13-L1-1,2019-01-23 11:15:00.0,PmdMin,0.973,CHCGILDTO6Y
MA6813400180,h_OCHCTP,13-L1-1,2019-01-23 11:15:00.0,SoPmdAve,3526.56,CHCGILDTO6Y
MA6813400180,h_OCHCTP,13-L1-1,2019-01-23 11:30:00.0,Qmin,9.12,CHCGILDTO6Y
MA6813400180,h_OCHCTP,13-L1-1,2019-01-23 11:30:00.0,PhaseCorrectionAve,2.55e-07,CHCGILDTO6Y
MA6813400180,h_OCHCTP,13-L1-1,2019-01-23 11:30:00.0,BerPreFecMax,0.00213,CHCGILDTO6Y
MA6813400180,h_OCHCTP,13-L1-1,2019-01-23 11:30:00.0,PmdMin,0.926,CHCGILDTO6Y
MA6813400180,h_OCHCTP,13-L1-1,2019-01-23 11:30:00.0,SoPmdAve,3569.8,CHCGILDTO6Y
MA6813400180,h_OCHCTP,13-L1-1,2019-01-23 11:45:00.0,Qmin,9.17,CHCGILDTO6Y
MA6813400180,h_OCHCTP,13-L1-1,2019-01-23 11:45:00.0,PhaseCorrectionAve,2.49e-07,CHCGILDTO6Y
MA6813400180,h_OCHCTP,13-L1-1,2019-01-23 11:45:00.0,BerPreFecMax,0.00202,CHCGILDTO6Y
MA6813400180,h_OCHCTP,13-L1-1,2019-01-23 11:45:00.0,PmdMin,0.897,CHCGILDTO6Y
MA6813400180,h_OCHCTP,13-L1-1,2019-01-23 11:45:00.0,SoPmdAve,3521.25,CHCGILDTO6Y
MA6813400180,h_OCHCTP,13-L1-2,2019-01-23 11:15:00.0,Qmin,9.14,CHCGILDTO6Y
MA6813400180,h_OCHCTP,13-L1-2,2019-01-23 11:15:00.0,PhaseCorrectionAve,2.85e-07,CHCGILDTO6Y
MA6813400180,h_OCHCTP,13-L1-2,2019-01-23 11:15:00.0,BerPreFecMax,0.00209,CHCGILDTO6Y
MA6813400180,h_OCHCTP,13-L1-2,2019-01-23 11:15:00.0,PmdMin,1.47,CHCGILDTO6Y
MA6813400180,h_OCHCTP,13-L1-2,2019-01-23 11:15:00.0,SoPmdAve,3552.12,CHCGILDTO6Y
MA6813400180,h_OCHCTP,13-L1-2,2019-01-23 11:30:00.0,Qmin,9.15,CHCGILDTO6Y
MA6813400180,h_OCHCTP,13-L1-2,2019-01-23 11:30:00.0,PhaseCorrectionAve,2.71e-07,CHCGILDTO6Y
MA6813400180,h_OCHCTP,13-L1-2,2019-01-23 11:30:00.0,BerPreFecMax,0.00206,CHCGILDTO6Y
MA6813400180,h_OCHCTP,13-L1-2,2019-01-23 11:30:00.0,PmdMin,0.829,CHCGILDTO6Y
MA6813400180,h_OCHCTP,13-L1-2,2019-01-23 11:30:00.0,SoPmdAve,3454.72,CHCGILDTO6Y
MA6813400180,h_OCHCTP,13-L1-2,2019-01-23 11:45:00.0,Qmin,9.15,CHCGILDTO6Y
MA6813400180,h_OCHCTP,13-L1-2,2019-01-23 11:45:00.0,PhaseCorrectionAve,-0.061,CHCGILDTO6Y
MA6813400180,h_OCHCTP,13-L1-2,2019-01-23 11:45:00.0,BerPreFecMax,0.00206,CHCGILDTO6Y
MA6813400180,h_OCHCTP,13-L1-2,2019-01-23 11:45:00.0,PmdMin,1.53,CHCGILDTO6Y
MA6813400180,h_OCHCTP,13-L1-2,2019-01-23 11:45:00.0,SoPmdAve,3553.8,CHCGILDTO6Y
MA6813400180,h_OCHCTP,13-L1-3,2019-01-23 11:15:00.0,Qmin,8.96,CHCGILDTO6Y
MA6813400180,h_OCHCTP,13-L1-3,2019-01-23 11:15:00.0,PhaseCorrectionAve,4.7e-07,CHCGILDTO6Y
MA6813400180,h_OCHCTP,13-L1-3,2019-01-23 11:15:00.0,BerPreFecMax,0.00251,CHCGILDTO6Y
MA6813400180,h_OCHCTP,13-L1-3,2019-01-23 11:15:00.0,PmdMin,0.884,CHCGILDTO6Y
MA6813400180,h_OCHCTP,13-L1-3,2019-01-23 11:15:00.0,SoPmdAve,3000.14,CHCGILDTO6Y
MA6813400180,h_OCHCTP,13-L1-3,2019-01-23 11:30:00.0,Qmin,8.94,CHCGILDTO6Y
MA6813400180,h_OCHCTP,13-L1-3,2019-01-23 11:30:00.0,PhaseCorrectionAve,4.8e-07,CHCGILDTO6Y
MA6813400180,h_OCHCTP,13-L1-3,2019-01-23 11:30:00.0,BerPreFecMax,0.00257,CHCGILDTO6Y
MA6813400180,h_OCHCTP,13-L1-3,2019-01-23 11:30:00.0,PmdMin,0.387,CHCGILDTO6Y
MA6813400180,h_OCHCTP,13-L1-3,2019-01-23 11:30:00.0,SoPmdAve,3019.44,CHCGILDTO6Y
MA6813400180,h_OCHCTP,13-L1-3,2019-01-23 11:45:00.0,Qmin,8.96,CHCGILDTO6Y
MA6813400180,h_OCHCTP,13-L1-3,2019-01-23 11:45:00.0,PhaseCorrectionAve,-0.061,CHCGILDTO6Y
MA6813400180,h_OCHCTP,13-L1-3,2019-01-23 11:45:00.0,BerPreFecMax,0.00252,CHCGILDTO6Y
MA6813400180,h_OCHCTP,13-L1-3,2019-01-23 11:45:00.0,PmdMin,1.06,CHCGILDTO6Y
MA6813400180,h_OCHCTP,13-L1-3,2019-01-23 11:45:00.0,SoPmdAve,3092.92,CHCGILDTO6Y
MA6813400180,h_OCHCTP,13-L1-4,2019-01-23 11:15:00.0,Qmin,8.66,CHCGILDTO6Y
MA6813400180,h_OCHCTP,13-L1-4,2019-01-23 11:15:00.0,PhaseCorrectionAve,5.34e-07,CHCGILDTO6Y
MA6813400180,h_OCHCTP,13-L1-4,2019-01-23 11:15:00.0,BerPreFecMax,0.00334,CHCGILDTO6Y
MA6813400180,h_OCHCTP,13-L1-4,2019-01-23 11:15:00.0,PmdMin,0.509,CHCGILDTO6Y
MA6813400180,h_OCHCTP,13-L1-4,2019-01-23 11:15:00.0,SoPmdAve,3439.36,CHCGILDTO6Y
MA6813400180,h_OCHCTP,13-L1-4,2019-01-23 11:30:00.0,Qmin,8.67,CHCGILDTO6Y
MA6813400180,h_OCHCTP,13-L1-4,2019-01-23 11:30:00.0,PhaseCorrectionAve,-0.061,CHCGILDTO6Y
MA6813400180,h_OCHCTP,13-L1-4,2019-01-23 11:30:00.0,BerPreFecMax,0.00333,CHCGILDTO6Y
MA6813400180,h_OCHCTP,13-L1-4,2019-01-23 11:30:00.0,PmdMin,1.22,CHCGILDTO6Y
MA6813400180,h_OCHCTP,13-L1-4,2019-01-23 11:30:00.0,SoPmdAve,3418.85,CHCGILDTO6Y
MA6813400180,h_OCHCTP,13-L1-4,2019-01-23 11:45:00.0,Qmin,8.68,CHCGILDTO6Y
MA6813400180,h_OCHCTP,13-L1-4,2019-01-23 11:45:00.0,PhaseCorrectionAve,-0.061,CHCGILDTO6Y
MA6813400180,h_OCHCTP,13-L1-4,2019-01-23 11:45:00.0,BerPreFecMax,0.00329,CHCGILDTO6Y
MA6813400180,h_OCHCTP,13-L1-4,2019-01-23 11:45:00.0,PmdMin,1.19,CHCGILDTO6Y
MA6813400180,h_OCHCTP,13-L1-4,2019-01-23 11:45:00.0,SoPmdAve,3240.87,CHCGILDTO6Y
MA6813400180,h_OCHCTP,13-L1-5,2019-01-23 11:15:00.0,Qmin,8.68,CHCGILDTO6Y
MA6813400180,h_OCHCTP,13-L1-5,2019-01-23 11:15:00.0,PhaseCorrectionAve,3.33e-07,CHCGILDTO6Y
MA6813400180,h_OCHCTP,13-L1-5,2019-01-23 11:15:00.0,BerPreFecMax,0.00331,CHCGILDTO6Y
MA6813400180,h_OCHCTP,13-L1-5,2019-01-23 11:15:00.0,PmdMin,0.756,CHCGILDTO6Y
MA6813400180,h_OCHCTP,13-L1-5,2019-01-23 11:15:00.0,SoPmdAve,2902.37,CHCGILDTO6Y
MA6813400180,h_OCHCTP,13-L1-5,2019-01-23 11:30:00.0,Qmin,8.65,CHCGILDTO6Y
MA6813400180,h_OCHCTP,13-L1-5,2019-01-23 11:30:00.0,PhaseCorrectionAve,-0.122,CHCGILDTO6Y
MA6813400180,h_OCHCTP,13-L1-5,2019-01-23 11:30:00.0,BerPreFecMax,0.00339,CHCGILDTO6Y
MA6813400180,h_OCHCTP,13-L1-5,2019-01-23 11:30:00.0,PmdMin,0.837,CHCGILDTO6Y
MA6813400180,h_OCHCTP,13-L1-5,2019-01-23 11:30:00.0,SoPmdAve,2801.49,CHCGILDTO6Y
MA6813400180,h_OCHCTP,13-L1-5,2019-01-23 11:45:00.0,Qmin,8.67,CHCGILDTO6Y
MA6813400180,h_OCHCTP,13-L1-5,2019-01-23 11:45:00.0,PhaseCorrectionAve,-0.061,CHCGILDTO6Y
MA6813400180,h_OCHCTP,13-L1-5,2019-01-23 11:45:00.0,BerPreFecMax,0.00333,CHCGILDTO6Y
MA6813400180,h_OCHCTP,13-L1-5,2019-01-23 11:45:00.0,PmdMin,0.448,CHCGILDTO6Y
MA6813400180,h_OCHCTP,13-L1-5,2019-01-23 11:45:00.0,SoPmdAve,2800.93,CHCGILDTO6Y
MA6813400180,h_OCHCTP,13-L1-6,2019-01-23 11:15:00.0,Qmin,8.75,CHCGILDTO6Y
MA6813400180,h_OCHCTP,13-L1-6,2019-01-23 11:15:00.0,PhaseCorrectionAve,4.41e-07,CHCGILDTO6Y
MA6813400180,h_OCHCTP,13-L1-6,2019-01-23 11:15:00.0,BerPreFecMax,0.0031,CHCGILDTO6Y
MA6813400180,h_OCHCTP,13-L1-6,2019-01-23 11:15:00.0,PmdMin,0.836,CHCGILDTO6Y
MA6813400180,h_OCHCTP,13-L1-6,2019-01-23 11:15:00.0,SoPmdAve,3037.4,CHCGILDTO6Y
MA6813400180,h_OCHCTP,13-L1-6,2019-01-23 11:30:00.0,Qmin,8.75,CHCGILDTO6Y
MA6813400180,h_OCHCTP,13-L1-6,2019-01-23 11:30:00.0,PhaseCorrectionAve,-0.122,CHCGILDTO6Y
MA6813400180,h_OCHCTP,13-L1-6,2019-01-23 11:30:00.0,BerPreFecMax,0.0031,CHCGILDTO6Y
MA6813400180,h_OCHCTP,13-L1-6,2019-01-23 11:30:00.0,PmdMin,1.19,CHCGILDTO6Y
MA6813400180,h_OCHCTP,13-L1-6,2019-01-23 11:30:00.0,SoPmdAve,3021.74,CHCGILDTO6Y
MA6813400180,h_OCHCTP,13-L1-6,2019-01-23 11:45:00.0,Qmin,8.75,CHCGILDTO6Y
MA6813400180,h_OCHCTP,13-L1-6,2019-01-23 11:45:00.0,PhaseCorrectionAve,-0.061,CHCGILDTO6Y
MA6813400180,h_OCHCTP,13-L1-6,2019-01-23 11:45:00.0,BerPreFecMax,0.00309,CHCGILDTO6Y
MA6813400180,h_OCHCTP,13-L1-6,2019-01-23 11:45:00.0,PmdMin,0.705,CHCGILDTO6Y
MA6813400180,h_OCHCTP,13-L1-6,2019-01-23 11:45:00.0,SoPmdAve,3097.64,CHCGILDTO6Y
MA6813400180,h_OCHCTP,13-L1-7,2019-01-23 11:15:00.0,Qmin,8.77,CHCGILDTO6Y
MA6813400180,h_OCHCTP,13-L1-7,2019-01-23 11:15:00.0,PhaseCorrectionAve,3.46e-07,CHCGILDTO6Y
MA6813400180,h_OCHCTP,13-L1-7,2019-01-23 11:15:00.0,BerPreFecMax,0.00302,CHCGILDTO6Y
MA6813400180,h_OCHCTP,13-L1-7,2019-01-23 11:15:00.0,PmdMin,1.32,CHCGILDTO6Y
MA6813400180,h_OCHCTP,13-L1-7,2019-01-23 11:15:00.0,SoPmdAve,3712.86,CHCGILDTO6Y
MA6813400180,h_OCHCTP,13-L1-7,2019-01-23 11:30:00.0,Qmin,8.79,CHCGILDTO6Y
MA6813400180,h_OCHCTP,13-L1-7,2019-01-23 11:30:00.0,PhaseCorrectionAve,-0.183,CHCGILDTO6Y
MA6813400180,h_OCHCTP,13-L1-7,2019-01-23 11:30:00.0,BerPreFecMax,0.00298,CHCGILDTO6Y
MA6813400180,h_OCHCTP,13-L1-7,2019-01-23 11:30:00.0,PmdMin,0.728,CHCGILDTO6Y
MA6813400180,h_OCHCTP,13-L1-7,2019-01-23 11:30:00.0,SoPmdAve,3730.49,CHCGILDTO6Y
MA6813400180,h_OCHCTP,13-L1-7,2019-01-23 11:45:00.0,Qmin,8.8,CHCGILDTO6Y
MA6813400180,h_OCHCTP,13-L1-7,2019-01-23 11:45:00.0,PhaseCorrectionAve,-0.061,CHCGILDTO6Y
MA6813400180,h_OCHCTP,13-L1-7,2019-01-23 11:45:00.0,BerPreFecMax,0.00294,CHCGILDTO6Y
MA6813400180,h_OCHCTP,13-L1-7,2019-01-23 11:45:00.0,PmdMin,0.912,CHCGILDTO6Y
MA6813400180,h_OCHCTP,13-L1-7,2019-01-23 11:45:00.0,SoPmdAve,3743.2,CHCGILDTO6Y
MA6813400180,h_OCHCTP,13-L1-8,2019-01-23 11:15:00.0,Qmin,8.92,CHCGILDTO6Y
MA6813400180,h_OCHCTP,13-L1-8,2019-01-23 11:15:00.0,PhaseCorrectionAve,6.12e-07,CHCGILDTO6Y
MA6813400180,h_OCHCTP,13-L1-8,2019-01-23 11:15:00.0,BerPreFecMax,0.00261,CHCGILDTO6Y
MA6813400180,h_OCHCTP,13-L1-8,2019-01-23 11:15:00.0,PmdMin,1.28,CHCGILDTO6Y
MA6813400180,h_OCHCTP,13-L1-8,2019-01-23 11:15:00.0,SoPmdAve,3964.27,CHCGILDTO6Y
MA6813400180,h_OCHCTP,13-L1-8,2019-01-23 11:30:00.0,Qmin,8.91,CHCGILDTO6Y
MA6813400180,h_OCHCTP,13-L1-8,2019-01-23 11:30:00.0,PhaseCorrectionAve,-0.244,CHCGILDTO6Y
MA6813400180,h_OCHCTP,13-L1-8,2019-01-23 11:30:00.0,BerPreFecMax,0.00264,CHCGILDTO6Y
MA6813400180,h_OCHCTP,13-L1-8,2019-01-23 11:30:00.0,PmdMin,1.36,CHCGILDTO6Y
MA6813400180,h_OCHCTP,13-L1-8,2019-01-23 11:30:00.0,SoPmdAve,3921.88,CHCGILDTO6Y
MA6813400180,h_OCHCTP,13-L1-8,2019-01-23 11:45:00.0,Qmin,8.9,CHCGILDTO6Y
MA6813400180,h_OCHCTP,13-L1-8,2019-01-23 11:45:00.0,PhaseCorrectionAve,-0.061,CHCGILDTO6Y
MA6813400180,h_OCHCTP,13-L1-8,2019-01-23 11:45:00.0,BerPreFecMax,0.00267,CHCGILDTO6Y
MA6813400180,h_OCHCTP,13-L1-8,2019-01-23 11:45:00.0,PmdMin,2.12,CHCGILDTO6Y
MA6813400180,h_OCHCTP,13-L1-8,2019-01-23 11:45:00.0,SoPmdAve,3913.64,CHCGILDTO6Y
MA6813400180,h_OCHCTP,13-L1-9,2019-01-23 11:15:00.0,Qmin,8.89,CHCGILDTO6Y
MA6813400180,h_OCHCTP,13-L1-9,2019-01-23 11:15:00.0,PhaseCorrectionAve,2.55e-06,CHCGILDTO6Y
MA6813400180,h_OCHCTP,13-L1-9,2019-01-23 11:15:00.0,BerPreFecMax,0.0027,CHCGILDTO6Y
MA6813400180,h_OCHCTP,13-L1-9,2019-01-23 11:15:00.0,PmdMin,0.623,CHCGILDTO6Y
MA6813400180,h_OCHCTP,13-L1-9,2019-01-23 11:15:00.0,SoPmdAve,3533.47,CHCGILDTO6Y
MA6813400180,h_OCHCTP,13-L1-9,2019-01-23 11:30:00.0,Qmin,8.89,CHCGILDTO6Y
MA6813400180,h_OCHCTP,13-L1-9,2019-01-23 11:30:00.0,PhaseCorrectionAve,-0.244,CHCGILDTO6Y
MA6813400180,h_OCHCTP,13-L1-9,2019-01-23 11:30:00.0,BerPreFecMax,0.0027,CHCGILDTO6Y
MA6813400180,h_OCHCTP,13-L1-9,2019-01-23 11:30:00.0,PmdMin,1.07,CHCGILDTO6Y
MA6813400180,h_OCHCTP,13-L1-9,2019-01-23 11:30:00.0,SoPmdAve,3616.83,CHCGILDTO6Y
MA6813400180,h_OCHCTP,13-L1-9,2019-01-23 11:45:00.0,Qmin,8.84,CHCGILDTO6Y
MA6813400180,h_OCHCTP,13-L1-9,2019-01-23 11:45:00.0,PhaseCorrectionAve,-0.183,CHCGILDTO6Y
MA6813400180,h_OCHCTP,13-L1-9,2019-01-23 11:45:00.0,BerPreFecMax,0.00282,CHCGILDTO6Y
MA6813400180,h_OCHCTP,13-L1-9,2019-01-23 11:45:00.0,PmdMin,1.19,CHCGILDTO6Y
MA6813400180,h_OCHCTP,13-L1-9,2019-01-23 11:45:00.0,SoPmdAve,3536.2,CHCGILDTO6Y
MA6813400180,h_OCHCTP,13-L1-10,2019-01-23 11:15:00.0,Qmin,8.77,CHCGILDTO6Y
MA6813400180,h_OCHCTP,13-L1-10,2019-01-23 11:15:00.0,PhaseCorrectionAve,2.39e-06,CHCGILDTO6Y
MA6813400180,h_OCHCTP,13-L1-10,2019-01-23 11:15:00.0,BerPreFecMax,0.00303,CHCGILDTO6Y
MA6813400180,h_OCHCTP,13-L1-10,2019-01-23 11:15:00.0,PmdMin,0.891,CHCGILDTO6Y
MA6813400180,h_OCHCTP,13-L1-10,2019-01-23 11:15:00.0,SoPmdAve,3796.5,CHCGILDTO6Y
MA6813400180,h_OCHCTP,13-L1-10,2019-01-23 11:30:00.0,Qmin,8.77,CHCGILDTO6Y
MA6813400180,h_OCHCTP,13-L1-10,2019-01-23 11:30:00.0,PhaseCorrectionAve,-0.244,CHCGILDTO6Y
MA6813400180,h_OCHCTP,13-L1-10,2019-01-23 11:30:00.0,BerPreFecMax,0.00304,CHCGILDTO6Y
MA6813400180,h_OCHCTP,13-L1-10,2019-01-23 11:30:00.0,PmdMin,0.951,CHCGILDTO6Y
MA6813400180,h_OCHCTP,13-L1-10,2019-01-23 11:30:00.0,SoPmdAve,3745.48,CHCGILDTO6Y
MA6813400180,h_OCHCTP,13-L1-10,2019-01-23 11:45:00.0,Qmin,8.78,CHCGILDTO6Y
MA6813400180,h_OCHCTP,13-L1-10,2019-01-23 11:45:00.0,PhaseCorrectionAve,-0.183,CHCGILDTO6Y
MA6813400180,h_OCHCTP,13-L1-10,2019-01-23 11:45:00.0,BerPreFecMax,0.00299,CHCGILDTO6Y
MA6813400180,h_OCHCTP,13-L1-10,2019-01-23 11:45:00.0,PmdMin,1.53,CHCGILDTO6Y
MA6813400180,h_OCHCTP,13-L1-10,2019-01-23 11:45:00.0,SoPmdAve,3788.29,CHCGILDTO6Y
