MA6813400180,h_OCHCTP,10-L1-1,2019-02-05 18:15:00.0,Qmin,9.5,CHCGILDTO6Y
MA6813400180,h_OCHCTP,10-L1-1,2019-02-05 18:15:00.0,PhaseCorrectionAve,-0.0609,CHCGILDTO6Y
MA6813400180,h_OCHCTP,10-L1-1,2019-02-05 18:15:00.0,BerPreFecMax,0.00142,CHCGILDTO6Y
MA6813400180,h_OCHCTP,10-L1-1,2019-02-05 18:15:00.0,PmdMin,0.979,CHCGILDTO6Y
MA6813400180,h_OCHCTP,10-L1-1,2019-02-05 18:15:00.0,SoPmdAve,3475.14,CHCGILDTO6Y
MA6813400180,h_OCHCTP,10-L1-1,2019-02-05 18:30:00.0,Qmin,9.48,CHCGILDTO6Y
MA6813400180,h_OCHCTP,10-L1-1,2019-02-05 18:30:00.0,PhaseCorrectionAve,4.02e-07,CHCGILDTO6Y
MA6813400180,h_OCHCTP,10-L1-1,2019-02-05 18:30:00.0,BerPreFecMax,0.00144,CHCGILDTO6Y
MA6813400180,h_OCHCTP,10-L1-1,2019-02-05 18:30:00.0,PmdMin,0.745,CHCGILDTO6Y
MA6813400180,h_OCHCTP,10-L1-1,2019-02-05 18:30:00.0,SoPmdAve,3641.4,CHCGILDTO6Y
MA6813400180,h_OCHCTP,10-L1-1,2019-02-05 18:45:00.0,Qmin,9.5,CHCGILDTO6Y
MA6813400180,h_OCHCTP,10-L1-1,2019-02-05 18:45:00.0,PhaseCorrectionAve,3.96e-07,CHCGILDTO6Y
MA6813400180,h_OCHCTP,10-L1-1,2019-02-05 18:45:00.0,BerPreFecMax,0.00142,CHCGILDTO6Y
MA6813400180,h_OCHCTP,10-L1-1,2019-02-05 18:45:00.0,PmdMin,0.27,CHCGILDTO6Y
MA6813400180,h_OCHCTP,10-L1-1,2019-02-05 18:45:00.0,SoPmdAve,3614.67,CHCGILDTO6Y
MA6813400180,h_OCHCTP,10-L1-2,2019-02-05 18:15:00.0,Qmin,9.19,CHCGILDTO6Y
MA6813400180,h_OCHCTP,10-L1-2,2019-02-05 18:15:00.0,PhaseCorrectionAve,-0.0609,CHCGILDTO6Y
MA6813400180,h_OCHCTP,10-L1-2,2019-02-05 18:15:00.0,BerPreFecMax,0.00198,CHCGILDTO6Y
MA6813400180,h_OCHCTP,10-L1-2,2019-02-05 18:15:00.0,PmdMin,2.62,CHCGILDTO6Y
MA6813400180,h_OCHCTP,10-L1-2,2019-02-05 18:15:00.0,SoPmdAve,3287.75,CHCGILDTO6Y
MA6813400180,h_OCHCTP,10-L1-2,2019-02-05 18:30:00.0,Qmin,9.16,CHCGILDTO6Y
MA6813400180,h_OCHCTP,10-L1-2,2019-02-05 18:30:00.0,PhaseCorrectionAve,3.26e-07,CHCGILDTO6Y
MA6813400180,h_OCHCTP,10-L1-2,2019-02-05 18:30:00.0,BerPreFecMax,0.00204,CHCGILDTO6Y
MA6813400180,h_OCHCTP,10-L1-2,2019-02-05 18:30:00.0,PmdMin,8.28,CHCGILDTO6Y
MA6813400180,h_OCHCTP,10-L1-2,2019-02-05 18:30:00.0,SoPmdAve,3345.52,CHCGILDTO6Y
MA6813400180,h_OCHCTP,10-L1-2,2019-02-05 18:45:00.0,Qmin,9.18,CHCGILDTO6Y
MA6813400180,h_OCHCTP,10-L1-2,2019-02-05 18:45:00.0,PhaseCorrectionAve,-0.183,CHCGILDTO6Y
MA6813400180,h_OCHCTP,10-L1-2,2019-02-05 18:45:00.0,BerPreFecMax,0.00201,CHCGILDTO6Y
MA6813400180,h_OCHCTP,10-L1-2,2019-02-05 18:45:00.0,PmdMin,4.94,CHCGILDTO6Y
MA6813400180,h_OCHCTP,10-L1-2,2019-02-05 18:45:00.0,SoPmdAve,3381.57,CHCGILDTO6Y
MA6813400180,h_OCHCTP,10-L1-3,2019-02-05 18:15:00.0,Qmin,8.92,CHCGILDTO6Y
MA6813400180,h_OCHCTP,10-L1-3,2019-02-05 18:15:00.0,PhaseCorrectionAve,-0.0609,CHCGILDTO6Y
MA6813400180,h_OCHCTP,10-L1-3,2019-02-05 18:15:00.0,BerPreFecMax,0.00262,CHCGILDTO6Y
MA6813400180,h_OCHCTP,10-L1-3,2019-02-05 18:15:00.0,PmdMin,5.18,CHCGILDTO6Y
MA6813400180,h_OCHCTP,10-L1-3,2019-02-05 18:15:00.0,SoPmdAve,2885.28,CHCGILDTO6Y
MA6813400180,h_OCHCTP,10-L1-3,2019-02-05 18:30:00.0,Qmin,8.9,CHCGILDTO6Y
MA6813400180,h_OCHCTP,10-L1-3,2019-02-05 18:30:00.0,PhaseCorrectionAve,5.55e-07,CHCGILDTO6Y
MA6813400180,h_OCHCTP,10-L1-3,2019-02-05 18:30:00.0,BerPreFecMax,0.00266,CHCGILDTO6Y
MA6813400180,h_OCHCTP,10-L1-3,2019-02-05 18:30:00.0,PmdMin,3.35,CHCGILDTO6Y
MA6813400180,h_OCHCTP,10-L1-3,2019-02-05 18:30:00.0,SoPmdAve,2862.85,CHCGILDTO6Y
MA6813400180,h_OCHCTP,10-L1-3,2019-02-05 18:45:00.0,Qmin,8.9,CHCGILDTO6Y
MA6813400180,h_OCHCTP,10-L1-3,2019-02-05 18:45:00.0,PhaseCorrectionAve,-0.305,CHCGILDTO6Y
MA6813400180,h_OCHCTP,10-L1-3,2019-02-05 18:45:00.0,BerPreFecMax,0.00265,CHCGILDTO6Y
MA6813400180,h_OCHCTP,10-L1-3,2019-02-05 18:45:00.0,PmdMin,5.97,CHCGILDTO6Y
MA6813400180,h_OCHCTP,10-L1-3,2019-02-05 18:45:00.0,SoPmdAve,2809.88,CHCGILDTO6Y
MA6813400180,h_OCHCTP,10-L1-4,2019-02-05 18:15:00.0,Qmin,8.35,CHCGILDTO6Y
MA6813400180,h_OCHCTP,10-L1-4,2019-02-05 18:15:00.0,PhaseCorrectionAve,-0.0609,CHCGILDTO6Y
MA6813400180,h_OCHCTP,10-L1-4,2019-02-05 18:15:00.0,BerPreFecMax,0.00448,CHCGILDTO6Y
MA6813400180,h_OCHCTP,10-L1-4,2019-02-05 18:15:00.0,PmdMin,1.34,CHCGILDTO6Y
MA6813400180,h_OCHCTP,10-L1-4,2019-02-05 18:15:00.0,SoPmdAve,3014.53,CHCGILDTO6Y
MA6813400180,h_OCHCTP,10-L1-4,2019-02-05 18:30:00.0,Qmin,8.32,CHCGILDTO6Y
MA6813400180,h_OCHCTP,10-L1-4,2019-02-05 18:30:00.0,PhaseCorrectionAve,-0.061,CHCGILDTO6Y
MA6813400180,h_OCHCTP,10-L1-4,2019-02-05 18:30:00.0,BerPreFecMax,0.00456,CHCGILDTO6Y
MA6813400180,h_OCHCTP,10-L1-4,2019-02-05 18:30:00.0,PmdMin,0.914,CHCGILDTO6Y
MA6813400180,h_OCHCTP,10-L1-4,2019-02-05 18:30:00.0,SoPmdAve,2992.1,CHCGILDTO6Y
MA6813400180,h_OCHCTP,10-L1-4,2019-02-05 18:45:00.0,Qmin,8.34,CHCGILDTO6Y
MA6813400180,h_OCHCTP,10-L1-4,2019-02-05 18:45:00.0,PhaseCorrectionAve,-0.366,CHCGILDTO6Y
MA6813400180,h_OCHCTP,10-L1-4,2019-02-05 18:45:00.0,BerPreFecMax,0.0045,CHCGILDTO6Y
MA6813400180,h_OCHCTP,10-L1-4,2019-02-05 18:45:00.0,PmdMin,1.32,CHCGILDTO6Y
MA6813400180,h_OCHCTP,10-L1-4,2019-02-05 18:45:00.0,SoPmdAve,3124.72,CHCGILDTO6Y
MA6813400180,h_OCHCTP,10-L1-5,2019-02-05 18:15:00.0,Qmin,8.56,CHCGILDTO6Y
MA6813400180,h_OCHCTP,10-L1-5,2019-02-05 18:15:00.0,PhaseCorrectionAve,-0.0609,CHCGILDTO6Y
MA6813400180,h_OCHCTP,10-L1-5,2019-02-05 18:15:00.0,BerPreFecMax,0.0037,CHCGILDTO6Y
MA6813400180,h_OCHCTP,10-L1-5,2019-02-05 18:15:00.0,PmdMin,0.813,CHCGILDTO6Y
MA6813400180,h_OCHCTP,10-L1-5,2019-02-05 18:15:00.0,SoPmdAve,2887.55,CHCGILDTO6Y
MA6813400180,h_OCHCTP,10-L1-5,2019-02-05 18:30:00.0,Qmin,8.55,CHCGILDTO6Y
MA6813400180,h_OCHCTP,10-L1-5,2019-02-05 18:30:00.0,PhaseCorrectionAve,-0.061,CHCGILDTO6Y
MA6813400180,h_OCHCTP,10-L1-5,2019-02-05 18:30:00.0,BerPreFecMax,0.00372,CHCGILDTO6Y
MA6813400180,h_OCHCTP,10-L1-5,2019-02-05 18:30:00.0,PmdMin,0.646,CHCGILDTO6Y
MA6813400180,h_OCHCTP,10-L1-5,2019-02-05 18:30:00.0,SoPmdAve,2921.31,CHCGILDTO6Y
MA6813400180,h_OCHCTP,10-L1-5,2019-02-05 18:45:00.0,Qmin,8.55,CHCGILDTO6Y
MA6813400180,h_OCHCTP,10-L1-5,2019-02-05 18:45:00.0,PhaseCorrectionAve,-0.366,CHCGILDTO6Y
MA6813400180,h_OCHCTP,10-L1-5,2019-02-05 18:45:00.0,BerPreFecMax,0.00373,CHCGILDTO6Y
MA6813400180,h_OCHCTP,10-L1-5,2019-02-05 18:45:00.0,PmdMin,0.672,CHCGILDTO6Y
MA6813400180,h_OCHCTP,10-L1-5,2019-02-05 18:45:00.0,SoPmdAve,2892.82,CHCGILDTO6Y
MA6813400180,h_OCHCTP,10-L1-6,2019-02-05 18:15:00.0,Qmin,8.78,CHCGILDTO6Y
MA6813400180,h_OCHCTP,10-L1-6,2019-02-05 18:15:00.0,PhaseCorrectionAve,-0.0609,CHCGILDTO6Y
MA6813400180,h_OCHCTP,10-L1-6,2019-02-05 18:15:00.0,BerPreFecMax,0.00299,CHCGILDTO6Y
MA6813400180,h_OCHCTP,10-L1-6,2019-02-05 18:15:00.0,PmdMin,1.16,CHCGILDTO6Y
MA6813400180,h_OCHCTP,10-L1-6,2019-02-05 18:15:00.0,SoPmdAve,2786.08,CHCGILDTO6Y
MA6813400180,h_OCHCTP,10-L1-6,2019-02-05 18:30:00.0,Qmin,8.75,CHCGILDTO6Y
MA6813400180,h_OCHCTP,10-L1-6,2019-02-05 18:30:00.0,PhaseCorrectionAve,-0.122,CHCGILDTO6Y
MA6813400180,h_OCHCTP,10-L1-6,2019-02-05 18:30:00.0,BerPreFecMax,0.00309,CHCGILDTO6Y
MA6813400180,h_OCHCTP,10-L1-6,2019-02-05 18:30:00.0,PmdMin,0.435,CHCGILDTO6Y
MA6813400180,h_OCHCTP,10-L1-6,2019-02-05 18:30:00.0,SoPmdAve,2890.66,CHCGILDTO6Y
MA6813400180,h_OCHCTP,10-L1-6,2019-02-05 18:45:00.0,Qmin,8.75,CHCGILDTO6Y
MA6813400180,h_OCHCTP,10-L1-6,2019-02-05 18:45:00.0,PhaseCorrectionAve,-0.366,CHCGILDTO6Y
MA6813400180,h_OCHCTP,10-L1-6,2019-02-05 18:45:00.0,BerPreFecMax,0.00307,CHCGILDTO6Y
MA6813400180,h_OCHCTP,10-L1-6,2019-02-05 18:45:00.0,PmdMin,0.89,CHCGILDTO6Y
MA6813400180,h_OCHCTP,10-L1-6,2019-02-05 18:45:00.0,SoPmdAve,2833.57,CHCGILDTO6Y
MA6813400180,h_OCHCTP,10-L1-7,2019-02-05 18:15:00.0,Qmin,8.87,CHCGILDTO6Y
MA6813400180,h_OCHCTP,10-L1-7,2019-02-05 18:15:00.0,PhaseCorrectionAve,-0.0609,CHCGILDTO6Y
MA6813400180,h_OCHCTP,10-L1-7,2019-02-05 18:15:00.0,BerPreFecMax,0.00276,CHCGILDTO6Y
MA6813400180,h_OCHCTP,10-L1-7,2019-02-05 18:15:00.0,PmdMin,1.32,CHCGILDTO6Y
MA6813400180,h_OCHCTP,10-L1-7,2019-02-05 18:15:00.0,SoPmdAve,3456.13,CHCGILDTO6Y
MA6813400180,h_OCHCTP,10-L1-7,2019-02-05 18:30:00.0,Qmin,8.84,CHCGILDTO6Y
MA6813400180,h_OCHCTP,10-L1-7,2019-02-05 18:30:00.0,PhaseCorrectionAve,-0.122,CHCGILDTO6Y
MA6813400180,h_OCHCTP,10-L1-7,2019-02-05 18:30:00.0,BerPreFecMax,0.00282,CHCGILDTO6Y
MA6813400180,h_OCHCTP,10-L1-7,2019-02-05 18:30:00.0,PmdMin,2.18,CHCGILDTO6Y
MA6813400180,h_OCHCTP,10-L1-7,2019-02-05 18:30:00.0,SoPmdAve,3371.28,CHCGILDTO6Y
MA6813400180,h_OCHCTP,10-L1-7,2019-02-05 18:45:00.0,Qmin,8.85,CHCGILDTO6Y
MA6813400180,h_OCHCTP,10-L1-7,2019-02-05 18:45:00.0,PhaseCorrectionAve,-0.366,CHCGILDTO6Y
MA6813400180,h_OCHCTP,10-L1-7,2019-02-05 18:45:00.0,BerPreFecMax,0.00279,CHCGILDTO6Y
MA6813400180,h_OCHCTP,10-L1-7,2019-02-05 18:45:00.0,PmdMin,1.85,CHCGILDTO6Y
MA6813400180,h_OCHCTP,10-L1-7,2019-02-05 18:45:00.0,SoPmdAve,3587.03,CHCGILDTO6Y
MA6813400180,h_OCHCTP,10-L1-8,2019-02-05 18:15:00.0,Qmin,9.32,CHCGILDTO6Y
MA6813400180,h_OCHCTP,10-L1-8,2019-02-05 18:15:00.0,PhaseCorrectionAve,-0.0609,CHCGILDTO6Y
MA6813400180,h_OCHCTP,10-L1-8,2019-02-05 18:15:00.0,BerPreFecMax,0.00172,CHCGILDTO6Y
MA6813400180,h_OCHCTP,10-L1-8,2019-02-05 18:15:00.0,PmdMin,1.03,CHCGILDTO6Y
MA6813400180,h_OCHCTP,10-L1-8,2019-02-05 18:15:00.0,SoPmdAve,3292.4,CHCGILDTO6Y
MA6813400180,h_OCHCTP,10-L1-8,2019-02-05 18:30:00.0,Qmin,9.32,CHCGILDTO6Y
MA6813400180,h_OCHCTP,10-L1-8,2019-02-05 18:30:00.0,PhaseCorrectionAve,-0.183,CHCGILDTO6Y
MA6813400180,h_OCHCTP,10-L1-8,2019-02-05 18:30:00.0,BerPreFecMax,0.00172,CHCGILDTO6Y
MA6813400180,h_OCHCTP,10-L1-8,2019-02-05 18:30:00.0,PmdMin,2.17,CHCGILDTO6Y
MA6813400180,h_OCHCTP,10-L1-8,2019-02-05 18:30:00.0,SoPmdAve,3341.59,CHCGILDTO6Y
MA6813400180,h_OCHCTP,10-L1-8,2019-02-05 18:45:00.0,Qmin,9.33,CHCGILDTO6Y
MA6813400180,h_OCHCTP,10-L1-8,2019-02-05 18:45:00.0,PhaseCorrectionAve,-0.366,CHCGILDTO6Y
MA6813400180,h_OCHCTP,10-L1-8,2019-02-05 18:45:00.0,BerPreFecMax,0.00171,CHCGILDTO6Y
MA6813400180,h_OCHCTP,10-L1-8,2019-02-05 18:45:00.0,PmdMin,1.18,CHCGILDTO6Y
MA6813400180,h_OCHCTP,10-L1-8,2019-02-05 18:45:00.0,SoPmdAve,3367.38,CHCGILDTO6Y
MA6813400180,h_OCHCTP,10-L1-9,2019-02-05 18:15:00.0,Qmin,9.33,CHCGILDTO6Y
MA6813400180,h_OCHCTP,10-L1-9,2019-02-05 18:15:00.0,PhaseCorrectionAve,-0.0609,CHCGILDTO6Y
MA6813400180,h_OCHCTP,10-L1-9,2019-02-05 18:15:00.0,BerPreFecMax,0.00171,CHCGILDTO6Y
MA6813400180,h_OCHCTP,10-L1-9,2019-02-05 18:15:00.0,PmdMin,5.34,CHCGILDTO6Y
MA6813400180,h_OCHCTP,10-L1-9,2019-02-05 18:15:00.0,SoPmdAve,3416.15,CHCGILDTO6Y
MA6813400180,h_OCHCTP,10-L1-9,2019-02-05 18:30:00.0,Qmin,9.34,CHCGILDTO6Y
MA6813400180,h_OCHCTP,10-L1-9,2019-02-05 18:30:00.0,PhaseCorrectionAve,-0.183,CHCGILDTO6Y
MA6813400180,h_OCHCTP,10-L1-9,2019-02-05 18:30:00.0,BerPreFecMax,0.00168,CHCGILDTO6Y
MA6813400180,h_OCHCTP,10-L1-9,2019-02-05 18:30:00.0,PmdMin,1.19,CHCGILDTO6Y
MA6813400180,h_OCHCTP,10-L1-9,2019-02-05 18:30:00.0,SoPmdAve,3308.02,CHCGILDTO6Y
MA6813400180,h_OCHCTP,10-L1-9,2019-02-05 18:45:00.0,Qmin,9.34,CHCGILDTO6Y
MA6813400180,h_OCHCTP,10-L1-9,2019-02-05 18:45:00.0,PhaseCorrectionAve,-0.366,CHCGILDTO6Y
MA6813400180,h_OCHCTP,10-L1-9,2019-02-05 18:45:00.0,BerPreFecMax,0.00169,CHCGILDTO6Y
MA6813400180,h_OCHCTP,10-L1-9,2019-02-05 18:45:00.0,PmdMin,5.16,CHCGILDTO6Y
MA6813400180,h_OCHCTP,10-L1-9,2019-02-05 18:45:00.0,SoPmdAve,3360.22,CHCGILDTO6Y
MA6813400180,h_OCHCTP,10-L1-10,2019-02-05 18:15:00.0,Qmin,9.37,CHCGILDTO6Y
MA6813400180,h_OCHCTP,10-L1-10,2019-02-05 18:15:00.0,PhaseCorrectionAve,-0.0609,CHCGILDTO6Y
MA6813400180,h_OCHCTP,10-L1-10,2019-02-05 18:15:00.0,BerPreFecMax,0.00164,CHCGILDTO6Y
MA6813400180,h_OCHCTP,10-L1-10,2019-02-05 18:15:00.0,PmdMin,11.73,CHCGILDTO6Y
MA6813400180,h_OCHCTP,10-L1-10,2019-02-05 18:15:00.0,SoPmdAve,3373.84,CHCGILDTO6Y
MA6813400180,h_OCHCTP,10-L1-10,2019-02-05 18:30:00.0,Qmin,9.37,CHCGILDTO6Y
MA6813400180,h_OCHCTP,10-L1-10,2019-02-05 18:30:00.0,PhaseCorrectionAve,-0.183,CHCGILDTO6Y
MA6813400180,h_OCHCTP,10-L1-10,2019-02-05 18:30:00.0,BerPreFecMax,0.00163,CHCGILDTO6Y
MA6813400180,h_OCHCTP,10-L1-10,2019-02-05 18:30:00.0,PmdMin,11.08,CHCGILDTO6Y
MA6813400180,h_OCHCTP,10-L1-10,2019-02-05 18:30:00.0,SoPmdAve,3312.74,CHCGILDTO6Y
MA6813400180,h_OCHCTP,10-L1-10,2019-02-05 18:45:00.0,Qmin,9.37,CHCGILDTO6Y
MA6813400180,h_OCHCTP,10-L1-10,2019-02-05 18:45:00.0,PhaseCorrectionAve,-0.427,CHCGILDTO6Y
MA6813400180,h_OCHCTP,10-L1-10,2019-02-05 18:45:00.0,BerPreFecMax,0.00164,CHCGILDTO6Y
MA6813400180,h_OCHCTP,10-L1-10,2019-02-05 18:45:00.0,PmdMin,12.69,CHCGILDTO6Y
MA6813400180,h_OCHCTP,10-L1-10,2019-02-05 18:45:00.0,SoPmdAve,3456.92,CHCGILDTO6Y
MA6813400180,h_OCHCTP,11-L1-1,2019-02-05 18:15:00.0,Qmin,9.01,CHCGILDTO6Y
MA6813400180,h_OCHCTP,11-L1-1,2019-02-05 18:15:00.0,PhaseCorrectionAve,1.49e-07,CHCGILDTO6Y
MA6813400180,h_OCHCTP,11-L1-1,2019-02-05 18:15:00.0,BerPreFecMax,0.00239,CHCGILDTO6Y
MA6813400180,h_OCHCTP,11-L1-1,2019-02-05 18:15:00.0,PmdMin,0.98,CHCGILDTO6Y
MA6813400180,h_OCHCTP,11-L1-1,2019-02-05 18:15:00.0,SoPmdAve,3365.03,CHCGILDTO6Y
MA6813400180,h_OCHCTP,11-L1-1,2019-02-05 18:30:00.0,Qmin,9.06,CHCGILDTO6Y
MA6813400180,h_OCHCTP,11-L1-1,2019-02-05 18:30:00.0,PhaseCorrectionAve,1.73e-07,CHCGILDTO6Y
MA6813400180,h_OCHCTP,11-L1-1,2019-02-05 18:30:00.0,BerPreFecMax,0.00226,CHCGILDTO6Y
MA6813400180,h_OCHCTP,11-L1-1,2019-02-05 18:30:00.0,PmdMin,0.804,CHCGILDTO6Y
MA6813400180,h_OCHCTP,11-L1-1,2019-02-05 18:30:00.0,SoPmdAve,3319.31,CHCGILDTO6Y
MA6813400180,h_OCHCTP,11-L1-1,2019-02-05 18:45:00.0,Qmin,9.06,CHCGILDTO6Y
MA6813400180,h_OCHCTP,11-L1-1,2019-02-05 18:45:00.0,PhaseCorrectionAve,-0.0609,CHCGILDTO6Y
MA6813400180,h_OCHCTP,11-L1-1,2019-02-05 18:45:00.0,BerPreFecMax,0.00226,CHCGILDTO6Y
MA6813400180,h_OCHCTP,11-L1-1,2019-02-05 18:45:00.0,PmdMin,0.979,CHCGILDTO6Y
MA6813400180,h_OCHCTP,11-L1-1,2019-02-05 18:45:00.0,SoPmdAve,3372.73,CHCGILDTO6Y
MA6813400180,h_OCHCTP,11-L1-2,2019-02-05 18:15:00.0,Qmin,8.97,CHCGILDTO6Y
MA6813400180,h_OCHCTP,11-L1-2,2019-02-05 18:15:00.0,PhaseCorrectionAve,4.33e-07,CHCGILDTO6Y
MA6813400180,h_OCHCTP,11-L1-2,2019-02-05 18:15:00.0,BerPreFecMax,0.0025,CHCGILDTO6Y
MA6813400180,h_OCHCTP,11-L1-2,2019-02-05 18:15:00.0,PmdMin,1.46,CHCGILDTO6Y
MA6813400180,h_OCHCTP,11-L1-2,2019-02-05 18:15:00.0,SoPmdAve,3184.89,CHCGILDTO6Y
MA6813400180,h_OCHCTP,11-L1-2,2019-02-05 18:30:00.0,Qmin,8.9,CHCGILDTO6Y
MA6813400180,h_OCHCTP,11-L1-2,2019-02-05 18:30:00.0,PhaseCorrectionAve,-0.061,CHCGILDTO6Y
MA6813400180,h_OCHCTP,11-L1-2,2019-02-05 18:30:00.0,BerPreFecMax,0.00266,CHCGILDTO6Y
MA6813400180,h_OCHCTP,11-L1-2,2019-02-05 18:30:00.0,PmdMin,1.12,CHCGILDTO6Y
MA6813400180,h_OCHCTP,11-L1-2,2019-02-05 18:30:00.0,SoPmdAve,3155.91,CHCGILDTO6Y
MA6813400180,h_OCHCTP,11-L1-2,2019-02-05 18:45:00.0,Qmin,8.92,CHCGILDTO6Y
MA6813400180,h_OCHCTP,11-L1-2,2019-02-05 18:45:00.0,PhaseCorrectionAve,-0.0609,CHCGILDTO6Y
MA6813400180,h_OCHCTP,11-L1-2,2019-02-05 18:45:00.0,BerPreFecMax,0.00261,CHCGILDTO6Y
MA6813400180,h_OCHCTP,11-L1-2,2019-02-05 18:45:00.0,PmdMin,0.48,CHCGILDTO6Y
MA6813400180,h_OCHCTP,11-L1-2,2019-02-05 18:45:00.0,SoPmdAve,3187.8,CHCGILDTO6Y
MA6813400180,h_OCHCTP,11-L1-3,2019-02-05 18:15:00.0,Qmin,8.89,CHCGILDTO6Y
MA6813400180,h_OCHCTP,11-L1-3,2019-02-05 18:15:00.0,PhaseCorrectionAve,4.22e-07,CHCGILDTO6Y
MA6813400180,h_OCHCTP,11-L1-3,2019-02-05 18:15:00.0,BerPreFecMax,0.00269,CHCGILDTO6Y
MA6813400180,h_OCHCTP,11-L1-3,2019-02-05 18:15:00.0,PmdMin,0.664,CHCGILDTO6Y
MA6813400180,h_OCHCTP,11-L1-3,2019-02-05 18:15:00.0,SoPmdAve,2777.17,CHCGILDTO6Y
MA6813400180,h_OCHCTP,11-L1-3,2019-02-05 18:30:00.0,Qmin,8.9,CHCGILDTO6Y
MA6813400180,h_OCHCTP,11-L1-3,2019-02-05 18:30:00.0,PhaseCorrectionAve,-0.061,CHCGILDTO6Y
MA6813400180,h_OCHCTP,11-L1-3,2019-02-05 18:30:00.0,BerPreFecMax,0.00267,CHCGILDTO6Y
MA6813400180,h_OCHCTP,11-L1-3,2019-02-05 18:30:00.0,PmdMin,0.727,CHCGILDTO6Y
MA6813400180,h_OCHCTP,11-L1-3,2019-02-05 18:30:00.0,SoPmdAve,2793.9,CHCGILDTO6Y
MA6813400180,h_OCHCTP,11-L1-3,2019-02-05 18:45:00.0,Qmin,8.83,CHCGILDTO6Y
MA6813400180,h_OCHCTP,11-L1-3,2019-02-05 18:45:00.0,PhaseCorrectionAve,-0.0609,CHCGILDTO6Y
MA6813400180,h_OCHCTP,11-L1-3,2019-02-05 18:45:00.0,BerPreFecMax,0.00286,CHCGILDTO6Y
MA6813400180,h_OCHCTP,11-L1-3,2019-02-05 18:45:00.0,PmdMin,0.732,CHCGILDTO6Y
MA6813400180,h_OCHCTP,11-L1-3,2019-02-05 18:45:00.0,SoPmdAve,2750.42,CHCGILDTO6Y
MA6813400180,h_OCHCTP,11-L1-4,2019-02-05 18:15:00.0,Qmin,8.7,CHCGILDTO6Y
MA6813400180,h_OCHCTP,11-L1-4,2019-02-05 18:15:00.0,PhaseCorrectionAve,5.05e-07,CHCGILDTO6Y
MA6813400180,h_OCHCTP,11-L1-4,2019-02-05 18:15:00.0,BerPreFecMax,0.00325,CHCGILDTO6Y
MA6813400180,h_OCHCTP,11-L1-4,2019-02-05 18:15:00.0,PmdMin,0.728,CHCGILDTO6Y
MA6813400180,h_OCHCTP,11-L1-4,2019-02-05 18:15:00.0,SoPmdAve,2966.28,CHCGILDTO6Y
MA6813400180,h_OCHCTP,11-L1-4,2019-02-05 18:30:00.0,Qmin,8.76,CHCGILDTO6Y
MA6813400180,h_OCHCTP,11-L1-4,2019-02-05 18:30:00.0,PhaseCorrectionAve,-0.061,CHCGILDTO6Y
MA6813400180,h_OCHCTP,11-L1-4,2019-02-05 18:30:00.0,BerPreFecMax,0.00305,CHCGILDTO6Y
MA6813400180,h_OCHCTP,11-L1-4,2019-02-05 18:30:00.0,PmdMin,1.06,CHCGILDTO6Y
MA6813400180,h_OCHCTP,11-L1-4,2019-02-05 18:30:00.0,SoPmdAve,2907.44,CHCGILDTO6Y
MA6813400180,h_OCHCTP,11-L1-4,2019-02-05 18:45:00.0,Qmin,8.78,CHCGILDTO6Y
MA6813400180,h_OCHCTP,11-L1-4,2019-02-05 18:45:00.0,PhaseCorrectionAve,-0.0609,CHCGILDTO6Y
MA6813400180,h_OCHCTP,11-L1-4,2019-02-05 18:45:00.0,BerPreFecMax,0.00299,CHCGILDTO6Y
MA6813400180,h_OCHCTP,11-L1-4,2019-02-05 18:45:00.0,PmdMin,0.965,CHCGILDTO6Y
MA6813400180,h_OCHCTP,11-L1-4,2019-02-05 18:45:00.0,SoPmdAve,2941.73,CHCGILDTO6Y
MA6813400180,h_OCHCTP,11-L1-5,2019-02-05 18:15:00.0,Qmin,8.78,CHCGILDTO6Y
MA6813400180,h_OCHCTP,11-L1-5,2019-02-05 18:15:00.0,PhaseCorrectionAve,1.93e-07,CHCGILDTO6Y
MA6813400180,h_OCHCTP,11-L1-5,2019-02-05 18:15:00.0,BerPreFecMax,0.00299,CHCGILDTO6Y
MA6813400180,h_OCHCTP,11-L1-5,2019-02-05 18:15:00.0,PmdMin,0.423,CHCGILDTO6Y
MA6813400180,h_OCHCTP,11-L1-5,2019-02-05 18:15:00.0,SoPmdAve,2587.36,CHCGILDTO6Y
MA6813400180,h_OCHCTP,11-L1-5,2019-02-05 18:30:00.0,Qmin,8.86,CHCGILDTO6Y
MA6813400180,h_OCHCTP,11-L1-5,2019-02-05 18:30:00.0,PhaseCorrectionAve,-0.061,CHCGILDTO6Y
MA6813400180,h_OCHCTP,11-L1-5,2019-02-05 18:30:00.0,BerPreFecMax,0.00277,CHCGILDTO6Y
MA6813400180,h_OCHCTP,11-L1-5,2019-02-05 18:30:00.0,PmdMin,0.714,CHCGILDTO6Y
MA6813400180,h_OCHCTP,11-L1-5,2019-02-05 18:30:00.0,SoPmdAve,2539.82,CHCGILDTO6Y
MA6813400180,h_OCHCTP,11-L1-5,2019-02-05 18:45:00.0,Qmin,8.86,CHCGILDTO6Y
MA6813400180,h_OCHCTP,11-L1-5,2019-02-05 18:45:00.0,PhaseCorrectionAve,-0.0609,CHCGILDTO6Y
MA6813400180,h_OCHCTP,11-L1-5,2019-02-05 18:45:00.0,BerPreFecMax,0.00277,CHCGILDTO6Y
MA6813400180,h_OCHCTP,11-L1-5,2019-02-05 18:45:00.0,PmdMin,0.5,CHCGILDTO6Y
MA6813400180,h_OCHCTP,11-L1-5,2019-02-05 18:45:00.0,SoPmdAve,2617.06,CHCGILDTO6Y
MA6813400180,h_OCHCTP,11-L1-6,2019-02-05 18:15:00.0,Qmin,8.75,CHCGILDTO6Y
MA6813400180,h_OCHCTP,11-L1-6,2019-02-05 18:15:00.0,PhaseCorrectionAve,4.65e-07,CHCGILDTO6Y
MA6813400180,h_OCHCTP,11-L1-6,2019-02-05 18:15:00.0,BerPreFecMax,0.00307,CHCGILDTO6Y
MA6813400180,h_OCHCTP,11-L1-6,2019-02-05 18:15:00.0,PmdMin,0.102,CHCGILDTO6Y
MA6813400180,h_OCHCTP,11-L1-6,2019-02-05 18:15:00.0,SoPmdAve,2572.91,CHCGILDTO6Y
MA6813400180,h_OCHCTP,11-L1-6,2019-02-05 18:30:00.0,Qmin,8.75,CHCGILDTO6Y
MA6813400180,h_OCHCTP,11-L1-6,2019-02-05 18:30:00.0,PhaseCorrectionAve,-0.122,CHCGILDTO6Y
MA6813400180,h_OCHCTP,11-L1-6,2019-02-05 18:30:00.0,BerPreFecMax,0.00309,CHCGILDTO6Y
MA6813400180,h_OCHCTP,11-L1-6,2019-02-05 18:30:00.0,PmdMin,0.475,CHCGILDTO6Y
MA6813400180,h_OCHCTP,11-L1-6,2019-02-05 18:30:00.0,SoPmdAve,2533.4,CHCGILDTO6Y
MA6813400180,h_OCHCTP,11-L1-6,2019-02-05 18:45:00.0,Qmin,8.77,CHCGILDTO6Y
MA6813400180,h_OCHCTP,11-L1-6,2019-02-05 18:45:00.0,PhaseCorrectionAve,-0.0609,CHCGILDTO6Y
MA6813400180,h_OCHCTP,11-L1-6,2019-02-05 18:45:00.0,BerPreFecMax,0.00304,CHCGILDTO6Y
MA6813400180,h_OCHCTP,11-L1-6,2019-02-05 18:45:00.0,PmdMin,0.573,CHCGILDTO6Y
MA6813400180,h_OCHCTP,11-L1-6,2019-02-05 18:45:00.0,SoPmdAve,2456.45,CHCGILDTO6Y
MA6813400180,h_OCHCTP,11-L1-7,2019-02-05 18:15:00.0,Qmin,8.83,CHCGILDTO6Y
MA6813400180,h_OCHCTP,11-L1-7,2019-02-05 18:15:00.0,PhaseCorrectionAve,-0.061,CHCGILDTO6Y
MA6813400180,h_OCHCTP,11-L1-7,2019-02-05 18:15:00.0,BerPreFecMax,0.00285,CHCGILDTO6Y
MA6813400180,h_OCHCTP,11-L1-7,2019-02-05 18:15:00.0,PmdMin,1.33,CHCGILDTO6Y
MA6813400180,h_OCHCTP,11-L1-7,2019-02-05 18:15:00.0,SoPmdAve,3034.32,CHCGILDTO6Y
MA6813400180,h_OCHCTP,11-L1-7,2019-02-05 18:30:00.0,Qmin,8.83,CHCGILDTO6Y
MA6813400180,h_OCHCTP,11-L1-7,2019-02-05 18:30:00.0,PhaseCorrectionAve,-0.122,CHCGILDTO6Y
MA6813400180,h_OCHCTP,11-L1-7,2019-02-05 18:30:00.0,BerPreFecMax,0.00287,CHCGILDTO6Y
MA6813400180,h_OCHCTP,11-L1-7,2019-02-05 18:30:00.0,PmdMin,0.837,CHCGILDTO6Y
MA6813400180,h_OCHCTP,11-L1-7,2019-02-05 18:30:00.0,SoPmdAve,3114.81,CHCGILDTO6Y
MA6813400180,h_OCHCTP,11-L1-7,2019-02-05 18:45:00.0,Qmin,8.77,CHCGILDTO6Y
MA6813400180,h_OCHCTP,11-L1-7,2019-02-05 18:45:00.0,PhaseCorrectionAve,-0.0609,CHCGILDTO6Y
MA6813400180,h_OCHCTP,11-L1-7,2019-02-05 18:45:00.0,BerPreFecMax,0.00302,CHCGILDTO6Y
MA6813400180,h_OCHCTP,11-L1-7,2019-02-05 18:45:00.0,PmdMin,1.29,CHCGILDTO6Y
MA6813400180,h_OCHCTP,11-L1-7,2019-02-05 18:45:00.0,SoPmdAve,3033.35,CHCGILDTO6Y
MA6813400180,h_OCHCTP,11-L1-8,2019-02-05 18:15:00.0,Qmin,8.89,CHCGILDTO6Y
MA6813400180,h_OCHCTP,11-L1-8,2019-02-05 18:15:00.0,PhaseCorrectionAve,-0.061,CHCGILDTO6Y
MA6813400180,h_OCHCTP,11-L1-8,2019-02-05 18:15:00.0,BerPreFecMax,0.00268,CHCGILDTO6Y
MA6813400180,h_OCHCTP,11-L1-8,2019-02-05 18:15:00.0,PmdMin,1.15,CHCGILDTO6Y
MA6813400180,h_OCHCTP,11-L1-8,2019-02-05 18:15:00.0,SoPmdAve,3104.42,CHCGILDTO6Y
MA6813400180,h_OCHCTP,11-L1-8,2019-02-05 18:30:00.0,Qmin,8.84,CHCGILDTO6Y
MA6813400180,h_OCHCTP,11-L1-8,2019-02-05 18:30:00.0,PhaseCorrectionAve,-0.183,CHCGILDTO6Y
MA6813400180,h_OCHCTP,11-L1-8,2019-02-05 18:30:00.0,BerPreFecMax,0.00284,CHCGILDTO6Y
MA6813400180,h_OCHCTP,11-L1-8,2019-02-05 18:30:00.0,PmdMin,0.459,CHCGILDTO6Y
MA6813400180,h_OCHCTP,11-L1-8,2019-02-05 18:30:00.0,SoPmdAve,3133.86,CHCGILDTO6Y
MA6813400180,h_OCHCTP,11-L1-8,2019-02-05 18:45:00.0,Qmin,8.81,CHCGILDTO6Y
MA6813400180,h_OCHCTP,11-L1-8,2019-02-05 18:45:00.0,PhaseCorrectionAve,-0.0609,CHCGILDTO6Y
MA6813400180,h_OCHCTP,11-L1-8,2019-02-05 18:45:00.0,BerPreFecMax,0.00292,CHCGILDTO6Y
MA6813400180,h_OCHCTP,11-L1-8,2019-02-05 18:45:00.0,PmdMin,1.06,CHCGILDTO6Y
MA6813400180,h_OCHCTP,11-L1-8,2019-02-05 18:45:00.0,SoPmdAve,3197.23,CHCGILDTO6Y
MA6813400180,h_OCHCTP,11-L1-9,2019-02-05 18:15:00.0,Qmin,8.84,CHCGILDTO6Y
MA6813400180,h_OCHCTP,11-L1-9,2019-02-05 18:15:00.0,PhaseCorrectionAve,-0.061,CHCGILDTO6Y
MA6813400180,h_OCHCTP,11-L1-9,2019-02-05 18:15:00.0,BerPreFecMax,0.00283,CHCGILDTO6Y
MA6813400180,h_OCHCTP,11-L1-9,2019-02-05 18:15:00.0,PmdMin,0.57,CHCGILDTO6Y
MA6813400180,h_OCHCTP,11-L1-9,2019-02-05 18:15:00.0,SoPmdAve,2848.27,CHCGILDTO6Y
MA6813400180,h_OCHCTP,11-L1-9,2019-02-05 18:30:00.0,Qmin,8.79,CHCGILDTO6Y
MA6813400180,h_OCHCTP,11-L1-9,2019-02-05 18:30:00.0,PhaseCorrectionAve,-0.183,CHCGILDTO6Y
MA6813400180,h_OCHCTP,11-L1-9,2019-02-05 18:30:00.0,BerPreFecMax,0.00296,CHCGILDTO6Y
MA6813400180,h_OCHCTP,11-L1-9,2019-02-05 18:30:00.0,PmdMin,1.07,CHCGILDTO6Y
MA6813400180,h_OCHCTP,11-L1-9,2019-02-05 18:30:00.0,SoPmdAve,3003.74,CHCGILDTO6Y
MA6813400180,h_OCHCTP,11-L1-9,2019-02-05 18:45:00.0,Qmin,8.71,CHCGILDTO6Y
MA6813400180,h_OCHCTP,11-L1-9,2019-02-05 18:45:00.0,PhaseCorrectionAve,-0.122,CHCGILDTO6Y
MA6813400180,h_OCHCTP,11-L1-9,2019-02-05 18:45:00.0,BerPreFecMax,0.00322,CHCGILDTO6Y
MA6813400180,h_OCHCTP,11-L1-9,2019-02-05 18:45:00.0,PmdMin,0.771,CHCGILDTO6Y
MA6813400180,h_OCHCTP,11-L1-9,2019-02-05 18:45:00.0,SoPmdAve,2994.61,CHCGILDTO6Y
MA6813400180,h_OCHCTP,11-L1-10,2019-02-05 18:15:00.0,Qmin,8.9,CHCGILDTO6Y
MA6813400180,h_OCHCTP,11-L1-10,2019-02-05 18:15:00.0,PhaseCorrectionAve,-0.122,CHCGILDTO6Y
MA6813400180,h_OCHCTP,11-L1-10,2019-02-05 18:15:00.0,BerPreFecMax,0.00267,CHCGILDTO6Y
MA6813400180,h_OCHCTP,11-L1-10,2019-02-05 18:15:00.0,PmdMin,0.601,CHCGILDTO6Y
MA6813400180,h_OCHCTP,11-L1-10,2019-02-05 18:15:00.0,SoPmdAve,3057.38,CHCGILDTO6Y
MA6813400180,h_OCHCTP,11-L1-10,2019-02-05 18:30:00.0,Qmin,8.89,CHCGILDTO6Y
MA6813400180,h_OCHCTP,11-L1-10,2019-02-05 18:30:00.0,PhaseCorrectionAve,-0.183,CHCGILDTO6Y
MA6813400180,h_OCHCTP,11-L1-10,2019-02-05 18:30:00.0,BerPreFecMax,0.0027,CHCGILDTO6Y
MA6813400180,h_OCHCTP,11-L1-10,2019-02-05 18:30:00.0,PmdMin,0.522,CHCGILDTO6Y
MA6813400180,h_OCHCTP,11-L1-10,2019-02-05 18:30:00.0,SoPmdAve,3064.15,CHCGILDTO6Y
MA6813400180,h_OCHCTP,11-L1-10,2019-02-05 18:45:00.0,Qmin,8.77,CHCGILDTO6Y
MA6813400180,h_OCHCTP,11-L1-10,2019-02-05 18:45:00.0,PhaseCorrectionAve,-0.122,CHCGILDTO6Y
MA6813400180,h_OCHCTP,11-L1-10,2019-02-05 18:45:00.0,BerPreFecMax,0.00303,CHCGILDTO6Y
MA6813400180,h_OCHCTP,11-L1-10,2019-02-05 18:45:00.0,PmdMin,0.988,CHCGILDTO6Y
MA6813400180,h_OCHCTP,11-L1-10,2019-02-05 18:45:00.0,SoPmdAve,3059.6,CHCGILDTO6Y
MA6813400180,h_OCHCTP,13-L1-1,2019-02-05 18:15:00.0,Qmin,8.96,CHCGILDTO6Y
MA6813400180,h_OCHCTP,13-L1-1,2019-02-05 18:15:00.0,PhaseCorrectionAve,2.84e-07,CHCGILDTO6Y
MA6813400180,h_OCHCTP,13-L1-1,2019-02-05 18:15:00.0,BerPreFecMax,0.00251,CHCGILDTO6Y
MA6813400180,h_OCHCTP,13-L1-1,2019-02-05 18:15:00.0,PmdMin,0.64,CHCGILDTO6Y
MA6813400180,h_OCHCTP,13-L1-1,2019-02-05 18:15:00.0,SoPmdAve,3529.54,CHCGILDTO6Y
MA6813400180,h_OCHCTP,13-L1-1,2019-02-05 18:30:00.0,Qmin,9.09,CHCGILDTO6Y
MA6813400180,h_OCHCTP,13-L1-1,2019-02-05 18:30:00.0,PhaseCorrectionAve,3.23e-07,CHCGILDTO6Y
MA6813400180,h_OCHCTP,13-L1-1,2019-02-05 18:30:00.0,BerPreFecMax,0.00221,CHCGILDTO6Y
MA6813400180,h_OCHCTP,13-L1-1,2019-02-05 18:30:00.0,PmdMin,1.26,CHCGILDTO6Y
MA6813400180,h_OCHCTP,13-L1-1,2019-02-05 18:30:00.0,SoPmdAve,3625.32,CHCGILDTO6Y
MA6813400180,h_OCHCTP,13-L1-1,2019-02-05 18:45:00.0,Qmin,9.07,CHCGILDTO6Y
MA6813400180,h_OCHCTP,13-L1-1,2019-02-05 18:45:00.0,PhaseCorrectionAve,3.3e-07,CHCGILDTO6Y
MA6813400180,h_OCHCTP,13-L1-1,2019-02-05 18:45:00.0,BerPreFecMax,0.00225,CHCGILDTO6Y
MA6813400180,h_OCHCTP,13-L1-1,2019-02-05 18:45:00.0,PmdMin,1.34,CHCGILDTO6Y
MA6813400180,h_OCHCTP,13-L1-1,2019-02-05 18:45:00.0,SoPmdAve,3621.51,CHCGILDTO6Y
MA6813400180,h_OCHCTP,13-L1-2,2019-02-05 18:15:00.0,Qmin,9.02,CHCGILDTO6Y
MA6813400180,h_OCHCTP,13-L1-2,2019-02-05 18:15:00.0,PhaseCorrectionAve,-0.061,CHCGILDTO6Y
MA6813400180,h_OCHCTP,13-L1-2,2019-02-05 18:15:00.0,BerPreFecMax,0.00237,CHCGILDTO6Y
MA6813400180,h_OCHCTP,13-L1-2,2019-02-05 18:15:00.0,PmdMin,0.86,CHCGILDTO6Y
MA6813400180,h_OCHCTP,13-L1-2,2019-02-05 18:15:00.0,SoPmdAve,3546.14,CHCGILDTO6Y
MA6813400180,h_OCHCTP,13-L1-2,2019-02-05 18:30:00.0,Qmin,8.97,CHCGILDTO6Y
MA6813400180,h_OCHCTP,13-L1-2,2019-02-05 18:30:00.0,PhaseCorrectionAve,4.18e-07,CHCGILDTO6Y
MA6813400180,h_OCHCTP,13-L1-2,2019-02-05 18:30:00.0,BerPreFecMax,0.00248,CHCGILDTO6Y
MA6813400180,h_OCHCTP,13-L1-2,2019-02-05 18:30:00.0,PmdMin,1.12,CHCGILDTO6Y
MA6813400180,h_OCHCTP,13-L1-2,2019-02-05 18:30:00.0,SoPmdAve,3338.35,CHCGILDTO6Y
MA6813400180,h_OCHCTP,13-L1-2,2019-02-05 18:45:00.0,Qmin,9.0,CHCGILDTO6Y
MA6813400180,h_OCHCTP,13-L1-2,2019-02-05 18:45:00.0,PhaseCorrectionAve,4.38e-07,CHCGILDTO6Y
MA6813400180,h_OCHCTP,13-L1-2,2019-02-05 18:45:00.0,BerPreFecMax,0.00242,CHCGILDTO6Y
MA6813400180,h_OCHCTP,13-L1-2,2019-02-05 18:45:00.0,PmdMin,1.06,CHCGILDTO6Y
MA6813400180,h_OCHCTP,13-L1-2,2019-02-05 18:45:00.0,SoPmdAve,3507.72,CHCGILDTO6Y
MA6813400180,h_OCHCTP,13-L1-3,2019-02-05 18:15:00.0,Qmin,8.9,CHCGILDTO6Y
MA6813400180,h_OCHCTP,13-L1-3,2019-02-05 18:15:00.0,PhaseCorrectionAve,-0.061,CHCGILDTO6Y
MA6813400180,h_OCHCTP,13-L1-3,2019-02-05 18:15:00.0,BerPreFecMax,0.00267,CHCGILDTO6Y
MA6813400180,h_OCHCTP,13-L1-3,2019-02-05 18:15:00.0,PmdMin,0.924,CHCGILDTO6Y
MA6813400180,h_OCHCTP,13-L1-3,2019-02-05 18:15:00.0,SoPmdAve,2914.76,CHCGILDTO6Y
MA6813400180,h_OCHCTP,13-L1-3,2019-02-05 18:30:00.0,Qmin,8.92,CHCGILDTO6Y
MA6813400180,h_OCHCTP,13-L1-3,2019-02-05 18:30:00.0,PhaseCorrectionAve,5.79e-07,CHCGILDTO6Y
MA6813400180,h_OCHCTP,13-L1-3,2019-02-05 18:30:00.0,BerPreFecMax,0.00262,CHCGILDTO6Y
MA6813400180,h_OCHCTP,13-L1-3,2019-02-05 18:30:00.0,PmdMin,0.711,CHCGILDTO6Y
MA6813400180,h_OCHCTP,13-L1-3,2019-02-05 18:30:00.0,SoPmdAve,2876.51,CHCGILDTO6Y
MA6813400180,h_OCHCTP,13-L1-3,2019-02-05 18:45:00.0,Qmin,8.84,CHCGILDTO6Y
MA6813400180,h_OCHCTP,13-L1-3,2019-02-05 18:45:00.0,PhaseCorrectionAve,6.01e-07,CHCGILDTO6Y
MA6813400180,h_OCHCTP,13-L1-3,2019-02-05 18:45:00.0,BerPreFecMax,0.00282,CHCGILDTO6Y
MA6813400180,h_OCHCTP,13-L1-3,2019-02-05 18:45:00.0,PmdMin,0.28,CHCGILDTO6Y
MA6813400180,h_OCHCTP,13-L1-3,2019-02-05 18:45:00.0,SoPmdAve,2822.28,CHCGILDTO6Y
MA6813400180,h_OCHCTP,13-L1-4,2019-02-05 18:15:00.0,Qmin,8.7,CHCGILDTO6Y
MA6813400180,h_OCHCTP,13-L1-4,2019-02-05 18:15:00.0,PhaseCorrectionAve,-0.122,CHCGILDTO6Y
MA6813400180,h_OCHCTP,13-L1-4,2019-02-05 18:15:00.0,BerPreFecMax,0.00325,CHCGILDTO6Y
MA6813400180,h_OCHCTP,13-L1-4,2019-02-05 18:15:00.0,PmdMin,1.42,CHCGILDTO6Y
MA6813400180,h_OCHCTP,13-L1-4,2019-02-05 18:15:00.0,SoPmdAve,3389.09,CHCGILDTO6Y
MA6813400180,h_OCHCTP,13-L1-4,2019-02-05 18:30:00.0,Qmin,8.71,CHCGILDTO6Y
MA6813400180,h_OCHCTP,13-L1-4,2019-02-05 18:30:00.0,PhaseCorrectionAve,5.27e-07,CHCGILDTO6Y
MA6813400180,h_OCHCTP,13-L1-4,2019-02-05 18:30:00.0,BerPreFecMax,0.0032,CHCGILDTO6Y
MA6813400180,h_OCHCTP,13-L1-4,2019-02-05 18:30:00.0,PmdMin,0.845,CHCGILDTO6Y
MA6813400180,h_OCHCTP,13-L1-4,2019-02-05 18:30:00.0,SoPmdAve,3367.25,CHCGILDTO6Y
MA6813400180,h_OCHCTP,13-L1-4,2019-02-05 18:45:00.0,Qmin,8.72,CHCGILDTO6Y
MA6813400180,h_OCHCTP,13-L1-4,2019-02-05 18:45:00.0,PhaseCorrectionAve,5.59e-07,CHCGILDTO6Y
MA6813400180,h_OCHCTP,13-L1-4,2019-02-05 18:45:00.0,BerPreFecMax,0.00316,CHCGILDTO6Y
MA6813400180,h_OCHCTP,13-L1-4,2019-02-05 18:45:00.0,PmdMin,0.682,CHCGILDTO6Y
MA6813400180,h_OCHCTP,13-L1-4,2019-02-05 18:45:00.0,SoPmdAve,3426.9,CHCGILDTO6Y
MA6813400180,h_OCHCTP,13-L1-5,2019-02-05 18:15:00.0,Qmin,8.7,CHCGILDTO6Y
MA6813400180,h_OCHCTP,13-L1-5,2019-02-05 18:15:00.0,PhaseCorrectionAve,-0.122,CHCGILDTO6Y
MA6813400180,h_OCHCTP,13-L1-5,2019-02-05 18:15:00.0,BerPreFecMax,0.00324,CHCGILDTO6Y
MA6813400180,h_OCHCTP,13-L1-5,2019-02-05 18:15:00.0,PmdMin,0.604,CHCGILDTO6Y
MA6813400180,h_OCHCTP,13-L1-5,2019-02-05 18:15:00.0,SoPmdAve,2790.35,CHCGILDTO6Y
MA6813400180,h_OCHCTP,13-L1-5,2019-02-05 18:30:00.0,Qmin,8.73,CHCGILDTO6Y
MA6813400180,h_OCHCTP,13-L1-5,2019-02-05 18:30:00.0,PhaseCorrectionAve,3.37e-07,CHCGILDTO6Y
MA6813400180,h_OCHCTP,13-L1-5,2019-02-05 18:30:00.0,BerPreFecMax,0.00314,CHCGILDTO6Y
MA6813400180,h_OCHCTP,13-L1-5,2019-02-05 18:30:00.0,PmdMin,1.03,CHCGILDTO6Y
MA6813400180,h_OCHCTP,13-L1-5,2019-02-05 18:30:00.0,SoPmdAve,2727.37,CHCGILDTO6Y
MA6813400180,h_OCHCTP,13-L1-5,2019-02-05 18:45:00.0,Qmin,8.75,CHCGILDTO6Y
MA6813400180,h_OCHCTP,13-L1-5,2019-02-05 18:45:00.0,PhaseCorrectionAve,3.5e-07,CHCGILDTO6Y
MA6813400180,h_OCHCTP,13-L1-5,2019-02-05 18:45:00.0,BerPreFecMax,0.00309,CHCGILDTO6Y
MA6813400180,h_OCHCTP,13-L1-5,2019-02-05 18:45:00.0,PmdMin,1.41,CHCGILDTO6Y
MA6813400180,h_OCHCTP,13-L1-5,2019-02-05 18:45:00.0,SoPmdAve,2854.79,CHCGILDTO6Y
MA6813400180,h_OCHCTP,13-L1-6,2019-02-05 18:15:00.0,Qmin,8.74,CHCGILDTO6Y
MA6813400180,h_OCHCTP,13-L1-6,2019-02-05 18:15:00.0,PhaseCorrectionAve,-0.122,CHCGILDTO6Y
MA6813400180,h_OCHCTP,13-L1-6,2019-02-05 18:15:00.0,BerPreFecMax,0.00313,CHCGILDTO6Y
MA6813400180,h_OCHCTP,13-L1-6,2019-02-05 18:15:00.0,PmdMin,1.41,CHCGILDTO6Y
MA6813400180,h_OCHCTP,13-L1-6,2019-02-05 18:15:00.0,SoPmdAve,3050.23,CHCGILDTO6Y
MA6813400180,h_OCHCTP,13-L1-6,2019-02-05 18:30:00.0,Qmin,8.72,CHCGILDTO6Y
MA6813400180,h_OCHCTP,13-L1-6,2019-02-05 18:30:00.0,PhaseCorrectionAve,5.94e-07,CHCGILDTO6Y
MA6813400180,h_OCHCTP,13-L1-6,2019-02-05 18:30:00.0,BerPreFecMax,0.00318,CHCGILDTO6Y
MA6813400180,h_OCHCTP,13-L1-6,2019-02-05 18:30:00.0,PmdMin,1.18,CHCGILDTO6Y
MA6813400180,h_OCHCTP,13-L1-6,2019-02-05 18:30:00.0,SoPmdAve,3111.23,CHCGILDTO6Y
MA6813400180,h_OCHCTP,13-L1-6,2019-02-05 18:45:00.0,Qmin,8.78,CHCGILDTO6Y
MA6813400180,h_OCHCTP,13-L1-6,2019-02-05 18:45:00.0,PhaseCorrectionAve,-0.061,CHCGILDTO6Y
MA6813400180,h_OCHCTP,13-L1-6,2019-02-05 18:45:00.0,BerPreFecMax,0.00299,CHCGILDTO6Y
MA6813400180,h_OCHCTP,13-L1-6,2019-02-05 18:45:00.0,PmdMin,0.933,CHCGILDTO6Y
MA6813400180,h_OCHCTP,13-L1-6,2019-02-05 18:45:00.0,SoPmdAve,2986.86,CHCGILDTO6Y
MA6813400180,h_OCHCTP,13-L1-7,2019-02-05 18:15:00.0,Qmin,8.73,CHCGILDTO6Y
MA6813400180,h_OCHCTP,13-L1-7,2019-02-05 18:15:00.0,PhaseCorrectionAve,-0.122,CHCGILDTO6Y
MA6813400180,h_OCHCTP,13-L1-7,2019-02-05 18:15:00.0,BerPreFecMax,0.00314,CHCGILDTO6Y
MA6813400180,h_OCHCTP,13-L1-7,2019-02-05 18:15:00.0,PmdMin,0.855,CHCGILDTO6Y
MA6813400180,h_OCHCTP,13-L1-7,2019-02-05 18:15:00.0,SoPmdAve,3798.38,CHCGILDTO6Y
MA6813400180,h_OCHCTP,13-L1-7,2019-02-05 18:30:00.0,Qmin,8.71,CHCGILDTO6Y
MA6813400180,h_OCHCTP,13-L1-7,2019-02-05 18:30:00.0,PhaseCorrectionAve,5.53e-07,CHCGILDTO6Y
MA6813400180,h_OCHCTP,13-L1-7,2019-02-05 18:30:00.0,BerPreFecMax,0.0032,CHCGILDTO6Y
MA6813400180,h_OCHCTP,13-L1-7,2019-02-05 18:30:00.0,PmdMin,1.1,CHCGILDTO6Y
MA6813400180,h_OCHCTP,13-L1-7,2019-02-05 18:30:00.0,SoPmdAve,3783.27,CHCGILDTO6Y
MA6813400180,h_OCHCTP,13-L1-7,2019-02-05 18:45:00.0,Qmin,8.71,CHCGILDTO6Y
MA6813400180,h_OCHCTP,13-L1-7,2019-02-05 18:45:00.0,PhaseCorrectionAve,-0.061,CHCGILDTO6Y
MA6813400180,h_OCHCTP,13-L1-7,2019-02-05 18:45:00.0,BerPreFecMax,0.00321,CHCGILDTO6Y
MA6813400180,h_OCHCTP,13-L1-7,2019-02-05 18:45:00.0,PmdMin,1.08,CHCGILDTO6Y
MA6813400180,h_OCHCTP,13-L1-7,2019-02-05 18:45:00.0,SoPmdAve,3688.57,CHCGILDTO6Y
MA6813400180,h_OCHCTP,13-L1-8,2019-02-05 18:15:00.0,Qmin,8.84,CHCGILDTO6Y
MA6813400180,h_OCHCTP,13-L1-8,2019-02-05 18:15:00.0,PhaseCorrectionAve,-0.183,CHCGILDTO6Y
MA6813400180,h_OCHCTP,13-L1-8,2019-02-05 18:15:00.0,BerPreFecMax,0.00283,CHCGILDTO6Y
MA6813400180,h_OCHCTP,13-L1-8,2019-02-05 18:15:00.0,PmdMin,0.887,CHCGILDTO6Y
MA6813400180,h_OCHCTP,13-L1-8,2019-02-05 18:15:00.0,SoPmdAve,3832.74,CHCGILDTO6Y
MA6813400180,h_OCHCTP,13-L1-8,2019-02-05 18:30:00.0,Qmin,8.81,CHCGILDTO6Y
MA6813400180,h_OCHCTP,13-L1-8,2019-02-05 18:30:00.0,PhaseCorrectionAve,1.07e-06,CHCGILDTO6Y
MA6813400180,h_OCHCTP,13-L1-8,2019-02-05 18:30:00.0,BerPreFecMax,0.0029,CHCGILDTO6Y
MA6813400180,h_OCHCTP,13-L1-8,2019-02-05 18:30:00.0,PmdMin,1.34,CHCGILDTO6Y
MA6813400180,h_OCHCTP,13-L1-8,2019-02-05 18:30:00.0,SoPmdAve,3771.28,CHCGILDTO6Y
MA6813400180,h_OCHCTP,13-L1-8,2019-02-05 18:45:00.0,Qmin,8.77,CHCGILDTO6Y
MA6813400180,h_OCHCTP,13-L1-8,2019-02-05 18:45:00.0,PhaseCorrectionAve,-0.061,CHCGILDTO6Y
MA6813400180,h_OCHCTP,13-L1-8,2019-02-05 18:45:00.0,BerPreFecMax,0.00304,CHCGILDTO6Y
MA6813400180,h_OCHCTP,13-L1-8,2019-02-05 18:45:00.0,PmdMin,1.24,CHCGILDTO6Y
MA6813400180,h_OCHCTP,13-L1-8,2019-02-05 18:45:00.0,SoPmdAve,3718.38,CHCGILDTO6Y
MA6813400180,h_OCHCTP,13-L1-9,2019-02-05 18:15:00.0,Qmin,8.81,CHCGILDTO6Y
MA6813400180,h_OCHCTP,13-L1-9,2019-02-05 18:15:00.0,PhaseCorrectionAve,-0.183,CHCGILDTO6Y
MA6813400180,h_OCHCTP,13-L1-9,2019-02-05 18:15:00.0,BerPreFecMax,0.00292,CHCGILDTO6Y
MA6813400180,h_OCHCTP,13-L1-9,2019-02-05 18:15:00.0,PmdMin,0.697,CHCGILDTO6Y
MA6813400180,h_OCHCTP,13-L1-9,2019-02-05 18:15:00.0,SoPmdAve,3488.04,CHCGILDTO6Y
MA6813400180,h_OCHCTP,13-L1-9,2019-02-05 18:30:00.0,Qmin,8.76,CHCGILDTO6Y
MA6813400180,h_OCHCTP,13-L1-9,2019-02-05 18:30:00.0,PhaseCorrectionAve,3.86e-06,CHCGILDTO6Y
MA6813400180,h_OCHCTP,13-L1-9,2019-02-05 18:30:00.0,BerPreFecMax,0.00306,CHCGILDTO6Y
MA6813400180,h_OCHCTP,13-L1-9,2019-02-05 18:30:00.0,PmdMin,1.1,CHCGILDTO6Y
MA6813400180,h_OCHCTP,13-L1-9,2019-02-05 18:30:00.0,SoPmdAve,3547.29,CHCGILDTO6Y
MA6813400180,h_OCHCTP,13-L1-9,2019-02-05 18:45:00.0,Qmin,8.68,CHCGILDTO6Y
MA6813400180,h_OCHCTP,13-L1-9,2019-02-05 18:45:00.0,PhaseCorrectionAve,-0.122,CHCGILDTO6Y
MA6813400180,h_OCHCTP,13-L1-9,2019-02-05 18:45:00.0,BerPreFecMax,0.00331,CHCGILDTO6Y
MA6813400180,h_OCHCTP,13-L1-9,2019-02-05 18:45:00.0,PmdMin,0.915,CHCGILDTO6Y
MA6813400180,h_OCHCTP,13-L1-9,2019-02-05 18:45:00.0,SoPmdAve,3528.24,CHCGILDTO6Y
MA6813400180,h_OCHCTP,13-L1-10,2019-02-05 18:15:00.0,Qmin,8.63,CHCGILDTO6Y
MA6813400180,h_OCHCTP,13-L1-10,2019-02-05 18:15:00.0,PhaseCorrectionAve,-0.244,CHCGILDTO6Y
MA6813400180,h_OCHCTP,13-L1-10,2019-02-05 18:15:00.0,BerPreFecMax,0.00347,CHCGILDTO6Y
MA6813400180,h_OCHCTP,13-L1-10,2019-02-05 18:15:00.0,PmdMin,1.31,CHCGILDTO6Y
MA6813400180,h_OCHCTP,13-L1-10,2019-02-05 18:15:00.0,SoPmdAve,3930.55,CHCGILDTO6Y
MA6813400180,h_OCHCTP,13-L1-10,2019-02-05 18:30:00.0,Qmin,8.62,CHCGILDTO6Y
MA6813400180,h_OCHCTP,13-L1-10,2019-02-05 18:30:00.0,PhaseCorrectionAve,4.01e-06,CHCGILDTO6Y
MA6813400180,h_OCHCTP,13-L1-10,2019-02-05 18:30:00.0,BerPreFecMax,0.00348,CHCGILDTO6Y
MA6813400180,h_OCHCTP,13-L1-10,2019-02-05 18:30:00.0,PmdMin,1.02,CHCGILDTO6Y
MA6813400180,h_OCHCTP,13-L1-10,2019-02-05 18:30:00.0,SoPmdAve,3750.17,CHCGILDTO6Y
MA6813400180,h_OCHCTP,13-L1-10,2019-02-05 18:45:00.0,Qmin,8.56,CHCGILDTO6Y
MA6813400180,h_OCHCTP,13-L1-10,2019-02-05 18:45:00.0,PhaseCorrectionAve,-0.122,CHCGILDTO6Y
MA6813400180,h_OCHCTP,13-L1-10,2019-02-05 18:45:00.0,BerPreFecMax,0.00369,CHCGILDTO6Y
MA6813400180,h_OCHCTP,13-L1-10,2019-02-05 18:45:00.0,PmdMin,0.254,CHCGILDTO6Y
MA6813400180,h_OCHCTP,13-L1-10,2019-02-05 18:45:00.0,SoPmdAve,3829.15,CHCGILDTO6Y
