MA6813400180,h_OCHCTP,10-L1-1,2019-02-06 15:15:00.0,Qmin,9.48,CHCGILDTO6Y
MA6813400180,h_OCHCTP,10-L1-1,2019-02-06 15:15:00.0,PhaseCorrectionAve,4.25e-07,CHCGILDTO6Y
MA6813400180,h_OCHCTP,10-L1-1,2019-02-06 15:15:00.0,BerPreFecMax,0.00144,CHCGILDTO6Y
MA6813400180,h_OCHCTP,10-L1-1,2019-02-06 15:15:00.0,PmdMin,0.983,CHCGILDTO6Y
MA6813400180,h_OCHCTP,10-L1-1,2019-02-06 15:15:00.0,SoPmdAve,3585.8,CHCGILDTO6Y
MA6813400180,h_OCHCTP,10-L1-1,2019-02-06 15:30:00.0,Qmin,9.5,CHCGILDTO6Y
MA6813400180,h_OCHCTP,10-L1-1,2019-02-06 15:30:00.0,PhaseCorrectionAve,4.32e-07,CHCGILDTO6Y
MA6813400180,h_OCHCTP,10-L1-1,2019-02-06 15:30:00.0,BerPreFecMax,0.00142,CHCGILDTO6Y
MA6813400180,h_OCHCTP,10-L1-1,2019-02-06 15:30:00.0,PmdMin,1.48,CHCGILDTO6Y
MA6813400180,h_OCHCTP,10-L1-1,2019-02-06 15:30:00.0,SoPmdAve,3622.4,CHCGILDTO6Y
MA6813400180,h_OCHCTP,10-L1-1,2019-02-06 15:45:00.0,Qmin,9.48,CHCGILDTO6Y
MA6813400180,h_OCHCTP,10-L1-1,2019-02-06 15:45:00.0,PhaseCorrectionAve,4.31e-07,CHCGILDTO6Y
MA6813400180,h_OCHCTP,10-L1-1,2019-02-06 15:45:00.0,BerPreFecMax,0.00145,CHCGILDTO6Y
MA6813400180,h_OCHCTP,10-L1-1,2019-02-06 15:45:00.0,PmdMin,1.77,CHCGILDTO6Y
MA6813400180,h_OCHCTP,10-L1-1,2019-02-06 15:45:00.0,SoPmdAve,3471.24,CHCGILDTO6Y
MA6813400180,h_OCHCTP,10-L1-2,2019-02-06 15:15:00.0,Qmin,9.15,CHCGILDTO6Y
MA6813400180,h_OCHCTP,10-L1-2,2019-02-06 15:15:00.0,PhaseCorrectionAve,-0.061,CHCGILDTO6Y
MA6813400180,h_OCHCTP,10-L1-2,2019-02-06 15:15:00.0,BerPreFecMax,0.00207,CHCGILDTO6Y
MA6813400180,h_OCHCTP,10-L1-2,2019-02-06 15:15:00.0,PmdMin,5.12,CHCGILDTO6Y
MA6813400180,h_OCHCTP,10-L1-2,2019-02-06 15:15:00.0,SoPmdAve,3401.45,CHCGILDTO6Y
MA6813400180,h_OCHCTP,10-L1-2,2019-02-06 15:30:00.0,Qmin,9.16,CHCGILDTO6Y
MA6813400180,h_OCHCTP,10-L1-2,2019-02-06 15:30:00.0,PhaseCorrectionAve,3.3e-07,CHCGILDTO6Y
MA6813400180,h_OCHCTP,10-L1-2,2019-02-06 15:30:00.0,BerPreFecMax,0.00205,CHCGILDTO6Y
MA6813400180,h_OCHCTP,10-L1-2,2019-02-06 15:30:00.0,PmdMin,3.66,CHCGILDTO6Y
MA6813400180,h_OCHCTP,10-L1-2,2019-02-06 15:30:00.0,SoPmdAve,3354.66,CHCGILDTO6Y
MA6813400180,h_OCHCTP,10-L1-2,2019-02-06 15:45:00.0,Qmin,9.15,CHCGILDTO6Y
MA6813400180,h_OCHCTP,10-L1-2,2019-02-06 15:45:00.0,PhaseCorrectionAve,3.44e-07,CHCGILDTO6Y
MA6813400180,h_OCHCTP,10-L1-2,2019-02-06 15:45:00.0,BerPreFecMax,0.00208,CHCGILDTO6Y
MA6813400180,h_OCHCTP,10-L1-2,2019-02-06 15:45:00.0,PmdMin,1.99,CHCGILDTO6Y
MA6813400180,h_OCHCTP,10-L1-2,2019-02-06 15:45:00.0,SoPmdAve,3356.99,CHCGILDTO6Y
MA6813400180,h_OCHCTP,10-L1-3,2019-02-06 15:15:00.0,Qmin,8.86,CHCGILDTO6Y
MA6813400180,h_OCHCTP,10-L1-3,2019-02-06 15:15:00.0,PhaseCorrectionAve,-0.061,CHCGILDTO6Y
MA6813400180,h_OCHCTP,10-L1-3,2019-02-06 15:15:00.0,BerPreFecMax,0.00278,CHCGILDTO6Y
MA6813400180,h_OCHCTP,10-L1-3,2019-02-06 15:15:00.0,PmdMin,3.34,CHCGILDTO6Y
MA6813400180,h_OCHCTP,10-L1-3,2019-02-06 15:15:00.0,SoPmdAve,2894.89,CHCGILDTO6Y
MA6813400180,h_OCHCTP,10-L1-3,2019-02-06 15:30:00.0,Qmin,8.86,CHCGILDTO6Y
MA6813400180,h_OCHCTP,10-L1-3,2019-02-06 15:30:00.0,PhaseCorrectionAve,-0.0611,CHCGILDTO6Y
MA6813400180,h_OCHCTP,10-L1-3,2019-02-06 15:30:00.0,BerPreFecMax,0.00277,CHCGILDTO6Y
MA6813400180,h_OCHCTP,10-L1-3,2019-02-06 15:30:00.0,PmdMin,2.91,CHCGILDTO6Y
MA6813400180,h_OCHCTP,10-L1-3,2019-02-06 15:30:00.0,SoPmdAve,2867.67,CHCGILDTO6Y
MA6813400180,h_OCHCTP,10-L1-3,2019-02-06 15:45:00.0,Qmin,8.83,CHCGILDTO6Y
MA6813400180,h_OCHCTP,10-L1-3,2019-02-06 15:45:00.0,PhaseCorrectionAve,-0.122,CHCGILDTO6Y
MA6813400180,h_OCHCTP,10-L1-3,2019-02-06 15:45:00.0,BerPreFecMax,0.00286,CHCGILDTO6Y
MA6813400180,h_OCHCTP,10-L1-3,2019-02-06 15:45:00.0,PmdMin,1.46,CHCGILDTO6Y
MA6813400180,h_OCHCTP,10-L1-3,2019-02-06 15:45:00.0,SoPmdAve,2871.32,CHCGILDTO6Y
MA6813400180,h_OCHCTP,10-L1-4,2019-02-06 15:15:00.0,Qmin,8.23,CHCGILDTO6Y
MA6813400180,h_OCHCTP,10-L1-4,2019-02-06 15:15:00.0,PhaseCorrectionAve,-0.061,CHCGILDTO6Y
MA6813400180,h_OCHCTP,10-L1-4,2019-02-06 15:15:00.0,BerPreFecMax,0.00494,CHCGILDTO6Y
MA6813400180,h_OCHCTP,10-L1-4,2019-02-06 15:15:00.0,PmdMin,0.593,CHCGILDTO6Y
MA6813400180,h_OCHCTP,10-L1-4,2019-02-06 15:15:00.0,SoPmdAve,3106.21,CHCGILDTO6Y
MA6813400180,h_OCHCTP,10-L1-4,2019-02-06 15:30:00.0,Qmin,8.23,CHCGILDTO6Y
MA6813400180,h_OCHCTP,10-L1-4,2019-02-06 15:30:00.0,PhaseCorrectionAve,-0.0611,CHCGILDTO6Y
MA6813400180,h_OCHCTP,10-L1-4,2019-02-06 15:30:00.0,BerPreFecMax,0.00493,CHCGILDTO6Y
MA6813400180,h_OCHCTP,10-L1-4,2019-02-06 15:30:00.0,PmdMin,1.86,CHCGILDTO6Y
MA6813400180,h_OCHCTP,10-L1-4,2019-02-06 15:30:00.0,SoPmdAve,3125.6,CHCGILDTO6Y
MA6813400180,h_OCHCTP,10-L1-4,2019-02-06 15:45:00.0,Qmin,8.2,CHCGILDTO6Y
MA6813400180,h_OCHCTP,10-L1-4,2019-02-06 15:45:00.0,PhaseCorrectionAve,-0.183,CHCGILDTO6Y
MA6813400180,h_OCHCTP,10-L1-4,2019-02-06 15:45:00.0,BerPreFecMax,0.00507,CHCGILDTO6Y
MA6813400180,h_OCHCTP,10-L1-4,2019-02-06 15:45:00.0,PmdMin,0.898,CHCGILDTO6Y
MA6813400180,h_OCHCTP,10-L1-4,2019-02-06 15:45:00.0,SoPmdAve,3172.62,CHCGILDTO6Y
MA6813400180,h_OCHCTP,10-L1-5,2019-02-06 15:15:00.0,Qmin,8.42,CHCGILDTO6Y
MA6813400180,h_OCHCTP,10-L1-5,2019-02-06 15:15:00.0,PhaseCorrectionAve,-0.061,CHCGILDTO6Y
MA6813400180,h_OCHCTP,10-L1-5,2019-02-06 15:15:00.0,BerPreFecMax,0.0042,CHCGILDTO6Y
MA6813400180,h_OCHCTP,10-L1-5,2019-02-06 15:15:00.0,PmdMin,4.3,CHCGILDTO6Y
MA6813400180,h_OCHCTP,10-L1-5,2019-02-06 15:15:00.0,SoPmdAve,2869.25,CHCGILDTO6Y
MA6813400180,h_OCHCTP,10-L1-5,2019-02-06 15:30:00.0,Qmin,8.41,CHCGILDTO6Y
MA6813400180,h_OCHCTP,10-L1-5,2019-02-06 15:30:00.0,PhaseCorrectionAve,-0.0611,CHCGILDTO6Y
MA6813400180,h_OCHCTP,10-L1-5,2019-02-06 15:30:00.0,BerPreFecMax,0.00421,CHCGILDTO6Y
MA6813400180,h_OCHCTP,10-L1-5,2019-02-06 15:30:00.0,PmdMin,4.36,CHCGILDTO6Y
MA6813400180,h_OCHCTP,10-L1-5,2019-02-06 15:30:00.0,SoPmdAve,2944.67,CHCGILDTO6Y
MA6813400180,h_OCHCTP,10-L1-5,2019-02-06 15:45:00.0,Qmin,8.43,CHCGILDTO6Y
MA6813400180,h_OCHCTP,10-L1-5,2019-02-06 15:45:00.0,PhaseCorrectionAve,-0.183,CHCGILDTO6Y
MA6813400180,h_OCHCTP,10-L1-5,2019-02-06 15:45:00.0,BerPreFecMax,0.00416,CHCGILDTO6Y
MA6813400180,h_OCHCTP,10-L1-5,2019-02-06 15:45:00.0,PmdMin,5.34,CHCGILDTO6Y
MA6813400180,h_OCHCTP,10-L1-5,2019-02-06 15:45:00.0,SoPmdAve,2807.71,CHCGILDTO6Y
MA6813400180,h_OCHCTP,10-L1-6,2019-02-06 15:15:00.0,Qmin,8.65,CHCGILDTO6Y
MA6813400180,h_OCHCTP,10-L1-6,2019-02-06 15:15:00.0,PhaseCorrectionAve,-0.061,CHCGILDTO6Y
MA6813400180,h_OCHCTP,10-L1-6,2019-02-06 15:15:00.0,BerPreFecMax,0.00339,CHCGILDTO6Y
MA6813400180,h_OCHCTP,10-L1-6,2019-02-06 15:15:00.0,PmdMin,0.632,CHCGILDTO6Y
MA6813400180,h_OCHCTP,10-L1-6,2019-02-06 15:15:00.0,SoPmdAve,2824.44,CHCGILDTO6Y
MA6813400180,h_OCHCTP,10-L1-6,2019-02-06 15:30:00.0,Qmin,8.64,CHCGILDTO6Y
MA6813400180,h_OCHCTP,10-L1-6,2019-02-06 15:30:00.0,PhaseCorrectionAve,-0.0611,CHCGILDTO6Y
MA6813400180,h_OCHCTP,10-L1-6,2019-02-06 15:30:00.0,BerPreFecMax,0.00342,CHCGILDTO6Y
MA6813400180,h_OCHCTP,10-L1-6,2019-02-06 15:30:00.0,PmdMin,0.88,CHCGILDTO6Y
MA6813400180,h_OCHCTP,10-L1-6,2019-02-06 15:30:00.0,SoPmdAve,2764.72,CHCGILDTO6Y
MA6813400180,h_OCHCTP,10-L1-6,2019-02-06 15:45:00.0,Qmin,8.66,CHCGILDTO6Y
MA6813400180,h_OCHCTP,10-L1-6,2019-02-06 15:45:00.0,PhaseCorrectionAve,-0.183,CHCGILDTO6Y
MA6813400180,h_OCHCTP,10-L1-6,2019-02-06 15:45:00.0,BerPreFecMax,0.00337,CHCGILDTO6Y
MA6813400180,h_OCHCTP,10-L1-6,2019-02-06 15:45:00.0,PmdMin,0.485,CHCGILDTO6Y
MA6813400180,h_OCHCTP,10-L1-6,2019-02-06 15:45:00.0,SoPmdAve,2815.56,CHCGILDTO6Y
MA6813400180,h_OCHCTP,10-L1-7,2019-02-06 15:15:00.0,Qmin,8.78,CHCGILDTO6Y
MA6813400180,h_OCHCTP,10-L1-7,2019-02-06 15:15:00.0,PhaseCorrectionAve,-0.122,CHCGILDTO6Y
MA6813400180,h_OCHCTP,10-L1-7,2019-02-06 15:15:00.0,BerPreFecMax,0.003,CHCGILDTO6Y
MA6813400180,h_OCHCTP,10-L1-7,2019-02-06 15:15:00.0,PmdMin,1.62,CHCGILDTO6Y
MA6813400180,h_OCHCTP,10-L1-7,2019-02-06 15:15:00.0,SoPmdAve,3524.7,CHCGILDTO6Y
MA6813400180,h_OCHCTP,10-L1-7,2019-02-06 15:30:00.0,Qmin,8.8,CHCGILDTO6Y
MA6813400180,h_OCHCTP,10-L1-7,2019-02-06 15:30:00.0,PhaseCorrectionAve,-0.122,CHCGILDTO6Y
MA6813400180,h_OCHCTP,10-L1-7,2019-02-06 15:30:00.0,BerPreFecMax,0.00295,CHCGILDTO6Y
MA6813400180,h_OCHCTP,10-L1-7,2019-02-06 15:30:00.0,PmdMin,1.31,CHCGILDTO6Y
MA6813400180,h_OCHCTP,10-L1-7,2019-02-06 15:30:00.0,SoPmdAve,3584.55,CHCGILDTO6Y
MA6813400180,h_OCHCTP,10-L1-7,2019-02-06 15:45:00.0,Qmin,8.8,CHCGILDTO6Y
MA6813400180,h_OCHCTP,10-L1-7,2019-02-06 15:45:00.0,PhaseCorrectionAve,-0.244,CHCGILDTO6Y
MA6813400180,h_OCHCTP,10-L1-7,2019-02-06 15:45:00.0,BerPreFecMax,0.00294,CHCGILDTO6Y
MA6813400180,h_OCHCTP,10-L1-7,2019-02-06 15:45:00.0,PmdMin,1.28,CHCGILDTO6Y
MA6813400180,h_OCHCTP,10-L1-7,2019-02-06 15:45:00.0,SoPmdAve,3493.41,CHCGILDTO6Y
MA6813400180,h_OCHCTP,10-L1-8,2019-02-06 15:15:00.0,Qmin,9.3,CHCGILDTO6Y
MA6813400180,h_OCHCTP,10-L1-8,2019-02-06 15:15:00.0,PhaseCorrectionAve,-0.183,CHCGILDTO6Y
MA6813400180,h_OCHCTP,10-L1-8,2019-02-06 15:15:00.0,BerPreFecMax,0.00176,CHCGILDTO6Y
MA6813400180,h_OCHCTP,10-L1-8,2019-02-06 15:15:00.0,PmdMin,0.919,CHCGILDTO6Y
MA6813400180,h_OCHCTP,10-L1-8,2019-02-06 15:15:00.0,SoPmdAve,3374.34,CHCGILDTO6Y
MA6813400180,h_OCHCTP,10-L1-8,2019-02-06 15:30:00.0,Qmin,9.32,CHCGILDTO6Y
MA6813400180,h_OCHCTP,10-L1-8,2019-02-06 15:30:00.0,PhaseCorrectionAve,-0.122,CHCGILDTO6Y
MA6813400180,h_OCHCTP,10-L1-8,2019-02-06 15:30:00.0,BerPreFecMax,0.00173,CHCGILDTO6Y
MA6813400180,h_OCHCTP,10-L1-8,2019-02-06 15:30:00.0,PmdMin,1.1,CHCGILDTO6Y
MA6813400180,h_OCHCTP,10-L1-8,2019-02-06 15:30:00.0,SoPmdAve,3335.37,CHCGILDTO6Y
MA6813400180,h_OCHCTP,10-L1-8,2019-02-06 15:45:00.0,Qmin,9.32,CHCGILDTO6Y
MA6813400180,h_OCHCTP,10-L1-8,2019-02-06 15:45:00.0,PhaseCorrectionAve,-0.305,CHCGILDTO6Y
MA6813400180,h_OCHCTP,10-L1-8,2019-02-06 15:45:00.0,BerPreFecMax,0.00173,CHCGILDTO6Y
MA6813400180,h_OCHCTP,10-L1-8,2019-02-06 15:45:00.0,PmdMin,0.997,CHCGILDTO6Y
MA6813400180,h_OCHCTP,10-L1-8,2019-02-06 15:45:00.0,SoPmdAve,3429.0,CHCGILDTO6Y
MA6813400180,h_OCHCTP,10-L1-9,2019-02-06 15:15:00.0,Qmin,9.32,CHCGILDTO6Y
MA6813400180,h_OCHCTP,10-L1-9,2019-02-06 15:15:00.0,PhaseCorrectionAve,-0.244,CHCGILDTO6Y
MA6813400180,h_OCHCTP,10-L1-9,2019-02-06 15:15:00.0,BerPreFecMax,0.00172,CHCGILDTO6Y
MA6813400180,h_OCHCTP,10-L1-9,2019-02-06 15:15:00.0,PmdMin,1.44,CHCGILDTO6Y
MA6813400180,h_OCHCTP,10-L1-9,2019-02-06 15:15:00.0,SoPmdAve,3175.0,CHCGILDTO6Y
MA6813400180,h_OCHCTP,10-L1-9,2019-02-06 15:30:00.0,Qmin,9.34,CHCGILDTO6Y
MA6813400180,h_OCHCTP,10-L1-9,2019-02-06 15:30:00.0,PhaseCorrectionAve,-0.122,CHCGILDTO6Y
MA6813400180,h_OCHCTP,10-L1-9,2019-02-06 15:30:00.0,BerPreFecMax,0.0017,CHCGILDTO6Y
MA6813400180,h_OCHCTP,10-L1-9,2019-02-06 15:30:00.0,PmdMin,3.66,CHCGILDTO6Y
MA6813400180,h_OCHCTP,10-L1-9,2019-02-06 15:30:00.0,SoPmdAve,3300.01,CHCGILDTO6Y
MA6813400180,h_OCHCTP,10-L1-9,2019-02-06 15:45:00.0,Qmin,9.35,CHCGILDTO6Y
MA6813400180,h_OCHCTP,10-L1-9,2019-02-06 15:45:00.0,PhaseCorrectionAve,-0.305,CHCGILDTO6Y
MA6813400180,h_OCHCTP,10-L1-9,2019-02-06 15:45:00.0,BerPreFecMax,0.00167,CHCGILDTO6Y
MA6813400180,h_OCHCTP,10-L1-9,2019-02-06 15:45:00.0,PmdMin,6.69,CHCGILDTO6Y
MA6813400180,h_OCHCTP,10-L1-9,2019-02-06 15:45:00.0,SoPmdAve,3307.76,CHCGILDTO6Y
MA6813400180,h_OCHCTP,10-L1-10,2019-02-06 15:15:00.0,Qmin,9.38,CHCGILDTO6Y
MA6813400180,h_OCHCTP,10-L1-10,2019-02-06 15:15:00.0,PhaseCorrectionAve,-0.305,CHCGILDTO6Y
MA6813400180,h_OCHCTP,10-L1-10,2019-02-06 15:15:00.0,BerPreFecMax,0.00162,CHCGILDTO6Y
MA6813400180,h_OCHCTP,10-L1-10,2019-02-06 15:15:00.0,PmdMin,6.79,CHCGILDTO6Y
MA6813400180,h_OCHCTP,10-L1-10,2019-02-06 15:15:00.0,SoPmdAve,3352.24,CHCGILDTO6Y
MA6813400180,h_OCHCTP,10-L1-10,2019-02-06 15:30:00.0,Qmin,9.37,CHCGILDTO6Y
MA6813400180,h_OCHCTP,10-L1-10,2019-02-06 15:30:00.0,PhaseCorrectionAve,-0.122,CHCGILDTO6Y
MA6813400180,h_OCHCTP,10-L1-10,2019-02-06 15:30:00.0,BerPreFecMax,0.00164,CHCGILDTO6Y
MA6813400180,h_OCHCTP,10-L1-10,2019-02-06 15:30:00.0,PmdMin,3.82,CHCGILDTO6Y
MA6813400180,h_OCHCTP,10-L1-10,2019-02-06 15:30:00.0,SoPmdAve,3310.58,CHCGILDTO6Y
MA6813400180,h_OCHCTP,10-L1-10,2019-02-06 15:45:00.0,Qmin,9.37,CHCGILDTO6Y
MA6813400180,h_OCHCTP,10-L1-10,2019-02-06 15:45:00.0,PhaseCorrectionAve,-0.305,CHCGILDTO6Y
MA6813400180,h_OCHCTP,10-L1-10,2019-02-06 15:45:00.0,BerPreFecMax,0.00163,CHCGILDTO6Y
MA6813400180,h_OCHCTP,10-L1-10,2019-02-06 15:45:00.0,PmdMin,9.44,CHCGILDTO6Y
MA6813400180,h_OCHCTP,10-L1-10,2019-02-06 15:45:00.0,SoPmdAve,3251.54,CHCGILDTO6Y
MA6813400180,h_OCHCTP,11-L1-1,2019-02-06 15:15:00.0,Qmin,9.07,CHCGILDTO6Y
MA6813400180,h_OCHCTP,11-L1-1,2019-02-06 15:15:00.0,PhaseCorrectionAve,1.31e-07,CHCGILDTO6Y
MA6813400180,h_OCHCTP,11-L1-1,2019-02-06 15:15:00.0,BerPreFecMax,0.00224,CHCGILDTO6Y
MA6813400180,h_OCHCTP,11-L1-1,2019-02-06 15:15:00.0,PmdMin,0.893,CHCGILDTO6Y
MA6813400180,h_OCHCTP,11-L1-1,2019-02-06 15:15:00.0,SoPmdAve,3450.99,CHCGILDTO6Y
MA6813400180,h_OCHCTP,11-L1-1,2019-02-06 15:30:00.0,Qmin,9.04,CHCGILDTO6Y
MA6813400180,h_OCHCTP,11-L1-1,2019-02-06 15:30:00.0,PhaseCorrectionAve,1.5e-07,CHCGILDTO6Y
MA6813400180,h_OCHCTP,11-L1-1,2019-02-06 15:30:00.0,BerPreFecMax,0.00232,CHCGILDTO6Y
MA6813400180,h_OCHCTP,11-L1-1,2019-02-06 15:30:00.0,PmdMin,1.03,CHCGILDTO6Y
MA6813400180,h_OCHCTP,11-L1-1,2019-02-06 15:30:00.0,SoPmdAve,3277.59,CHCGILDTO6Y
MA6813400180,h_OCHCTP,11-L1-1,2019-02-06 15:45:00.0,Qmin,9.03,CHCGILDTO6Y
MA6813400180,h_OCHCTP,11-L1-1,2019-02-06 15:45:00.0,PhaseCorrectionAve,1.47e-07,CHCGILDTO6Y
MA6813400180,h_OCHCTP,11-L1-1,2019-02-06 15:45:00.0,BerPreFecMax,0.00234,CHCGILDTO6Y
MA6813400180,h_OCHCTP,11-L1-1,2019-02-06 15:45:00.0,PmdMin,0.772,CHCGILDTO6Y
MA6813400180,h_OCHCTP,11-L1-1,2019-02-06 15:45:00.0,SoPmdAve,3412.88,CHCGILDTO6Y
MA6813400180,h_OCHCTP,11-L1-2,2019-02-06 15:15:00.0,Qmin,9.01,CHCGILDTO6Y
MA6813400180,h_OCHCTP,11-L1-2,2019-02-06 15:15:00.0,PhaseCorrectionAve,4.15e-07,CHCGILDTO6Y
MA6813400180,h_OCHCTP,11-L1-2,2019-02-06 15:15:00.0,BerPreFecMax,0.00239,CHCGILDTO6Y
MA6813400180,h_OCHCTP,11-L1-2,2019-02-06 15:15:00.0,PmdMin,1.21,CHCGILDTO6Y
MA6813400180,h_OCHCTP,11-L1-2,2019-02-06 15:15:00.0,SoPmdAve,3139.5,CHCGILDTO6Y
MA6813400180,h_OCHCTP,11-L1-2,2019-02-06 15:30:00.0,Qmin,9.0,CHCGILDTO6Y
MA6813400180,h_OCHCTP,11-L1-2,2019-02-06 15:30:00.0,PhaseCorrectionAve,-0.061,CHCGILDTO6Y
MA6813400180,h_OCHCTP,11-L1-2,2019-02-06 15:30:00.0,BerPreFecMax,0.00241,CHCGILDTO6Y
MA6813400180,h_OCHCTP,11-L1-2,2019-02-06 15:30:00.0,PmdMin,0.833,CHCGILDTO6Y
MA6813400180,h_OCHCTP,11-L1-2,2019-02-06 15:30:00.0,SoPmdAve,3178.8,CHCGILDTO6Y
MA6813400180,h_OCHCTP,11-L1-2,2019-02-06 15:45:00.0,Qmin,9.01,CHCGILDTO6Y
MA6813400180,h_OCHCTP,11-L1-2,2019-02-06 15:45:00.0,PhaseCorrectionAve,4.21e-07,CHCGILDTO6Y
MA6813400180,h_OCHCTP,11-L1-2,2019-02-06 15:45:00.0,BerPreFecMax,0.00239,CHCGILDTO6Y
MA6813400180,h_OCHCTP,11-L1-2,2019-02-06 15:45:00.0,PmdMin,0.841,CHCGILDTO6Y
MA6813400180,h_OCHCTP,11-L1-2,2019-02-06 15:45:00.0,SoPmdAve,3132.65,CHCGILDTO6Y
MA6813400180,h_OCHCTP,11-L1-3,2019-02-06 15:15:00.0,Qmin,8.94,CHCGILDTO6Y
MA6813400180,h_OCHCTP,11-L1-3,2019-02-06 15:15:00.0,PhaseCorrectionAve,-0.061,CHCGILDTO6Y
MA6813400180,h_OCHCTP,11-L1-3,2019-02-06 15:15:00.0,BerPreFecMax,0.00257,CHCGILDTO6Y
MA6813400180,h_OCHCTP,11-L1-3,2019-02-06 15:15:00.0,PmdMin,0.845,CHCGILDTO6Y
MA6813400180,h_OCHCTP,11-L1-3,2019-02-06 15:15:00.0,SoPmdAve,2756.24,CHCGILDTO6Y
MA6813400180,h_OCHCTP,11-L1-3,2019-02-06 15:30:00.0,Qmin,8.98,CHCGILDTO6Y
MA6813400180,h_OCHCTP,11-L1-3,2019-02-06 15:30:00.0,PhaseCorrectionAve,-0.061,CHCGILDTO6Y
MA6813400180,h_OCHCTP,11-L1-3,2019-02-06 15:30:00.0,BerPreFecMax,0.00246,CHCGILDTO6Y
MA6813400180,h_OCHCTP,11-L1-3,2019-02-06 15:30:00.0,PmdMin,0.279,CHCGILDTO6Y
MA6813400180,h_OCHCTP,11-L1-3,2019-02-06 15:30:00.0,SoPmdAve,2739.93,CHCGILDTO6Y
MA6813400180,h_OCHCTP,11-L1-3,2019-02-06 15:45:00.0,Qmin,8.89,CHCGILDTO6Y
MA6813400180,h_OCHCTP,11-L1-3,2019-02-06 15:45:00.0,PhaseCorrectionAve,-0.061,CHCGILDTO6Y
MA6813400180,h_OCHCTP,11-L1-3,2019-02-06 15:45:00.0,BerPreFecMax,0.00271,CHCGILDTO6Y
MA6813400180,h_OCHCTP,11-L1-3,2019-02-06 15:45:00.0,PmdMin,0.94,CHCGILDTO6Y
MA6813400180,h_OCHCTP,11-L1-3,2019-02-06 15:45:00.0,SoPmdAve,2766.91,CHCGILDTO6Y
MA6813400180,h_OCHCTP,11-L1-4,2019-02-06 15:15:00.0,Qmin,8.83,CHCGILDTO6Y
MA6813400180,h_OCHCTP,11-L1-4,2019-02-06 15:15:00.0,PhaseCorrectionAve,-0.061,CHCGILDTO6Y
MA6813400180,h_OCHCTP,11-L1-4,2019-02-06 15:15:00.0,BerPreFecMax,0.00287,CHCGILDTO6Y
MA6813400180,h_OCHCTP,11-L1-4,2019-02-06 15:15:00.0,PmdMin,0.547,CHCGILDTO6Y
MA6813400180,h_OCHCTP,11-L1-4,2019-02-06 15:15:00.0,SoPmdAve,2929.82,CHCGILDTO6Y
MA6813400180,h_OCHCTP,11-L1-4,2019-02-06 15:30:00.0,Qmin,8.78,CHCGILDTO6Y
MA6813400180,h_OCHCTP,11-L1-4,2019-02-06 15:30:00.0,PhaseCorrectionAve,-0.061,CHCGILDTO6Y
MA6813400180,h_OCHCTP,11-L1-4,2019-02-06 15:30:00.0,BerPreFecMax,0.00299,CHCGILDTO6Y
MA6813400180,h_OCHCTP,11-L1-4,2019-02-06 15:30:00.0,PmdMin,1.15,CHCGILDTO6Y
MA6813400180,h_OCHCTP,11-L1-4,2019-02-06 15:30:00.0,SoPmdAve,2951.17,CHCGILDTO6Y
MA6813400180,h_OCHCTP,11-L1-4,2019-02-06 15:45:00.0,Qmin,8.72,CHCGILDTO6Y
MA6813400180,h_OCHCTP,11-L1-4,2019-02-06 15:45:00.0,PhaseCorrectionAve,-0.061,CHCGILDTO6Y
MA6813400180,h_OCHCTP,11-L1-4,2019-02-06 15:45:00.0,BerPreFecMax,0.00317,CHCGILDTO6Y
MA6813400180,h_OCHCTP,11-L1-4,2019-02-06 15:45:00.0,PmdMin,1.58,CHCGILDTO6Y
MA6813400180,h_OCHCTP,11-L1-4,2019-02-06 15:45:00.0,SoPmdAve,3019.6,CHCGILDTO6Y
MA6813400180,h_OCHCTP,11-L1-5,2019-02-06 15:15:00.0,Qmin,8.9,CHCGILDTO6Y
MA6813400180,h_OCHCTP,11-L1-5,2019-02-06 15:15:00.0,PhaseCorrectionAve,-0.061,CHCGILDTO6Y
MA6813400180,h_OCHCTP,11-L1-5,2019-02-06 15:15:00.0,BerPreFecMax,0.00266,CHCGILDTO6Y
MA6813400180,h_OCHCTP,11-L1-5,2019-02-06 15:15:00.0,PmdMin,0.903,CHCGILDTO6Y
MA6813400180,h_OCHCTP,11-L1-5,2019-02-06 15:15:00.0,SoPmdAve,2570.4,CHCGILDTO6Y
MA6813400180,h_OCHCTP,11-L1-5,2019-02-06 15:30:00.0,Qmin,8.88,CHCGILDTO6Y
MA6813400180,h_OCHCTP,11-L1-5,2019-02-06 15:30:00.0,PhaseCorrectionAve,-0.122,CHCGILDTO6Y
MA6813400180,h_OCHCTP,11-L1-5,2019-02-06 15:30:00.0,BerPreFecMax,0.00272,CHCGILDTO6Y
MA6813400180,h_OCHCTP,11-L1-5,2019-02-06 15:30:00.0,PmdMin,0.639,CHCGILDTO6Y
MA6813400180,h_OCHCTP,11-L1-5,2019-02-06 15:30:00.0,SoPmdAve,2554.86,CHCGILDTO6Y
MA6813400180,h_OCHCTP,11-L1-5,2019-02-06 15:45:00.0,Qmin,8.84,CHCGILDTO6Y
MA6813400180,h_OCHCTP,11-L1-5,2019-02-06 15:45:00.0,PhaseCorrectionAve,-0.122,CHCGILDTO6Y
MA6813400180,h_OCHCTP,11-L1-5,2019-02-06 15:45:00.0,BerPreFecMax,0.00283,CHCGILDTO6Y
MA6813400180,h_OCHCTP,11-L1-5,2019-02-06 15:45:00.0,PmdMin,0.734,CHCGILDTO6Y
MA6813400180,h_OCHCTP,11-L1-5,2019-02-06 15:45:00.0,SoPmdAve,2489.34,CHCGILDTO6Y
MA6813400180,h_OCHCTP,11-L1-6,2019-02-06 15:15:00.0,Qmin,8.8,CHCGILDTO6Y
MA6813400180,h_OCHCTP,11-L1-6,2019-02-06 15:15:00.0,PhaseCorrectionAve,-0.061,CHCGILDTO6Y
MA6813400180,h_OCHCTP,11-L1-6,2019-02-06 15:15:00.0,BerPreFecMax,0.00295,CHCGILDTO6Y
MA6813400180,h_OCHCTP,11-L1-6,2019-02-06 15:15:00.0,PmdMin,1.02,CHCGILDTO6Y
MA6813400180,h_OCHCTP,11-L1-6,2019-02-06 15:15:00.0,SoPmdAve,2507.67,CHCGILDTO6Y
MA6813400180,h_OCHCTP,11-L1-6,2019-02-06 15:30:00.0,Qmin,8.73,CHCGILDTO6Y
MA6813400180,h_OCHCTP,11-L1-6,2019-02-06 15:30:00.0,PhaseCorrectionAve,-0.122,CHCGILDTO6Y
MA6813400180,h_OCHCTP,11-L1-6,2019-02-06 15:30:00.0,BerPreFecMax,0.00315,CHCGILDTO6Y
MA6813400180,h_OCHCTP,11-L1-6,2019-02-06 15:30:00.0,PmdMin,1.16,CHCGILDTO6Y
MA6813400180,h_OCHCTP,11-L1-6,2019-02-06 15:30:00.0,SoPmdAve,2517.86,CHCGILDTO6Y
MA6813400180,h_OCHCTP,11-L1-6,2019-02-06 15:45:00.0,Qmin,8.72,CHCGILDTO6Y
MA6813400180,h_OCHCTP,11-L1-6,2019-02-06 15:45:00.0,PhaseCorrectionAve,-0.122,CHCGILDTO6Y
MA6813400180,h_OCHCTP,11-L1-6,2019-02-06 15:45:00.0,BerPreFecMax,0.00318,CHCGILDTO6Y
MA6813400180,h_OCHCTP,11-L1-6,2019-02-06 15:45:00.0,PmdMin,0.632,CHCGILDTO6Y
MA6813400180,h_OCHCTP,11-L1-6,2019-02-06 15:45:00.0,SoPmdAve,2547.1,CHCGILDTO6Y
MA6813400180,h_OCHCTP,11-L1-7,2019-02-06 15:15:00.0,Qmin,8.85,CHCGILDTO6Y
MA6813400180,h_OCHCTP,11-L1-7,2019-02-06 15:15:00.0,PhaseCorrectionAve,-0.061,CHCGILDTO6Y
MA6813400180,h_OCHCTP,11-L1-7,2019-02-06 15:15:00.0,BerPreFecMax,0.00281,CHCGILDTO6Y
MA6813400180,h_OCHCTP,11-L1-7,2019-02-06 15:15:00.0,PmdMin,1.05,CHCGILDTO6Y
MA6813400180,h_OCHCTP,11-L1-7,2019-02-06 15:15:00.0,SoPmdAve,3060.69,CHCGILDTO6Y
MA6813400180,h_OCHCTP,11-L1-7,2019-02-06 15:30:00.0,Qmin,8.85,CHCGILDTO6Y
MA6813400180,h_OCHCTP,11-L1-7,2019-02-06 15:30:00.0,PhaseCorrectionAve,-0.122,CHCGILDTO6Y
MA6813400180,h_OCHCTP,11-L1-7,2019-02-06 15:30:00.0,BerPreFecMax,0.00279,CHCGILDTO6Y
MA6813400180,h_OCHCTP,11-L1-7,2019-02-06 15:30:00.0,PmdMin,1.08,CHCGILDTO6Y
MA6813400180,h_OCHCTP,11-L1-7,2019-02-06 15:30:00.0,SoPmdAve,3007.09,CHCGILDTO6Y
MA6813400180,h_OCHCTP,11-L1-7,2019-02-06 15:45:00.0,Qmin,8.72,CHCGILDTO6Y
MA6813400180,h_OCHCTP,11-L1-7,2019-02-06 15:45:00.0,PhaseCorrectionAve,-0.122,CHCGILDTO6Y
MA6813400180,h_OCHCTP,11-L1-7,2019-02-06 15:45:00.0,BerPreFecMax,0.00318,CHCGILDTO6Y
MA6813400180,h_OCHCTP,11-L1-7,2019-02-06 15:45:00.0,PmdMin,1.55,CHCGILDTO6Y
MA6813400180,h_OCHCTP,11-L1-7,2019-02-06 15:45:00.0,SoPmdAve,2999.99,CHCGILDTO6Y
MA6813400180,h_OCHCTP,11-L1-8,2019-02-06 15:15:00.0,Qmin,8.85,CHCGILDTO6Y
MA6813400180,h_OCHCTP,11-L1-8,2019-02-06 15:15:00.0,PhaseCorrectionAve,-0.061,CHCGILDTO6Y
MA6813400180,h_OCHCTP,11-L1-8,2019-02-06 15:15:00.0,BerPreFecMax,0.00279,CHCGILDTO6Y
MA6813400180,h_OCHCTP,11-L1-8,2019-02-06 15:15:00.0,PmdMin,1.28,CHCGILDTO6Y
MA6813400180,h_OCHCTP,11-L1-8,2019-02-06 15:15:00.0,SoPmdAve,3127.02,CHCGILDTO6Y
MA6813400180,h_OCHCTP,11-L1-8,2019-02-06 15:30:00.0,Qmin,8.71,CHCGILDTO6Y
MA6813400180,h_OCHCTP,11-L1-8,2019-02-06 15:30:00.0,PhaseCorrectionAve,-0.122,CHCGILDTO6Y
MA6813400180,h_OCHCTP,11-L1-8,2019-02-06 15:30:00.0,BerPreFecMax,0.0032,CHCGILDTO6Y
MA6813400180,h_OCHCTP,11-L1-8,2019-02-06 15:30:00.0,PmdMin,1.73,CHCGILDTO6Y
MA6813400180,h_OCHCTP,11-L1-8,2019-02-06 15:30:00.0,SoPmdAve,3055.31,CHCGILDTO6Y
MA6813400180,h_OCHCTP,11-L1-8,2019-02-06 15:45:00.0,Qmin,8.75,CHCGILDTO6Y
MA6813400180,h_OCHCTP,11-L1-8,2019-02-06 15:45:00.0,PhaseCorrectionAve,-0.183,CHCGILDTO6Y
MA6813400180,h_OCHCTP,11-L1-8,2019-02-06 15:45:00.0,BerPreFecMax,0.00309,CHCGILDTO6Y
MA6813400180,h_OCHCTP,11-L1-8,2019-02-06 15:45:00.0,PmdMin,1.08,CHCGILDTO6Y
MA6813400180,h_OCHCTP,11-L1-8,2019-02-06 15:45:00.0,SoPmdAve,3118.86,CHCGILDTO6Y
MA6813400180,h_OCHCTP,11-L1-9,2019-02-06 15:15:00.0,Qmin,8.74,CHCGILDTO6Y
MA6813400180,h_OCHCTP,11-L1-9,2019-02-06 15:15:00.0,PhaseCorrectionAve,-0.122,CHCGILDTO6Y
MA6813400180,h_OCHCTP,11-L1-9,2019-02-06 15:15:00.0,BerPreFecMax,0.0031,CHCGILDTO6Y
MA6813400180,h_OCHCTP,11-L1-9,2019-02-06 15:15:00.0,PmdMin,0.494,CHCGILDTO6Y
MA6813400180,h_OCHCTP,11-L1-9,2019-02-06 15:15:00.0,SoPmdAve,2868.84,CHCGILDTO6Y
MA6813400180,h_OCHCTP,11-L1-9,2019-02-06 15:30:00.0,Qmin,8.74,CHCGILDTO6Y
MA6813400180,h_OCHCTP,11-L1-9,2019-02-06 15:30:00.0,PhaseCorrectionAve,-0.122,CHCGILDTO6Y
MA6813400180,h_OCHCTP,11-L1-9,2019-02-06 15:30:00.0,BerPreFecMax,0.00312,CHCGILDTO6Y
MA6813400180,h_OCHCTP,11-L1-9,2019-02-06 15:30:00.0,PmdMin,1.23,CHCGILDTO6Y
MA6813400180,h_OCHCTP,11-L1-9,2019-02-06 15:30:00.0,SoPmdAve,2957.0,CHCGILDTO6Y
MA6813400180,h_OCHCTP,11-L1-9,2019-02-06 15:45:00.0,Qmin,8.74,CHCGILDTO6Y
MA6813400180,h_OCHCTP,11-L1-9,2019-02-06 15:45:00.0,PhaseCorrectionAve,-0.183,CHCGILDTO6Y
MA6813400180,h_OCHCTP,11-L1-9,2019-02-06 15:45:00.0,BerPreFecMax,0.00311,CHCGILDTO6Y
MA6813400180,h_OCHCTP,11-L1-9,2019-02-06 15:45:00.0,PmdMin,1.27,CHCGILDTO6Y
MA6813400180,h_OCHCTP,11-L1-9,2019-02-06 15:45:00.0,SoPmdAve,2964.11,CHCGILDTO6Y
MA6813400180,h_OCHCTP,11-L1-10,2019-02-06 15:15:00.0,Qmin,8.86,CHCGILDTO6Y
MA6813400180,h_OCHCTP,11-L1-10,2019-02-06 15:15:00.0,PhaseCorrectionAve,-0.183,CHCGILDTO6Y
MA6813400180,h_OCHCTP,11-L1-10,2019-02-06 15:15:00.0,BerPreFecMax,0.00278,CHCGILDTO6Y
MA6813400180,h_OCHCTP,11-L1-10,2019-02-06 15:15:00.0,PmdMin,0.945,CHCGILDTO6Y
MA6813400180,h_OCHCTP,11-L1-10,2019-02-06 15:15:00.0,SoPmdAve,3074.44,CHCGILDTO6Y
MA6813400180,h_OCHCTP,11-L1-10,2019-02-06 15:30:00.0,Qmin,8.89,CHCGILDTO6Y
MA6813400180,h_OCHCTP,11-L1-10,2019-02-06 15:30:00.0,PhaseCorrectionAve,-0.122,CHCGILDTO6Y
MA6813400180,h_OCHCTP,11-L1-10,2019-02-06 15:30:00.0,BerPreFecMax,0.00271,CHCGILDTO6Y
MA6813400180,h_OCHCTP,11-L1-10,2019-02-06 15:30:00.0,PmdMin,0.789,CHCGILDTO6Y
MA6813400180,h_OCHCTP,11-L1-10,2019-02-06 15:30:00.0,SoPmdAve,3031.37,CHCGILDTO6Y
MA6813400180,h_OCHCTP,11-L1-10,2019-02-06 15:45:00.0,Qmin,8.9,CHCGILDTO6Y
MA6813400180,h_OCHCTP,11-L1-10,2019-02-06 15:45:00.0,PhaseCorrectionAve,-0.244,CHCGILDTO6Y
MA6813400180,h_OCHCTP,11-L1-10,2019-02-06 15:45:00.0,BerPreFecMax,0.00268,CHCGILDTO6Y
MA6813400180,h_OCHCTP,11-L1-10,2019-02-06 15:45:00.0,PmdMin,1.57,CHCGILDTO6Y
MA6813400180,h_OCHCTP,11-L1-10,2019-02-06 15:45:00.0,SoPmdAve,3096.25,CHCGILDTO6Y
MA6813400180,h_OCHCTP,13-L1-1,2019-02-06 15:15:00.0,Qmin,9.07,CHCGILDTO6Y
MA6813400180,h_OCHCTP,13-L1-1,2019-02-06 15:15:00.0,PhaseCorrectionAve,2.48e-07,CHCGILDTO6Y
MA6813400180,h_OCHCTP,13-L1-1,2019-02-06 15:15:00.0,BerPreFecMax,0.00224,CHCGILDTO6Y
MA6813400180,h_OCHCTP,13-L1-1,2019-02-06 15:15:00.0,PmdMin,1.26,CHCGILDTO6Y
MA6813400180,h_OCHCTP,13-L1-1,2019-02-06 15:15:00.0,SoPmdAve,3542.27,CHCGILDTO6Y
MA6813400180,h_OCHCTP,13-L1-1,2019-02-06 15:30:00.0,Qmin,9.08,CHCGILDTO6Y
MA6813400180,h_OCHCTP,13-L1-1,2019-02-06 15:30:00.0,PhaseCorrectionAve,2.73e-07,CHCGILDTO6Y
MA6813400180,h_OCHCTP,13-L1-1,2019-02-06 15:30:00.0,BerPreFecMax,0.00222,CHCGILDTO6Y
MA6813400180,h_OCHCTP,13-L1-1,2019-02-06 15:30:00.0,PmdMin,0.722,CHCGILDTO6Y
MA6813400180,h_OCHCTP,13-L1-1,2019-02-06 15:30:00.0,SoPmdAve,3554.36,CHCGILDTO6Y
MA6813400180,h_OCHCTP,13-L1-1,2019-02-06 15:45:00.0,Qmin,9.01,CHCGILDTO6Y
MA6813400180,h_OCHCTP,13-L1-1,2019-02-06 15:45:00.0,PhaseCorrectionAve,-0.122,CHCGILDTO6Y
MA6813400180,h_OCHCTP,13-L1-1,2019-02-06 15:45:00.0,BerPreFecMax,0.00239,CHCGILDTO6Y
MA6813400180,h_OCHCTP,13-L1-1,2019-02-06 15:45:00.0,PmdMin,1.34,CHCGILDTO6Y
MA6813400180,h_OCHCTP,13-L1-1,2019-02-06 15:45:00.0,SoPmdAve,3542.85,CHCGILDTO6Y
MA6813400180,h_OCHCTP,13-L1-2,2019-02-06 15:15:00.0,Qmin,9.08,CHCGILDTO6Y
MA6813400180,h_OCHCTP,13-L1-2,2019-02-06 15:15:00.0,PhaseCorrectionAve,3.59e-07,CHCGILDTO6Y
MA6813400180,h_OCHCTP,13-L1-2,2019-02-06 15:15:00.0,BerPreFecMax,0.00221,CHCGILDTO6Y
MA6813400180,h_OCHCTP,13-L1-2,2019-02-06 15:15:00.0,PmdMin,1.78,CHCGILDTO6Y
MA6813400180,h_OCHCTP,13-L1-2,2019-02-06 15:15:00.0,SoPmdAve,3496.9,CHCGILDTO6Y
MA6813400180,h_OCHCTP,13-L1-2,2019-02-06 15:30:00.0,Qmin,9.1,CHCGILDTO6Y
MA6813400180,h_OCHCTP,13-L1-2,2019-02-06 15:30:00.0,PhaseCorrectionAve,3.12e-07,CHCGILDTO6Y
MA6813400180,h_OCHCTP,13-L1-2,2019-02-06 15:30:00.0,BerPreFecMax,0.00217,CHCGILDTO6Y
MA6813400180,h_OCHCTP,13-L1-2,2019-02-06 15:30:00.0,PmdMin,1.23,CHCGILDTO6Y
MA6813400180,h_OCHCTP,13-L1-2,2019-02-06 15:30:00.0,SoPmdAve,3620.73,CHCGILDTO6Y
MA6813400180,h_OCHCTP,13-L1-2,2019-02-06 15:45:00.0,Qmin,9.06,CHCGILDTO6Y
MA6813400180,h_OCHCTP,13-L1-2,2019-02-06 15:45:00.0,PhaseCorrectionAve,-0.122,CHCGILDTO6Y
MA6813400180,h_OCHCTP,13-L1-2,2019-02-06 15:45:00.0,BerPreFecMax,0.00228,CHCGILDTO6Y
MA6813400180,h_OCHCTP,13-L1-2,2019-02-06 15:45:00.0,PmdMin,1.59,CHCGILDTO6Y
MA6813400180,h_OCHCTP,13-L1-2,2019-02-06 15:45:00.0,SoPmdAve,3585.18,CHCGILDTO6Y
MA6813400180,h_OCHCTP,13-L1-3,2019-02-06 15:15:00.0,Qmin,8.95,CHCGILDTO6Y
MA6813400180,h_OCHCTP,13-L1-3,2019-02-06 15:15:00.0,PhaseCorrectionAve,4.71e-07,CHCGILDTO6Y
MA6813400180,h_OCHCTP,13-L1-3,2019-02-06 15:15:00.0,BerPreFecMax,0.00253,CHCGILDTO6Y
MA6813400180,h_OCHCTP,13-L1-3,2019-02-06 15:15:00.0,PmdMin,0.872,CHCGILDTO6Y
MA6813400180,h_OCHCTP,13-L1-3,2019-02-06 15:15:00.0,SoPmdAve,2899.32,CHCGILDTO6Y
MA6813400180,h_OCHCTP,13-L1-3,2019-02-06 15:30:00.0,Qmin,8.95,CHCGILDTO6Y
MA6813400180,h_OCHCTP,13-L1-3,2019-02-06 15:30:00.0,PhaseCorrectionAve,4.72e-07,CHCGILDTO6Y
MA6813400180,h_OCHCTP,13-L1-3,2019-02-06 15:30:00.0,BerPreFecMax,0.00254,CHCGILDTO6Y
MA6813400180,h_OCHCTP,13-L1-3,2019-02-06 15:30:00.0,PmdMin,0.98,CHCGILDTO6Y
MA6813400180,h_OCHCTP,13-L1-3,2019-02-06 15:30:00.0,SoPmdAve,2838.35,CHCGILDTO6Y
MA6813400180,h_OCHCTP,13-L1-3,2019-02-06 15:45:00.0,Qmin,8.87,CHCGILDTO6Y
MA6813400180,h_OCHCTP,13-L1-3,2019-02-06 15:45:00.0,PhaseCorrectionAve,-0.243,CHCGILDTO6Y
MA6813400180,h_OCHCTP,13-L1-3,2019-02-06 15:45:00.0,BerPreFecMax,0.00275,CHCGILDTO6Y
MA6813400180,h_OCHCTP,13-L1-3,2019-02-06 15:45:00.0,PmdMin,0.685,CHCGILDTO6Y
MA6813400180,h_OCHCTP,13-L1-3,2019-02-06 15:45:00.0,SoPmdAve,2947.63,CHCGILDTO6Y
MA6813400180,h_OCHCTP,13-L1-4,2019-02-06 15:15:00.0,Qmin,8.8,CHCGILDTO6Y
MA6813400180,h_OCHCTP,13-L1-4,2019-02-06 15:15:00.0,PhaseCorrectionAve,5.22e-07,CHCGILDTO6Y
MA6813400180,h_OCHCTP,13-L1-4,2019-02-06 15:15:00.0,BerPreFecMax,0.00295,CHCGILDTO6Y
MA6813400180,h_OCHCTP,13-L1-4,2019-02-06 15:15:00.0,PmdMin,0.739,CHCGILDTO6Y
MA6813400180,h_OCHCTP,13-L1-4,2019-02-06 15:15:00.0,SoPmdAve,3333.49,CHCGILDTO6Y
MA6813400180,h_OCHCTP,13-L1-4,2019-02-06 15:30:00.0,Qmin,8.74,CHCGILDTO6Y
MA6813400180,h_OCHCTP,13-L1-4,2019-02-06 15:30:00.0,PhaseCorrectionAve,-0.122,CHCGILDTO6Y
MA6813400180,h_OCHCTP,13-L1-4,2019-02-06 15:30:00.0,BerPreFecMax,0.00311,CHCGILDTO6Y
MA6813400180,h_OCHCTP,13-L1-4,2019-02-06 15:30:00.0,PmdMin,0.524,CHCGILDTO6Y
MA6813400180,h_OCHCTP,13-L1-4,2019-02-06 15:30:00.0,SoPmdAve,3407.52,CHCGILDTO6Y
MA6813400180,h_OCHCTP,13-L1-4,2019-02-06 15:45:00.0,Qmin,8.71,CHCGILDTO6Y
MA6813400180,h_OCHCTP,13-L1-4,2019-02-06 15:45:00.0,PhaseCorrectionAve,-0.243,CHCGILDTO6Y
MA6813400180,h_OCHCTP,13-L1-4,2019-02-06 15:45:00.0,BerPreFecMax,0.00322,CHCGILDTO6Y
MA6813400180,h_OCHCTP,13-L1-4,2019-02-06 15:45:00.0,PmdMin,1.01,CHCGILDTO6Y
MA6813400180,h_OCHCTP,13-L1-4,2019-02-06 15:45:00.0,SoPmdAve,3350.65,CHCGILDTO6Y
MA6813400180,h_OCHCTP,13-L1-5,2019-02-06 15:15:00.0,Qmin,8.76,CHCGILDTO6Y
MA6813400180,h_OCHCTP,13-L1-5,2019-02-06 15:15:00.0,PhaseCorrectionAve,3.04e-07,CHCGILDTO6Y
MA6813400180,h_OCHCTP,13-L1-5,2019-02-06 15:15:00.0,BerPreFecMax,0.00305,CHCGILDTO6Y
MA6813400180,h_OCHCTP,13-L1-5,2019-02-06 15:15:00.0,PmdMin,0.467,CHCGILDTO6Y
MA6813400180,h_OCHCTP,13-L1-5,2019-02-06 15:15:00.0,SoPmdAve,2838.02,CHCGILDTO6Y
MA6813400180,h_OCHCTP,13-L1-5,2019-02-06 15:30:00.0,Qmin,8.73,CHCGILDTO6Y
MA6813400180,h_OCHCTP,13-L1-5,2019-02-06 15:30:00.0,PhaseCorrectionAve,-0.122,CHCGILDTO6Y
MA6813400180,h_OCHCTP,13-L1-5,2019-02-06 15:30:00.0,BerPreFecMax,0.00313,CHCGILDTO6Y
MA6813400180,h_OCHCTP,13-L1-5,2019-02-06 15:30:00.0,PmdMin,0.804,CHCGILDTO6Y
MA6813400180,h_OCHCTP,13-L1-5,2019-02-06 15:30:00.0,SoPmdAve,2771.05,CHCGILDTO6Y
MA6813400180,h_OCHCTP,13-L1-5,2019-02-06 15:45:00.0,Qmin,8.69,CHCGILDTO6Y
MA6813400180,h_OCHCTP,13-L1-5,2019-02-06 15:45:00.0,PhaseCorrectionAve,-0.243,CHCGILDTO6Y
MA6813400180,h_OCHCTP,13-L1-5,2019-02-06 15:45:00.0,BerPreFecMax,0.00326,CHCGILDTO6Y
MA6813400180,h_OCHCTP,13-L1-5,2019-02-06 15:45:00.0,PmdMin,0.94,CHCGILDTO6Y
MA6813400180,h_OCHCTP,13-L1-5,2019-02-06 15:45:00.0,SoPmdAve,2845.64,CHCGILDTO6Y
MA6813400180,h_OCHCTP,13-L1-6,2019-02-06 15:15:00.0,Qmin,8.81,CHCGILDTO6Y
MA6813400180,h_OCHCTP,13-L1-6,2019-02-06 15:15:00.0,PhaseCorrectionAve,6e-07,CHCGILDTO6Y
MA6813400180,h_OCHCTP,13-L1-6,2019-02-06 15:15:00.0,BerPreFecMax,0.00292,CHCGILDTO6Y
MA6813400180,h_OCHCTP,13-L1-6,2019-02-06 15:15:00.0,PmdMin,0.607,CHCGILDTO6Y
MA6813400180,h_OCHCTP,13-L1-6,2019-02-06 15:15:00.0,SoPmdAve,2993.43,CHCGILDTO6Y
MA6813400180,h_OCHCTP,13-L1-6,2019-02-06 15:30:00.0,Qmin,8.71,CHCGILDTO6Y
MA6813400180,h_OCHCTP,13-L1-6,2019-02-06 15:30:00.0,PhaseCorrectionAve,-0.122,CHCGILDTO6Y
MA6813400180,h_OCHCTP,13-L1-6,2019-02-06 15:30:00.0,BerPreFecMax,0.00321,CHCGILDTO6Y
MA6813400180,h_OCHCTP,13-L1-6,2019-02-06 15:30:00.0,PmdMin,0.881,CHCGILDTO6Y
MA6813400180,h_OCHCTP,13-L1-6,2019-02-06 15:30:00.0,SoPmdAve,2941.93,CHCGILDTO6Y
MA6813400180,h_OCHCTP,13-L1-6,2019-02-06 15:45:00.0,Qmin,8.75,CHCGILDTO6Y
MA6813400180,h_OCHCTP,13-L1-6,2019-02-06 15:45:00.0,PhaseCorrectionAve,-0.304,CHCGILDTO6Y
MA6813400180,h_OCHCTP,13-L1-6,2019-02-06 15:45:00.0,BerPreFecMax,0.00309,CHCGILDTO6Y
MA6813400180,h_OCHCTP,13-L1-6,2019-02-06 15:45:00.0,PmdMin,1.03,CHCGILDTO6Y
MA6813400180,h_OCHCTP,13-L1-6,2019-02-06 15:45:00.0,SoPmdAve,2999.71,CHCGILDTO6Y
MA6813400180,h_OCHCTP,13-L1-7,2019-02-06 15:15:00.0,Qmin,8.72,CHCGILDTO6Y
MA6813400180,h_OCHCTP,13-L1-7,2019-02-06 15:15:00.0,PhaseCorrectionAve,5.09e-07,CHCGILDTO6Y
MA6813400180,h_OCHCTP,13-L1-7,2019-02-06 15:15:00.0,BerPreFecMax,0.00317,CHCGILDTO6Y
MA6813400180,h_OCHCTP,13-L1-7,2019-02-06 15:15:00.0,PmdMin,0.681,CHCGILDTO6Y
MA6813400180,h_OCHCTP,13-L1-7,2019-02-06 15:15:00.0,SoPmdAve,3787.62,CHCGILDTO6Y
MA6813400180,h_OCHCTP,13-L1-7,2019-02-06 15:30:00.0,Qmin,8.73,CHCGILDTO6Y
MA6813400180,h_OCHCTP,13-L1-7,2019-02-06 15:30:00.0,PhaseCorrectionAve,-0.122,CHCGILDTO6Y
MA6813400180,h_OCHCTP,13-L1-7,2019-02-06 15:30:00.0,BerPreFecMax,0.00313,CHCGILDTO6Y
MA6813400180,h_OCHCTP,13-L1-7,2019-02-06 15:30:00.0,PmdMin,0.757,CHCGILDTO6Y
MA6813400180,h_OCHCTP,13-L1-7,2019-02-06 15:30:00.0,SoPmdAve,3731.9,CHCGILDTO6Y
MA6813400180,h_OCHCTP,13-L1-7,2019-02-06 15:45:00.0,Qmin,8.72,CHCGILDTO6Y
MA6813400180,h_OCHCTP,13-L1-7,2019-02-06 15:45:00.0,PhaseCorrectionAve,-0.304,CHCGILDTO6Y
MA6813400180,h_OCHCTP,13-L1-7,2019-02-06 15:45:00.0,BerPreFecMax,0.00316,CHCGILDTO6Y
MA6813400180,h_OCHCTP,13-L1-7,2019-02-06 15:45:00.0,PmdMin,0.116,CHCGILDTO6Y
MA6813400180,h_OCHCTP,13-L1-7,2019-02-06 15:45:00.0,SoPmdAve,3737.03,CHCGILDTO6Y
MA6813400180,h_OCHCTP,13-L1-8,2019-02-06 15:15:00.0,Qmin,8.78,CHCGILDTO6Y
MA6813400180,h_OCHCTP,13-L1-8,2019-02-06 15:15:00.0,PhaseCorrectionAve,1.17e-06,CHCGILDTO6Y
MA6813400180,h_OCHCTP,13-L1-8,2019-02-06 15:15:00.0,BerPreFecMax,0.003,CHCGILDTO6Y
MA6813400180,h_OCHCTP,13-L1-8,2019-02-06 15:15:00.0,PmdMin,0.962,CHCGILDTO6Y
MA6813400180,h_OCHCTP,13-L1-8,2019-02-06 15:15:00.0,SoPmdAve,3804.04,CHCGILDTO6Y
MA6813400180,h_OCHCTP,13-L1-8,2019-02-06 15:30:00.0,Qmin,8.72,CHCGILDTO6Y
MA6813400180,h_OCHCTP,13-L1-8,2019-02-06 15:30:00.0,PhaseCorrectionAve,-0.122,CHCGILDTO6Y
MA6813400180,h_OCHCTP,13-L1-8,2019-02-06 15:30:00.0,BerPreFecMax,0.00319,CHCGILDTO6Y
MA6813400180,h_OCHCTP,13-L1-8,2019-02-06 15:30:00.0,PmdMin,1.21,CHCGILDTO6Y
MA6813400180,h_OCHCTP,13-L1-8,2019-02-06 15:30:00.0,SoPmdAve,3844.79,CHCGILDTO6Y
MA6813400180,h_OCHCTP,13-L1-8,2019-02-06 15:45:00.0,Qmin,8.7,CHCGILDTO6Y
MA6813400180,h_OCHCTP,13-L1-8,2019-02-06 15:45:00.0,PhaseCorrectionAve,-0.304,CHCGILDTO6Y
MA6813400180,h_OCHCTP,13-L1-8,2019-02-06 15:45:00.0,BerPreFecMax,0.00324,CHCGILDTO6Y
MA6813400180,h_OCHCTP,13-L1-8,2019-02-06 15:45:00.0,PmdMin,0.822,CHCGILDTO6Y
MA6813400180,h_OCHCTP,13-L1-8,2019-02-06 15:45:00.0,SoPmdAve,3841.49,CHCGILDTO6Y
MA6813400180,h_OCHCTP,13-L1-9,2019-02-06 15:15:00.0,Qmin,8.66,CHCGILDTO6Y
MA6813400180,h_OCHCTP,13-L1-9,2019-02-06 15:15:00.0,PhaseCorrectionAve,4.93e-06,CHCGILDTO6Y
MA6813400180,h_OCHCTP,13-L1-9,2019-02-06 15:15:00.0,BerPreFecMax,0.00335,CHCGILDTO6Y
MA6813400180,h_OCHCTP,13-L1-9,2019-02-06 15:15:00.0,PmdMin,1.07,CHCGILDTO6Y
MA6813400180,h_OCHCTP,13-L1-9,2019-02-06 15:15:00.0,SoPmdAve,3510.43,CHCGILDTO6Y
MA6813400180,h_OCHCTP,13-L1-9,2019-02-06 15:30:00.0,Qmin,8.68,CHCGILDTO6Y
MA6813400180,h_OCHCTP,13-L1-9,2019-02-06 15:30:00.0,PhaseCorrectionAve,-0.122,CHCGILDTO6Y
MA6813400180,h_OCHCTP,13-L1-9,2019-02-06 15:30:00.0,BerPreFecMax,0.0033,CHCGILDTO6Y
MA6813400180,h_OCHCTP,13-L1-9,2019-02-06 15:30:00.0,PmdMin,0.892,CHCGILDTO6Y
MA6813400180,h_OCHCTP,13-L1-9,2019-02-06 15:30:00.0,SoPmdAve,3603.26,CHCGILDTO6Y
MA6813400180,h_OCHCTP,13-L1-9,2019-02-06 15:45:00.0,Qmin,8.69,CHCGILDTO6Y
MA6813400180,h_OCHCTP,13-L1-9,2019-02-06 15:45:00.0,PhaseCorrectionAve,-0.304,CHCGILDTO6Y
MA6813400180,h_OCHCTP,13-L1-9,2019-02-06 15:45:00.0,BerPreFecMax,0.00327,CHCGILDTO6Y
MA6813400180,h_OCHCTP,13-L1-9,2019-02-06 15:45:00.0,PmdMin,0.948,CHCGILDTO6Y
MA6813400180,h_OCHCTP,13-L1-9,2019-02-06 15:45:00.0,SoPmdAve,3660.61,CHCGILDTO6Y
MA6813400180,h_OCHCTP,13-L1-10,2019-02-06 15:15:00.0,Qmin,8.58,CHCGILDTO6Y
MA6813400180,h_OCHCTP,13-L1-10,2019-02-06 15:15:00.0,PhaseCorrectionAve,4.49e-06,CHCGILDTO6Y
MA6813400180,h_OCHCTP,13-L1-10,2019-02-06 15:15:00.0,BerPreFecMax,0.00363,CHCGILDTO6Y
MA6813400180,h_OCHCTP,13-L1-10,2019-02-06 15:15:00.0,PmdMin,1.06,CHCGILDTO6Y
MA6813400180,h_OCHCTP,13-L1-10,2019-02-06 15:15:00.0,SoPmdAve,3956.18,CHCGILDTO6Y
MA6813400180,h_OCHCTP,13-L1-10,2019-02-06 15:30:00.0,Qmin,8.6,CHCGILDTO6Y
MA6813400180,h_OCHCTP,13-L1-10,2019-02-06 15:30:00.0,PhaseCorrectionAve,-0.122,CHCGILDTO6Y
MA6813400180,h_OCHCTP,13-L1-10,2019-02-06 15:30:00.0,BerPreFecMax,0.00356,CHCGILDTO6Y
MA6813400180,h_OCHCTP,13-L1-10,2019-02-06 15:30:00.0,PmdMin,1.09,CHCGILDTO6Y
MA6813400180,h_OCHCTP,13-L1-10,2019-02-06 15:30:00.0,SoPmdAve,3805.54,CHCGILDTO6Y
MA6813400180,h_OCHCTP,13-L1-10,2019-02-06 15:45:00.0,Qmin,8.6,CHCGILDTO6Y
MA6813400180,h_OCHCTP,13-L1-10,2019-02-06 15:45:00.0,PhaseCorrectionAve,-0.304,CHCGILDTO6Y
MA6813400180,h_OCHCTP,13-L1-10,2019-02-06 15:45:00.0,BerPreFecMax,0.00354,CHCGILDTO6Y
MA6813400180,h_OCHCTP,13-L1-10,2019-02-06 15:45:00.0,PmdMin,0.253,CHCGILDTO6Y
MA6813400180,h_OCHCTP,13-L1-10,2019-02-06 15:45:00.0,SoPmdAve,3900.79,CHCGILDTO6Y
