MA6813400180,h_OCHCTP,10-L1-1,2019-01-22 00:15:00.0,Qmin,9.5,CHCGILDTO6Y
MA6813400180,h_OCHCTP,10-L1-1,2019-01-22 00:15:00.0,PhaseCorrectionAve,-0.183,CHCGILDTO6Y
MA6813400180,h_OCHCTP,10-L1-1,2019-01-22 00:15:00.0,BerPreFecMax,0.00141,CHCGILDTO6Y
MA6813400180,h_OCHCTP,10-L1-1,2019-01-22 00:15:00.0,PmdMin,2.04,CHCGILDTO6Y
MA6813400180,h_OCHCTP,10-L1-1,2019-01-22 00:15:00.0,SoPmdAve,3243.68,CHCGILDTO6Y
MA6813400180,h_OCHCTP,10-L1-1,2019-01-22 00:30:00.0,Qmin,9.51,CHCGILDTO6Y
MA6813400180,h_OCHCTP,10-L1-1,2019-01-22 00:30:00.0,PhaseCorrectionAve,5.04e-07,CHCGILDTO6Y
MA6813400180,h_OCHCTP,10-L1-1,2019-01-22 00:30:00.0,BerPreFecMax,0.00141,CHCGILDTO6Y
MA6813400180,h_OCHCTP,10-L1-1,2019-01-22 00:30:00.0,PmdMin,1.56,CHCGILDTO6Y
MA6813400180,h_OCHCTP,10-L1-1,2019-01-22 00:30:00.0,SoPmdAve,3273.16,CHCGILDTO6Y
MA6813400180,h_OCHCTP,10-L1-1,2019-01-22 00:45:00.0,Qmin,9.51,CHCGILDTO6Y
MA6813400180,h_OCHCTP,10-L1-1,2019-01-22 00:45:00.0,PhaseCorrectionAve,4.99e-07,CHCGILDTO6Y
MA6813400180,h_OCHCTP,10-L1-1,2019-01-22 00:45:00.0,BerPreFecMax,0.0014,CHCGILDTO6Y
MA6813400180,h_OCHCTP,10-L1-1,2019-01-22 00:45:00.0,PmdMin,3.77,CHCGILDTO6Y
MA6813400180,h_OCHCTP,10-L1-1,2019-01-22 00:45:00.0,SoPmdAve,3206.46,CHCGILDTO6Y
MA6813400180,h_OCHCTP,10-L1-2,2019-01-22 00:15:00.0,Qmin,9.22,CHCGILDTO6Y
MA6813400180,h_OCHCTP,10-L1-2,2019-01-22 00:15:00.0,PhaseCorrectionAve,-0.183,CHCGILDTO6Y
MA6813400180,h_OCHCTP,10-L1-2,2019-01-22 00:15:00.0,BerPreFecMax,0.00192,CHCGILDTO6Y
MA6813400180,h_OCHCTP,10-L1-2,2019-01-22 00:15:00.0,PmdMin,2.58,CHCGILDTO6Y
MA6813400180,h_OCHCTP,10-L1-2,2019-01-22 00:15:00.0,SoPmdAve,3335.69,CHCGILDTO6Y
MA6813400180,h_OCHCTP,10-L1-2,2019-01-22 00:30:00.0,Qmin,9.23,CHCGILDTO6Y
MA6813400180,h_OCHCTP,10-L1-2,2019-01-22 00:30:00.0,PhaseCorrectionAve,-0.061,CHCGILDTO6Y
MA6813400180,h_OCHCTP,10-L1-2,2019-01-22 00:30:00.0,BerPreFecMax,0.00191,CHCGILDTO6Y
MA6813400180,h_OCHCTP,10-L1-2,2019-01-22 00:30:00.0,PmdMin,0.879,CHCGILDTO6Y
MA6813400180,h_OCHCTP,10-L1-2,2019-01-22 00:30:00.0,SoPmdAve,3266.85,CHCGILDTO6Y
MA6813400180,h_OCHCTP,10-L1-2,2019-01-22 00:45:00.0,Qmin,9.22,CHCGILDTO6Y
MA6813400180,h_OCHCTP,10-L1-2,2019-01-22 00:45:00.0,PhaseCorrectionAve,-0.061,CHCGILDTO6Y
MA6813400180,h_OCHCTP,10-L1-2,2019-01-22 00:45:00.0,BerPreFecMax,0.00192,CHCGILDTO6Y
MA6813400180,h_OCHCTP,10-L1-2,2019-01-22 00:45:00.0,PmdMin,1.42,CHCGILDTO6Y
MA6813400180,h_OCHCTP,10-L1-2,2019-01-22 00:45:00.0,SoPmdAve,3318.71,CHCGILDTO6Y
MA6813400180,h_OCHCTP,10-L1-3,2019-01-22 00:15:00.0,Qmin,9.0,CHCGILDTO6Y
MA6813400180,h_OCHCTP,10-L1-3,2019-01-22 00:15:00.0,PhaseCorrectionAve,-0.183,CHCGILDTO6Y
MA6813400180,h_OCHCTP,10-L1-3,2019-01-22 00:15:00.0,BerPreFecMax,0.0024,CHCGILDTO6Y
MA6813400180,h_OCHCTP,10-L1-3,2019-01-22 00:15:00.0,PmdMin,2.4,CHCGILDTO6Y
MA6813400180,h_OCHCTP,10-L1-3,2019-01-22 00:15:00.0,SoPmdAve,2839.72,CHCGILDTO6Y
MA6813400180,h_OCHCTP,10-L1-3,2019-01-22 00:30:00.0,Qmin,9.0,CHCGILDTO6Y
MA6813400180,h_OCHCTP,10-L1-3,2019-01-22 00:30:00.0,PhaseCorrectionAve,-0.122,CHCGILDTO6Y
MA6813400180,h_OCHCTP,10-L1-3,2019-01-22 00:30:00.0,BerPreFecMax,0.00241,CHCGILDTO6Y
MA6813400180,h_OCHCTP,10-L1-3,2019-01-22 00:30:00.0,PmdMin,1.82,CHCGILDTO6Y
MA6813400180,h_OCHCTP,10-L1-3,2019-01-22 00:30:00.0,SoPmdAve,2872.13,CHCGILDTO6Y
MA6813400180,h_OCHCTP,10-L1-3,2019-01-22 00:45:00.0,Qmin,8.99,CHCGILDTO6Y
MA6813400180,h_OCHCTP,10-L1-3,2019-01-22 00:45:00.0,PhaseCorrectionAve,-0.061,CHCGILDTO6Y
MA6813400180,h_OCHCTP,10-L1-3,2019-01-22 00:45:00.0,BerPreFecMax,0.00243,CHCGILDTO6Y
MA6813400180,h_OCHCTP,10-L1-3,2019-01-22 00:45:00.0,PmdMin,1.34,CHCGILDTO6Y
MA6813400180,h_OCHCTP,10-L1-3,2019-01-22 00:45:00.0,SoPmdAve,2834.1,CHCGILDTO6Y
MA6813400180,h_OCHCTP,10-L1-4,2019-01-22 00:15:00.0,Qmin,8.48,CHCGILDTO6Y
MA6813400180,h_OCHCTP,10-L1-4,2019-01-22 00:15:00.0,PhaseCorrectionAve,-0.304,CHCGILDTO6Y
MA6813400180,h_OCHCTP,10-L1-4,2019-01-22 00:15:00.0,BerPreFecMax,0.00399,CHCGILDTO6Y
MA6813400180,h_OCHCTP,10-L1-4,2019-01-22 00:15:00.0,PmdMin,3.84,CHCGILDTO6Y
MA6813400180,h_OCHCTP,10-L1-4,2019-01-22 00:15:00.0,SoPmdAve,2931.68,CHCGILDTO6Y
MA6813400180,h_OCHCTP,10-L1-4,2019-01-22 00:30:00.0,Qmin,8.47,CHCGILDTO6Y
MA6813400180,h_OCHCTP,10-L1-4,2019-01-22 00:30:00.0,PhaseCorrectionAve,-0.122,CHCGILDTO6Y
MA6813400180,h_OCHCTP,10-L1-4,2019-01-22 00:30:00.0,BerPreFecMax,0.00402,CHCGILDTO6Y
MA6813400180,h_OCHCTP,10-L1-4,2019-01-22 00:30:00.0,PmdMin,4.61,CHCGILDTO6Y
MA6813400180,h_OCHCTP,10-L1-4,2019-01-22 00:30:00.0,SoPmdAve,2929.13,CHCGILDTO6Y
MA6813400180,h_OCHCTP,10-L1-4,2019-01-22 00:45:00.0,Qmin,8.45,CHCGILDTO6Y
MA6813400180,h_OCHCTP,10-L1-4,2019-01-22 00:45:00.0,PhaseCorrectionAve,-0.061,CHCGILDTO6Y
MA6813400180,h_OCHCTP,10-L1-4,2019-01-22 00:45:00.0,BerPreFecMax,0.00409,CHCGILDTO6Y
MA6813400180,h_OCHCTP,10-L1-4,2019-01-22 00:45:00.0,PmdMin,6.09,CHCGILDTO6Y
MA6813400180,h_OCHCTP,10-L1-4,2019-01-22 00:45:00.0,SoPmdAve,3026.94,CHCGILDTO6Y
MA6813400180,h_OCHCTP,10-L1-5,2019-01-22 00:15:00.0,Qmin,8.64,CHCGILDTO6Y
MA6813400180,h_OCHCTP,10-L1-5,2019-01-22 00:15:00.0,PhaseCorrectionAve,-0.304,CHCGILDTO6Y
MA6813400180,h_OCHCTP,10-L1-5,2019-01-22 00:15:00.0,BerPreFecMax,0.00342,CHCGILDTO6Y
MA6813400180,h_OCHCTP,10-L1-5,2019-01-22 00:15:00.0,PmdMin,4.56,CHCGILDTO6Y
MA6813400180,h_OCHCTP,10-L1-5,2019-01-22 00:15:00.0,SoPmdAve,2874.73,CHCGILDTO6Y
MA6813400180,h_OCHCTP,10-L1-5,2019-01-22 00:30:00.0,Qmin,8.64,CHCGILDTO6Y
MA6813400180,h_OCHCTP,10-L1-5,2019-01-22 00:30:00.0,PhaseCorrectionAve,-0.122,CHCGILDTO6Y
MA6813400180,h_OCHCTP,10-L1-5,2019-01-22 00:30:00.0,BerPreFecMax,0.00344,CHCGILDTO6Y
MA6813400180,h_OCHCTP,10-L1-5,2019-01-22 00:30:00.0,PmdMin,3.98,CHCGILDTO6Y
MA6813400180,h_OCHCTP,10-L1-5,2019-01-22 00:30:00.0,SoPmdAve,2820.51,CHCGILDTO6Y
MA6813400180,h_OCHCTP,10-L1-5,2019-01-22 00:45:00.0,Qmin,8.65,CHCGILDTO6Y
MA6813400180,h_OCHCTP,10-L1-5,2019-01-22 00:45:00.0,PhaseCorrectionAve,-0.061,CHCGILDTO6Y
MA6813400180,h_OCHCTP,10-L1-5,2019-01-22 00:45:00.0,BerPreFecMax,0.00339,CHCGILDTO6Y
MA6813400180,h_OCHCTP,10-L1-5,2019-01-22 00:45:00.0,PmdMin,5.04,CHCGILDTO6Y
MA6813400180,h_OCHCTP,10-L1-5,2019-01-22 00:45:00.0,SoPmdAve,2860.77,CHCGILDTO6Y
MA6813400180,h_OCHCTP,10-L1-6,2019-01-22 00:15:00.0,Qmin,8.83,CHCGILDTO6Y
MA6813400180,h_OCHCTP,10-L1-6,2019-01-22 00:15:00.0,PhaseCorrectionAve,-0.304,CHCGILDTO6Y
MA6813400180,h_OCHCTP,10-L1-6,2019-01-22 00:15:00.0,BerPreFecMax,0.00286,CHCGILDTO6Y
MA6813400180,h_OCHCTP,10-L1-6,2019-01-22 00:15:00.0,PmdMin,2.92,CHCGILDTO6Y
MA6813400180,h_OCHCTP,10-L1-6,2019-01-22 00:15:00.0,SoPmdAve,2780.81,CHCGILDTO6Y
MA6813400180,h_OCHCTP,10-L1-6,2019-01-22 00:30:00.0,Qmin,8.84,CHCGILDTO6Y
MA6813400180,h_OCHCTP,10-L1-6,2019-01-22 00:30:00.0,PhaseCorrectionAve,-0.183,CHCGILDTO6Y
MA6813400180,h_OCHCTP,10-L1-6,2019-01-22 00:30:00.0,BerPreFecMax,0.00284,CHCGILDTO6Y
MA6813400180,h_OCHCTP,10-L1-6,2019-01-22 00:30:00.0,PmdMin,0.955,CHCGILDTO6Y
MA6813400180,h_OCHCTP,10-L1-6,2019-01-22 00:30:00.0,SoPmdAve,2781.82,CHCGILDTO6Y
MA6813400180,h_OCHCTP,10-L1-6,2019-01-22 00:45:00.0,Qmin,8.81,CHCGILDTO6Y
MA6813400180,h_OCHCTP,10-L1-6,2019-01-22 00:45:00.0,PhaseCorrectionAve,-0.061,CHCGILDTO6Y
MA6813400180,h_OCHCTP,10-L1-6,2019-01-22 00:45:00.0,BerPreFecMax,0.0029,CHCGILDTO6Y
MA6813400180,h_OCHCTP,10-L1-6,2019-01-22 00:45:00.0,PmdMin,0.955,CHCGILDTO6Y
MA6813400180,h_OCHCTP,10-L1-6,2019-01-22 00:45:00.0,SoPmdAve,2798.14,CHCGILDTO6Y
MA6813400180,h_OCHCTP,10-L1-7,2019-01-22 00:15:00.0,Qmin,8.86,CHCGILDTO6Y
MA6813400180,h_OCHCTP,10-L1-7,2019-01-22 00:15:00.0,PhaseCorrectionAve,-0.304,CHCGILDTO6Y
MA6813400180,h_OCHCTP,10-L1-7,2019-01-22 00:15:00.0,BerPreFecMax,0.00277,CHCGILDTO6Y
MA6813400180,h_OCHCTP,10-L1-7,2019-01-22 00:15:00.0,PmdMin,1.36,CHCGILDTO6Y
MA6813400180,h_OCHCTP,10-L1-7,2019-01-22 00:15:00.0,SoPmdAve,3583.94,CHCGILDTO6Y
MA6813400180,h_OCHCTP,10-L1-7,2019-01-22 00:30:00.0,Qmin,8.88,CHCGILDTO6Y
MA6813400180,h_OCHCTP,10-L1-7,2019-01-22 00:30:00.0,PhaseCorrectionAve,-0.244,CHCGILDTO6Y
MA6813400180,h_OCHCTP,10-L1-7,2019-01-22 00:30:00.0,BerPreFecMax,0.00272,CHCGILDTO6Y
MA6813400180,h_OCHCTP,10-L1-7,2019-01-22 00:30:00.0,PmdMin,1.82,CHCGILDTO6Y
MA6813400180,h_OCHCTP,10-L1-7,2019-01-22 00:30:00.0,SoPmdAve,3568.14,CHCGILDTO6Y
MA6813400180,h_OCHCTP,10-L1-7,2019-01-22 00:45:00.0,Qmin,8.89,CHCGILDTO6Y
MA6813400180,h_OCHCTP,10-L1-7,2019-01-22 00:45:00.0,PhaseCorrectionAve,-0.061,CHCGILDTO6Y
MA6813400180,h_OCHCTP,10-L1-7,2019-01-22 00:45:00.0,BerPreFecMax,0.00269,CHCGILDTO6Y
MA6813400180,h_OCHCTP,10-L1-7,2019-01-22 00:45:00.0,PmdMin,2.03,CHCGILDTO6Y
MA6813400180,h_OCHCTP,10-L1-7,2019-01-22 00:45:00.0,SoPmdAve,3480.07,CHCGILDTO6Y
MA6813400180,h_OCHCTP,10-L1-8,2019-01-22 00:15:00.0,Qmin,9.29,CHCGILDTO6Y
MA6813400180,h_OCHCTP,10-L1-8,2019-01-22 00:15:00.0,PhaseCorrectionAve,-0.304,CHCGILDTO6Y
MA6813400180,h_OCHCTP,10-L1-8,2019-01-22 00:15:00.0,BerPreFecMax,0.00179,CHCGILDTO6Y
MA6813400180,h_OCHCTP,10-L1-8,2019-01-22 00:15:00.0,PmdMin,0.772,CHCGILDTO6Y
MA6813400180,h_OCHCTP,10-L1-8,2019-01-22 00:15:00.0,SoPmdAve,3426.96,CHCGILDTO6Y
MA6813400180,h_OCHCTP,10-L1-8,2019-01-22 00:30:00.0,Qmin,9.29,CHCGILDTO6Y
MA6813400180,h_OCHCTP,10-L1-8,2019-01-22 00:30:00.0,PhaseCorrectionAve,-0.244,CHCGILDTO6Y
MA6813400180,h_OCHCTP,10-L1-8,2019-01-22 00:30:00.0,BerPreFecMax,0.00178,CHCGILDTO6Y
MA6813400180,h_OCHCTP,10-L1-8,2019-01-22 00:30:00.0,PmdMin,1.04,CHCGILDTO6Y
MA6813400180,h_OCHCTP,10-L1-8,2019-01-22 00:30:00.0,SoPmdAve,3494.76,CHCGILDTO6Y
MA6813400180,h_OCHCTP,10-L1-8,2019-01-22 00:45:00.0,Qmin,9.3,CHCGILDTO6Y
MA6813400180,h_OCHCTP,10-L1-8,2019-01-22 00:45:00.0,PhaseCorrectionAve,-0.061,CHCGILDTO6Y
MA6813400180,h_OCHCTP,10-L1-8,2019-01-22 00:45:00.0,BerPreFecMax,0.00177,CHCGILDTO6Y
MA6813400180,h_OCHCTP,10-L1-8,2019-01-22 00:45:00.0,PmdMin,0.823,CHCGILDTO6Y
MA6813400180,h_OCHCTP,10-L1-8,2019-01-22 00:45:00.0,SoPmdAve,3424.98,CHCGILDTO6Y
MA6813400180,h_OCHCTP,10-L1-9,2019-01-22 00:15:00.0,Qmin,9.3,CHCGILDTO6Y
MA6813400180,h_OCHCTP,10-L1-9,2019-01-22 00:15:00.0,PhaseCorrectionAve,-0.304,CHCGILDTO6Y
MA6813400180,h_OCHCTP,10-L1-9,2019-01-22 00:15:00.0,BerPreFecMax,0.00177,CHCGILDTO6Y
MA6813400180,h_OCHCTP,10-L1-9,2019-01-22 00:15:00.0,PmdMin,1.8,CHCGILDTO6Y
MA6813400180,h_OCHCTP,10-L1-9,2019-01-22 00:15:00.0,SoPmdAve,3523.58,CHCGILDTO6Y
MA6813400180,h_OCHCTP,10-L1-9,2019-01-22 00:30:00.0,Qmin,9.3,CHCGILDTO6Y
MA6813400180,h_OCHCTP,10-L1-9,2019-01-22 00:30:00.0,PhaseCorrectionAve,-0.244,CHCGILDTO6Y
MA6813400180,h_OCHCTP,10-L1-9,2019-01-22 00:30:00.0,BerPreFecMax,0.00176,CHCGILDTO6Y
MA6813400180,h_OCHCTP,10-L1-9,2019-01-22 00:30:00.0,PmdMin,0.924,CHCGILDTO6Y
MA6813400180,h_OCHCTP,10-L1-9,2019-01-22 00:30:00.0,SoPmdAve,3642.01,CHCGILDTO6Y
MA6813400180,h_OCHCTP,10-L1-9,2019-01-22 00:45:00.0,Qmin,9.3,CHCGILDTO6Y
MA6813400180,h_OCHCTP,10-L1-9,2019-01-22 00:45:00.0,PhaseCorrectionAve,-0.122,CHCGILDTO6Y
MA6813400180,h_OCHCTP,10-L1-9,2019-01-22 00:45:00.0,BerPreFecMax,0.00177,CHCGILDTO6Y
MA6813400180,h_OCHCTP,10-L1-9,2019-01-22 00:45:00.0,PmdMin,0.346,CHCGILDTO6Y
MA6813400180,h_OCHCTP,10-L1-9,2019-01-22 00:45:00.0,SoPmdAve,3546.29,CHCGILDTO6Y
MA6813400180,h_OCHCTP,10-L1-10,2019-01-22 00:15:00.0,Qmin,9.35,CHCGILDTO6Y
MA6813400180,h_OCHCTP,10-L1-10,2019-01-22 00:15:00.0,PhaseCorrectionAve,-0.304,CHCGILDTO6Y
MA6813400180,h_OCHCTP,10-L1-10,2019-01-22 00:15:00.0,BerPreFecMax,0.00166,CHCGILDTO6Y
MA6813400180,h_OCHCTP,10-L1-10,2019-01-22 00:15:00.0,PmdMin,2.8,CHCGILDTO6Y
MA6813400180,h_OCHCTP,10-L1-10,2019-01-22 00:15:00.0,SoPmdAve,3231.46,CHCGILDTO6Y
MA6813400180,h_OCHCTP,10-L1-10,2019-01-22 00:30:00.0,Qmin,9.36,CHCGILDTO6Y
MA6813400180,h_OCHCTP,10-L1-10,2019-01-22 00:30:00.0,PhaseCorrectionAve,-0.305,CHCGILDTO6Y
MA6813400180,h_OCHCTP,10-L1-10,2019-01-22 00:30:00.0,BerPreFecMax,0.00166,CHCGILDTO6Y
MA6813400180,h_OCHCTP,10-L1-10,2019-01-22 00:30:00.0,PmdMin,2.98,CHCGILDTO6Y
MA6813400180,h_OCHCTP,10-L1-10,2019-01-22 00:30:00.0,SoPmdAve,3157.43,CHCGILDTO6Y
MA6813400180,h_OCHCTP,10-L1-10,2019-01-22 00:45:00.0,Qmin,9.36,CHCGILDTO6Y
MA6813400180,h_OCHCTP,10-L1-10,2019-01-22 00:45:00.0,PhaseCorrectionAve,-0.122,CHCGILDTO6Y
MA6813400180,h_OCHCTP,10-L1-10,2019-01-22 00:45:00.0,BerPreFecMax,0.00166,CHCGILDTO6Y
MA6813400180,h_OCHCTP,10-L1-10,2019-01-22 00:45:00.0,PmdMin,3.67,CHCGILDTO6Y
MA6813400180,h_OCHCTP,10-L1-10,2019-01-22 00:45:00.0,SoPmdAve,3234.53,CHCGILDTO6Y
MA6813400180,h_OCHCTP,13-L1-1,2019-01-22 00:15:00.0,Qmin,9.24,CHCGILDTO6Y
MA6813400180,h_OCHCTP,13-L1-1,2019-01-22 00:15:00.0,PhaseCorrectionAve,2.23e-07,CHCGILDTO6Y
MA6813400180,h_OCHCTP,13-L1-1,2019-01-22 00:15:00.0,BerPreFecMax,0.00188,CHCGILDTO6Y
MA6813400180,h_OCHCTP,13-L1-1,2019-01-22 00:15:00.0,PmdMin,1.0,CHCGILDTO6Y
MA6813400180,h_OCHCTP,13-L1-1,2019-01-22 00:15:00.0,SoPmdAve,3491.59,CHCGILDTO6Y
MA6813400180,h_OCHCTP,13-L1-1,2019-01-22 00:30:00.0,Qmin,9.19,CHCGILDTO6Y
MA6813400180,h_OCHCTP,13-L1-1,2019-01-22 00:30:00.0,PhaseCorrectionAve,2.41e-07,CHCGILDTO6Y
MA6813400180,h_OCHCTP,13-L1-1,2019-01-22 00:30:00.0,BerPreFecMax,0.00198,CHCGILDTO6Y
MA6813400180,h_OCHCTP,13-L1-1,2019-01-22 00:30:00.0,PmdMin,1.27,CHCGILDTO6Y
MA6813400180,h_OCHCTP,13-L1-1,2019-01-22 00:30:00.0,SoPmdAve,3493.86,CHCGILDTO6Y
MA6813400180,h_OCHCTP,13-L1-1,2019-01-22 00:45:00.0,Qmin,9.19,CHCGILDTO6Y
MA6813400180,h_OCHCTP,13-L1-1,2019-01-22 00:45:00.0,PhaseCorrectionAve,-0.0609,CHCGILDTO6Y
MA6813400180,h_OCHCTP,13-L1-1,2019-01-22 00:45:00.0,BerPreFecMax,0.00199,CHCGILDTO6Y
MA6813400180,h_OCHCTP,13-L1-1,2019-01-22 00:45:00.0,PmdMin,0.855,CHCGILDTO6Y
MA6813400180,h_OCHCTP,13-L1-1,2019-01-22 00:45:00.0,SoPmdAve,3458.35,CHCGILDTO6Y
MA6813400180,h_OCHCTP,13-L1-2,2019-01-22 00:15:00.0,Qmin,9.26,CHCGILDTO6Y
MA6813400180,h_OCHCTP,13-L1-2,2019-01-22 00:15:00.0,PhaseCorrectionAve,-0.061,CHCGILDTO6Y
MA6813400180,h_OCHCTP,13-L1-2,2019-01-22 00:15:00.0,BerPreFecMax,0.00184,CHCGILDTO6Y
MA6813400180,h_OCHCTP,13-L1-2,2019-01-22 00:15:00.0,PmdMin,1.41,CHCGILDTO6Y
MA6813400180,h_OCHCTP,13-L1-2,2019-01-22 00:15:00.0,SoPmdAve,3409.98,CHCGILDTO6Y
MA6813400180,h_OCHCTP,13-L1-2,2019-01-22 00:30:00.0,Qmin,9.25,CHCGILDTO6Y
MA6813400180,h_OCHCTP,13-L1-2,2019-01-22 00:30:00.0,PhaseCorrectionAve,2.51e-07,CHCGILDTO6Y
MA6813400180,h_OCHCTP,13-L1-2,2019-01-22 00:30:00.0,BerPreFecMax,0.00185,CHCGILDTO6Y
MA6813400180,h_OCHCTP,13-L1-2,2019-01-22 00:30:00.0,PmdMin,0.56,CHCGILDTO6Y
MA6813400180,h_OCHCTP,13-L1-2,2019-01-22 00:30:00.0,SoPmdAve,3461.04,CHCGILDTO6Y
MA6813400180,h_OCHCTP,13-L1-2,2019-01-22 00:45:00.0,Qmin,9.16,CHCGILDTO6Y
MA6813400180,h_OCHCTP,13-L1-2,2019-01-22 00:45:00.0,PhaseCorrectionAve,-0.122,CHCGILDTO6Y
MA6813400180,h_OCHCTP,13-L1-2,2019-01-22 00:45:00.0,BerPreFecMax,0.00205,CHCGILDTO6Y
MA6813400180,h_OCHCTP,13-L1-2,2019-01-22 00:45:00.0,PmdMin,1.5,CHCGILDTO6Y
MA6813400180,h_OCHCTP,13-L1-2,2019-01-22 00:45:00.0,SoPmdAve,3509.92,CHCGILDTO6Y
MA6813400180,h_OCHCTP,13-L1-3,2019-01-22 00:15:00.0,Qmin,9.05,CHCGILDTO6Y
MA6813400180,h_OCHCTP,13-L1-3,2019-01-22 00:15:00.0,PhaseCorrectionAve,-0.122,CHCGILDTO6Y
MA6813400180,h_OCHCTP,13-L1-3,2019-01-22 00:15:00.0,BerPreFecMax,0.0023,CHCGILDTO6Y
MA6813400180,h_OCHCTP,13-L1-3,2019-01-22 00:15:00.0,PmdMin,0.868,CHCGILDTO6Y
MA6813400180,h_OCHCTP,13-L1-3,2019-01-22 00:15:00.0,SoPmdAve,2955.84,CHCGILDTO6Y
MA6813400180,h_OCHCTP,13-L1-3,2019-01-22 00:30:00.0,Qmin,9.03,CHCGILDTO6Y
MA6813400180,h_OCHCTP,13-L1-3,2019-01-22 00:30:00.0,PhaseCorrectionAve,4.46e-07,CHCGILDTO6Y
MA6813400180,h_OCHCTP,13-L1-3,2019-01-22 00:30:00.0,BerPreFecMax,0.00234,CHCGILDTO6Y
MA6813400180,h_OCHCTP,13-L1-3,2019-01-22 00:30:00.0,PmdMin,0.94,CHCGILDTO6Y
MA6813400180,h_OCHCTP,13-L1-3,2019-01-22 00:30:00.0,SoPmdAve,2971.98,CHCGILDTO6Y
MA6813400180,h_OCHCTP,13-L1-3,2019-01-22 00:45:00.0,Qmin,9.04,CHCGILDTO6Y
MA6813400180,h_OCHCTP,13-L1-3,2019-01-22 00:45:00.0,PhaseCorrectionAve,-0.183,CHCGILDTO6Y
MA6813400180,h_OCHCTP,13-L1-3,2019-01-22 00:45:00.0,BerPreFecMax,0.00231,CHCGILDTO6Y
MA6813400180,h_OCHCTP,13-L1-3,2019-01-22 00:45:00.0,PmdMin,1.02,CHCGILDTO6Y
MA6813400180,h_OCHCTP,13-L1-3,2019-01-22 00:45:00.0,SoPmdAve,3004.56,CHCGILDTO6Y
MA6813400180,h_OCHCTP,13-L1-4,2019-01-22 00:15:00.0,Qmin,8.8,CHCGILDTO6Y
MA6813400180,h_OCHCTP,13-L1-4,2019-01-22 00:15:00.0,PhaseCorrectionAve,-0.183,CHCGILDTO6Y
MA6813400180,h_OCHCTP,13-L1-4,2019-01-22 00:15:00.0,BerPreFecMax,0.00295,CHCGILDTO6Y
MA6813400180,h_OCHCTP,13-L1-4,2019-01-22 00:15:00.0,PmdMin,1.77,CHCGILDTO6Y
MA6813400180,h_OCHCTP,13-L1-4,2019-01-22 00:15:00.0,SoPmdAve,3334.27,CHCGILDTO6Y
MA6813400180,h_OCHCTP,13-L1-4,2019-01-22 00:30:00.0,Qmin,8.73,CHCGILDTO6Y
MA6813400180,h_OCHCTP,13-L1-4,2019-01-22 00:30:00.0,PhaseCorrectionAve,5.42e-07,CHCGILDTO6Y
MA6813400180,h_OCHCTP,13-L1-4,2019-01-22 00:30:00.0,BerPreFecMax,0.00314,CHCGILDTO6Y
MA6813400180,h_OCHCTP,13-L1-4,2019-01-22 00:30:00.0,PmdMin,0.696,CHCGILDTO6Y
MA6813400180,h_OCHCTP,13-L1-4,2019-01-22 00:30:00.0,SoPmdAve,3326.15,CHCGILDTO6Y
MA6813400180,h_OCHCTP,13-L1-4,2019-01-22 00:45:00.0,Qmin,8.76,CHCGILDTO6Y
MA6813400180,h_OCHCTP,13-L1-4,2019-01-22 00:45:00.0,PhaseCorrectionAve,-0.183,CHCGILDTO6Y
MA6813400180,h_OCHCTP,13-L1-4,2019-01-22 00:45:00.0,BerPreFecMax,0.00305,CHCGILDTO6Y
MA6813400180,h_OCHCTP,13-L1-4,2019-01-22 00:45:00.0,PmdMin,0.839,CHCGILDTO6Y
MA6813400180,h_OCHCTP,13-L1-4,2019-01-22 00:45:00.0,SoPmdAve,3330.34,CHCGILDTO6Y
MA6813400180,h_OCHCTP,13-L1-5,2019-01-22 00:15:00.0,Qmin,8.69,CHCGILDTO6Y
MA6813400180,h_OCHCTP,13-L1-5,2019-01-22 00:15:00.0,PhaseCorrectionAve,-0.183,CHCGILDTO6Y
MA6813400180,h_OCHCTP,13-L1-5,2019-01-22 00:15:00.0,BerPreFecMax,0.00328,CHCGILDTO6Y
MA6813400180,h_OCHCTP,13-L1-5,2019-01-22 00:15:00.0,PmdMin,0.47,CHCGILDTO6Y
MA6813400180,h_OCHCTP,13-L1-5,2019-01-22 00:15:00.0,SoPmdAve,2759.08,CHCGILDTO6Y
MA6813400180,h_OCHCTP,13-L1-5,2019-01-22 00:30:00.0,Qmin,8.7,CHCGILDTO6Y
MA6813400180,h_OCHCTP,13-L1-5,2019-01-22 00:30:00.0,PhaseCorrectionAve,-0.061,CHCGILDTO6Y
MA6813400180,h_OCHCTP,13-L1-5,2019-01-22 00:30:00.0,BerPreFecMax,0.00325,CHCGILDTO6Y
MA6813400180,h_OCHCTP,13-L1-5,2019-01-22 00:30:00.0,PmdMin,0.803,CHCGILDTO6Y
MA6813400180,h_OCHCTP,13-L1-5,2019-01-22 00:30:00.0,SoPmdAve,2890.71,CHCGILDTO6Y
MA6813400180,h_OCHCTP,13-L1-5,2019-01-22 00:45:00.0,Qmin,8.73,CHCGILDTO6Y
MA6813400180,h_OCHCTP,13-L1-5,2019-01-22 00:45:00.0,PhaseCorrectionAve,-0.183,CHCGILDTO6Y
MA6813400180,h_OCHCTP,13-L1-5,2019-01-22 00:45:00.0,BerPreFecMax,0.00314,CHCGILDTO6Y
MA6813400180,h_OCHCTP,13-L1-5,2019-01-22 00:45:00.0,PmdMin,1.25,CHCGILDTO6Y
MA6813400180,h_OCHCTP,13-L1-5,2019-01-22 00:45:00.0,SoPmdAve,2872.07,CHCGILDTO6Y
MA6813400180,h_OCHCTP,13-L1-6,2019-01-22 00:15:00.0,Qmin,8.77,CHCGILDTO6Y
MA6813400180,h_OCHCTP,13-L1-6,2019-01-22 00:15:00.0,PhaseCorrectionAve,-0.244,CHCGILDTO6Y
MA6813400180,h_OCHCTP,13-L1-6,2019-01-22 00:15:00.0,BerPreFecMax,0.00302,CHCGILDTO6Y
MA6813400180,h_OCHCTP,13-L1-6,2019-01-22 00:15:00.0,PmdMin,0.702,CHCGILDTO6Y
MA6813400180,h_OCHCTP,13-L1-6,2019-01-22 00:15:00.0,SoPmdAve,3011.8,CHCGILDTO6Y
MA6813400180,h_OCHCTP,13-L1-6,2019-01-22 00:30:00.0,Qmin,8.71,CHCGILDTO6Y
MA6813400180,h_OCHCTP,13-L1-6,2019-01-22 00:30:00.0,PhaseCorrectionAve,-0.061,CHCGILDTO6Y
MA6813400180,h_OCHCTP,13-L1-6,2019-01-22 00:30:00.0,BerPreFecMax,0.0032,CHCGILDTO6Y
MA6813400180,h_OCHCTP,13-L1-6,2019-01-22 00:30:00.0,PmdMin,1.21,CHCGILDTO6Y
MA6813400180,h_OCHCTP,13-L1-6,2019-01-22 00:30:00.0,SoPmdAve,3046.19,CHCGILDTO6Y
MA6813400180,h_OCHCTP,13-L1-6,2019-01-22 00:45:00.0,Qmin,8.73,CHCGILDTO6Y
MA6813400180,h_OCHCTP,13-L1-6,2019-01-22 00:45:00.0,PhaseCorrectionAve,-0.183,CHCGILDTO6Y
MA6813400180,h_OCHCTP,13-L1-6,2019-01-22 00:45:00.0,BerPreFecMax,0.00314,CHCGILDTO6Y
MA6813400180,h_OCHCTP,13-L1-6,2019-01-22 00:45:00.0,PmdMin,1.46,CHCGILDTO6Y
MA6813400180,h_OCHCTP,13-L1-6,2019-01-22 00:45:00.0,SoPmdAve,3012.37,CHCGILDTO6Y
MA6813400180,h_OCHCTP,13-L1-7,2019-01-22 00:15:00.0,Qmin,8.78,CHCGILDTO6Y
MA6813400180,h_OCHCTP,13-L1-7,2019-01-22 00:15:00.0,PhaseCorrectionAve,-0.305,CHCGILDTO6Y
MA6813400180,h_OCHCTP,13-L1-7,2019-01-22 00:15:00.0,BerPreFecMax,0.003,CHCGILDTO6Y
MA6813400180,h_OCHCTP,13-L1-7,2019-01-22 00:15:00.0,PmdMin,1.27,CHCGILDTO6Y
MA6813400180,h_OCHCTP,13-L1-7,2019-01-22 00:15:00.0,SoPmdAve,3736.77,CHCGILDTO6Y
MA6813400180,h_OCHCTP,13-L1-7,2019-01-22 00:30:00.0,Qmin,8.86,CHCGILDTO6Y
MA6813400180,h_OCHCTP,13-L1-7,2019-01-22 00:30:00.0,PhaseCorrectionAve,-0.122,CHCGILDTO6Y
MA6813400180,h_OCHCTP,13-L1-7,2019-01-22 00:30:00.0,BerPreFecMax,0.00278,CHCGILDTO6Y
MA6813400180,h_OCHCTP,13-L1-7,2019-01-22 00:30:00.0,PmdMin,1.07,CHCGILDTO6Y
MA6813400180,h_OCHCTP,13-L1-7,2019-01-22 00:30:00.0,SoPmdAve,3721.67,CHCGILDTO6Y
MA6813400180,h_OCHCTP,13-L1-7,2019-01-22 00:45:00.0,Qmin,8.82,CHCGILDTO6Y
MA6813400180,h_OCHCTP,13-L1-7,2019-01-22 00:45:00.0,PhaseCorrectionAve,-0.244,CHCGILDTO6Y
MA6813400180,h_OCHCTP,13-L1-7,2019-01-22 00:45:00.0,BerPreFecMax,0.0029,CHCGILDTO6Y
MA6813400180,h_OCHCTP,13-L1-7,2019-01-22 00:45:00.0,PmdMin,0.664,CHCGILDTO6Y
MA6813400180,h_OCHCTP,13-L1-7,2019-01-22 00:45:00.0,SoPmdAve,3704.21,CHCGILDTO6Y
MA6813400180,h_OCHCTP,13-L1-8,2019-01-22 00:15:00.0,Qmin,8.9,CHCGILDTO6Y
MA6813400180,h_OCHCTP,13-L1-8,2019-01-22 00:15:00.0,PhaseCorrectionAve,-0.305,CHCGILDTO6Y
MA6813400180,h_OCHCTP,13-L1-8,2019-01-22 00:15:00.0,BerPreFecMax,0.00268,CHCGILDTO6Y
MA6813400180,h_OCHCTP,13-L1-8,2019-01-22 00:15:00.0,PmdMin,1.07,CHCGILDTO6Y
MA6813400180,h_OCHCTP,13-L1-8,2019-01-22 00:15:00.0,SoPmdAve,3874.11,CHCGILDTO6Y
MA6813400180,h_OCHCTP,13-L1-8,2019-01-22 00:30:00.0,Qmin,8.96,CHCGILDTO6Y
MA6813400180,h_OCHCTP,13-L1-8,2019-01-22 00:30:00.0,PhaseCorrectionAve,-0.122,CHCGILDTO6Y
MA6813400180,h_OCHCTP,13-L1-8,2019-01-22 00:30:00.0,BerPreFecMax,0.00251,CHCGILDTO6Y
MA6813400180,h_OCHCTP,13-L1-8,2019-01-22 00:30:00.0,PmdMin,0.961,CHCGILDTO6Y
MA6813400180,h_OCHCTP,13-L1-8,2019-01-22 00:30:00.0,SoPmdAve,3909.75,CHCGILDTO6Y
MA6813400180,h_OCHCTP,13-L1-8,2019-01-22 00:45:00.0,Qmin,8.91,CHCGILDTO6Y
MA6813400180,h_OCHCTP,13-L1-8,2019-01-22 00:45:00.0,PhaseCorrectionAve,-0.244,CHCGILDTO6Y
MA6813400180,h_OCHCTP,13-L1-8,2019-01-22 00:45:00.0,BerPreFecMax,0.00265,CHCGILDTO6Y
MA6813400180,h_OCHCTP,13-L1-8,2019-01-22 00:45:00.0,PmdMin,1.28,CHCGILDTO6Y
MA6813400180,h_OCHCTP,13-L1-8,2019-01-22 00:45:00.0,SoPmdAve,3838.44,CHCGILDTO6Y
MA6813400180,h_OCHCTP,13-L1-9,2019-01-22 00:15:00.0,Qmin,8.81,CHCGILDTO6Y
MA6813400180,h_OCHCTP,13-L1-9,2019-01-22 00:15:00.0,PhaseCorrectionAve,-0.305,CHCGILDTO6Y
MA6813400180,h_OCHCTP,13-L1-9,2019-01-22 00:15:00.0,BerPreFecMax,0.00291,CHCGILDTO6Y
MA6813400180,h_OCHCTP,13-L1-9,2019-01-22 00:15:00.0,PmdMin,0.867,CHCGILDTO6Y
MA6813400180,h_OCHCTP,13-L1-9,2019-01-22 00:15:00.0,SoPmdAve,3564.81,CHCGILDTO6Y
MA6813400180,h_OCHCTP,13-L1-9,2019-01-22 00:30:00.0,Qmin,8.79,CHCGILDTO6Y
MA6813400180,h_OCHCTP,13-L1-9,2019-01-22 00:30:00.0,PhaseCorrectionAve,-0.122,CHCGILDTO6Y
MA6813400180,h_OCHCTP,13-L1-9,2019-01-22 00:30:00.0,BerPreFecMax,0.00296,CHCGILDTO6Y
MA6813400180,h_OCHCTP,13-L1-9,2019-01-22 00:30:00.0,PmdMin,0.66,CHCGILDTO6Y
MA6813400180,h_OCHCTP,13-L1-9,2019-01-22 00:30:00.0,SoPmdAve,3569.24,CHCGILDTO6Y
MA6813400180,h_OCHCTP,13-L1-9,2019-01-22 00:45:00.0,Qmin,8.77,CHCGILDTO6Y
MA6813400180,h_OCHCTP,13-L1-9,2019-01-22 00:45:00.0,PhaseCorrectionAve,-0.244,CHCGILDTO6Y
MA6813400180,h_OCHCTP,13-L1-9,2019-01-22 00:45:00.0,BerPreFecMax,0.00302,CHCGILDTO6Y
MA6813400180,h_OCHCTP,13-L1-9,2019-01-22 00:45:00.0,PmdMin,0.574,CHCGILDTO6Y
MA6813400180,h_OCHCTP,13-L1-9,2019-01-22 00:45:00.0,SoPmdAve,3574.08,CHCGILDTO6Y
MA6813400180,h_OCHCTP,13-L1-10,2019-01-22 00:15:00.0,Qmin,8.69,CHCGILDTO6Y
MA6813400180,h_OCHCTP,13-L1-10,2019-01-22 00:15:00.0,PhaseCorrectionAve,-0.305,CHCGILDTO6Y
MA6813400180,h_OCHCTP,13-L1-10,2019-01-22 00:15:00.0,BerPreFecMax,0.00326,CHCGILDTO6Y
MA6813400180,h_OCHCTP,13-L1-10,2019-01-22 00:15:00.0,PmdMin,0.908,CHCGILDTO6Y
MA6813400180,h_OCHCTP,13-L1-10,2019-01-22 00:15:00.0,SoPmdAve,3656.73,CHCGILDTO6Y
MA6813400180,h_OCHCTP,13-L1-10,2019-01-22 00:30:00.0,Qmin,8.76,CHCGILDTO6Y
MA6813400180,h_OCHCTP,13-L1-10,2019-01-22 00:30:00.0,PhaseCorrectionAve,-0.183,CHCGILDTO6Y
MA6813400180,h_OCHCTP,13-L1-10,2019-01-22 00:30:00.0,BerPreFecMax,0.00306,CHCGILDTO6Y
MA6813400180,h_OCHCTP,13-L1-10,2019-01-22 00:30:00.0,PmdMin,1.03,CHCGILDTO6Y
MA6813400180,h_OCHCTP,13-L1-10,2019-01-22 00:30:00.0,SoPmdAve,3751.85,CHCGILDTO6Y
MA6813400180,h_OCHCTP,13-L1-10,2019-01-22 00:45:00.0,Qmin,8.76,CHCGILDTO6Y
MA6813400180,h_OCHCTP,13-L1-10,2019-01-22 00:45:00.0,PhaseCorrectionAve,-0.305,CHCGILDTO6Y
MA6813400180,h_OCHCTP,13-L1-10,2019-01-22 00:45:00.0,BerPreFecMax,0.00305,CHCGILDTO6Y
MA6813400180,h_OCHCTP,13-L1-10,2019-01-22 00:45:00.0,PmdMin,1.0,CHCGILDTO6Y
MA6813400180,h_OCHCTP,13-L1-10,2019-01-22 00:45:00.0,SoPmdAve,3682.91,CHCGILDTO6Y
MA6813400180,h_OCHCTP,11-L1-1,2019-01-22 00:15:00.0,Qmin,9.21,CHCGILDTO6Y
MA6813400180,h_OCHCTP,11-L1-1,2019-01-22 00:15:00.0,PhaseCorrectionAve,1.23e-07,CHCGILDTO6Y
MA6813400180,h_OCHCTP,11-L1-1,2019-01-22 00:15:00.0,BerPreFecMax,0.00194,CHCGILDTO6Y
MA6813400180,h_OCHCTP,11-L1-1,2019-01-22 00:15:00.0,PmdMin,0.884,CHCGILDTO6Y
MA6813400180,h_OCHCTP,11-L1-1,2019-01-22 00:15:00.0,SoPmdAve,3361.8,CHCGILDTO6Y
MA6813400180,h_OCHCTP,11-L1-1,2019-01-22 00:30:00.0,Qmin,9.18,CHCGILDTO6Y
MA6813400180,h_OCHCTP,11-L1-1,2019-01-22 00:30:00.0,PhaseCorrectionAve,1.21e-07,CHCGILDTO6Y
MA6813400180,h_OCHCTP,11-L1-1,2019-01-22 00:30:00.0,BerPreFecMax,0.002,CHCGILDTO6Y
MA6813400180,h_OCHCTP,11-L1-1,2019-01-22 00:30:00.0,PmdMin,0.544,CHCGILDTO6Y
MA6813400180,h_OCHCTP,11-L1-1,2019-01-22 00:30:00.0,SoPmdAve,3414.97,CHCGILDTO6Y
MA6813400180,h_OCHCTP,11-L1-1,2019-01-22 00:45:00.0,Qmin,9.2,CHCGILDTO6Y
MA6813400180,h_OCHCTP,11-L1-1,2019-01-22 00:45:00.0,PhaseCorrectionAve,1.46e-07,CHCGILDTO6Y
MA6813400180,h_OCHCTP,11-L1-1,2019-01-22 00:45:00.0,BerPreFecMax,0.00195,CHCGILDTO6Y
MA6813400180,h_OCHCTP,11-L1-1,2019-01-22 00:45:00.0,PmdMin,0.623,CHCGILDTO6Y
MA6813400180,h_OCHCTP,11-L1-1,2019-01-22 00:45:00.0,SoPmdAve,3334.36,CHCGILDTO6Y
MA6813400180,h_OCHCTP,11-L1-2,2019-01-22 00:15:00.0,Qmin,9.14,CHCGILDTO6Y
MA6813400180,h_OCHCTP,11-L1-2,2019-01-22 00:15:00.0,PhaseCorrectionAve,3.35e-07,CHCGILDTO6Y
MA6813400180,h_OCHCTP,11-L1-2,2019-01-22 00:15:00.0,BerPreFecMax,0.00209,CHCGILDTO6Y
MA6813400180,h_OCHCTP,11-L1-2,2019-01-22 00:15:00.0,PmdMin,0.617,CHCGILDTO6Y
MA6813400180,h_OCHCTP,11-L1-2,2019-01-22 00:15:00.0,SoPmdAve,3089.04,CHCGILDTO6Y
MA6813400180,h_OCHCTP,11-L1-2,2019-01-22 00:30:00.0,Qmin,9.16,CHCGILDTO6Y
MA6813400180,h_OCHCTP,11-L1-2,2019-01-22 00:30:00.0,PhaseCorrectionAve,3.36e-07,CHCGILDTO6Y
MA6813400180,h_OCHCTP,11-L1-2,2019-01-22 00:30:00.0,BerPreFecMax,0.00205,CHCGILDTO6Y
MA6813400180,h_OCHCTP,11-L1-2,2019-01-22 00:30:00.0,PmdMin,1.06,CHCGILDTO6Y
MA6813400180,h_OCHCTP,11-L1-2,2019-01-22 00:30:00.0,SoPmdAve,3151.79,CHCGILDTO6Y
MA6813400180,h_OCHCTP,11-L1-2,2019-01-22 00:45:00.0,Qmin,9.09,CHCGILDTO6Y
MA6813400180,h_OCHCTP,11-L1-2,2019-01-22 00:45:00.0,PhaseCorrectionAve,-0.061,CHCGILDTO6Y
MA6813400180,h_OCHCTP,11-L1-2,2019-01-22 00:45:00.0,BerPreFecMax,0.0022,CHCGILDTO6Y
MA6813400180,h_OCHCTP,11-L1-2,2019-01-22 00:45:00.0,PmdMin,0.696,CHCGILDTO6Y
MA6813400180,h_OCHCTP,11-L1-2,2019-01-22 00:45:00.0,SoPmdAve,3108.3,CHCGILDTO6Y
MA6813400180,h_OCHCTP,11-L1-3,2019-01-22 00:15:00.0,Qmin,9.06,CHCGILDTO6Y
MA6813400180,h_OCHCTP,11-L1-3,2019-01-22 00:15:00.0,PhaseCorrectionAve,-0.061,CHCGILDTO6Y
MA6813400180,h_OCHCTP,11-L1-3,2019-01-22 00:15:00.0,BerPreFecMax,0.00227,CHCGILDTO6Y
MA6813400180,h_OCHCTP,11-L1-3,2019-01-22 00:15:00.0,PmdMin,0.749,CHCGILDTO6Y
MA6813400180,h_OCHCTP,11-L1-3,2019-01-22 00:15:00.0,SoPmdAve,2730.78,CHCGILDTO6Y
MA6813400180,h_OCHCTP,11-L1-3,2019-01-22 00:30:00.0,Qmin,9.03,CHCGILDTO6Y
MA6813400180,h_OCHCTP,11-L1-3,2019-01-22 00:30:00.0,PhaseCorrectionAve,3.34e-07,CHCGILDTO6Y
MA6813400180,h_OCHCTP,11-L1-3,2019-01-22 00:30:00.0,BerPreFecMax,0.00233,CHCGILDTO6Y
MA6813400180,h_OCHCTP,11-L1-3,2019-01-22 00:30:00.0,PmdMin,0.778,CHCGILDTO6Y
MA6813400180,h_OCHCTP,11-L1-3,2019-01-22 00:30:00.0,SoPmdAve,2665.31,CHCGILDTO6Y
MA6813400180,h_OCHCTP,11-L1-3,2019-01-22 00:45:00.0,Qmin,9.03,CHCGILDTO6Y
MA6813400180,h_OCHCTP,11-L1-3,2019-01-22 00:45:00.0,PhaseCorrectionAve,-0.061,CHCGILDTO6Y
MA6813400180,h_OCHCTP,11-L1-3,2019-01-22 00:45:00.0,BerPreFecMax,0.00233,CHCGILDTO6Y
MA6813400180,h_OCHCTP,11-L1-3,2019-01-22 00:45:00.0,PmdMin,1.31,CHCGILDTO6Y
MA6813400180,h_OCHCTP,11-L1-3,2019-01-22 00:45:00.0,SoPmdAve,2677.49,CHCGILDTO6Y
MA6813400180,h_OCHCTP,11-L1-4,2019-01-22 00:15:00.0,Qmin,8.82,CHCGILDTO6Y
MA6813400180,h_OCHCTP,11-L1-4,2019-01-22 00:15:00.0,PhaseCorrectionAve,-0.061,CHCGILDTO6Y
MA6813400180,h_OCHCTP,11-L1-4,2019-01-22 00:15:00.0,BerPreFecMax,0.00288,CHCGILDTO6Y
MA6813400180,h_OCHCTP,11-L1-4,2019-01-22 00:15:00.0,PmdMin,0.671,CHCGILDTO6Y
MA6813400180,h_OCHCTP,11-L1-4,2019-01-22 00:15:00.0,SoPmdAve,2980.77,CHCGILDTO6Y
MA6813400180,h_OCHCTP,11-L1-4,2019-01-22 00:30:00.0,Qmin,8.77,CHCGILDTO6Y
MA6813400180,h_OCHCTP,11-L1-4,2019-01-22 00:30:00.0,PhaseCorrectionAve,4.46e-07,CHCGILDTO6Y
MA6813400180,h_OCHCTP,11-L1-4,2019-01-22 00:30:00.0,BerPreFecMax,0.00304,CHCGILDTO6Y
MA6813400180,h_OCHCTP,11-L1-4,2019-01-22 00:30:00.0,PmdMin,0.63,CHCGILDTO6Y
MA6813400180,h_OCHCTP,11-L1-4,2019-01-22 00:30:00.0,SoPmdAve,2975.67,CHCGILDTO6Y
MA6813400180,h_OCHCTP,11-L1-4,2019-01-22 00:45:00.0,Qmin,8.78,CHCGILDTO6Y
MA6813400180,h_OCHCTP,11-L1-4,2019-01-22 00:45:00.0,PhaseCorrectionAve,-0.061,CHCGILDTO6Y
MA6813400180,h_OCHCTP,11-L1-4,2019-01-22 00:45:00.0,BerPreFecMax,0.00299,CHCGILDTO6Y
MA6813400180,h_OCHCTP,11-L1-4,2019-01-22 00:45:00.0,PmdMin,0.171,CHCGILDTO6Y
MA6813400180,h_OCHCTP,11-L1-4,2019-01-22 00:45:00.0,SoPmdAve,2923.73,CHCGILDTO6Y
MA6813400180,h_OCHCTP,11-L1-5,2019-01-22 00:15:00.0,Qmin,8.8,CHCGILDTO6Y
MA6813400180,h_OCHCTP,11-L1-5,2019-01-22 00:15:00.0,PhaseCorrectionAve,-0.061,CHCGILDTO6Y
MA6813400180,h_OCHCTP,11-L1-5,2019-01-22 00:15:00.0,BerPreFecMax,0.00293,CHCGILDTO6Y
MA6813400180,h_OCHCTP,11-L1-5,2019-01-22 00:15:00.0,PmdMin,0.723,CHCGILDTO6Y
MA6813400180,h_OCHCTP,11-L1-5,2019-01-22 00:15:00.0,SoPmdAve,2507.53,CHCGILDTO6Y
MA6813400180,h_OCHCTP,11-L1-5,2019-01-22 00:30:00.0,Qmin,8.78,CHCGILDTO6Y
MA6813400180,h_OCHCTP,11-L1-5,2019-01-22 00:30:00.0,PhaseCorrectionAve,1.61e-07,CHCGILDTO6Y
MA6813400180,h_OCHCTP,11-L1-5,2019-01-22 00:30:00.0,BerPreFecMax,0.00299,CHCGILDTO6Y
MA6813400180,h_OCHCTP,11-L1-5,2019-01-22 00:30:00.0,PmdMin,0.56,CHCGILDTO6Y
MA6813400180,h_OCHCTP,11-L1-5,2019-01-22 00:30:00.0,SoPmdAve,2515.81,CHCGILDTO6Y
MA6813400180,h_OCHCTP,11-L1-5,2019-01-22 00:45:00.0,Qmin,8.9,CHCGILDTO6Y
MA6813400180,h_OCHCTP,11-L1-5,2019-01-22 00:45:00.0,PhaseCorrectionAve,-0.061,CHCGILDTO6Y
MA6813400180,h_OCHCTP,11-L1-5,2019-01-22 00:45:00.0,BerPreFecMax,0.00267,CHCGILDTO6Y
MA6813400180,h_OCHCTP,11-L1-5,2019-01-22 00:45:00.0,PmdMin,0.925,CHCGILDTO6Y
MA6813400180,h_OCHCTP,11-L1-5,2019-01-22 00:45:00.0,SoPmdAve,2588.12,CHCGILDTO6Y
MA6813400180,h_OCHCTP,11-L1-6,2019-01-22 00:15:00.0,Qmin,8.81,CHCGILDTO6Y
MA6813400180,h_OCHCTP,11-L1-6,2019-01-22 00:15:00.0,PhaseCorrectionAve,-0.061,CHCGILDTO6Y
MA6813400180,h_OCHCTP,11-L1-6,2019-01-22 00:15:00.0,BerPreFecMax,0.00292,CHCGILDTO6Y
MA6813400180,h_OCHCTP,11-L1-6,2019-01-22 00:15:00.0,PmdMin,0.998,CHCGILDTO6Y
MA6813400180,h_OCHCTP,11-L1-6,2019-01-22 00:15:00.0,SoPmdAve,2453.09,CHCGILDTO6Y
MA6813400180,h_OCHCTP,11-L1-6,2019-01-22 00:30:00.0,Qmin,8.75,CHCGILDTO6Y
MA6813400180,h_OCHCTP,11-L1-6,2019-01-22 00:30:00.0,PhaseCorrectionAve,-0.061,CHCGILDTO6Y
MA6813400180,h_OCHCTP,11-L1-6,2019-01-22 00:30:00.0,BerPreFecMax,0.00308,CHCGILDTO6Y
MA6813400180,h_OCHCTP,11-L1-6,2019-01-22 00:30:00.0,PmdMin,0.544,CHCGILDTO6Y
MA6813400180,h_OCHCTP,11-L1-6,2019-01-22 00:30:00.0,SoPmdAve,2446.3,CHCGILDTO6Y
MA6813400180,h_OCHCTP,11-L1-6,2019-01-22 00:45:00.0,Qmin,8.76,CHCGILDTO6Y
MA6813400180,h_OCHCTP,11-L1-6,2019-01-22 00:45:00.0,PhaseCorrectionAve,-0.061,CHCGILDTO6Y
MA6813400180,h_OCHCTP,11-L1-6,2019-01-22 00:45:00.0,BerPreFecMax,0.00307,CHCGILDTO6Y
MA6813400180,h_OCHCTP,11-L1-6,2019-01-22 00:45:00.0,PmdMin,1.21,CHCGILDTO6Y
MA6813400180,h_OCHCTP,11-L1-6,2019-01-22 00:45:00.0,SoPmdAve,2487.52,CHCGILDTO6Y
MA6813400180,h_OCHCTP,11-L1-7,2019-01-22 00:15:00.0,Qmin,8.89,CHCGILDTO6Y
MA6813400180,h_OCHCTP,11-L1-7,2019-01-22 00:15:00.0,PhaseCorrectionAve,-0.061,CHCGILDTO6Y
MA6813400180,h_OCHCTP,11-L1-7,2019-01-22 00:15:00.0,BerPreFecMax,0.00269,CHCGILDTO6Y
MA6813400180,h_OCHCTP,11-L1-7,2019-01-22 00:15:00.0,PmdMin,1.35,CHCGILDTO6Y
MA6813400180,h_OCHCTP,11-L1-7,2019-01-22 00:15:00.0,SoPmdAve,2922.58,CHCGILDTO6Y
MA6813400180,h_OCHCTP,11-L1-7,2019-01-22 00:30:00.0,Qmin,8.91,CHCGILDTO6Y
MA6813400180,h_OCHCTP,11-L1-7,2019-01-22 00:30:00.0,PhaseCorrectionAve,-0.061,CHCGILDTO6Y
MA6813400180,h_OCHCTP,11-L1-7,2019-01-22 00:30:00.0,BerPreFecMax,0.00264,CHCGILDTO6Y
MA6813400180,h_OCHCTP,11-L1-7,2019-01-22 00:30:00.0,PmdMin,0.674,CHCGILDTO6Y
MA6813400180,h_OCHCTP,11-L1-7,2019-01-22 00:30:00.0,SoPmdAve,3086.34,CHCGILDTO6Y
MA6813400180,h_OCHCTP,11-L1-7,2019-01-22 00:45:00.0,Qmin,8.89,CHCGILDTO6Y
MA6813400180,h_OCHCTP,11-L1-7,2019-01-22 00:45:00.0,PhaseCorrectionAve,-0.061,CHCGILDTO6Y
MA6813400180,h_OCHCTP,11-L1-7,2019-01-22 00:45:00.0,BerPreFecMax,0.0027,CHCGILDTO6Y
MA6813400180,h_OCHCTP,11-L1-7,2019-01-22 00:45:00.0,PmdMin,1.05,CHCGILDTO6Y
MA6813400180,h_OCHCTP,11-L1-7,2019-01-22 00:45:00.0,SoPmdAve,3028.27,CHCGILDTO6Y
MA6813400180,h_OCHCTP,11-L1-8,2019-01-22 00:15:00.0,Qmin,8.94,CHCGILDTO6Y
MA6813400180,h_OCHCTP,11-L1-8,2019-01-22 00:15:00.0,PhaseCorrectionAve,-0.061,CHCGILDTO6Y
MA6813400180,h_OCHCTP,11-L1-8,2019-01-22 00:15:00.0,BerPreFecMax,0.00257,CHCGILDTO6Y
MA6813400180,h_OCHCTP,11-L1-8,2019-01-22 00:15:00.0,PmdMin,0.453,CHCGILDTO6Y
MA6813400180,h_OCHCTP,11-L1-8,2019-01-22 00:15:00.0,SoPmdAve,3184.53,CHCGILDTO6Y
MA6813400180,h_OCHCTP,11-L1-8,2019-01-22 00:30:00.0,Qmin,8.98,CHCGILDTO6Y
MA6813400180,h_OCHCTP,11-L1-8,2019-01-22 00:30:00.0,PhaseCorrectionAve,-0.061,CHCGILDTO6Y
MA6813400180,h_OCHCTP,11-L1-8,2019-01-22 00:30:00.0,BerPreFecMax,0.00245,CHCGILDTO6Y
MA6813400180,h_OCHCTP,11-L1-8,2019-01-22 00:30:00.0,PmdMin,0.657,CHCGILDTO6Y
MA6813400180,h_OCHCTP,11-L1-8,2019-01-22 00:30:00.0,SoPmdAve,3039.82,CHCGILDTO6Y
MA6813400180,h_OCHCTP,11-L1-8,2019-01-22 00:45:00.0,Qmin,8.95,CHCGILDTO6Y
MA6813400180,h_OCHCTP,11-L1-8,2019-01-22 00:45:00.0,PhaseCorrectionAve,-0.122,CHCGILDTO6Y
MA6813400180,h_OCHCTP,11-L1-8,2019-01-22 00:45:00.0,BerPreFecMax,0.00254,CHCGILDTO6Y
MA6813400180,h_OCHCTP,11-L1-8,2019-01-22 00:45:00.0,PmdMin,0.897,CHCGILDTO6Y
MA6813400180,h_OCHCTP,11-L1-8,2019-01-22 00:45:00.0,SoPmdAve,3118.02,CHCGILDTO6Y
MA6813400180,h_OCHCTP,11-L1-9,2019-01-22 00:15:00.0,Qmin,8.88,CHCGILDTO6Y
MA6813400180,h_OCHCTP,11-L1-9,2019-01-22 00:15:00.0,PhaseCorrectionAve,-0.061,CHCGILDTO6Y
MA6813400180,h_OCHCTP,11-L1-9,2019-01-22 00:15:00.0,BerPreFecMax,0.00273,CHCGILDTO6Y
MA6813400180,h_OCHCTP,11-L1-9,2019-01-22 00:15:00.0,PmdMin,1.22,CHCGILDTO6Y
MA6813400180,h_OCHCTP,11-L1-9,2019-01-22 00:15:00.0,SoPmdAve,3089.09,CHCGILDTO6Y
MA6813400180,h_OCHCTP,11-L1-9,2019-01-22 00:30:00.0,Qmin,8.86,CHCGILDTO6Y
MA6813400180,h_OCHCTP,11-L1-9,2019-01-22 00:30:00.0,PhaseCorrectionAve,-0.061,CHCGILDTO6Y
MA6813400180,h_OCHCTP,11-L1-9,2019-01-22 00:30:00.0,BerPreFecMax,0.00277,CHCGILDTO6Y
MA6813400180,h_OCHCTP,11-L1-9,2019-01-22 00:30:00.0,PmdMin,1.35,CHCGILDTO6Y
MA6813400180,h_OCHCTP,11-L1-9,2019-01-22 00:30:00.0,SoPmdAve,3057.43,CHCGILDTO6Y
MA6813400180,h_OCHCTP,11-L1-9,2019-01-22 00:45:00.0,Qmin,8.81,CHCGILDTO6Y
MA6813400180,h_OCHCTP,11-L1-9,2019-01-22 00:45:00.0,PhaseCorrectionAve,-0.183,CHCGILDTO6Y
MA6813400180,h_OCHCTP,11-L1-9,2019-01-22 00:45:00.0,BerPreFecMax,0.00291,CHCGILDTO6Y
MA6813400180,h_OCHCTP,11-L1-9,2019-01-22 00:45:00.0,PmdMin,0.536,CHCGILDTO6Y
MA6813400180,h_OCHCTP,11-L1-9,2019-01-22 00:45:00.0,SoPmdAve,3079.23,CHCGILDTO6Y
MA6813400180,h_OCHCTP,11-L1-10,2019-01-22 00:15:00.0,Qmin,8.95,CHCGILDTO6Y
MA6813400180,h_OCHCTP,11-L1-10,2019-01-22 00:15:00.0,PhaseCorrectionAve,-0.061,CHCGILDTO6Y
MA6813400180,h_OCHCTP,11-L1-10,2019-01-22 00:15:00.0,BerPreFecMax,0.00255,CHCGILDTO6Y
MA6813400180,h_OCHCTP,11-L1-10,2019-01-22 00:15:00.0,PmdMin,1.44,CHCGILDTO6Y
MA6813400180,h_OCHCTP,11-L1-10,2019-01-22 00:15:00.0,SoPmdAve,3049.19,CHCGILDTO6Y
MA6813400180,h_OCHCTP,11-L1-10,2019-01-22 00:30:00.0,Qmin,9.02,CHCGILDTO6Y
MA6813400180,h_OCHCTP,11-L1-10,2019-01-22 00:30:00.0,PhaseCorrectionAve,-0.061,CHCGILDTO6Y
MA6813400180,h_OCHCTP,11-L1-10,2019-01-22 00:30:00.0,BerPreFecMax,0.00236,CHCGILDTO6Y
MA6813400180,h_OCHCTP,11-L1-10,2019-01-22 00:30:00.0,PmdMin,2.08,CHCGILDTO6Y
MA6813400180,h_OCHCTP,11-L1-10,2019-01-22 00:30:00.0,SoPmdAve,3051.6,CHCGILDTO6Y
MA6813400180,h_OCHCTP,11-L1-10,2019-01-22 00:45:00.0,Qmin,9.02,CHCGILDTO6Y
MA6813400180,h_OCHCTP,11-L1-10,2019-01-22 00:45:00.0,PhaseCorrectionAve,-0.244,CHCGILDTO6Y
MA6813400180,h_OCHCTP,11-L1-10,2019-01-22 00:45:00.0,BerPreFecMax,0.00236,CHCGILDTO6Y
MA6813400180,h_OCHCTP,11-L1-10,2019-01-22 00:45:00.0,PmdMin,0.682,CHCGILDTO6Y
MA6813400180,h_OCHCTP,11-L1-10,2019-01-22 00:45:00.0,SoPmdAve,3019.76,CHCGILDTO6Y
