MA6813400180,h_OCHCTP,11-L1-1,2019-01-22 05:15:00.0,Qmin,9.12,CHCGILDTO6Y
MA6813400180,h_OCHCTP,11-L1-1,2019-01-22 05:15:00.0,PhaseCorrectionAve,1.34e-07,CHCGILDTO6Y
MA6813400180,h_OCHCTP,11-L1-1,2019-01-22 05:15:00.0,BerPreFecMax,0.00214,CHCGILDTO6Y
MA6813400180,h_OCHCTP,11-L1-1,2019-01-22 05:15:00.0,PmdMin,0.358,CHCGILDTO6Y
MA6813400180,h_OCHCTP,11-L1-1,2019-01-22 05:15:00.0,SoPmdAve,3247.77,CHCGILDTO6Y
MA6813400180,h_OCHCTP,11-L1-1,2019-01-22 05:30:00.0,Qmin,9.08,CHCGILDTO6Y
MA6813400180,h_OCHCTP,11-L1-1,2019-01-22 05:30:00.0,PhaseCorrectionAve,1.47e-07,CHCGILDTO6Y
MA6813400180,h_OCHCTP,11-L1-1,2019-01-22 05:30:00.0,BerPreFecMax,0.00222,CHCGILDTO6Y
MA6813400180,h_OCHCTP,11-L1-1,2019-01-22 05:30:00.0,PmdMin,0.322,CHCGILDTO6Y
MA6813400180,h_OCHCTP,11-L1-1,2019-01-22 05:30:00.0,SoPmdAve,3371.81,CHCGILDTO6Y
MA6813400180,h_OCHCTP,11-L1-1,2019-01-22 05:45:00.0,Qmin,9.1,CHCGILDTO6Y
MA6813400180,h_OCHCTP,11-L1-1,2019-01-22 05:45:00.0,PhaseCorrectionAve,1.21e-07,CHCGILDTO6Y
MA6813400180,h_OCHCTP,11-L1-1,2019-01-22 05:45:00.0,BerPreFecMax,0.00217,CHCGILDTO6Y
MA6813400180,h_OCHCTP,11-L1-1,2019-01-22 05:45:00.0,PmdMin,1.1,CHCGILDTO6Y
MA6813400180,h_OCHCTP,11-L1-1,2019-01-22 05:45:00.0,SoPmdAve,3301.71,CHCGILDTO6Y
MA6813400180,h_OCHCTP,11-L1-2,2019-01-22 05:15:00.0,Qmin,9.09,CHCGILDTO6Y
MA6813400180,h_OCHCTP,11-L1-2,2019-01-22 05:15:00.0,PhaseCorrectionAve,3.07e-07,CHCGILDTO6Y
MA6813400180,h_OCHCTP,11-L1-2,2019-01-22 05:15:00.0,BerPreFecMax,0.00221,CHCGILDTO6Y
MA6813400180,h_OCHCTP,11-L1-2,2019-01-22 05:15:00.0,PmdMin,0.899,CHCGILDTO6Y
MA6813400180,h_OCHCTP,11-L1-2,2019-01-22 05:15:00.0,SoPmdAve,3099.56,CHCGILDTO6Y
MA6813400180,h_OCHCTP,11-L1-2,2019-01-22 05:30:00.0,Qmin,9.16,CHCGILDTO6Y
MA6813400180,h_OCHCTP,11-L1-2,2019-01-22 05:30:00.0,PhaseCorrectionAve,-0.061,CHCGILDTO6Y
MA6813400180,h_OCHCTP,11-L1-2,2019-01-22 05:30:00.0,BerPreFecMax,0.00204,CHCGILDTO6Y
MA6813400180,h_OCHCTP,11-L1-2,2019-01-22 05:30:00.0,PmdMin,0.518,CHCGILDTO6Y
MA6813400180,h_OCHCTP,11-L1-2,2019-01-22 05:30:00.0,SoPmdAve,3157.73,CHCGILDTO6Y
MA6813400180,h_OCHCTP,11-L1-2,2019-01-22 05:45:00.0,Qmin,9.12,CHCGILDTO6Y
MA6813400180,h_OCHCTP,11-L1-2,2019-01-22 05:45:00.0,PhaseCorrectionAve,-0.061,CHCGILDTO6Y
MA6813400180,h_OCHCTP,11-L1-2,2019-01-22 05:45:00.0,BerPreFecMax,0.00214,CHCGILDTO6Y
MA6813400180,h_OCHCTP,11-L1-2,2019-01-22 05:45:00.0,PmdMin,1.33,CHCGILDTO6Y
MA6813400180,h_OCHCTP,11-L1-2,2019-01-22 05:45:00.0,SoPmdAve,3135.14,CHCGILDTO6Y
MA6813400180,h_OCHCTP,11-L1-3,2019-01-22 05:15:00.0,Qmin,8.99,CHCGILDTO6Y
MA6813400180,h_OCHCTP,11-L1-3,2019-01-22 05:15:00.0,PhaseCorrectionAve,-0.061,CHCGILDTO6Y
MA6813400180,h_OCHCTP,11-L1-3,2019-01-22 05:15:00.0,BerPreFecMax,0.00243,CHCGILDTO6Y
MA6813400180,h_OCHCTP,11-L1-3,2019-01-22 05:15:00.0,PmdMin,1.14,CHCGILDTO6Y
MA6813400180,h_OCHCTP,11-L1-3,2019-01-22 05:15:00.0,SoPmdAve,2683.1,CHCGILDTO6Y
MA6813400180,h_OCHCTP,11-L1-3,2019-01-22 05:30:00.0,Qmin,9.01,CHCGILDTO6Y
MA6813400180,h_OCHCTP,11-L1-3,2019-01-22 05:30:00.0,PhaseCorrectionAve,-0.061,CHCGILDTO6Y
MA6813400180,h_OCHCTP,11-L1-3,2019-01-22 05:30:00.0,BerPreFecMax,0.00239,CHCGILDTO6Y
MA6813400180,h_OCHCTP,11-L1-3,2019-01-22 05:30:00.0,PmdMin,0.875,CHCGILDTO6Y
MA6813400180,h_OCHCTP,11-L1-3,2019-01-22 05:30:00.0,SoPmdAve,2664.57,CHCGILDTO6Y
MA6813400180,h_OCHCTP,11-L1-3,2019-01-22 05:45:00.0,Qmin,8.99,CHCGILDTO6Y
MA6813400180,h_OCHCTP,11-L1-3,2019-01-22 05:45:00.0,PhaseCorrectionAve,-0.061,CHCGILDTO6Y
MA6813400180,h_OCHCTP,11-L1-3,2019-01-22 05:45:00.0,BerPreFecMax,0.00244,CHCGILDTO6Y
MA6813400180,h_OCHCTP,11-L1-3,2019-01-22 05:45:00.0,PmdMin,0.87,CHCGILDTO6Y
MA6813400180,h_OCHCTP,11-L1-3,2019-01-22 05:45:00.0,SoPmdAve,2784.34,CHCGILDTO6Y
MA6813400180,h_OCHCTP,11-L1-4,2019-01-22 05:15:00.0,Qmin,8.77,CHCGILDTO6Y
MA6813400180,h_OCHCTP,11-L1-4,2019-01-22 05:15:00.0,PhaseCorrectionAve,-0.122,CHCGILDTO6Y
MA6813400180,h_OCHCTP,11-L1-4,2019-01-22 05:15:00.0,BerPreFecMax,0.00302,CHCGILDTO6Y
MA6813400180,h_OCHCTP,11-L1-4,2019-01-22 05:15:00.0,PmdMin,1.49,CHCGILDTO6Y
MA6813400180,h_OCHCTP,11-L1-4,2019-01-22 05:15:00.0,SoPmdAve,2922.74,CHCGILDTO6Y
MA6813400180,h_OCHCTP,11-L1-4,2019-01-22 05:30:00.0,Qmin,8.81,CHCGILDTO6Y
MA6813400180,h_OCHCTP,11-L1-4,2019-01-22 05:30:00.0,PhaseCorrectionAve,-0.122,CHCGILDTO6Y
MA6813400180,h_OCHCTP,11-L1-4,2019-01-22 05:30:00.0,BerPreFecMax,0.00291,CHCGILDTO6Y
MA6813400180,h_OCHCTP,11-L1-4,2019-01-22 05:30:00.0,PmdMin,0.821,CHCGILDTO6Y
MA6813400180,h_OCHCTP,11-L1-4,2019-01-22 05:30:00.0,SoPmdAve,2950.64,CHCGILDTO6Y
MA6813400180,h_OCHCTP,11-L1-4,2019-01-22 05:45:00.0,Qmin,8.83,CHCGILDTO6Y
MA6813400180,h_OCHCTP,11-L1-4,2019-01-22 05:45:00.0,PhaseCorrectionAve,-0.122,CHCGILDTO6Y
MA6813400180,h_OCHCTP,11-L1-4,2019-01-22 05:45:00.0,BerPreFecMax,0.00286,CHCGILDTO6Y
MA6813400180,h_OCHCTP,11-L1-4,2019-01-22 05:45:00.0,PmdMin,0.384,CHCGILDTO6Y
MA6813400180,h_OCHCTP,11-L1-4,2019-01-22 05:45:00.0,SoPmdAve,2903.47,CHCGILDTO6Y
MA6813400180,h_OCHCTP,11-L1-5,2019-01-22 05:15:00.0,Qmin,8.93,CHCGILDTO6Y
MA6813400180,h_OCHCTP,11-L1-5,2019-01-22 05:15:00.0,PhaseCorrectionAve,-0.122,CHCGILDTO6Y
MA6813400180,h_OCHCTP,11-L1-5,2019-01-22 05:15:00.0,BerPreFecMax,0.00258,CHCGILDTO6Y
MA6813400180,h_OCHCTP,11-L1-5,2019-01-22 05:15:00.0,PmdMin,0.863,CHCGILDTO6Y
MA6813400180,h_OCHCTP,11-L1-5,2019-01-22 05:15:00.0,SoPmdAve,2529.84,CHCGILDTO6Y
MA6813400180,h_OCHCTP,11-L1-5,2019-01-22 05:30:00.0,Qmin,8.92,CHCGILDTO6Y
MA6813400180,h_OCHCTP,11-L1-5,2019-01-22 05:30:00.0,PhaseCorrectionAve,-0.122,CHCGILDTO6Y
MA6813400180,h_OCHCTP,11-L1-5,2019-01-22 05:30:00.0,BerPreFecMax,0.00262,CHCGILDTO6Y
MA6813400180,h_OCHCTP,11-L1-5,2019-01-22 05:30:00.0,PmdMin,1.24,CHCGILDTO6Y
MA6813400180,h_OCHCTP,11-L1-5,2019-01-22 05:30:00.0,SoPmdAve,2498.12,CHCGILDTO6Y
MA6813400180,h_OCHCTP,11-L1-5,2019-01-22 05:45:00.0,Qmin,8.89,CHCGILDTO6Y
MA6813400180,h_OCHCTP,11-L1-5,2019-01-22 05:45:00.0,PhaseCorrectionAve,-0.122,CHCGILDTO6Y
MA6813400180,h_OCHCTP,11-L1-5,2019-01-22 05:45:00.0,BerPreFecMax,0.00269,CHCGILDTO6Y
MA6813400180,h_OCHCTP,11-L1-5,2019-01-22 05:45:00.0,PmdMin,1.25,CHCGILDTO6Y
MA6813400180,h_OCHCTP,11-L1-5,2019-01-22 05:45:00.0,SoPmdAve,2539.24,CHCGILDTO6Y
MA6813400180,h_OCHCTP,11-L1-6,2019-01-22 05:15:00.0,Qmin,8.82,CHCGILDTO6Y
MA6813400180,h_OCHCTP,11-L1-6,2019-01-22 05:15:00.0,PhaseCorrectionAve,-0.183,CHCGILDTO6Y
MA6813400180,h_OCHCTP,11-L1-6,2019-01-22 05:15:00.0,BerPreFecMax,0.00287,CHCGILDTO6Y
MA6813400180,h_OCHCTP,11-L1-6,2019-01-22 05:15:00.0,PmdMin,0.766,CHCGILDTO6Y
MA6813400180,h_OCHCTP,11-L1-6,2019-01-22 05:15:00.0,SoPmdAve,2516.16,CHCGILDTO6Y
MA6813400180,h_OCHCTP,11-L1-6,2019-01-22 05:30:00.0,Qmin,8.84,CHCGILDTO6Y
MA6813400180,h_OCHCTP,11-L1-6,2019-01-22 05:30:00.0,PhaseCorrectionAve,-0.122,CHCGILDTO6Y
MA6813400180,h_OCHCTP,11-L1-6,2019-01-22 05:30:00.0,BerPreFecMax,0.00283,CHCGILDTO6Y
MA6813400180,h_OCHCTP,11-L1-6,2019-01-22 05:30:00.0,PmdMin,1.23,CHCGILDTO6Y
MA6813400180,h_OCHCTP,11-L1-6,2019-01-22 05:30:00.0,SoPmdAve,2455.19,CHCGILDTO6Y
MA6813400180,h_OCHCTP,11-L1-6,2019-01-22 05:45:00.0,Qmin,8.87,CHCGILDTO6Y
MA6813400180,h_OCHCTP,11-L1-6,2019-01-22 05:45:00.0,PhaseCorrectionAve,-0.183,CHCGILDTO6Y
MA6813400180,h_OCHCTP,11-L1-6,2019-01-22 05:45:00.0,BerPreFecMax,0.00275,CHCGILDTO6Y
MA6813400180,h_OCHCTP,11-L1-6,2019-01-22 05:45:00.0,PmdMin,0.829,CHCGILDTO6Y
MA6813400180,h_OCHCTP,11-L1-6,2019-01-22 05:45:00.0,SoPmdAve,2493.08,CHCGILDTO6Y
MA6813400180,h_OCHCTP,11-L1-7,2019-01-22 05:15:00.0,Qmin,8.91,CHCGILDTO6Y
MA6813400180,h_OCHCTP,11-L1-7,2019-01-22 05:15:00.0,PhaseCorrectionAve,-0.244,CHCGILDTO6Y
MA6813400180,h_OCHCTP,11-L1-7,2019-01-22 05:15:00.0,BerPreFecMax,0.00263,CHCGILDTO6Y
MA6813400180,h_OCHCTP,11-L1-7,2019-01-22 05:15:00.0,PmdMin,1.13,CHCGILDTO6Y
MA6813400180,h_OCHCTP,11-L1-7,2019-01-22 05:15:00.0,SoPmdAve,3040.54,CHCGILDTO6Y
MA6813400180,h_OCHCTP,11-L1-7,2019-01-22 05:30:00.0,Qmin,8.89,CHCGILDTO6Y
MA6813400180,h_OCHCTP,11-L1-7,2019-01-22 05:30:00.0,PhaseCorrectionAve,-0.122,CHCGILDTO6Y
MA6813400180,h_OCHCTP,11-L1-7,2019-01-22 05:30:00.0,BerPreFecMax,0.00269,CHCGILDTO6Y
MA6813400180,h_OCHCTP,11-L1-7,2019-01-22 05:30:00.0,PmdMin,1.36,CHCGILDTO6Y
MA6813400180,h_OCHCTP,11-L1-7,2019-01-22 05:30:00.0,SoPmdAve,2973.21,CHCGILDTO6Y
MA6813400180,h_OCHCTP,11-L1-7,2019-01-22 05:45:00.0,Qmin,8.93,CHCGILDTO6Y
MA6813400180,h_OCHCTP,11-L1-7,2019-01-22 05:45:00.0,PhaseCorrectionAve,-0.183,CHCGILDTO6Y
MA6813400180,h_OCHCTP,11-L1-7,2019-01-22 05:45:00.0,BerPreFecMax,0.0026,CHCGILDTO6Y
MA6813400180,h_OCHCTP,11-L1-7,2019-01-22 05:45:00.0,PmdMin,0.838,CHCGILDTO6Y
MA6813400180,h_OCHCTP,11-L1-7,2019-01-22 05:45:00.0,SoPmdAve,3036.13,CHCGILDTO6Y
MA6813400180,h_OCHCTP,11-L1-8,2019-01-22 05:15:00.0,Qmin,8.95,CHCGILDTO6Y
MA6813400180,h_OCHCTP,11-L1-8,2019-01-22 05:15:00.0,PhaseCorrectionAve,-0.244,CHCGILDTO6Y
MA6813400180,h_OCHCTP,11-L1-8,2019-01-22 05:15:00.0,BerPreFecMax,0.00253,CHCGILDTO6Y
MA6813400180,h_OCHCTP,11-L1-8,2019-01-22 05:15:00.0,PmdMin,0.865,CHCGILDTO6Y
MA6813400180,h_OCHCTP,11-L1-8,2019-01-22 05:15:00.0,SoPmdAve,3167.82,CHCGILDTO6Y
MA6813400180,h_OCHCTP,11-L1-8,2019-01-22 05:30:00.0,Qmin,8.99,CHCGILDTO6Y
MA6813400180,h_OCHCTP,11-L1-8,2019-01-22 05:30:00.0,PhaseCorrectionAve,-0.122,CHCGILDTO6Y
MA6813400180,h_OCHCTP,11-L1-8,2019-01-22 05:30:00.0,BerPreFecMax,0.00244,CHCGILDTO6Y
MA6813400180,h_OCHCTP,11-L1-8,2019-01-22 05:30:00.0,PmdMin,0.791,CHCGILDTO6Y
MA6813400180,h_OCHCTP,11-L1-8,2019-01-22 05:30:00.0,SoPmdAve,3035.67,CHCGILDTO6Y
MA6813400180,h_OCHCTP,11-L1-8,2019-01-22 05:45:00.0,Qmin,9.01,CHCGILDTO6Y
MA6813400180,h_OCHCTP,11-L1-8,2019-01-22 05:45:00.0,PhaseCorrectionAve,-0.183,CHCGILDTO6Y
MA6813400180,h_OCHCTP,11-L1-8,2019-01-22 05:45:00.0,BerPreFecMax,0.00239,CHCGILDTO6Y
MA6813400180,h_OCHCTP,11-L1-8,2019-01-22 05:45:00.0,PmdMin,0.625,CHCGILDTO6Y
MA6813400180,h_OCHCTP,11-L1-8,2019-01-22 05:45:00.0,SoPmdAve,3093.13,CHCGILDTO6Y
MA6813400180,h_OCHCTP,11-L1-9,2019-01-22 05:15:00.0,Qmin,8.92,CHCGILDTO6Y
MA6813400180,h_OCHCTP,11-L1-9,2019-01-22 05:15:00.0,PhaseCorrectionAve,-0.244,CHCGILDTO6Y
MA6813400180,h_OCHCTP,11-L1-9,2019-01-22 05:15:00.0,BerPreFecMax,0.00262,CHCGILDTO6Y
MA6813400180,h_OCHCTP,11-L1-9,2019-01-22 05:15:00.0,PmdMin,0.68,CHCGILDTO6Y
MA6813400180,h_OCHCTP,11-L1-9,2019-01-22 05:15:00.0,SoPmdAve,3079.91,CHCGILDTO6Y
MA6813400180,h_OCHCTP,11-L1-9,2019-01-22 05:30:00.0,Qmin,8.91,CHCGILDTO6Y
MA6813400180,h_OCHCTP,11-L1-9,2019-01-22 05:30:00.0,PhaseCorrectionAve,-0.183,CHCGILDTO6Y
MA6813400180,h_OCHCTP,11-L1-9,2019-01-22 05:30:00.0,BerPreFecMax,0.00263,CHCGILDTO6Y
MA6813400180,h_OCHCTP,11-L1-9,2019-01-22 05:30:00.0,PmdMin,0.602,CHCGILDTO6Y
MA6813400180,h_OCHCTP,11-L1-9,2019-01-22 05:30:00.0,SoPmdAve,3074.77,CHCGILDTO6Y
MA6813400180,h_OCHCTP,11-L1-9,2019-01-22 05:45:00.0,Qmin,8.91,CHCGILDTO6Y
MA6813400180,h_OCHCTP,11-L1-9,2019-01-22 05:45:00.0,PhaseCorrectionAve,-0.244,CHCGILDTO6Y
MA6813400180,h_OCHCTP,11-L1-9,2019-01-22 05:45:00.0,BerPreFecMax,0.00265,CHCGILDTO6Y
MA6813400180,h_OCHCTP,11-L1-9,2019-01-22 05:45:00.0,PmdMin,0.564,CHCGILDTO6Y
MA6813400180,h_OCHCTP,11-L1-9,2019-01-22 05:45:00.0,SoPmdAve,3121.05,CHCGILDTO6Y
MA6813400180,h_OCHCTP,11-L1-10,2019-01-22 05:15:00.0,Qmin,9.03,CHCGILDTO6Y
MA6813400180,h_OCHCTP,11-L1-10,2019-01-22 05:15:00.0,PhaseCorrectionAve,-0.305,CHCGILDTO6Y
MA6813400180,h_OCHCTP,11-L1-10,2019-01-22 05:15:00.0,BerPreFecMax,0.00234,CHCGILDTO6Y
MA6813400180,h_OCHCTP,11-L1-10,2019-01-22 05:15:00.0,PmdMin,1.83,CHCGILDTO6Y
MA6813400180,h_OCHCTP,11-L1-10,2019-01-22 05:15:00.0,SoPmdAve,3133.46,CHCGILDTO6Y
MA6813400180,h_OCHCTP,11-L1-10,2019-01-22 05:30:00.0,Qmin,9.02,CHCGILDTO6Y
MA6813400180,h_OCHCTP,11-L1-10,2019-01-22 05:30:00.0,PhaseCorrectionAve,-0.244,CHCGILDTO6Y
MA6813400180,h_OCHCTP,11-L1-10,2019-01-22 05:30:00.0,BerPreFecMax,0.00236,CHCGILDTO6Y
MA6813400180,h_OCHCTP,11-L1-10,2019-01-22 05:30:00.0,PmdMin,0.697,CHCGILDTO6Y
MA6813400180,h_OCHCTP,11-L1-10,2019-01-22 05:30:00.0,SoPmdAve,3116.47,CHCGILDTO6Y
MA6813400180,h_OCHCTP,11-L1-10,2019-01-22 05:45:00.0,Qmin,9.06,CHCGILDTO6Y
MA6813400180,h_OCHCTP,11-L1-10,2019-01-22 05:45:00.0,PhaseCorrectionAve,-0.244,CHCGILDTO6Y
MA6813400180,h_OCHCTP,11-L1-10,2019-01-22 05:45:00.0,BerPreFecMax,0.00226,CHCGILDTO6Y
MA6813400180,h_OCHCTP,11-L1-10,2019-01-22 05:45:00.0,PmdMin,0.368,CHCGILDTO6Y
MA6813400180,h_OCHCTP,11-L1-10,2019-01-22 05:45:00.0,SoPmdAve,3039.7,CHCGILDTO6Y
MA6813400180,h_OCHCTP,10-L1-1,2019-01-22 05:15:00.0,Qmin,9.51,CHCGILDTO6Y
MA6813400180,h_OCHCTP,10-L1-1,2019-01-22 05:15:00.0,PhaseCorrectionAve,5.32e-07,CHCGILDTO6Y
MA6813400180,h_OCHCTP,10-L1-1,2019-01-22 05:15:00.0,BerPreFecMax,0.00141,CHCGILDTO6Y
MA6813400180,h_OCHCTP,10-L1-1,2019-01-22 05:15:00.0,PmdMin,5.84,CHCGILDTO6Y
MA6813400180,h_OCHCTP,10-L1-1,2019-01-22 05:15:00.0,SoPmdAve,3368.61,CHCGILDTO6Y
MA6813400180,h_OCHCTP,10-L1-1,2019-01-22 05:30:00.0,Qmin,9.49,CHCGILDTO6Y
MA6813400180,h_OCHCTP,10-L1-1,2019-01-22 05:30:00.0,PhaseCorrectionAve,5.29e-07,CHCGILDTO6Y
MA6813400180,h_OCHCTP,10-L1-1,2019-01-22 05:30:00.0,BerPreFecMax,0.00143,CHCGILDTO6Y
MA6813400180,h_OCHCTP,10-L1-1,2019-01-22 05:30:00.0,PmdMin,4.29,CHCGILDTO6Y
MA6813400180,h_OCHCTP,10-L1-1,2019-01-22 05:30:00.0,SoPmdAve,3453.28,CHCGILDTO6Y
MA6813400180,h_OCHCTP,10-L1-1,2019-01-22 05:45:00.0,Qmin,9.51,CHCGILDTO6Y
MA6813400180,h_OCHCTP,10-L1-1,2019-01-22 05:45:00.0,PhaseCorrectionAve,5.24e-07,CHCGILDTO6Y
MA6813400180,h_OCHCTP,10-L1-1,2019-01-22 05:45:00.0,BerPreFecMax,0.0014,CHCGILDTO6Y
MA6813400180,h_OCHCTP,10-L1-1,2019-01-22 05:45:00.0,PmdMin,3.97,CHCGILDTO6Y
MA6813400180,h_OCHCTP,10-L1-1,2019-01-22 05:45:00.0,SoPmdAve,3404.02,CHCGILDTO6Y
MA6813400180,h_OCHCTP,10-L1-2,2019-01-22 05:15:00.0,Qmin,9.22,CHCGILDTO6Y
MA6813400180,h_OCHCTP,10-L1-2,2019-01-22 05:15:00.0,PhaseCorrectionAve,-0.122,CHCGILDTO6Y
MA6813400180,h_OCHCTP,10-L1-2,2019-01-22 05:15:00.0,BerPreFecMax,0.00192,CHCGILDTO6Y
MA6813400180,h_OCHCTP,10-L1-2,2019-01-22 05:15:00.0,PmdMin,1.27,CHCGILDTO6Y
MA6813400180,h_OCHCTP,10-L1-2,2019-01-22 05:15:00.0,SoPmdAve,3245.01,CHCGILDTO6Y
MA6813400180,h_OCHCTP,10-L1-2,2019-01-22 05:30:00.0,Qmin,9.21,CHCGILDTO6Y
MA6813400180,h_OCHCTP,10-L1-2,2019-01-22 05:30:00.0,PhaseCorrectionAve,3.56e-07,CHCGILDTO6Y
MA6813400180,h_OCHCTP,10-L1-2,2019-01-22 05:30:00.0,BerPreFecMax,0.00194,CHCGILDTO6Y
MA6813400180,h_OCHCTP,10-L1-2,2019-01-22 05:30:00.0,PmdMin,1.5,CHCGILDTO6Y
MA6813400180,h_OCHCTP,10-L1-2,2019-01-22 05:30:00.0,SoPmdAve,3396.28,CHCGILDTO6Y
MA6813400180,h_OCHCTP,10-L1-2,2019-01-22 05:45:00.0,Qmin,9.23,CHCGILDTO6Y
MA6813400180,h_OCHCTP,10-L1-2,2019-01-22 05:45:00.0,PhaseCorrectionAve,-0.061,CHCGILDTO6Y
MA6813400180,h_OCHCTP,10-L1-2,2019-01-22 05:45:00.0,BerPreFecMax,0.0019,CHCGILDTO6Y
MA6813400180,h_OCHCTP,10-L1-2,2019-01-22 05:45:00.0,PmdMin,1.01,CHCGILDTO6Y
MA6813400180,h_OCHCTP,10-L1-2,2019-01-22 05:45:00.0,SoPmdAve,3318.27,CHCGILDTO6Y
MA6813400180,h_OCHCTP,10-L1-3,2019-01-22 05:15:00.0,Qmin,9.04,CHCGILDTO6Y
MA6813400180,h_OCHCTP,10-L1-3,2019-01-22 05:15:00.0,PhaseCorrectionAve,-0.122,CHCGILDTO6Y
MA6813400180,h_OCHCTP,10-L1-3,2019-01-22 05:15:00.0,BerPreFecMax,0.00233,CHCGILDTO6Y
MA6813400180,h_OCHCTP,10-L1-3,2019-01-22 05:15:00.0,PmdMin,1.89,CHCGILDTO6Y
MA6813400180,h_OCHCTP,10-L1-3,2019-01-22 05:15:00.0,SoPmdAve,2926.87,CHCGILDTO6Y
MA6813400180,h_OCHCTP,10-L1-3,2019-01-22 05:30:00.0,Qmin,9.02,CHCGILDTO6Y
MA6813400180,h_OCHCTP,10-L1-3,2019-01-22 05:30:00.0,PhaseCorrectionAve,4.68e-07,CHCGILDTO6Y
MA6813400180,h_OCHCTP,10-L1-3,2019-01-22 05:30:00.0,BerPreFecMax,0.00236,CHCGILDTO6Y
MA6813400180,h_OCHCTP,10-L1-3,2019-01-22 05:30:00.0,PmdMin,0.943,CHCGILDTO6Y
MA6813400180,h_OCHCTP,10-L1-3,2019-01-22 05:30:00.0,SoPmdAve,2910.84,CHCGILDTO6Y
MA6813400180,h_OCHCTP,10-L1-3,2019-01-22 05:45:00.0,Qmin,9.05,CHCGILDTO6Y
MA6813400180,h_OCHCTP,10-L1-3,2019-01-22 05:45:00.0,PhaseCorrectionAve,-0.122,CHCGILDTO6Y
MA6813400180,h_OCHCTP,10-L1-3,2019-01-22 05:45:00.0,BerPreFecMax,0.00229,CHCGILDTO6Y
MA6813400180,h_OCHCTP,10-L1-3,2019-01-22 05:45:00.0,PmdMin,1.11,CHCGILDTO6Y
MA6813400180,h_OCHCTP,10-L1-3,2019-01-22 05:45:00.0,SoPmdAve,2873.18,CHCGILDTO6Y
MA6813400180,h_OCHCTP,10-L1-4,2019-01-22 05:15:00.0,Qmin,8.53,CHCGILDTO6Y
MA6813400180,h_OCHCTP,10-L1-4,2019-01-22 05:15:00.0,PhaseCorrectionAve,-0.122,CHCGILDTO6Y
MA6813400180,h_OCHCTP,10-L1-4,2019-01-22 05:15:00.0,BerPreFecMax,0.0038,CHCGILDTO6Y
MA6813400180,h_OCHCTP,10-L1-4,2019-01-22 05:15:00.0,PmdMin,1.68,CHCGILDTO6Y
MA6813400180,h_OCHCTP,10-L1-4,2019-01-22 05:15:00.0,SoPmdAve,2973.24,CHCGILDTO6Y
MA6813400180,h_OCHCTP,10-L1-4,2019-01-22 05:30:00.0,Qmin,8.52,CHCGILDTO6Y
MA6813400180,h_OCHCTP,10-L1-4,2019-01-22 05:30:00.0,PhaseCorrectionAve,1.59e-06,CHCGILDTO6Y
MA6813400180,h_OCHCTP,10-L1-4,2019-01-22 05:30:00.0,BerPreFecMax,0.00381,CHCGILDTO6Y
MA6813400180,h_OCHCTP,10-L1-4,2019-01-22 05:30:00.0,PmdMin,2.85,CHCGILDTO6Y
MA6813400180,h_OCHCTP,10-L1-4,2019-01-22 05:30:00.0,SoPmdAve,2933.7,CHCGILDTO6Y
MA6813400180,h_OCHCTP,10-L1-4,2019-01-22 05:45:00.0,Qmin,8.54,CHCGILDTO6Y
MA6813400180,h_OCHCTP,10-L1-4,2019-01-22 05:45:00.0,PhaseCorrectionAve,-0.122,CHCGILDTO6Y
MA6813400180,h_OCHCTP,10-L1-4,2019-01-22 05:45:00.0,BerPreFecMax,0.00377,CHCGILDTO6Y
MA6813400180,h_OCHCTP,10-L1-4,2019-01-22 05:45:00.0,PmdMin,6.47,CHCGILDTO6Y
MA6813400180,h_OCHCTP,10-L1-4,2019-01-22 05:45:00.0,SoPmdAve,2969.07,CHCGILDTO6Y
MA6813400180,h_OCHCTP,10-L1-5,2019-01-22 05:15:00.0,Qmin,8.69,CHCGILDTO6Y
MA6813400180,h_OCHCTP,10-L1-5,2019-01-22 05:15:00.0,PhaseCorrectionAve,-0.122,CHCGILDTO6Y
MA6813400180,h_OCHCTP,10-L1-5,2019-01-22 05:15:00.0,BerPreFecMax,0.00325,CHCGILDTO6Y
MA6813400180,h_OCHCTP,10-L1-5,2019-01-22 05:15:00.0,PmdMin,4.28,CHCGILDTO6Y
MA6813400180,h_OCHCTP,10-L1-5,2019-01-22 05:15:00.0,SoPmdAve,2794.98,CHCGILDTO6Y
MA6813400180,h_OCHCTP,10-L1-5,2019-01-22 05:30:00.0,Qmin,8.68,CHCGILDTO6Y
MA6813400180,h_OCHCTP,10-L1-5,2019-01-22 05:30:00.0,PhaseCorrectionAve,1.01e-06,CHCGILDTO6Y
MA6813400180,h_OCHCTP,10-L1-5,2019-01-22 05:30:00.0,BerPreFecMax,0.00331,CHCGILDTO6Y
MA6813400180,h_OCHCTP,10-L1-5,2019-01-22 05:30:00.0,PmdMin,4.17,CHCGILDTO6Y
MA6813400180,h_OCHCTP,10-L1-5,2019-01-22 05:30:00.0,SoPmdAve,2785.98,CHCGILDTO6Y
MA6813400180,h_OCHCTP,10-L1-5,2019-01-22 05:45:00.0,Qmin,8.7,CHCGILDTO6Y
MA6813400180,h_OCHCTP,10-L1-5,2019-01-22 05:45:00.0,PhaseCorrectionAve,-0.122,CHCGILDTO6Y
MA6813400180,h_OCHCTP,10-L1-5,2019-01-22 05:45:00.0,BerPreFecMax,0.00323,CHCGILDTO6Y
MA6813400180,h_OCHCTP,10-L1-5,2019-01-22 05:45:00.0,PmdMin,4.68,CHCGILDTO6Y
MA6813400180,h_OCHCTP,10-L1-5,2019-01-22 05:45:00.0,SoPmdAve,2828.44,CHCGILDTO6Y
MA6813400180,h_OCHCTP,10-L1-6,2019-01-22 05:15:00.0,Qmin,8.87,CHCGILDTO6Y
MA6813400180,h_OCHCTP,10-L1-6,2019-01-22 05:15:00.0,PhaseCorrectionAve,-0.122,CHCGILDTO6Y
MA6813400180,h_OCHCTP,10-L1-6,2019-01-22 05:15:00.0,BerPreFecMax,0.00274,CHCGILDTO6Y
MA6813400180,h_OCHCTP,10-L1-6,2019-01-22 05:15:00.0,PmdMin,2.34,CHCGILDTO6Y
MA6813400180,h_OCHCTP,10-L1-6,2019-01-22 05:15:00.0,SoPmdAve,2801.66,CHCGILDTO6Y
MA6813400180,h_OCHCTP,10-L1-6,2019-01-22 05:30:00.0,Qmin,8.85,CHCGILDTO6Y
MA6813400180,h_OCHCTP,10-L1-6,2019-01-22 05:30:00.0,PhaseCorrectionAve,8.2e-07,CHCGILDTO6Y
MA6813400180,h_OCHCTP,10-L1-6,2019-01-22 05:30:00.0,BerPreFecMax,0.00279,CHCGILDTO6Y
MA6813400180,h_OCHCTP,10-L1-6,2019-01-22 05:30:00.0,PmdMin,1.4,CHCGILDTO6Y
MA6813400180,h_OCHCTP,10-L1-6,2019-01-22 05:30:00.0,SoPmdAve,2804.62,CHCGILDTO6Y
MA6813400180,h_OCHCTP,10-L1-6,2019-01-22 05:45:00.0,Qmin,8.86,CHCGILDTO6Y
MA6813400180,h_OCHCTP,10-L1-6,2019-01-22 05:45:00.0,PhaseCorrectionAve,-0.183,CHCGILDTO6Y
MA6813400180,h_OCHCTP,10-L1-6,2019-01-22 05:45:00.0,BerPreFecMax,0.00276,CHCGILDTO6Y
MA6813400180,h_OCHCTP,10-L1-6,2019-01-22 05:45:00.0,PmdMin,2.46,CHCGILDTO6Y
MA6813400180,h_OCHCTP,10-L1-6,2019-01-22 05:45:00.0,SoPmdAve,2849.3,CHCGILDTO6Y
MA6813400180,h_OCHCTP,10-L1-7,2019-01-22 05:15:00.0,Qmin,8.93,CHCGILDTO6Y
MA6813400180,h_OCHCTP,10-L1-7,2019-01-22 05:15:00.0,PhaseCorrectionAve,-0.183,CHCGILDTO6Y
MA6813400180,h_OCHCTP,10-L1-7,2019-01-22 05:15:00.0,BerPreFecMax,0.00259,CHCGILDTO6Y
MA6813400180,h_OCHCTP,10-L1-7,2019-01-22 05:15:00.0,PmdMin,1.27,CHCGILDTO6Y
MA6813400180,h_OCHCTP,10-L1-7,2019-01-22 05:15:00.0,SoPmdAve,3298.92,CHCGILDTO6Y
MA6813400180,h_OCHCTP,10-L1-7,2019-01-22 05:30:00.0,Qmin,8.93,CHCGILDTO6Y
MA6813400180,h_OCHCTP,10-L1-7,2019-01-22 05:30:00.0,PhaseCorrectionAve,-0.061,CHCGILDTO6Y
MA6813400180,h_OCHCTP,10-L1-7,2019-01-22 05:30:00.0,BerPreFecMax,0.00259,CHCGILDTO6Y
MA6813400180,h_OCHCTP,10-L1-7,2019-01-22 05:30:00.0,PmdMin,1.74,CHCGILDTO6Y
MA6813400180,h_OCHCTP,10-L1-7,2019-01-22 05:30:00.0,SoPmdAve,3248.92,CHCGILDTO6Y
MA6813400180,h_OCHCTP,10-L1-7,2019-01-22 05:45:00.0,Qmin,8.93,CHCGILDTO6Y
MA6813400180,h_OCHCTP,10-L1-7,2019-01-22 05:45:00.0,PhaseCorrectionAve,-0.183,CHCGILDTO6Y
MA6813400180,h_OCHCTP,10-L1-7,2019-01-22 05:45:00.0,BerPreFecMax,0.0026,CHCGILDTO6Y
MA6813400180,h_OCHCTP,10-L1-7,2019-01-22 05:45:00.0,PmdMin,1.8,CHCGILDTO6Y
MA6813400180,h_OCHCTP,10-L1-7,2019-01-22 05:45:00.0,SoPmdAve,3363.04,CHCGILDTO6Y
MA6813400180,h_OCHCTP,10-L1-8,2019-01-22 05:15:00.0,Qmin,9.27,CHCGILDTO6Y
MA6813400180,h_OCHCTP,10-L1-8,2019-01-22 05:15:00.0,PhaseCorrectionAve,-0.244,CHCGILDTO6Y
MA6813400180,h_OCHCTP,10-L1-8,2019-01-22 05:15:00.0,BerPreFecMax,0.00182,CHCGILDTO6Y
MA6813400180,h_OCHCTP,10-L1-8,2019-01-22 05:15:00.0,PmdMin,0.828,CHCGILDTO6Y
MA6813400180,h_OCHCTP,10-L1-8,2019-01-22 05:15:00.0,SoPmdAve,3472.82,CHCGILDTO6Y
MA6813400180,h_OCHCTP,10-L1-8,2019-01-22 05:30:00.0,Qmin,9.27,CHCGILDTO6Y
MA6813400180,h_OCHCTP,10-L1-8,2019-01-22 05:30:00.0,PhaseCorrectionAve,-0.183,CHCGILDTO6Y
MA6813400180,h_OCHCTP,10-L1-8,2019-01-22 05:30:00.0,BerPreFecMax,0.00181,CHCGILDTO6Y
MA6813400180,h_OCHCTP,10-L1-8,2019-01-22 05:30:00.0,PmdMin,1.59,CHCGILDTO6Y
MA6813400180,h_OCHCTP,10-L1-8,2019-01-22 05:30:00.0,SoPmdAve,3507.43,CHCGILDTO6Y
MA6813400180,h_OCHCTP,10-L1-8,2019-01-22 05:45:00.0,Qmin,9.28,CHCGILDTO6Y
MA6813400180,h_OCHCTP,10-L1-8,2019-01-22 05:45:00.0,PhaseCorrectionAve,-0.183,CHCGILDTO6Y
MA6813400180,h_OCHCTP,10-L1-8,2019-01-22 05:45:00.0,BerPreFecMax,0.0018,CHCGILDTO6Y
MA6813400180,h_OCHCTP,10-L1-8,2019-01-22 05:45:00.0,PmdMin,1.37,CHCGILDTO6Y
MA6813400180,h_OCHCTP,10-L1-8,2019-01-22 05:45:00.0,SoPmdAve,3493.75,CHCGILDTO6Y
MA6813400180,h_OCHCTP,10-L1-9,2019-01-22 05:15:00.0,Qmin,9.28,CHCGILDTO6Y
MA6813400180,h_OCHCTP,10-L1-9,2019-01-22 05:15:00.0,PhaseCorrectionAve,-0.244,CHCGILDTO6Y
MA6813400180,h_OCHCTP,10-L1-9,2019-01-22 05:15:00.0,BerPreFecMax,0.0018,CHCGILDTO6Y
MA6813400180,h_OCHCTP,10-L1-9,2019-01-22 05:15:00.0,PmdMin,0.387,CHCGILDTO6Y
MA6813400180,h_OCHCTP,10-L1-9,2019-01-22 05:15:00.0,SoPmdAve,3558.68,CHCGILDTO6Y
MA6813400180,h_OCHCTP,10-L1-9,2019-01-22 05:30:00.0,Qmin,9.29,CHCGILDTO6Y
MA6813400180,h_OCHCTP,10-L1-9,2019-01-22 05:30:00.0,PhaseCorrectionAve,-0.183,CHCGILDTO6Y
MA6813400180,h_OCHCTP,10-L1-9,2019-01-22 05:30:00.0,BerPreFecMax,0.00178,CHCGILDTO6Y
MA6813400180,h_OCHCTP,10-L1-9,2019-01-22 05:30:00.0,PmdMin,1.09,CHCGILDTO6Y
MA6813400180,h_OCHCTP,10-L1-9,2019-01-22 05:30:00.0,SoPmdAve,3480.12,CHCGILDTO6Y
MA6813400180,h_OCHCTP,10-L1-9,2019-01-22 05:45:00.0,Qmin,9.29,CHCGILDTO6Y
MA6813400180,h_OCHCTP,10-L1-9,2019-01-22 05:45:00.0,PhaseCorrectionAve,-0.244,CHCGILDTO6Y
MA6813400180,h_OCHCTP,10-L1-9,2019-01-22 05:45:00.0,BerPreFecMax,0.00179,CHCGILDTO6Y
MA6813400180,h_OCHCTP,10-L1-9,2019-01-22 05:45:00.0,PmdMin,0.743,CHCGILDTO6Y
MA6813400180,h_OCHCTP,10-L1-9,2019-01-22 05:45:00.0,SoPmdAve,3669.65,CHCGILDTO6Y
MA6813400180,h_OCHCTP,10-L1-10,2019-01-22 05:15:00.0,Qmin,9.32,CHCGILDTO6Y
MA6813400180,h_OCHCTP,10-L1-10,2019-01-22 05:15:00.0,PhaseCorrectionAve,-0.305,CHCGILDTO6Y
MA6813400180,h_OCHCTP,10-L1-10,2019-01-22 05:15:00.0,BerPreFecMax,0.00173,CHCGILDTO6Y
MA6813400180,h_OCHCTP,10-L1-10,2019-01-22 05:15:00.0,PmdMin,1.64,CHCGILDTO6Y
MA6813400180,h_OCHCTP,10-L1-10,2019-01-22 05:15:00.0,SoPmdAve,3199.28,CHCGILDTO6Y
MA6813400180,h_OCHCTP,10-L1-10,2019-01-22 05:30:00.0,Qmin,9.32,CHCGILDTO6Y
MA6813400180,h_OCHCTP,10-L1-10,2019-01-22 05:30:00.0,PhaseCorrectionAve,-0.183,CHCGILDTO6Y
MA6813400180,h_OCHCTP,10-L1-10,2019-01-22 05:30:00.0,BerPreFecMax,0.00172,CHCGILDTO6Y
MA6813400180,h_OCHCTP,10-L1-10,2019-01-22 05:30:00.0,PmdMin,6.37,CHCGILDTO6Y
MA6813400180,h_OCHCTP,10-L1-10,2019-01-22 05:30:00.0,SoPmdAve,3223.96,CHCGILDTO6Y
MA6813400180,h_OCHCTP,10-L1-10,2019-01-22 05:45:00.0,Qmin,9.32,CHCGILDTO6Y
MA6813400180,h_OCHCTP,10-L1-10,2019-01-22 05:45:00.0,PhaseCorrectionAve,-0.244,CHCGILDTO6Y
MA6813400180,h_OCHCTP,10-L1-10,2019-01-22 05:45:00.0,BerPreFecMax,0.00173,CHCGILDTO6Y
MA6813400180,h_OCHCTP,10-L1-10,2019-01-22 05:45:00.0,PmdMin,4.56,CHCGILDTO6Y
MA6813400180,h_OCHCTP,10-L1-10,2019-01-22 05:45:00.0,SoPmdAve,3187.96,CHCGILDTO6Y
MA6813400180,h_OCHCTP,13-L1-1,2019-01-22 05:15:00.0,Qmin,9.19,CHCGILDTO6Y
MA6813400180,h_OCHCTP,13-L1-1,2019-01-22 05:15:00.0,PhaseCorrectionAve,2.4e-07,CHCGILDTO6Y
MA6813400180,h_OCHCTP,13-L1-1,2019-01-22 05:15:00.0,BerPreFecMax,0.00197,CHCGILDTO6Y
MA6813400180,h_OCHCTP,13-L1-1,2019-01-22 05:15:00.0,PmdMin,0.732,CHCGILDTO6Y
MA6813400180,h_OCHCTP,13-L1-1,2019-01-22 05:15:00.0,SoPmdAve,3549.69,CHCGILDTO6Y
MA6813400180,h_OCHCTP,13-L1-1,2019-01-22 05:30:00.0,Qmin,9.19,CHCGILDTO6Y
MA6813400180,h_OCHCTP,13-L1-1,2019-01-22 05:30:00.0,PhaseCorrectionAve,2.33e-07,CHCGILDTO6Y
MA6813400180,h_OCHCTP,13-L1-1,2019-01-22 05:30:00.0,BerPreFecMax,0.00198,CHCGILDTO6Y
MA6813400180,h_OCHCTP,13-L1-1,2019-01-22 05:30:00.0,PmdMin,0.476,CHCGILDTO6Y
MA6813400180,h_OCHCTP,13-L1-1,2019-01-22 05:30:00.0,SoPmdAve,3558.78,CHCGILDTO6Y
MA6813400180,h_OCHCTP,13-L1-1,2019-01-22 05:45:00.0,Qmin,9.2,CHCGILDTO6Y
MA6813400180,h_OCHCTP,13-L1-1,2019-01-22 05:45:00.0,PhaseCorrectionAve,2.08e-07,CHCGILDTO6Y
MA6813400180,h_OCHCTP,13-L1-1,2019-01-22 05:45:00.0,BerPreFecMax,0.00195,CHCGILDTO6Y
MA6813400180,h_OCHCTP,13-L1-1,2019-01-22 05:45:00.0,PmdMin,1.71,CHCGILDTO6Y
MA6813400180,h_OCHCTP,13-L1-1,2019-01-22 05:45:00.0,SoPmdAve,3499.22,CHCGILDTO6Y
MA6813400180,h_OCHCTP,13-L1-2,2019-01-22 05:15:00.0,Qmin,9.12,CHCGILDTO6Y
MA6813400180,h_OCHCTP,13-L1-2,2019-01-22 05:15:00.0,PhaseCorrectionAve,2.84e-07,CHCGILDTO6Y
MA6813400180,h_OCHCTP,13-L1-2,2019-01-22 05:15:00.0,BerPreFecMax,0.00212,CHCGILDTO6Y
MA6813400180,h_OCHCTP,13-L1-2,2019-01-22 05:15:00.0,PmdMin,1.14,CHCGILDTO6Y
MA6813400180,h_OCHCTP,13-L1-2,2019-01-22 05:15:00.0,SoPmdAve,3508.56,CHCGILDTO6Y
MA6813400180,h_OCHCTP,13-L1-2,2019-01-22 05:30:00.0,Qmin,9.24,CHCGILDTO6Y
MA6813400180,h_OCHCTP,13-L1-2,2019-01-22 05:30:00.0,PhaseCorrectionAve,-0.061,CHCGILDTO6Y
MA6813400180,h_OCHCTP,13-L1-2,2019-01-22 05:30:00.0,BerPreFecMax,0.00188,CHCGILDTO6Y
MA6813400180,h_OCHCTP,13-L1-2,2019-01-22 05:30:00.0,PmdMin,1.39,CHCGILDTO6Y
MA6813400180,h_OCHCTP,13-L1-2,2019-01-22 05:30:00.0,SoPmdAve,3492.17,CHCGILDTO6Y
MA6813400180,h_OCHCTP,13-L1-2,2019-01-22 05:45:00.0,Qmin,9.19,CHCGILDTO6Y
MA6813400180,h_OCHCTP,13-L1-2,2019-01-22 05:45:00.0,PhaseCorrectionAve,-0.122,CHCGILDTO6Y
MA6813400180,h_OCHCTP,13-L1-2,2019-01-22 05:45:00.0,BerPreFecMax,0.00198,CHCGILDTO6Y
MA6813400180,h_OCHCTP,13-L1-2,2019-01-22 05:45:00.0,PmdMin,0.761,CHCGILDTO6Y
MA6813400180,h_OCHCTP,13-L1-2,2019-01-22 05:45:00.0,SoPmdAve,3475.21,CHCGILDTO6Y
MA6813400180,h_OCHCTP,13-L1-3,2019-01-22 05:15:00.0,Qmin,9.01,CHCGILDTO6Y
MA6813400180,h_OCHCTP,13-L1-3,2019-01-22 05:15:00.0,PhaseCorrectionAve,3.92e-07,CHCGILDTO6Y
MA6813400180,h_OCHCTP,13-L1-3,2019-01-22 05:15:00.0,BerPreFecMax,0.00239,CHCGILDTO6Y
MA6813400180,h_OCHCTP,13-L1-3,2019-01-22 05:15:00.0,PmdMin,1.25,CHCGILDTO6Y
MA6813400180,h_OCHCTP,13-L1-3,2019-01-22 05:15:00.0,SoPmdAve,2977.28,CHCGILDTO6Y
MA6813400180,h_OCHCTP,13-L1-3,2019-01-22 05:30:00.0,Qmin,9.01,CHCGILDTO6Y
MA6813400180,h_OCHCTP,13-L1-3,2019-01-22 05:30:00.0,PhaseCorrectionAve,-0.061,CHCGILDTO6Y
MA6813400180,h_OCHCTP,13-L1-3,2019-01-22 05:30:00.0,BerPreFecMax,0.0024,CHCGILDTO6Y
MA6813400180,h_OCHCTP,13-L1-3,2019-01-22 05:30:00.0,PmdMin,0.893,CHCGILDTO6Y
MA6813400180,h_OCHCTP,13-L1-3,2019-01-22 05:30:00.0,SoPmdAve,2967.57,CHCGILDTO6Y
MA6813400180,h_OCHCTP,13-L1-3,2019-01-22 05:45:00.0,Qmin,9.01,CHCGILDTO6Y
MA6813400180,h_OCHCTP,13-L1-3,2019-01-22 05:45:00.0,PhaseCorrectionAve,-0.122,CHCGILDTO6Y
MA6813400180,h_OCHCTP,13-L1-3,2019-01-22 05:45:00.0,BerPreFecMax,0.00239,CHCGILDTO6Y
MA6813400180,h_OCHCTP,13-L1-3,2019-01-22 05:45:00.0,PmdMin,0.355,CHCGILDTO6Y
MA6813400180,h_OCHCTP,13-L1-3,2019-01-22 05:45:00.0,SoPmdAve,2998.72,CHCGILDTO6Y
MA6813400180,h_OCHCTP,13-L1-4,2019-01-22 05:15:00.0,Qmin,8.76,CHCGILDTO6Y
MA6813400180,h_OCHCTP,13-L1-4,2019-01-22 05:15:00.0,PhaseCorrectionAve,-0.061,CHCGILDTO6Y
MA6813400180,h_OCHCTP,13-L1-4,2019-01-22 05:15:00.0,BerPreFecMax,0.00305,CHCGILDTO6Y
MA6813400180,h_OCHCTP,13-L1-4,2019-01-22 05:15:00.0,PmdMin,1.0,CHCGILDTO6Y
MA6813400180,h_OCHCTP,13-L1-4,2019-01-22 05:15:00.0,SoPmdAve,3309.86,CHCGILDTO6Y
MA6813400180,h_OCHCTP,13-L1-4,2019-01-22 05:30:00.0,Qmin,8.71,CHCGILDTO6Y
MA6813400180,h_OCHCTP,13-L1-4,2019-01-22 05:30:00.0,PhaseCorrectionAve,-0.122,CHCGILDTO6Y
MA6813400180,h_OCHCTP,13-L1-4,2019-01-22 05:30:00.0,BerPreFecMax,0.0032,CHCGILDTO6Y
MA6813400180,h_OCHCTP,13-L1-4,2019-01-22 05:30:00.0,PmdMin,0.88,CHCGILDTO6Y
MA6813400180,h_OCHCTP,13-L1-4,2019-01-22 05:30:00.0,SoPmdAve,3300.0,CHCGILDTO6Y
MA6813400180,h_OCHCTP,13-L1-4,2019-01-22 05:45:00.0,Qmin,8.74,CHCGILDTO6Y
MA6813400180,h_OCHCTP,13-L1-4,2019-01-22 05:45:00.0,PhaseCorrectionAve,-0.122,CHCGILDTO6Y
MA6813400180,h_OCHCTP,13-L1-4,2019-01-22 05:45:00.0,BerPreFecMax,0.00312,CHCGILDTO6Y
MA6813400180,h_OCHCTP,13-L1-4,2019-01-22 05:45:00.0,PmdMin,0.416,CHCGILDTO6Y
MA6813400180,h_OCHCTP,13-L1-4,2019-01-22 05:45:00.0,SoPmdAve,3405.92,CHCGILDTO6Y
MA6813400180,h_OCHCTP,13-L1-5,2019-01-22 05:15:00.0,Qmin,8.8,CHCGILDTO6Y
MA6813400180,h_OCHCTP,13-L1-5,2019-01-22 05:15:00.0,PhaseCorrectionAve,-0.122,CHCGILDTO6Y
MA6813400180,h_OCHCTP,13-L1-5,2019-01-22 05:15:00.0,BerPreFecMax,0.00294,CHCGILDTO6Y
MA6813400180,h_OCHCTP,13-L1-5,2019-01-22 05:15:00.0,PmdMin,0.816,CHCGILDTO6Y
MA6813400180,h_OCHCTP,13-L1-5,2019-01-22 05:15:00.0,SoPmdAve,2810.93,CHCGILDTO6Y
MA6813400180,h_OCHCTP,13-L1-5,2019-01-22 05:30:00.0,Qmin,8.8,CHCGILDTO6Y
MA6813400180,h_OCHCTP,13-L1-5,2019-01-22 05:30:00.0,PhaseCorrectionAve,-0.122,CHCGILDTO6Y
MA6813400180,h_OCHCTP,13-L1-5,2019-01-22 05:30:00.0,BerPreFecMax,0.00293,CHCGILDTO6Y
MA6813400180,h_OCHCTP,13-L1-5,2019-01-22 05:30:00.0,PmdMin,0.732,CHCGILDTO6Y
MA6813400180,h_OCHCTP,13-L1-5,2019-01-22 05:30:00.0,SoPmdAve,2883.19,CHCGILDTO6Y
MA6813400180,h_OCHCTP,13-L1-5,2019-01-22 05:45:00.0,Qmin,8.76,CHCGILDTO6Y
MA6813400180,h_OCHCTP,13-L1-5,2019-01-22 05:45:00.0,PhaseCorrectionAve,-0.183,CHCGILDTO6Y
MA6813400180,h_OCHCTP,13-L1-5,2019-01-22 05:45:00.0,BerPreFecMax,0.00305,CHCGILDTO6Y
MA6813400180,h_OCHCTP,13-L1-5,2019-01-22 05:45:00.0,PmdMin,1.17,CHCGILDTO6Y
MA6813400180,h_OCHCTP,13-L1-5,2019-01-22 05:45:00.0,SoPmdAve,2920.29,CHCGILDTO6Y
MA6813400180,h_OCHCTP,13-L1-6,2019-01-22 05:15:00.0,Qmin,8.82,CHCGILDTO6Y
MA6813400180,h_OCHCTP,13-L1-6,2019-01-22 05:15:00.0,PhaseCorrectionAve,-0.122,CHCGILDTO6Y
MA6813400180,h_OCHCTP,13-L1-6,2019-01-22 05:15:00.0,BerPreFecMax,0.00288,CHCGILDTO6Y
MA6813400180,h_OCHCTP,13-L1-6,2019-01-22 05:15:00.0,PmdMin,0.715,CHCGILDTO6Y
MA6813400180,h_OCHCTP,13-L1-6,2019-01-22 05:15:00.0,SoPmdAve,3016.68,CHCGILDTO6Y
MA6813400180,h_OCHCTP,13-L1-6,2019-01-22 05:30:00.0,Qmin,8.85,CHCGILDTO6Y
MA6813400180,h_OCHCTP,13-L1-6,2019-01-22 05:30:00.0,PhaseCorrectionAve,-0.183,CHCGILDTO6Y
MA6813400180,h_OCHCTP,13-L1-6,2019-01-22 05:30:00.0,BerPreFecMax,0.00281,CHCGILDTO6Y
MA6813400180,h_OCHCTP,13-L1-6,2019-01-22 05:30:00.0,PmdMin,0.301,CHCGILDTO6Y
MA6813400180,h_OCHCTP,13-L1-6,2019-01-22 05:30:00.0,SoPmdAve,3083.53,CHCGILDTO6Y
MA6813400180,h_OCHCTP,13-L1-6,2019-01-22 05:45:00.0,Qmin,8.88,CHCGILDTO6Y
MA6813400180,h_OCHCTP,13-L1-6,2019-01-22 05:45:00.0,PhaseCorrectionAve,-0.183,CHCGILDTO6Y
MA6813400180,h_OCHCTP,13-L1-6,2019-01-22 05:45:00.0,BerPreFecMax,0.00273,CHCGILDTO6Y
MA6813400180,h_OCHCTP,13-L1-6,2019-01-22 05:45:00.0,PmdMin,0.924,CHCGILDTO6Y
MA6813400180,h_OCHCTP,13-L1-6,2019-01-22 05:45:00.0,SoPmdAve,2991.1,CHCGILDTO6Y
MA6813400180,h_OCHCTP,13-L1-7,2019-01-22 05:15:00.0,Qmin,8.88,CHCGILDTO6Y
MA6813400180,h_OCHCTP,13-L1-7,2019-01-22 05:15:00.0,PhaseCorrectionAve,-0.122,CHCGILDTO6Y
MA6813400180,h_OCHCTP,13-L1-7,2019-01-22 05:15:00.0,BerPreFecMax,0.00272,CHCGILDTO6Y
MA6813400180,h_OCHCTP,13-L1-7,2019-01-22 05:15:00.0,PmdMin,1.03,CHCGILDTO6Y
MA6813400180,h_OCHCTP,13-L1-7,2019-01-22 05:15:00.0,SoPmdAve,3599.12,CHCGILDTO6Y
MA6813400180,h_OCHCTP,13-L1-7,2019-01-22 05:30:00.0,Qmin,8.84,CHCGILDTO6Y
MA6813400180,h_OCHCTP,13-L1-7,2019-01-22 05:30:00.0,PhaseCorrectionAve,-0.183,CHCGILDTO6Y
MA6813400180,h_OCHCTP,13-L1-7,2019-01-22 05:30:00.0,BerPreFecMax,0.00282,CHCGILDTO6Y
MA6813400180,h_OCHCTP,13-L1-7,2019-01-22 05:30:00.0,PmdMin,1.3,CHCGILDTO6Y
MA6813400180,h_OCHCTP,13-L1-7,2019-01-22 05:30:00.0,SoPmdAve,3689.35,CHCGILDTO6Y
MA6813400180,h_OCHCTP,13-L1-7,2019-01-22 05:45:00.0,Qmin,8.89,CHCGILDTO6Y
MA6813400180,h_OCHCTP,13-L1-7,2019-01-22 05:45:00.0,PhaseCorrectionAve,-0.183,CHCGILDTO6Y
MA6813400180,h_OCHCTP,13-L1-7,2019-01-22 05:45:00.0,BerPreFecMax,0.0027,CHCGILDTO6Y
MA6813400180,h_OCHCTP,13-L1-7,2019-01-22 05:45:00.0,PmdMin,1.46,CHCGILDTO6Y
MA6813400180,h_OCHCTP,13-L1-7,2019-01-22 05:45:00.0,SoPmdAve,3804.82,CHCGILDTO6Y
MA6813400180,h_OCHCTP,13-L1-8,2019-01-22 05:15:00.0,Qmin,8.93,CHCGILDTO6Y
MA6813400180,h_OCHCTP,13-L1-8,2019-01-22 05:15:00.0,PhaseCorrectionAve,-0.122,CHCGILDTO6Y
MA6813400180,h_OCHCTP,13-L1-8,2019-01-22 05:15:00.0,BerPreFecMax,0.00259,CHCGILDTO6Y
MA6813400180,h_OCHCTP,13-L1-8,2019-01-22 05:15:00.0,PmdMin,0.859,CHCGILDTO6Y
MA6813400180,h_OCHCTP,13-L1-8,2019-01-22 05:15:00.0,SoPmdAve,3953.5,CHCGILDTO6Y
MA6813400180,h_OCHCTP,13-L1-8,2019-01-22 05:30:00.0,Qmin,8.9,CHCGILDTO6Y
MA6813400180,h_OCHCTP,13-L1-8,2019-01-22 05:30:00.0,PhaseCorrectionAve,-0.183,CHCGILDTO6Y
MA6813400180,h_OCHCTP,13-L1-8,2019-01-22 05:30:00.0,BerPreFecMax,0.00266,CHCGILDTO6Y
MA6813400180,h_OCHCTP,13-L1-8,2019-01-22 05:30:00.0,PmdMin,1.18,CHCGILDTO6Y
MA6813400180,h_OCHCTP,13-L1-8,2019-01-22 05:30:00.0,SoPmdAve,3916.3,CHCGILDTO6Y
MA6813400180,h_OCHCTP,13-L1-8,2019-01-22 05:45:00.0,Qmin,8.95,CHCGILDTO6Y
MA6813400180,h_OCHCTP,13-L1-8,2019-01-22 05:45:00.0,PhaseCorrectionAve,-0.244,CHCGILDTO6Y
MA6813400180,h_OCHCTP,13-L1-8,2019-01-22 05:45:00.0,BerPreFecMax,0.00252,CHCGILDTO6Y
MA6813400180,h_OCHCTP,13-L1-8,2019-01-22 05:45:00.0,PmdMin,0.874,CHCGILDTO6Y
MA6813400180,h_OCHCTP,13-L1-8,2019-01-22 05:45:00.0,SoPmdAve,3899.58,CHCGILDTO6Y
MA6813400180,h_OCHCTP,13-L1-9,2019-01-22 05:15:00.0,Qmin,8.89,CHCGILDTO6Y
MA6813400180,h_OCHCTP,13-L1-9,2019-01-22 05:15:00.0,PhaseCorrectionAve,-0.122,CHCGILDTO6Y
MA6813400180,h_OCHCTP,13-L1-9,2019-01-22 05:15:00.0,BerPreFecMax,0.00269,CHCGILDTO6Y
MA6813400180,h_OCHCTP,13-L1-9,2019-01-22 05:15:00.0,PmdMin,0.751,CHCGILDTO6Y
MA6813400180,h_OCHCTP,13-L1-9,2019-01-22 05:15:00.0,SoPmdAve,3476.41,CHCGILDTO6Y
MA6813400180,h_OCHCTP,13-L1-9,2019-01-22 05:30:00.0,Qmin,8.94,CHCGILDTO6Y
MA6813400180,h_OCHCTP,13-L1-9,2019-01-22 05:30:00.0,PhaseCorrectionAve,-0.244,CHCGILDTO6Y
MA6813400180,h_OCHCTP,13-L1-9,2019-01-22 05:30:00.0,BerPreFecMax,0.00257,CHCGILDTO6Y
MA6813400180,h_OCHCTP,13-L1-9,2019-01-22 05:30:00.0,PmdMin,0.951,CHCGILDTO6Y
MA6813400180,h_OCHCTP,13-L1-9,2019-01-22 05:30:00.0,SoPmdAve,3602.04,CHCGILDTO6Y
MA6813400180,h_OCHCTP,13-L1-9,2019-01-22 05:45:00.0,Qmin,8.91,CHCGILDTO6Y
MA6813400180,h_OCHCTP,13-L1-9,2019-01-22 05:45:00.0,PhaseCorrectionAve,-0.244,CHCGILDTO6Y
MA6813400180,h_OCHCTP,13-L1-9,2019-01-22 05:45:00.0,BerPreFecMax,0.00263,CHCGILDTO6Y
MA6813400180,h_OCHCTP,13-L1-9,2019-01-22 05:45:00.0,PmdMin,1.01,CHCGILDTO6Y
MA6813400180,h_OCHCTP,13-L1-9,2019-01-22 05:45:00.0,SoPmdAve,3546.92,CHCGILDTO6Y
MA6813400180,h_OCHCTP,13-L1-10,2019-01-22 05:15:00.0,Qmin,8.81,CHCGILDTO6Y
MA6813400180,h_OCHCTP,13-L1-10,2019-01-22 05:15:00.0,PhaseCorrectionAve,-0.122,CHCGILDTO6Y
MA6813400180,h_OCHCTP,13-L1-10,2019-01-22 05:15:00.0,BerPreFecMax,0.00292,CHCGILDTO6Y
MA6813400180,h_OCHCTP,13-L1-10,2019-01-22 05:15:00.0,PmdMin,0.951,CHCGILDTO6Y
MA6813400180,h_OCHCTP,13-L1-10,2019-01-22 05:15:00.0,SoPmdAve,3665.6,CHCGILDTO6Y
MA6813400180,h_OCHCTP,13-L1-10,2019-01-22 05:30:00.0,Qmin,8.78,CHCGILDTO6Y
MA6813400180,h_OCHCTP,13-L1-10,2019-01-22 05:30:00.0,PhaseCorrectionAve,-0.244,CHCGILDTO6Y
MA6813400180,h_OCHCTP,13-L1-10,2019-01-22 05:30:00.0,BerPreFecMax,0.003,CHCGILDTO6Y
MA6813400180,h_OCHCTP,13-L1-10,2019-01-22 05:30:00.0,PmdMin,1.04,CHCGILDTO6Y
MA6813400180,h_OCHCTP,13-L1-10,2019-01-22 05:30:00.0,SoPmdAve,3660.66,CHCGILDTO6Y
MA6813400180,h_OCHCTP,13-L1-10,2019-01-22 05:45:00.0,Qmin,8.8,CHCGILDTO6Y
MA6813400180,h_OCHCTP,13-L1-10,2019-01-22 05:45:00.0,PhaseCorrectionAve,-0.305,CHCGILDTO6Y
MA6813400180,h_OCHCTP,13-L1-10,2019-01-22 05:45:00.0,BerPreFecMax,0.00294,CHCGILDTO6Y
MA6813400180,h_OCHCTP,13-L1-10,2019-01-22 05:45:00.0,PmdMin,0.681,CHCGILDTO6Y
MA6813400180,h_OCHCTP,13-L1-10,2019-01-22 05:45:00.0,SoPmdAve,3746.99,CHCGILDTO6Y
