MA6813400180,h_OCHCTP,11-L1-1,2019-01-24 23:15:00.0,Qmin,9.22,CHCGILDTO6Y
MA6813400180,h_OCHCTP,11-L1-1,2019-01-24 23:15:00.0,PhaseCorrectionAve,1.08e-07,CHCGILDTO6Y
MA6813400180,h_OCHCTP,11-L1-1,2019-01-24 23:15:00.0,BerPreFecMax,0.00192,CHCGILDTO6Y
MA6813400180,h_OCHCTP,11-L1-1,2019-01-24 23:15:00.0,PmdMin,1.22,CHCGILDTO6Y
MA6813400180,h_OCHCTP,11-L1-1,2019-01-24 23:15:00.0,SoPmdAve,3323.77,CHCGILDTO6Y
MA6813400180,h_OCHCTP,11-L1-1,2019-01-24 23:30:00.0,Qmin,9.23,CHCGILDTO6Y
MA6813400180,h_OCHCTP,11-L1-1,2019-01-24 23:30:00.0,PhaseCorrectionAve,1.2e-07,CHCGILDTO6Y
MA6813400180,h_OCHCTP,11-L1-1,2019-01-24 23:30:00.0,BerPreFecMax,0.00191,CHCGILDTO6Y
MA6813400180,h_OCHCTP,11-L1-1,2019-01-24 23:30:00.0,PmdMin,0.95,CHCGILDTO6Y
MA6813400180,h_OCHCTP,11-L1-1,2019-01-24 23:30:00.0,SoPmdAve,3323.78,CHCGILDTO6Y
MA6813400180,h_OCHCTP,11-L1-1,2019-01-24 23:45:00.0,Qmin,9.24,CHCGILDTO6Y
MA6813400180,h_OCHCTP,11-L1-1,2019-01-24 23:45:00.0,PhaseCorrectionAve,1.13e-07,CHCGILDTO6Y
MA6813400180,h_OCHCTP,11-L1-1,2019-01-24 23:45:00.0,BerPreFecMax,0.00189,CHCGILDTO6Y
MA6813400180,h_OCHCTP,11-L1-1,2019-01-24 23:45:00.0,PmdMin,0.36,CHCGILDTO6Y
MA6813400180,h_OCHCTP,11-L1-1,2019-01-24 23:45:00.0,SoPmdAve,3296.5,CHCGILDTO6Y
MA6813400180,h_OCHCTP,11-L1-2,2019-01-24 23:15:00.0,Qmin,9.14,CHCGILDTO6Y
MA6813400180,h_OCHCTP,11-L1-2,2019-01-24 23:15:00.0,PhaseCorrectionAve,-0.122,CHCGILDTO6Y
MA6813400180,h_OCHCTP,11-L1-2,2019-01-24 23:15:00.0,BerPreFecMax,0.00209,CHCGILDTO6Y
MA6813400180,h_OCHCTP,11-L1-2,2019-01-24 23:15:00.0,PmdMin,0.599,CHCGILDTO6Y
MA6813400180,h_OCHCTP,11-L1-2,2019-01-24 23:15:00.0,SoPmdAve,3138.63,CHCGILDTO6Y
MA6813400180,h_OCHCTP,11-L1-2,2019-01-24 23:30:00.0,Qmin,9.13,CHCGILDTO6Y
MA6813400180,h_OCHCTP,11-L1-2,2019-01-24 23:30:00.0,PhaseCorrectionAve,-0.061,CHCGILDTO6Y
MA6813400180,h_OCHCTP,11-L1-2,2019-01-24 23:30:00.0,BerPreFecMax,0.00212,CHCGILDTO6Y
MA6813400180,h_OCHCTP,11-L1-2,2019-01-24 23:30:00.0,PmdMin,0.456,CHCGILDTO6Y
MA6813400180,h_OCHCTP,11-L1-2,2019-01-24 23:30:00.0,SoPmdAve,3172.24,CHCGILDTO6Y
MA6813400180,h_OCHCTP,11-L1-2,2019-01-24 23:45:00.0,Qmin,9.17,CHCGILDTO6Y
MA6813400180,h_OCHCTP,11-L1-2,2019-01-24 23:45:00.0,PhaseCorrectionAve,3.06e-07,CHCGILDTO6Y
MA6813400180,h_OCHCTP,11-L1-2,2019-01-24 23:45:00.0,BerPreFecMax,0.00202,CHCGILDTO6Y
MA6813400180,h_OCHCTP,11-L1-2,2019-01-24 23:45:00.0,PmdMin,0.816,CHCGILDTO6Y
MA6813400180,h_OCHCTP,11-L1-2,2019-01-24 23:45:00.0,SoPmdAve,3159.31,CHCGILDTO6Y
MA6813400180,h_OCHCTP,11-L1-3,2019-01-24 23:15:00.0,Qmin,9.0,CHCGILDTO6Y
MA6813400180,h_OCHCTP,11-L1-3,2019-01-24 23:15:00.0,PhaseCorrectionAve,-0.122,CHCGILDTO6Y
MA6813400180,h_OCHCTP,11-L1-3,2019-01-24 23:15:00.0,BerPreFecMax,0.00241,CHCGILDTO6Y
MA6813400180,h_OCHCTP,11-L1-3,2019-01-24 23:15:00.0,PmdMin,0.567,CHCGILDTO6Y
MA6813400180,h_OCHCTP,11-L1-3,2019-01-24 23:15:00.0,SoPmdAve,2697.23,CHCGILDTO6Y
MA6813400180,h_OCHCTP,11-L1-3,2019-01-24 23:30:00.0,Qmin,9.0,CHCGILDTO6Y
MA6813400180,h_OCHCTP,11-L1-3,2019-01-24 23:30:00.0,PhaseCorrectionAve,-0.061,CHCGILDTO6Y
MA6813400180,h_OCHCTP,11-L1-3,2019-01-24 23:30:00.0,BerPreFecMax,0.00241,CHCGILDTO6Y
MA6813400180,h_OCHCTP,11-L1-3,2019-01-24 23:30:00.0,PmdMin,0.801,CHCGILDTO6Y
MA6813400180,h_OCHCTP,11-L1-3,2019-01-24 23:30:00.0,SoPmdAve,2648.87,CHCGILDTO6Y
MA6813400180,h_OCHCTP,11-L1-3,2019-01-24 23:45:00.0,Qmin,9.05,CHCGILDTO6Y
MA6813400180,h_OCHCTP,11-L1-3,2019-01-24 23:45:00.0,PhaseCorrectionAve,2.97e-07,CHCGILDTO6Y
MA6813400180,h_OCHCTP,11-L1-3,2019-01-24 23:45:00.0,BerPreFecMax,0.0023,CHCGILDTO6Y
MA6813400180,h_OCHCTP,11-L1-3,2019-01-24 23:45:00.0,PmdMin,0.909,CHCGILDTO6Y
MA6813400180,h_OCHCTP,11-L1-3,2019-01-24 23:45:00.0,SoPmdAve,2715.4,CHCGILDTO6Y
MA6813400180,h_OCHCTP,11-L1-4,2019-01-24 23:15:00.0,Qmin,8.78,CHCGILDTO6Y
MA6813400180,h_OCHCTP,11-L1-4,2019-01-24 23:15:00.0,PhaseCorrectionAve,-0.183,CHCGILDTO6Y
MA6813400180,h_OCHCTP,11-L1-4,2019-01-24 23:15:00.0,BerPreFecMax,0.003,CHCGILDTO6Y
MA6813400180,h_OCHCTP,11-L1-4,2019-01-24 23:15:00.0,PmdMin,1.11,CHCGILDTO6Y
MA6813400180,h_OCHCTP,11-L1-4,2019-01-24 23:15:00.0,SoPmdAve,3002.29,CHCGILDTO6Y
MA6813400180,h_OCHCTP,11-L1-4,2019-01-24 23:30:00.0,Qmin,8.8,CHCGILDTO6Y
MA6813400180,h_OCHCTP,11-L1-4,2019-01-24 23:30:00.0,PhaseCorrectionAve,-0.244,CHCGILDTO6Y
MA6813400180,h_OCHCTP,11-L1-4,2019-01-24 23:30:00.0,BerPreFecMax,0.00295,CHCGILDTO6Y
MA6813400180,h_OCHCTP,11-L1-4,2019-01-24 23:30:00.0,PmdMin,1.04,CHCGILDTO6Y
MA6813400180,h_OCHCTP,11-L1-4,2019-01-24 23:30:00.0,SoPmdAve,2906.35,CHCGILDTO6Y
MA6813400180,h_OCHCTP,11-L1-4,2019-01-24 23:45:00.0,Qmin,8.86,CHCGILDTO6Y
MA6813400180,h_OCHCTP,11-L1-4,2019-01-24 23:45:00.0,PhaseCorrectionAve,4.21e-07,CHCGILDTO6Y
MA6813400180,h_OCHCTP,11-L1-4,2019-01-24 23:45:00.0,BerPreFecMax,0.00277,CHCGILDTO6Y
MA6813400180,h_OCHCTP,11-L1-4,2019-01-24 23:45:00.0,PmdMin,0.848,CHCGILDTO6Y
MA6813400180,h_OCHCTP,11-L1-4,2019-01-24 23:45:00.0,SoPmdAve,2959.8,CHCGILDTO6Y
MA6813400180,h_OCHCTP,11-L1-5,2019-01-24 23:15:00.0,Qmin,8.82,CHCGILDTO6Y
MA6813400180,h_OCHCTP,11-L1-5,2019-01-24 23:15:00.0,PhaseCorrectionAve,-0.244,CHCGILDTO6Y
MA6813400180,h_OCHCTP,11-L1-5,2019-01-24 23:15:00.0,BerPreFecMax,0.00289,CHCGILDTO6Y
MA6813400180,h_OCHCTP,11-L1-5,2019-01-24 23:15:00.0,PmdMin,0.514,CHCGILDTO6Y
MA6813400180,h_OCHCTP,11-L1-5,2019-01-24 23:15:00.0,SoPmdAve,2539.58,CHCGILDTO6Y
MA6813400180,h_OCHCTP,11-L1-5,2019-01-24 23:30:00.0,Qmin,8.82,CHCGILDTO6Y
MA6813400180,h_OCHCTP,11-L1-5,2019-01-24 23:30:00.0,PhaseCorrectionAve,-0.305,CHCGILDTO6Y
MA6813400180,h_OCHCTP,11-L1-5,2019-01-24 23:30:00.0,BerPreFecMax,0.00287,CHCGILDTO6Y
MA6813400180,h_OCHCTP,11-L1-5,2019-01-24 23:30:00.0,PmdMin,0.463,CHCGILDTO6Y
MA6813400180,h_OCHCTP,11-L1-5,2019-01-24 23:30:00.0,SoPmdAve,2546.14,CHCGILDTO6Y
MA6813400180,h_OCHCTP,11-L1-5,2019-01-24 23:45:00.0,Qmin,8.82,CHCGILDTO6Y
MA6813400180,h_OCHCTP,11-L1-5,2019-01-24 23:45:00.0,PhaseCorrectionAve,-0.061,CHCGILDTO6Y
MA6813400180,h_OCHCTP,11-L1-5,2019-01-24 23:45:00.0,BerPreFecMax,0.00289,CHCGILDTO6Y
MA6813400180,h_OCHCTP,11-L1-5,2019-01-24 23:45:00.0,PmdMin,1.02,CHCGILDTO6Y
MA6813400180,h_OCHCTP,11-L1-5,2019-01-24 23:45:00.0,SoPmdAve,2511.59,CHCGILDTO6Y
MA6813400180,h_OCHCTP,11-L1-6,2019-01-24 23:15:00.0,Qmin,8.78,CHCGILDTO6Y
MA6813400180,h_OCHCTP,11-L1-6,2019-01-24 23:15:00.0,PhaseCorrectionAve,-0.244,CHCGILDTO6Y
MA6813400180,h_OCHCTP,11-L1-6,2019-01-24 23:15:00.0,BerPreFecMax,0.003,CHCGILDTO6Y
MA6813400180,h_OCHCTP,11-L1-6,2019-01-24 23:15:00.0,PmdMin,0.764,CHCGILDTO6Y
MA6813400180,h_OCHCTP,11-L1-6,2019-01-24 23:15:00.0,SoPmdAve,2520.14,CHCGILDTO6Y
MA6813400180,h_OCHCTP,11-L1-6,2019-01-24 23:30:00.0,Qmin,8.78,CHCGILDTO6Y
MA6813400180,h_OCHCTP,11-L1-6,2019-01-24 23:30:00.0,PhaseCorrectionAve,-0.305,CHCGILDTO6Y
MA6813400180,h_OCHCTP,11-L1-6,2019-01-24 23:30:00.0,BerPreFecMax,0.00298,CHCGILDTO6Y
MA6813400180,h_OCHCTP,11-L1-6,2019-01-24 23:30:00.0,PmdMin,1.23,CHCGILDTO6Y
MA6813400180,h_OCHCTP,11-L1-6,2019-01-24 23:30:00.0,SoPmdAve,2578.26,CHCGILDTO6Y
MA6813400180,h_OCHCTP,11-L1-6,2019-01-24 23:45:00.0,Qmin,8.75,CHCGILDTO6Y
MA6813400180,h_OCHCTP,11-L1-6,2019-01-24 23:45:00.0,PhaseCorrectionAve,-0.061,CHCGILDTO6Y
MA6813400180,h_OCHCTP,11-L1-6,2019-01-24 23:45:00.0,BerPreFecMax,0.00309,CHCGILDTO6Y
MA6813400180,h_OCHCTP,11-L1-6,2019-01-24 23:45:00.0,PmdMin,0.645,CHCGILDTO6Y
MA6813400180,h_OCHCTP,11-L1-6,2019-01-24 23:45:00.0,SoPmdAve,2542.04,CHCGILDTO6Y
MA6813400180,h_OCHCTP,11-L1-7,2019-01-24 23:15:00.0,Qmin,8.91,CHCGILDTO6Y
MA6813400180,h_OCHCTP,11-L1-7,2019-01-24 23:15:00.0,PhaseCorrectionAve,-0.244,CHCGILDTO6Y
MA6813400180,h_OCHCTP,11-L1-7,2019-01-24 23:15:00.0,BerPreFecMax,0.00263,CHCGILDTO6Y
MA6813400180,h_OCHCTP,11-L1-7,2019-01-24 23:15:00.0,PmdMin,1.06,CHCGILDTO6Y
MA6813400180,h_OCHCTP,11-L1-7,2019-01-24 23:15:00.0,SoPmdAve,3082.08,CHCGILDTO6Y
MA6813400180,h_OCHCTP,11-L1-7,2019-01-24 23:30:00.0,Qmin,8.84,CHCGILDTO6Y
MA6813400180,h_OCHCTP,11-L1-7,2019-01-24 23:30:00.0,PhaseCorrectionAve,-0.305,CHCGILDTO6Y
MA6813400180,h_OCHCTP,11-L1-7,2019-01-24 23:30:00.0,BerPreFecMax,0.00284,CHCGILDTO6Y
MA6813400180,h_OCHCTP,11-L1-7,2019-01-24 23:30:00.0,PmdMin,0.641,CHCGILDTO6Y
MA6813400180,h_OCHCTP,11-L1-7,2019-01-24 23:30:00.0,SoPmdAve,3026.61,CHCGILDTO6Y
MA6813400180,h_OCHCTP,11-L1-7,2019-01-24 23:45:00.0,Qmin,8.81,CHCGILDTO6Y
MA6813400180,h_OCHCTP,11-L1-7,2019-01-24 23:45:00.0,PhaseCorrectionAve,-0.061,CHCGILDTO6Y
MA6813400180,h_OCHCTP,11-L1-7,2019-01-24 23:45:00.0,BerPreFecMax,0.00292,CHCGILDTO6Y
MA6813400180,h_OCHCTP,11-L1-7,2019-01-24 23:45:00.0,PmdMin,1.23,CHCGILDTO6Y
MA6813400180,h_OCHCTP,11-L1-7,2019-01-24 23:45:00.0,SoPmdAve,2990.87,CHCGILDTO6Y
MA6813400180,h_OCHCTP,11-L1-8,2019-01-24 23:15:00.0,Qmin,9.0,CHCGILDTO6Y
MA6813400180,h_OCHCTP,11-L1-8,2019-01-24 23:15:00.0,PhaseCorrectionAve,-0.244,CHCGILDTO6Y
MA6813400180,h_OCHCTP,11-L1-8,2019-01-24 23:15:00.0,BerPreFecMax,0.00242,CHCGILDTO6Y
MA6813400180,h_OCHCTP,11-L1-8,2019-01-24 23:15:00.0,PmdMin,0.642,CHCGILDTO6Y
MA6813400180,h_OCHCTP,11-L1-8,2019-01-24 23:15:00.0,SoPmdAve,3048.01,CHCGILDTO6Y
MA6813400180,h_OCHCTP,11-L1-8,2019-01-24 23:30:00.0,Qmin,8.97,CHCGILDTO6Y
MA6813400180,h_OCHCTP,11-L1-8,2019-01-24 23:30:00.0,PhaseCorrectionAve,-0.366,CHCGILDTO6Y
MA6813400180,h_OCHCTP,11-L1-8,2019-01-24 23:30:00.0,BerPreFecMax,0.00248,CHCGILDTO6Y
MA6813400180,h_OCHCTP,11-L1-8,2019-01-24 23:30:00.0,PmdMin,0.769,CHCGILDTO6Y
MA6813400180,h_OCHCTP,11-L1-8,2019-01-24 23:30:00.0,SoPmdAve,3223.38,CHCGILDTO6Y
MA6813400180,h_OCHCTP,11-L1-8,2019-01-24 23:45:00.0,Qmin,8.98,CHCGILDTO6Y
MA6813400180,h_OCHCTP,11-L1-8,2019-01-24 23:45:00.0,PhaseCorrectionAve,-0.061,CHCGILDTO6Y
MA6813400180,h_OCHCTP,11-L1-8,2019-01-24 23:45:00.0,BerPreFecMax,0.00245,CHCGILDTO6Y
MA6813400180,h_OCHCTP,11-L1-8,2019-01-24 23:45:00.0,PmdMin,0.902,CHCGILDTO6Y
MA6813400180,h_OCHCTP,11-L1-8,2019-01-24 23:45:00.0,SoPmdAve,3165.59,CHCGILDTO6Y
MA6813400180,h_OCHCTP,11-L1-9,2019-01-24 23:15:00.0,Qmin,8.91,CHCGILDTO6Y
MA6813400180,h_OCHCTP,11-L1-9,2019-01-24 23:15:00.0,PhaseCorrectionAve,-0.244,CHCGILDTO6Y
MA6813400180,h_OCHCTP,11-L1-9,2019-01-24 23:15:00.0,BerPreFecMax,0.00265,CHCGILDTO6Y
MA6813400180,h_OCHCTP,11-L1-9,2019-01-24 23:15:00.0,PmdMin,0.93,CHCGILDTO6Y
MA6813400180,h_OCHCTP,11-L1-9,2019-01-24 23:15:00.0,SoPmdAve,3140.98,CHCGILDTO6Y
MA6813400180,h_OCHCTP,11-L1-9,2019-01-24 23:30:00.0,Qmin,8.89,CHCGILDTO6Y
MA6813400180,h_OCHCTP,11-L1-9,2019-01-24 23:30:00.0,PhaseCorrectionAve,-0.366,CHCGILDTO6Y
MA6813400180,h_OCHCTP,11-L1-9,2019-01-24 23:30:00.0,BerPreFecMax,0.0027,CHCGILDTO6Y
MA6813400180,h_OCHCTP,11-L1-9,2019-01-24 23:30:00.0,PmdMin,0.477,CHCGILDTO6Y
MA6813400180,h_OCHCTP,11-L1-9,2019-01-24 23:30:00.0,SoPmdAve,3081.64,CHCGILDTO6Y
MA6813400180,h_OCHCTP,11-L1-9,2019-01-24 23:45:00.0,Qmin,8.95,CHCGILDTO6Y
MA6813400180,h_OCHCTP,11-L1-9,2019-01-24 23:45:00.0,PhaseCorrectionAve,-0.061,CHCGILDTO6Y
MA6813400180,h_OCHCTP,11-L1-9,2019-01-24 23:45:00.0,BerPreFecMax,0.00253,CHCGILDTO6Y
MA6813400180,h_OCHCTP,11-L1-9,2019-01-24 23:45:00.0,PmdMin,0.518,CHCGILDTO6Y
MA6813400180,h_OCHCTP,11-L1-9,2019-01-24 23:45:00.0,SoPmdAve,3149.12,CHCGILDTO6Y
MA6813400180,h_OCHCTP,11-L1-10,2019-01-24 23:15:00.0,Qmin,9.0,CHCGILDTO6Y
MA6813400180,h_OCHCTP,11-L1-10,2019-01-24 23:15:00.0,PhaseCorrectionAve,-0.244,CHCGILDTO6Y
MA6813400180,h_OCHCTP,11-L1-10,2019-01-24 23:15:00.0,BerPreFecMax,0.0024,CHCGILDTO6Y
MA6813400180,h_OCHCTP,11-L1-10,2019-01-24 23:15:00.0,PmdMin,0.892,CHCGILDTO6Y
MA6813400180,h_OCHCTP,11-L1-10,2019-01-24 23:15:00.0,SoPmdAve,3167.23,CHCGILDTO6Y
MA6813400180,h_OCHCTP,11-L1-10,2019-01-24 23:30:00.0,Qmin,9.0,CHCGILDTO6Y
MA6813400180,h_OCHCTP,11-L1-10,2019-01-24 23:30:00.0,PhaseCorrectionAve,-0.366,CHCGILDTO6Y
MA6813400180,h_OCHCTP,11-L1-10,2019-01-24 23:30:00.0,BerPreFecMax,0.00241,CHCGILDTO6Y
MA6813400180,h_OCHCTP,11-L1-10,2019-01-24 23:30:00.0,PmdMin,1.05,CHCGILDTO6Y
MA6813400180,h_OCHCTP,11-L1-10,2019-01-24 23:30:00.0,SoPmdAve,3083.11,CHCGILDTO6Y
MA6813400180,h_OCHCTP,11-L1-10,2019-01-24 23:45:00.0,Qmin,9.08,CHCGILDTO6Y
MA6813400180,h_OCHCTP,11-L1-10,2019-01-24 23:45:00.0,PhaseCorrectionAve,-0.122,CHCGILDTO6Y
MA6813400180,h_OCHCTP,11-L1-10,2019-01-24 23:45:00.0,BerPreFecMax,0.00222,CHCGILDTO6Y
MA6813400180,h_OCHCTP,11-L1-10,2019-01-24 23:45:00.0,PmdMin,0.642,CHCGILDTO6Y
MA6813400180,h_OCHCTP,11-L1-10,2019-01-24 23:45:00.0,SoPmdAve,3101.4,CHCGILDTO6Y
MA6813400180,h_OCHCTP,10-L1-1,2019-01-24 23:15:00.0,Qmin,9.43,CHCGILDTO6Y
MA6813400180,h_OCHCTP,10-L1-1,2019-01-24 23:15:00.0,PhaseCorrectionAve,4.06e-07,CHCGILDTO6Y
MA6813400180,h_OCHCTP,10-L1-1,2019-01-24 23:15:00.0,BerPreFecMax,0.00153,CHCGILDTO6Y
MA6813400180,h_OCHCTP,10-L1-1,2019-01-24 23:15:00.0,PmdMin,1.45,CHCGILDTO6Y
MA6813400180,h_OCHCTP,10-L1-1,2019-01-24 23:15:00.0,SoPmdAve,3366.33,CHCGILDTO6Y
MA6813400180,h_OCHCTP,10-L1-1,2019-01-24 23:30:00.0,Qmin,9.41,CHCGILDTO6Y
MA6813400180,h_OCHCTP,10-L1-1,2019-01-24 23:30:00.0,PhaseCorrectionAve,4.01e-07,CHCGILDTO6Y
MA6813400180,h_OCHCTP,10-L1-1,2019-01-24 23:30:00.0,BerPreFecMax,0.00157,CHCGILDTO6Y
MA6813400180,h_OCHCTP,10-L1-1,2019-01-24 23:30:00.0,PmdMin,0.906,CHCGILDTO6Y
MA6813400180,h_OCHCTP,10-L1-1,2019-01-24 23:30:00.0,SoPmdAve,3288.58,CHCGILDTO6Y
MA6813400180,h_OCHCTP,10-L1-1,2019-01-24 23:45:00.0,Qmin,9.39,CHCGILDTO6Y
MA6813400180,h_OCHCTP,10-L1-1,2019-01-24 23:45:00.0,PhaseCorrectionAve,4.46e-07,CHCGILDTO6Y
MA6813400180,h_OCHCTP,10-L1-1,2019-01-24 23:45:00.0,BerPreFecMax,0.0016,CHCGILDTO6Y
MA6813400180,h_OCHCTP,10-L1-1,2019-01-24 23:45:00.0,PmdMin,2.29,CHCGILDTO6Y
MA6813400180,h_OCHCTP,10-L1-1,2019-01-24 23:45:00.0,SoPmdAve,3255.58,CHCGILDTO6Y
MA6813400180,h_OCHCTP,10-L1-2,2019-01-24 23:15:00.0,Qmin,9.1,CHCGILDTO6Y
MA6813400180,h_OCHCTP,10-L1-2,2019-01-24 23:15:00.0,PhaseCorrectionAve,3.44e-07,CHCGILDTO6Y
MA6813400180,h_OCHCTP,10-L1-2,2019-01-24 23:15:00.0,BerPreFecMax,0.00217,CHCGILDTO6Y
MA6813400180,h_OCHCTP,10-L1-2,2019-01-24 23:15:00.0,PmdMin,1.34,CHCGILDTO6Y
MA6813400180,h_OCHCTP,10-L1-2,2019-01-24 23:15:00.0,SoPmdAve,3451.08,CHCGILDTO6Y
MA6813400180,h_OCHCTP,10-L1-2,2019-01-24 23:30:00.0,Qmin,9.08,CHCGILDTO6Y
MA6813400180,h_OCHCTP,10-L1-2,2019-01-24 23:30:00.0,PhaseCorrectionAve,3.5e-07,CHCGILDTO6Y
MA6813400180,h_OCHCTP,10-L1-2,2019-01-24 23:30:00.0,BerPreFecMax,0.00222,CHCGILDTO6Y
MA6813400180,h_OCHCTP,10-L1-2,2019-01-24 23:30:00.0,PmdMin,1.66,CHCGILDTO6Y
MA6813400180,h_OCHCTP,10-L1-2,2019-01-24 23:30:00.0,SoPmdAve,3489.15,CHCGILDTO6Y
MA6813400180,h_OCHCTP,10-L1-2,2019-01-24 23:45:00.0,Qmin,9.08,CHCGILDTO6Y
MA6813400180,h_OCHCTP,10-L1-2,2019-01-24 23:45:00.0,PhaseCorrectionAve,4.08e-07,CHCGILDTO6Y
MA6813400180,h_OCHCTP,10-L1-2,2019-01-24 23:45:00.0,BerPreFecMax,0.00223,CHCGILDTO6Y
MA6813400180,h_OCHCTP,10-L1-2,2019-01-24 23:45:00.0,PmdMin,0.897,CHCGILDTO6Y
MA6813400180,h_OCHCTP,10-L1-2,2019-01-24 23:45:00.0,SoPmdAve,3432.28,CHCGILDTO6Y
MA6813400180,h_OCHCTP,10-L1-3,2019-01-24 23:15:00.0,Qmin,8.81,CHCGILDTO6Y
MA6813400180,h_OCHCTP,10-L1-3,2019-01-24 23:15:00.0,PhaseCorrectionAve,-0.061,CHCGILDTO6Y
MA6813400180,h_OCHCTP,10-L1-3,2019-01-24 23:15:00.0,BerPreFecMax,0.00291,CHCGILDTO6Y
MA6813400180,h_OCHCTP,10-L1-3,2019-01-24 23:15:00.0,PmdMin,1.22,CHCGILDTO6Y
MA6813400180,h_OCHCTP,10-L1-3,2019-01-24 23:15:00.0,SoPmdAve,2865.78,CHCGILDTO6Y
MA6813400180,h_OCHCTP,10-L1-3,2019-01-24 23:30:00.0,Qmin,8.8,CHCGILDTO6Y
MA6813400180,h_OCHCTP,10-L1-3,2019-01-24 23:30:00.0,PhaseCorrectionAve,-0.122,CHCGILDTO6Y
MA6813400180,h_OCHCTP,10-L1-3,2019-01-24 23:30:00.0,BerPreFecMax,0.00293,CHCGILDTO6Y
MA6813400180,h_OCHCTP,10-L1-3,2019-01-24 23:30:00.0,PmdMin,1.46,CHCGILDTO6Y
MA6813400180,h_OCHCTP,10-L1-3,2019-01-24 23:30:00.0,SoPmdAve,2884.97,CHCGILDTO6Y
MA6813400180,h_OCHCTP,10-L1-3,2019-01-24 23:45:00.0,Qmin,8.78,CHCGILDTO6Y
MA6813400180,h_OCHCTP,10-L1-3,2019-01-24 23:45:00.0,PhaseCorrectionAve,6.72e-07,CHCGILDTO6Y
MA6813400180,h_OCHCTP,10-L1-3,2019-01-24 23:45:00.0,BerPreFecMax,0.00298,CHCGILDTO6Y
MA6813400180,h_OCHCTP,10-L1-3,2019-01-24 23:45:00.0,PmdMin,1.32,CHCGILDTO6Y
MA6813400180,h_OCHCTP,10-L1-3,2019-01-24 23:45:00.0,SoPmdAve,2872.32,CHCGILDTO6Y
MA6813400180,h_OCHCTP,10-L1-4,2019-01-24 23:15:00.0,Qmin,8.22,CHCGILDTO6Y
MA6813400180,h_OCHCTP,10-L1-4,2019-01-24 23:15:00.0,PhaseCorrectionAve,-0.061,CHCGILDTO6Y
MA6813400180,h_OCHCTP,10-L1-4,2019-01-24 23:15:00.0,BerPreFecMax,0.00499,CHCGILDTO6Y
MA6813400180,h_OCHCTP,10-L1-4,2019-01-24 23:15:00.0,PmdMin,1.35,CHCGILDTO6Y
MA6813400180,h_OCHCTP,10-L1-4,2019-01-24 23:15:00.0,SoPmdAve,3010.78,CHCGILDTO6Y
MA6813400180,h_OCHCTP,10-L1-4,2019-01-24 23:30:00.0,Qmin,8.2,CHCGILDTO6Y
MA6813400180,h_OCHCTP,10-L1-4,2019-01-24 23:30:00.0,PhaseCorrectionAve,-0.122,CHCGILDTO6Y
MA6813400180,h_OCHCTP,10-L1-4,2019-01-24 23:30:00.0,BerPreFecMax,0.00506,CHCGILDTO6Y
MA6813400180,h_OCHCTP,10-L1-4,2019-01-24 23:30:00.0,PmdMin,2.01,CHCGILDTO6Y
MA6813400180,h_OCHCTP,10-L1-4,2019-01-24 23:30:00.0,SoPmdAve,3028.87,CHCGILDTO6Y
MA6813400180,h_OCHCTP,10-L1-4,2019-01-24 23:45:00.0,Qmin,8.22,CHCGILDTO6Y
MA6813400180,h_OCHCTP,10-L1-4,2019-01-24 23:45:00.0,PhaseCorrectionAve,3.7e-06,CHCGILDTO6Y
MA6813400180,h_OCHCTP,10-L1-4,2019-01-24 23:45:00.0,BerPreFecMax,0.00499,CHCGILDTO6Y
MA6813400180,h_OCHCTP,10-L1-4,2019-01-24 23:45:00.0,PmdMin,1.32,CHCGILDTO6Y
MA6813400180,h_OCHCTP,10-L1-4,2019-01-24 23:45:00.0,SoPmdAve,3047.35,CHCGILDTO6Y
MA6813400180,h_OCHCTP,10-L1-5,2019-01-24 23:15:00.0,Qmin,8.43,CHCGILDTO6Y
MA6813400180,h_OCHCTP,10-L1-5,2019-01-24 23:15:00.0,PhaseCorrectionAve,-0.061,CHCGILDTO6Y
MA6813400180,h_OCHCTP,10-L1-5,2019-01-24 23:15:00.0,BerPreFecMax,0.00416,CHCGILDTO6Y
MA6813400180,h_OCHCTP,10-L1-5,2019-01-24 23:15:00.0,PmdMin,2.22,CHCGILDTO6Y
MA6813400180,h_OCHCTP,10-L1-5,2019-01-24 23:15:00.0,SoPmdAve,2888.2,CHCGILDTO6Y
MA6813400180,h_OCHCTP,10-L1-5,2019-01-24 23:30:00.0,Qmin,8.42,CHCGILDTO6Y
MA6813400180,h_OCHCTP,10-L1-5,2019-01-24 23:30:00.0,PhaseCorrectionAve,-0.122,CHCGILDTO6Y
MA6813400180,h_OCHCTP,10-L1-5,2019-01-24 23:30:00.0,BerPreFecMax,0.00418,CHCGILDTO6Y
MA6813400180,h_OCHCTP,10-L1-5,2019-01-24 23:30:00.0,PmdMin,2.58,CHCGILDTO6Y
MA6813400180,h_OCHCTP,10-L1-5,2019-01-24 23:30:00.0,SoPmdAve,2846.87,CHCGILDTO6Y
MA6813400180,h_OCHCTP,10-L1-5,2019-01-24 23:45:00.0,Qmin,8.41,CHCGILDTO6Y
MA6813400180,h_OCHCTP,10-L1-5,2019-01-24 23:45:00.0,PhaseCorrectionAve,1.71e-06,CHCGILDTO6Y
MA6813400180,h_OCHCTP,10-L1-5,2019-01-24 23:45:00.0,BerPreFecMax,0.00422,CHCGILDTO6Y
MA6813400180,h_OCHCTP,10-L1-5,2019-01-24 23:45:00.0,PmdMin,1.22,CHCGILDTO6Y
MA6813400180,h_OCHCTP,10-L1-5,2019-01-24 23:45:00.0,SoPmdAve,2777.86,CHCGILDTO6Y
MA6813400180,h_OCHCTP,10-L1-6,2019-01-24 23:15:00.0,Qmin,8.68,CHCGILDTO6Y
MA6813400180,h_OCHCTP,10-L1-6,2019-01-24 23:15:00.0,PhaseCorrectionAve,-0.061,CHCGILDTO6Y
MA6813400180,h_OCHCTP,10-L1-6,2019-01-24 23:15:00.0,BerPreFecMax,0.00331,CHCGILDTO6Y
MA6813400180,h_OCHCTP,10-L1-6,2019-01-24 23:15:00.0,PmdMin,2.51,CHCGILDTO6Y
MA6813400180,h_OCHCTP,10-L1-6,2019-01-24 23:15:00.0,SoPmdAve,2826.86,CHCGILDTO6Y
MA6813400180,h_OCHCTP,10-L1-6,2019-01-24 23:30:00.0,Qmin,8.66,CHCGILDTO6Y
MA6813400180,h_OCHCTP,10-L1-6,2019-01-24 23:30:00.0,PhaseCorrectionAve,-0.122,CHCGILDTO6Y
MA6813400180,h_OCHCTP,10-L1-6,2019-01-24 23:30:00.0,BerPreFecMax,0.00337,CHCGILDTO6Y
MA6813400180,h_OCHCTP,10-L1-6,2019-01-24 23:30:00.0,PmdMin,1.47,CHCGILDTO6Y
MA6813400180,h_OCHCTP,10-L1-6,2019-01-24 23:30:00.0,SoPmdAve,2862.57,CHCGILDTO6Y
MA6813400180,h_OCHCTP,10-L1-6,2019-01-24 23:45:00.0,Qmin,8.66,CHCGILDTO6Y
MA6813400180,h_OCHCTP,10-L1-6,2019-01-24 23:45:00.0,PhaseCorrectionAve,-0.122,CHCGILDTO6Y
MA6813400180,h_OCHCTP,10-L1-6,2019-01-24 23:45:00.0,BerPreFecMax,0.00336,CHCGILDTO6Y
MA6813400180,h_OCHCTP,10-L1-6,2019-01-24 23:45:00.0,PmdMin,0.78,CHCGILDTO6Y
MA6813400180,h_OCHCTP,10-L1-6,2019-01-24 23:45:00.0,SoPmdAve,2876.12,CHCGILDTO6Y
MA6813400180,h_OCHCTP,10-L1-7,2019-01-24 23:15:00.0,Qmin,8.77,CHCGILDTO6Y
MA6813400180,h_OCHCTP,10-L1-7,2019-01-24 23:15:00.0,PhaseCorrectionAve,-0.061,CHCGILDTO6Y
MA6813400180,h_OCHCTP,10-L1-7,2019-01-24 23:15:00.0,BerPreFecMax,0.00302,CHCGILDTO6Y
MA6813400180,h_OCHCTP,10-L1-7,2019-01-24 23:15:00.0,PmdMin,5.51,CHCGILDTO6Y
MA6813400180,h_OCHCTP,10-L1-7,2019-01-24 23:15:00.0,SoPmdAve,3458.04,CHCGILDTO6Y
MA6813400180,h_OCHCTP,10-L1-7,2019-01-24 23:30:00.0,Qmin,8.76,CHCGILDTO6Y
MA6813400180,h_OCHCTP,10-L1-7,2019-01-24 23:30:00.0,PhaseCorrectionAve,-0.122,CHCGILDTO6Y
MA6813400180,h_OCHCTP,10-L1-7,2019-01-24 23:30:00.0,BerPreFecMax,0.00306,CHCGILDTO6Y
MA6813400180,h_OCHCTP,10-L1-7,2019-01-24 23:30:00.0,PmdMin,4.4,CHCGILDTO6Y
MA6813400180,h_OCHCTP,10-L1-7,2019-01-24 23:30:00.0,SoPmdAve,3415.75,CHCGILDTO6Y
MA6813400180,h_OCHCTP,10-L1-7,2019-01-24 23:45:00.0,Qmin,8.76,CHCGILDTO6Y
MA6813400180,h_OCHCTP,10-L1-7,2019-01-24 23:45:00.0,PhaseCorrectionAve,-0.122,CHCGILDTO6Y
MA6813400180,h_OCHCTP,10-L1-7,2019-01-24 23:45:00.0,BerPreFecMax,0.00305,CHCGILDTO6Y
MA6813400180,h_OCHCTP,10-L1-7,2019-01-24 23:45:00.0,PmdMin,4.63,CHCGILDTO6Y
MA6813400180,h_OCHCTP,10-L1-7,2019-01-24 23:45:00.0,SoPmdAve,3464.03,CHCGILDTO6Y
MA6813400180,h_OCHCTP,10-L1-8,2019-01-24 23:15:00.0,Qmin,9.3,CHCGILDTO6Y
MA6813400180,h_OCHCTP,10-L1-8,2019-01-24 23:15:00.0,PhaseCorrectionAve,-0.061,CHCGILDTO6Y
MA6813400180,h_OCHCTP,10-L1-8,2019-01-24 23:15:00.0,BerPreFecMax,0.00177,CHCGILDTO6Y
MA6813400180,h_OCHCTP,10-L1-8,2019-01-24 23:15:00.0,PmdMin,1.71,CHCGILDTO6Y
MA6813400180,h_OCHCTP,10-L1-8,2019-01-24 23:15:00.0,SoPmdAve,3371.86,CHCGILDTO6Y
MA6813400180,h_OCHCTP,10-L1-8,2019-01-24 23:30:00.0,Qmin,9.29,CHCGILDTO6Y
MA6813400180,h_OCHCTP,10-L1-8,2019-01-24 23:30:00.0,PhaseCorrectionAve,-0.183,CHCGILDTO6Y
MA6813400180,h_OCHCTP,10-L1-8,2019-01-24 23:30:00.0,BerPreFecMax,0.00179,CHCGILDTO6Y
MA6813400180,h_OCHCTP,10-L1-8,2019-01-24 23:30:00.0,PmdMin,0.958,CHCGILDTO6Y
MA6813400180,h_OCHCTP,10-L1-8,2019-01-24 23:30:00.0,SoPmdAve,3504.74,CHCGILDTO6Y
MA6813400180,h_OCHCTP,10-L1-8,2019-01-24 23:45:00.0,Qmin,9.28,CHCGILDTO6Y
MA6813400180,h_OCHCTP,10-L1-8,2019-01-24 23:45:00.0,PhaseCorrectionAve,-0.244,CHCGILDTO6Y
MA6813400180,h_OCHCTP,10-L1-8,2019-01-24 23:45:00.0,BerPreFecMax,0.0018,CHCGILDTO6Y
MA6813400180,h_OCHCTP,10-L1-8,2019-01-24 23:45:00.0,PmdMin,1.76,CHCGILDTO6Y
MA6813400180,h_OCHCTP,10-L1-8,2019-01-24 23:45:00.0,SoPmdAve,3488.56,CHCGILDTO6Y
MA6813400180,h_OCHCTP,10-L1-9,2019-01-24 23:15:00.0,Qmin,9.32,CHCGILDTO6Y
MA6813400180,h_OCHCTP,10-L1-9,2019-01-24 23:15:00.0,PhaseCorrectionAve,-0.183,CHCGILDTO6Y
MA6813400180,h_OCHCTP,10-L1-9,2019-01-24 23:15:00.0,BerPreFecMax,0.00173,CHCGILDTO6Y
MA6813400180,h_OCHCTP,10-L1-9,2019-01-24 23:15:00.0,PmdMin,1.8,CHCGILDTO6Y
MA6813400180,h_OCHCTP,10-L1-9,2019-01-24 23:15:00.0,SoPmdAve,3473.85,CHCGILDTO6Y
MA6813400180,h_OCHCTP,10-L1-9,2019-01-24 23:30:00.0,Qmin,9.31,CHCGILDTO6Y
MA6813400180,h_OCHCTP,10-L1-9,2019-01-24 23:30:00.0,PhaseCorrectionAve,-0.183,CHCGILDTO6Y
MA6813400180,h_OCHCTP,10-L1-9,2019-01-24 23:30:00.0,BerPreFecMax,0.00174,CHCGILDTO6Y
MA6813400180,h_OCHCTP,10-L1-9,2019-01-24 23:30:00.0,PmdMin,1.37,CHCGILDTO6Y
MA6813400180,h_OCHCTP,10-L1-9,2019-01-24 23:30:00.0,SoPmdAve,3411.07,CHCGILDTO6Y
MA6813400180,h_OCHCTP,10-L1-9,2019-01-24 23:45:00.0,Qmin,9.31,CHCGILDTO6Y
MA6813400180,h_OCHCTP,10-L1-9,2019-01-24 23:45:00.0,PhaseCorrectionAve,-0.244,CHCGILDTO6Y
MA6813400180,h_OCHCTP,10-L1-9,2019-01-24 23:45:00.0,BerPreFecMax,0.00175,CHCGILDTO6Y
MA6813400180,h_OCHCTP,10-L1-9,2019-01-24 23:45:00.0,PmdMin,1.69,CHCGILDTO6Y
MA6813400180,h_OCHCTP,10-L1-9,2019-01-24 23:45:00.0,SoPmdAve,3436.66,CHCGILDTO6Y
MA6813400180,h_OCHCTP,10-L1-10,2019-01-24 23:15:00.0,Qmin,9.36,CHCGILDTO6Y
MA6813400180,h_OCHCTP,10-L1-10,2019-01-24 23:15:00.0,PhaseCorrectionAve,-0.183,CHCGILDTO6Y
MA6813400180,h_OCHCTP,10-L1-10,2019-01-24 23:15:00.0,BerPreFecMax,0.00165,CHCGILDTO6Y
MA6813400180,h_OCHCTP,10-L1-10,2019-01-24 23:15:00.0,PmdMin,3.53,CHCGILDTO6Y
MA6813400180,h_OCHCTP,10-L1-10,2019-01-24 23:15:00.0,SoPmdAve,3265.81,CHCGILDTO6Y
MA6813400180,h_OCHCTP,10-L1-10,2019-01-24 23:30:00.0,Qmin,9.36,CHCGILDTO6Y
MA6813400180,h_OCHCTP,10-L1-10,2019-01-24 23:30:00.0,PhaseCorrectionAve,-0.244,CHCGILDTO6Y
MA6813400180,h_OCHCTP,10-L1-10,2019-01-24 23:30:00.0,BerPreFecMax,0.00165,CHCGILDTO6Y
MA6813400180,h_OCHCTP,10-L1-10,2019-01-24 23:30:00.0,PmdMin,3.07,CHCGILDTO6Y
MA6813400180,h_OCHCTP,10-L1-10,2019-01-24 23:30:00.0,SoPmdAve,3246.1,CHCGILDTO6Y
MA6813400180,h_OCHCTP,10-L1-10,2019-01-24 23:45:00.0,Qmin,9.34,CHCGILDTO6Y
MA6813400180,h_OCHCTP,10-L1-10,2019-01-24 23:45:00.0,PhaseCorrectionAve,-0.244,CHCGILDTO6Y
MA6813400180,h_OCHCTP,10-L1-10,2019-01-24 23:45:00.0,BerPreFecMax,0.00169,CHCGILDTO6Y
MA6813400180,h_OCHCTP,10-L1-10,2019-01-24 23:45:00.0,PmdMin,4.56,CHCGILDTO6Y
MA6813400180,h_OCHCTP,10-L1-10,2019-01-24 23:45:00.0,SoPmdAve,3213.62,CHCGILDTO6Y
MA6813400180,h_OCHCTP,13-L1-1,2019-01-24 23:15:00.0,Qmin,9.25,CHCGILDTO6Y
MA6813400180,h_OCHCTP,13-L1-1,2019-01-24 23:15:00.0,PhaseCorrectionAve,2.14e-07,CHCGILDTO6Y
MA6813400180,h_OCHCTP,13-L1-1,2019-01-24 23:15:00.0,BerPreFecMax,0.00187,CHCGILDTO6Y
MA6813400180,h_OCHCTP,13-L1-1,2019-01-24 23:15:00.0,PmdMin,1.27,CHCGILDTO6Y
MA6813400180,h_OCHCTP,13-L1-1,2019-01-24 23:15:00.0,SoPmdAve,3557.54,CHCGILDTO6Y
MA6813400180,h_OCHCTP,13-L1-1,2019-01-24 23:30:00.0,Qmin,9.24,CHCGILDTO6Y
MA6813400180,h_OCHCTP,13-L1-1,2019-01-24 23:30:00.0,PhaseCorrectionAve,2.44e-07,CHCGILDTO6Y
MA6813400180,h_OCHCTP,13-L1-1,2019-01-24 23:30:00.0,BerPreFecMax,0.00188,CHCGILDTO6Y
MA6813400180,h_OCHCTP,13-L1-1,2019-01-24 23:30:00.0,PmdMin,0.913,CHCGILDTO6Y
MA6813400180,h_OCHCTP,13-L1-1,2019-01-24 23:30:00.0,SoPmdAve,3548.53,CHCGILDTO6Y
MA6813400180,h_OCHCTP,13-L1-1,2019-01-24 23:45:00.0,Qmin,9.24,CHCGILDTO6Y
MA6813400180,h_OCHCTP,13-L1-1,2019-01-24 23:45:00.0,PhaseCorrectionAve,2.32e-07,CHCGILDTO6Y
MA6813400180,h_OCHCTP,13-L1-1,2019-01-24 23:45:00.0,BerPreFecMax,0.00187,CHCGILDTO6Y
MA6813400180,h_OCHCTP,13-L1-1,2019-01-24 23:45:00.0,PmdMin,0.998,CHCGILDTO6Y
MA6813400180,h_OCHCTP,13-L1-1,2019-01-24 23:45:00.0,SoPmdAve,3479.22,CHCGILDTO6Y
MA6813400180,h_OCHCTP,13-L1-2,2019-01-24 23:15:00.0,Qmin,9.25,CHCGILDTO6Y
MA6813400180,h_OCHCTP,13-L1-2,2019-01-24 23:15:00.0,PhaseCorrectionAve,-0.061,CHCGILDTO6Y
MA6813400180,h_OCHCTP,13-L1-2,2019-01-24 23:15:00.0,BerPreFecMax,0.00186,CHCGILDTO6Y
MA6813400180,h_OCHCTP,13-L1-2,2019-01-24 23:15:00.0,PmdMin,0.75,CHCGILDTO6Y
MA6813400180,h_OCHCTP,13-L1-2,2019-01-24 23:15:00.0,SoPmdAve,3498.69,CHCGILDTO6Y
MA6813400180,h_OCHCTP,13-L1-2,2019-01-24 23:30:00.0,Qmin,9.23,CHCGILDTO6Y
MA6813400180,h_OCHCTP,13-L1-2,2019-01-24 23:30:00.0,PhaseCorrectionAve,-0.122,CHCGILDTO6Y
MA6813400180,h_OCHCTP,13-L1-2,2019-01-24 23:30:00.0,BerPreFecMax,0.00191,CHCGILDTO6Y
MA6813400180,h_OCHCTP,13-L1-2,2019-01-24 23:30:00.0,PmdMin,0.93,CHCGILDTO6Y
MA6813400180,h_OCHCTP,13-L1-2,2019-01-24 23:30:00.0,SoPmdAve,3542.26,CHCGILDTO6Y
MA6813400180,h_OCHCTP,13-L1-2,2019-01-24 23:45:00.0,Qmin,9.28,CHCGILDTO6Y
MA6813400180,h_OCHCTP,13-L1-2,2019-01-24 23:45:00.0,PhaseCorrectionAve,-0.061,CHCGILDTO6Y
MA6813400180,h_OCHCTP,13-L1-2,2019-01-24 23:45:00.0,BerPreFecMax,0.00181,CHCGILDTO6Y
MA6813400180,h_OCHCTP,13-L1-2,2019-01-24 23:45:00.0,PmdMin,0.86,CHCGILDTO6Y
MA6813400180,h_OCHCTP,13-L1-2,2019-01-24 23:45:00.0,SoPmdAve,3449.32,CHCGILDTO6Y
MA6813400180,h_OCHCTP,13-L1-3,2019-01-24 23:15:00.0,Qmin,9.02,CHCGILDTO6Y
MA6813400180,h_OCHCTP,13-L1-3,2019-01-24 23:15:00.0,PhaseCorrectionAve,-0.061,CHCGILDTO6Y
MA6813400180,h_OCHCTP,13-L1-3,2019-01-24 23:15:00.0,BerPreFecMax,0.00236,CHCGILDTO6Y
MA6813400180,h_OCHCTP,13-L1-3,2019-01-24 23:15:00.0,PmdMin,1.11,CHCGILDTO6Y
MA6813400180,h_OCHCTP,13-L1-3,2019-01-24 23:15:00.0,SoPmdAve,2973.58,CHCGILDTO6Y
MA6813400180,h_OCHCTP,13-L1-3,2019-01-24 23:30:00.0,Qmin,8.99,CHCGILDTO6Y
MA6813400180,h_OCHCTP,13-L1-3,2019-01-24 23:30:00.0,PhaseCorrectionAve,-0.122,CHCGILDTO6Y
MA6813400180,h_OCHCTP,13-L1-3,2019-01-24 23:30:00.0,BerPreFecMax,0.00243,CHCGILDTO6Y
MA6813400180,h_OCHCTP,13-L1-3,2019-01-24 23:30:00.0,PmdMin,0.535,CHCGILDTO6Y
MA6813400180,h_OCHCTP,13-L1-3,2019-01-24 23:30:00.0,SoPmdAve,3041.22,CHCGILDTO6Y
MA6813400180,h_OCHCTP,13-L1-3,2019-01-24 23:45:00.0,Qmin,9.07,CHCGILDTO6Y
MA6813400180,h_OCHCTP,13-L1-3,2019-01-24 23:45:00.0,PhaseCorrectionAve,-0.061,CHCGILDTO6Y
MA6813400180,h_OCHCTP,13-L1-3,2019-01-24 23:45:00.0,BerPreFecMax,0.00226,CHCGILDTO6Y
MA6813400180,h_OCHCTP,13-L1-3,2019-01-24 23:45:00.0,PmdMin,1.18,CHCGILDTO6Y
MA6813400180,h_OCHCTP,13-L1-3,2019-01-24 23:45:00.0,SoPmdAve,2927.83,CHCGILDTO6Y
MA6813400180,h_OCHCTP,13-L1-4,2019-01-24 23:15:00.0,Qmin,8.73,CHCGILDTO6Y
MA6813400180,h_OCHCTP,13-L1-4,2019-01-24 23:15:00.0,PhaseCorrectionAve,-0.061,CHCGILDTO6Y
MA6813400180,h_OCHCTP,13-L1-4,2019-01-24 23:15:00.0,BerPreFecMax,0.00314,CHCGILDTO6Y
MA6813400180,h_OCHCTP,13-L1-4,2019-01-24 23:15:00.0,PmdMin,0.662,CHCGILDTO6Y
MA6813400180,h_OCHCTP,13-L1-4,2019-01-24 23:15:00.0,SoPmdAve,3389.19,CHCGILDTO6Y
MA6813400180,h_OCHCTP,13-L1-4,2019-01-24 23:30:00.0,Qmin,8.75,CHCGILDTO6Y
MA6813400180,h_OCHCTP,13-L1-4,2019-01-24 23:30:00.0,PhaseCorrectionAve,-0.122,CHCGILDTO6Y
MA6813400180,h_OCHCTP,13-L1-4,2019-01-24 23:30:00.0,BerPreFecMax,0.00309,CHCGILDTO6Y
MA6813400180,h_OCHCTP,13-L1-4,2019-01-24 23:30:00.0,PmdMin,0.706,CHCGILDTO6Y
MA6813400180,h_OCHCTP,13-L1-4,2019-01-24 23:30:00.0,SoPmdAve,3407.01,CHCGILDTO6Y
MA6813400180,h_OCHCTP,13-L1-4,2019-01-24 23:45:00.0,Qmin,8.81,CHCGILDTO6Y
MA6813400180,h_OCHCTP,13-L1-4,2019-01-24 23:45:00.0,PhaseCorrectionAve,-0.061,CHCGILDTO6Y
MA6813400180,h_OCHCTP,13-L1-4,2019-01-24 23:45:00.0,BerPreFecMax,0.00292,CHCGILDTO6Y
MA6813400180,h_OCHCTP,13-L1-4,2019-01-24 23:45:00.0,PmdMin,0.803,CHCGILDTO6Y
MA6813400180,h_OCHCTP,13-L1-4,2019-01-24 23:45:00.0,SoPmdAve,3447.9,CHCGILDTO6Y
MA6813400180,h_OCHCTP,13-L1-5,2019-01-24 23:15:00.0,Qmin,8.7,CHCGILDTO6Y
MA6813400180,h_OCHCTP,13-L1-5,2019-01-24 23:15:00.0,PhaseCorrectionAve,-0.061,CHCGILDTO6Y
MA6813400180,h_OCHCTP,13-L1-5,2019-01-24 23:15:00.0,BerPreFecMax,0.00322,CHCGILDTO6Y
MA6813400180,h_OCHCTP,13-L1-5,2019-01-24 23:15:00.0,PmdMin,1.39,CHCGILDTO6Y
MA6813400180,h_OCHCTP,13-L1-5,2019-01-24 23:15:00.0,SoPmdAve,2899.67,CHCGILDTO6Y
MA6813400180,h_OCHCTP,13-L1-5,2019-01-24 23:30:00.0,Qmin,8.72,CHCGILDTO6Y
MA6813400180,h_OCHCTP,13-L1-5,2019-01-24 23:30:00.0,PhaseCorrectionAve,-0.122,CHCGILDTO6Y
MA6813400180,h_OCHCTP,13-L1-5,2019-01-24 23:30:00.0,BerPreFecMax,0.00318,CHCGILDTO6Y
MA6813400180,h_OCHCTP,13-L1-5,2019-01-24 23:30:00.0,PmdMin,0.603,CHCGILDTO6Y
MA6813400180,h_OCHCTP,13-L1-5,2019-01-24 23:30:00.0,SoPmdAve,2840.85,CHCGILDTO6Y
MA6813400180,h_OCHCTP,13-L1-5,2019-01-24 23:45:00.0,Qmin,8.71,CHCGILDTO6Y
MA6813400180,h_OCHCTP,13-L1-5,2019-01-24 23:45:00.0,PhaseCorrectionAve,-0.061,CHCGILDTO6Y
MA6813400180,h_OCHCTP,13-L1-5,2019-01-24 23:45:00.0,BerPreFecMax,0.00321,CHCGILDTO6Y
MA6813400180,h_OCHCTP,13-L1-5,2019-01-24 23:45:00.0,PmdMin,0.892,CHCGILDTO6Y
MA6813400180,h_OCHCTP,13-L1-5,2019-01-24 23:45:00.0,SoPmdAve,2843.58,CHCGILDTO6Y
MA6813400180,h_OCHCTP,13-L1-6,2019-01-24 23:15:00.0,Qmin,8.8,CHCGILDTO6Y
MA6813400180,h_OCHCTP,13-L1-6,2019-01-24 23:15:00.0,PhaseCorrectionAve,-0.061,CHCGILDTO6Y
MA6813400180,h_OCHCTP,13-L1-6,2019-01-24 23:15:00.0,BerPreFecMax,0.00294,CHCGILDTO6Y
MA6813400180,h_OCHCTP,13-L1-6,2019-01-24 23:15:00.0,PmdMin,1.29,CHCGILDTO6Y
MA6813400180,h_OCHCTP,13-L1-6,2019-01-24 23:15:00.0,SoPmdAve,2963.39,CHCGILDTO6Y
MA6813400180,h_OCHCTP,13-L1-6,2019-01-24 23:30:00.0,Qmin,8.79,CHCGILDTO6Y
MA6813400180,h_OCHCTP,13-L1-6,2019-01-24 23:30:00.0,PhaseCorrectionAve,-0.122,CHCGILDTO6Y
MA6813400180,h_OCHCTP,13-L1-6,2019-01-24 23:30:00.0,BerPreFecMax,0.00298,CHCGILDTO6Y
MA6813400180,h_OCHCTP,13-L1-6,2019-01-24 23:30:00.0,PmdMin,0.859,CHCGILDTO6Y
MA6813400180,h_OCHCTP,13-L1-6,2019-01-24 23:30:00.0,SoPmdAve,3053.64,CHCGILDTO6Y
MA6813400180,h_OCHCTP,13-L1-6,2019-01-24 23:45:00.0,Qmin,8.75,CHCGILDTO6Y
MA6813400180,h_OCHCTP,13-L1-6,2019-01-24 23:45:00.0,PhaseCorrectionAve,-0.061,CHCGILDTO6Y
MA6813400180,h_OCHCTP,13-L1-6,2019-01-24 23:45:00.0,BerPreFecMax,0.00308,CHCGILDTO6Y
MA6813400180,h_OCHCTP,13-L1-6,2019-01-24 23:45:00.0,PmdMin,0.523,CHCGILDTO6Y
MA6813400180,h_OCHCTP,13-L1-6,2019-01-24 23:45:00.0,SoPmdAve,3010.64,CHCGILDTO6Y
MA6813400180,h_OCHCTP,13-L1-7,2019-01-24 23:15:00.0,Qmin,8.84,CHCGILDTO6Y
MA6813400180,h_OCHCTP,13-L1-7,2019-01-24 23:15:00.0,PhaseCorrectionAve,-0.061,CHCGILDTO6Y
MA6813400180,h_OCHCTP,13-L1-7,2019-01-24 23:15:00.0,BerPreFecMax,0.00284,CHCGILDTO6Y
MA6813400180,h_OCHCTP,13-L1-7,2019-01-24 23:15:00.0,PmdMin,0.503,CHCGILDTO6Y
MA6813400180,h_OCHCTP,13-L1-7,2019-01-24 23:15:00.0,SoPmdAve,3698.92,CHCGILDTO6Y
MA6813400180,h_OCHCTP,13-L1-7,2019-01-24 23:30:00.0,Qmin,8.78,CHCGILDTO6Y
MA6813400180,h_OCHCTP,13-L1-7,2019-01-24 23:30:00.0,PhaseCorrectionAve,-0.183,CHCGILDTO6Y
MA6813400180,h_OCHCTP,13-L1-7,2019-01-24 23:30:00.0,BerPreFecMax,0.00299,CHCGILDTO6Y
MA6813400180,h_OCHCTP,13-L1-7,2019-01-24 23:30:00.0,PmdMin,1.21,CHCGILDTO6Y
MA6813400180,h_OCHCTP,13-L1-7,2019-01-24 23:30:00.0,SoPmdAve,3666.38,CHCGILDTO6Y
MA6813400180,h_OCHCTP,13-L1-7,2019-01-24 23:45:00.0,Qmin,8.74,CHCGILDTO6Y
MA6813400180,h_OCHCTP,13-L1-7,2019-01-24 23:45:00.0,PhaseCorrectionAve,-0.061,CHCGILDTO6Y
MA6813400180,h_OCHCTP,13-L1-7,2019-01-24 23:45:00.0,BerPreFecMax,0.00312,CHCGILDTO6Y
MA6813400180,h_OCHCTP,13-L1-7,2019-01-24 23:45:00.0,PmdMin,0.935,CHCGILDTO6Y
MA6813400180,h_OCHCTP,13-L1-7,2019-01-24 23:45:00.0,SoPmdAve,3789.24,CHCGILDTO6Y
MA6813400180,h_OCHCTP,13-L1-8,2019-01-24 23:15:00.0,Qmin,8.93,CHCGILDTO6Y
MA6813400180,h_OCHCTP,13-L1-8,2019-01-24 23:15:00.0,PhaseCorrectionAve,-0.061,CHCGILDTO6Y
MA6813400180,h_OCHCTP,13-L1-8,2019-01-24 23:15:00.0,BerPreFecMax,0.00259,CHCGILDTO6Y
MA6813400180,h_OCHCTP,13-L1-8,2019-01-24 23:15:00.0,PmdMin,0.662,CHCGILDTO6Y
MA6813400180,h_OCHCTP,13-L1-8,2019-01-24 23:15:00.0,SoPmdAve,3863.54,CHCGILDTO6Y
MA6813400180,h_OCHCTP,13-L1-8,2019-01-24 23:30:00.0,Qmin,8.92,CHCGILDTO6Y
MA6813400180,h_OCHCTP,13-L1-8,2019-01-24 23:30:00.0,PhaseCorrectionAve,-0.183,CHCGILDTO6Y
MA6813400180,h_OCHCTP,13-L1-8,2019-01-24 23:30:00.0,BerPreFecMax,0.00262,CHCGILDTO6Y
MA6813400180,h_OCHCTP,13-L1-8,2019-01-24 23:30:00.0,PmdMin,1.03,CHCGILDTO6Y
MA6813400180,h_OCHCTP,13-L1-8,2019-01-24 23:30:00.0,SoPmdAve,3927.31,CHCGILDTO6Y
MA6813400180,h_OCHCTP,13-L1-8,2019-01-24 23:45:00.0,Qmin,8.91,CHCGILDTO6Y
MA6813400180,h_OCHCTP,13-L1-8,2019-01-24 23:45:00.0,PhaseCorrectionAve,-0.061,CHCGILDTO6Y
MA6813400180,h_OCHCTP,13-L1-8,2019-01-24 23:45:00.0,BerPreFecMax,0.00265,CHCGILDTO6Y
MA6813400180,h_OCHCTP,13-L1-8,2019-01-24 23:45:00.0,PmdMin,0.755,CHCGILDTO6Y
MA6813400180,h_OCHCTP,13-L1-8,2019-01-24 23:45:00.0,SoPmdAve,3952.85,CHCGILDTO6Y
MA6813400180,h_OCHCTP,13-L1-9,2019-01-24 23:15:00.0,Qmin,8.86,CHCGILDTO6Y
MA6813400180,h_OCHCTP,13-L1-9,2019-01-24 23:15:00.0,PhaseCorrectionAve,-0.061,CHCGILDTO6Y
MA6813400180,h_OCHCTP,13-L1-9,2019-01-24 23:15:00.0,BerPreFecMax,0.00278,CHCGILDTO6Y
MA6813400180,h_OCHCTP,13-L1-9,2019-01-24 23:15:00.0,PmdMin,0.768,CHCGILDTO6Y
MA6813400180,h_OCHCTP,13-L1-9,2019-01-24 23:15:00.0,SoPmdAve,3473.21,CHCGILDTO6Y
MA6813400180,h_OCHCTP,13-L1-9,2019-01-24 23:30:00.0,Qmin,8.85,CHCGILDTO6Y
MA6813400180,h_OCHCTP,13-L1-9,2019-01-24 23:30:00.0,PhaseCorrectionAve,-0.183,CHCGILDTO6Y
MA6813400180,h_OCHCTP,13-L1-9,2019-01-24 23:30:00.0,BerPreFecMax,0.00282,CHCGILDTO6Y
MA6813400180,h_OCHCTP,13-L1-9,2019-01-24 23:30:00.0,PmdMin,1.04,CHCGILDTO6Y
MA6813400180,h_OCHCTP,13-L1-9,2019-01-24 23:30:00.0,SoPmdAve,3645.69,CHCGILDTO6Y
MA6813400180,h_OCHCTP,13-L1-9,2019-01-24 23:45:00.0,Qmin,8.9,CHCGILDTO6Y
MA6813400180,h_OCHCTP,13-L1-9,2019-01-24 23:45:00.0,PhaseCorrectionAve,-0.061,CHCGILDTO6Y
MA6813400180,h_OCHCTP,13-L1-9,2019-01-24 23:45:00.0,BerPreFecMax,0.00266,CHCGILDTO6Y
MA6813400180,h_OCHCTP,13-L1-9,2019-01-24 23:45:00.0,PmdMin,0.487,CHCGILDTO6Y
MA6813400180,h_OCHCTP,13-L1-9,2019-01-24 23:45:00.0,SoPmdAve,3474.7,CHCGILDTO6Y
MA6813400180,h_OCHCTP,13-L1-10,2019-01-24 23:15:00.0,Qmin,8.68,CHCGILDTO6Y
MA6813400180,h_OCHCTP,13-L1-10,2019-01-24 23:15:00.0,PhaseCorrectionAve,-0.244,CHCGILDTO6Y
MA6813400180,h_OCHCTP,13-L1-10,2019-01-24 23:15:00.0,BerPreFecMax,0.0033,CHCGILDTO6Y
MA6813400180,h_OCHCTP,13-L1-10,2019-01-24 23:15:00.0,PmdMin,0.274,CHCGILDTO6Y
MA6813400180,h_OCHCTP,13-L1-10,2019-01-24 23:15:00.0,SoPmdAve,3797.0,CHCGILDTO6Y
MA6813400180,h_OCHCTP,13-L1-10,2019-01-24 23:30:00.0,Qmin,8.69,CHCGILDTO6Y
MA6813400180,h_OCHCTP,13-L1-10,2019-01-24 23:30:00.0,PhaseCorrectionAve,-0.183,CHCGILDTO6Y
MA6813400180,h_OCHCTP,13-L1-10,2019-01-24 23:30:00.0,BerPreFecMax,0.00328,CHCGILDTO6Y
MA6813400180,h_OCHCTP,13-L1-10,2019-01-24 23:30:00.0,PmdMin,0.921,CHCGILDTO6Y
MA6813400180,h_OCHCTP,13-L1-10,2019-01-24 23:30:00.0,SoPmdAve,3794.65,CHCGILDTO6Y
MA6813400180,h_OCHCTP,13-L1-10,2019-01-24 23:45:00.0,Qmin,8.77,CHCGILDTO6Y
MA6813400180,h_OCHCTP,13-L1-10,2019-01-24 23:45:00.0,PhaseCorrectionAve,-0.061,CHCGILDTO6Y
MA6813400180,h_OCHCTP,13-L1-10,2019-01-24 23:45:00.0,BerPreFecMax,0.00302,CHCGILDTO6Y
MA6813400180,h_OCHCTP,13-L1-10,2019-01-24 23:45:00.0,PmdMin,0.667,CHCGILDTO6Y
MA6813400180,h_OCHCTP,13-L1-10,2019-01-24 23:45:00.0,SoPmdAve,3722.21,CHCGILDTO6Y
