MA6813400180,h_OCHCTP,10-L1-1,2019-02-05 09:15:00.0,Qmin,9.46,CHCGILDTO6Y
MA6813400180,h_OCHCTP,10-L1-1,2019-02-05 09:15:00.0,PhaseCorrectionAve,4.72e-07,CHCGILDTO6Y
MA6813400180,h_OCHCTP,10-L1-1,2019-02-05 09:15:00.0,BerPreFecMax,0.00147,CHCGILDTO6Y
MA6813400180,h_OCHCTP,10-L1-1,2019-02-05 09:15:00.0,PmdMin,1.57,CHCGILDTO6Y
MA6813400180,h_OCHCTP,10-L1-1,2019-02-05 09:15:00.0,SoPmdAve,3624.48,CHCGILDTO6Y
MA6813400180,h_OCHCTP,10-L1-1,2019-02-05 09:30:00.0,Qmin,9.46,CHCGILDTO6Y
MA6813400180,h_OCHCTP,10-L1-1,2019-02-05 09:30:00.0,PhaseCorrectionAve,4.55e-07,CHCGILDTO6Y
MA6813400180,h_OCHCTP,10-L1-1,2019-02-05 09:30:00.0,BerPreFecMax,0.00148,CHCGILDTO6Y
MA6813400180,h_OCHCTP,10-L1-1,2019-02-05 09:30:00.0,PmdMin,0.869,CHCGILDTO6Y
MA6813400180,h_OCHCTP,10-L1-1,2019-02-05 09:30:00.0,SoPmdAve,3541.18,CHCGILDTO6Y
MA6813400180,h_OCHCTP,10-L1-1,2019-02-05 09:45:00.0,Qmin,9.45,CHCGILDTO6Y
MA6813400180,h_OCHCTP,10-L1-1,2019-02-05 09:45:00.0,PhaseCorrectionAve,4.55e-07,CHCGILDTO6Y
MA6813400180,h_OCHCTP,10-L1-1,2019-02-05 09:45:00.0,BerPreFecMax,0.0015,CHCGILDTO6Y
MA6813400180,h_OCHCTP,10-L1-1,2019-02-05 09:45:00.0,PmdMin,0.546,CHCGILDTO6Y
MA6813400180,h_OCHCTP,10-L1-1,2019-02-05 09:45:00.0,SoPmdAve,3601.14,CHCGILDTO6Y
MA6813400180,h_OCHCTP,10-L1-2,2019-02-05 09:15:00.0,Qmin,9.16,CHCGILDTO6Y
MA6813400180,h_OCHCTP,10-L1-2,2019-02-05 09:15:00.0,PhaseCorrectionAve,-0.183,CHCGILDTO6Y
MA6813400180,h_OCHCTP,10-L1-2,2019-02-05 09:15:00.0,BerPreFecMax,0.00205,CHCGILDTO6Y
MA6813400180,h_OCHCTP,10-L1-2,2019-02-05 09:15:00.0,PmdMin,2.28,CHCGILDTO6Y
MA6813400180,h_OCHCTP,10-L1-2,2019-02-05 09:15:00.0,SoPmdAve,3282.92,CHCGILDTO6Y
MA6813400180,h_OCHCTP,10-L1-2,2019-02-05 09:30:00.0,Qmin,9.17,CHCGILDTO6Y
MA6813400180,h_OCHCTP,10-L1-2,2019-02-05 09:30:00.0,PhaseCorrectionAve,-0.061,CHCGILDTO6Y
MA6813400180,h_OCHCTP,10-L1-2,2019-02-05 09:30:00.0,BerPreFecMax,0.00202,CHCGILDTO6Y
MA6813400180,h_OCHCTP,10-L1-2,2019-02-05 09:30:00.0,PmdMin,4.17,CHCGILDTO6Y
MA6813400180,h_OCHCTP,10-L1-2,2019-02-05 09:30:00.0,SoPmdAve,3324.02,CHCGILDTO6Y
MA6813400180,h_OCHCTP,10-L1-2,2019-02-05 09:45:00.0,Qmin,9.18,CHCGILDTO6Y
MA6813400180,h_OCHCTP,10-L1-2,2019-02-05 09:45:00.0,PhaseCorrectionAve,3.48e-07,CHCGILDTO6Y
MA6813400180,h_OCHCTP,10-L1-2,2019-02-05 09:45:00.0,BerPreFecMax,0.00202,CHCGILDTO6Y
MA6813400180,h_OCHCTP,10-L1-2,2019-02-05 09:45:00.0,PmdMin,2.37,CHCGILDTO6Y
MA6813400180,h_OCHCTP,10-L1-2,2019-02-05 09:45:00.0,SoPmdAve,3342.97,CHCGILDTO6Y
MA6813400180,h_OCHCTP,10-L1-3,2019-02-05 09:15:00.0,Qmin,8.9,CHCGILDTO6Y
MA6813400180,h_OCHCTP,10-L1-3,2019-02-05 09:15:00.0,PhaseCorrectionAve,-0.183,CHCGILDTO6Y
MA6813400180,h_OCHCTP,10-L1-3,2019-02-05 09:15:00.0,BerPreFecMax,0.00265,CHCGILDTO6Y
MA6813400180,h_OCHCTP,10-L1-3,2019-02-05 09:15:00.0,PmdMin,5.45,CHCGILDTO6Y
MA6813400180,h_OCHCTP,10-L1-3,2019-02-05 09:15:00.0,SoPmdAve,2883.83,CHCGILDTO6Y
MA6813400180,h_OCHCTP,10-L1-3,2019-02-05 09:30:00.0,Qmin,8.91,CHCGILDTO6Y
MA6813400180,h_OCHCTP,10-L1-3,2019-02-05 09:30:00.0,PhaseCorrectionAve,-0.061,CHCGILDTO6Y
MA6813400180,h_OCHCTP,10-L1-3,2019-02-05 09:30:00.0,BerPreFecMax,0.00263,CHCGILDTO6Y
MA6813400180,h_OCHCTP,10-L1-3,2019-02-05 09:30:00.0,PmdMin,5.15,CHCGILDTO6Y
MA6813400180,h_OCHCTP,10-L1-3,2019-02-05 09:30:00.0,SoPmdAve,2851.59,CHCGILDTO6Y
MA6813400180,h_OCHCTP,10-L1-3,2019-02-05 09:45:00.0,Qmin,8.89,CHCGILDTO6Y
MA6813400180,h_OCHCTP,10-L1-3,2019-02-05 09:45:00.0,PhaseCorrectionAve,5.89e-07,CHCGILDTO6Y
MA6813400180,h_OCHCTP,10-L1-3,2019-02-05 09:45:00.0,BerPreFecMax,0.0027,CHCGILDTO6Y
MA6813400180,h_OCHCTP,10-L1-3,2019-02-05 09:45:00.0,PmdMin,4.35,CHCGILDTO6Y
MA6813400180,h_OCHCTP,10-L1-3,2019-02-05 09:45:00.0,SoPmdAve,2792.6,CHCGILDTO6Y
MA6813400180,h_OCHCTP,10-L1-4,2019-02-05 09:15:00.0,Qmin,8.36,CHCGILDTO6Y
MA6813400180,h_OCHCTP,10-L1-4,2019-02-05 09:15:00.0,PhaseCorrectionAve,-0.183,CHCGILDTO6Y
MA6813400180,h_OCHCTP,10-L1-4,2019-02-05 09:15:00.0,BerPreFecMax,0.00443,CHCGILDTO6Y
MA6813400180,h_OCHCTP,10-L1-4,2019-02-05 09:15:00.0,PmdMin,0.573,CHCGILDTO6Y
MA6813400180,h_OCHCTP,10-L1-4,2019-02-05 09:15:00.0,SoPmdAve,3139.98,CHCGILDTO6Y
MA6813400180,h_OCHCTP,10-L1-4,2019-02-05 09:30:00.0,Qmin,8.36,CHCGILDTO6Y
MA6813400180,h_OCHCTP,10-L1-4,2019-02-05 09:30:00.0,PhaseCorrectionAve,-0.061,CHCGILDTO6Y
MA6813400180,h_OCHCTP,10-L1-4,2019-02-05 09:30:00.0,BerPreFecMax,0.00443,CHCGILDTO6Y
MA6813400180,h_OCHCTP,10-L1-4,2019-02-05 09:30:00.0,PmdMin,1.4,CHCGILDTO6Y
MA6813400180,h_OCHCTP,10-L1-4,2019-02-05 09:30:00.0,SoPmdAve,3048.49,CHCGILDTO6Y
MA6813400180,h_OCHCTP,10-L1-4,2019-02-05 09:45:00.0,Qmin,8.34,CHCGILDTO6Y
MA6813400180,h_OCHCTP,10-L1-4,2019-02-05 09:45:00.0,PhaseCorrectionAve,2.51e-06,CHCGILDTO6Y
MA6813400180,h_OCHCTP,10-L1-4,2019-02-05 09:45:00.0,BerPreFecMax,0.00448,CHCGILDTO6Y
MA6813400180,h_OCHCTP,10-L1-4,2019-02-05 09:45:00.0,PmdMin,1.37,CHCGILDTO6Y
MA6813400180,h_OCHCTP,10-L1-4,2019-02-05 09:45:00.0,SoPmdAve,3114.33,CHCGILDTO6Y
MA6813400180,h_OCHCTP,10-L1-5,2019-02-05 09:15:00.0,Qmin,8.55,CHCGILDTO6Y
MA6813400180,h_OCHCTP,10-L1-5,2019-02-05 09:15:00.0,PhaseCorrectionAve,-0.183,CHCGILDTO6Y
MA6813400180,h_OCHCTP,10-L1-5,2019-02-05 09:15:00.0,BerPreFecMax,0.00373,CHCGILDTO6Y
MA6813400180,h_OCHCTP,10-L1-5,2019-02-05 09:15:00.0,PmdMin,0.804,CHCGILDTO6Y
MA6813400180,h_OCHCTP,10-L1-5,2019-02-05 09:15:00.0,SoPmdAve,2905.27,CHCGILDTO6Y
MA6813400180,h_OCHCTP,10-L1-5,2019-02-05 09:30:00.0,Qmin,8.56,CHCGILDTO6Y
MA6813400180,h_OCHCTP,10-L1-5,2019-02-05 09:30:00.0,PhaseCorrectionAve,-0.061,CHCGILDTO6Y
MA6813400180,h_OCHCTP,10-L1-5,2019-02-05 09:30:00.0,BerPreFecMax,0.00371,CHCGILDTO6Y
MA6813400180,h_OCHCTP,10-L1-5,2019-02-05 09:30:00.0,PmdMin,1.47,CHCGILDTO6Y
MA6813400180,h_OCHCTP,10-L1-5,2019-02-05 09:30:00.0,SoPmdAve,2825.41,CHCGILDTO6Y
MA6813400180,h_OCHCTP,10-L1-5,2019-02-05 09:45:00.0,Qmin,8.54,CHCGILDTO6Y
MA6813400180,h_OCHCTP,10-L1-5,2019-02-05 09:45:00.0,PhaseCorrectionAve,-0.061,CHCGILDTO6Y
MA6813400180,h_OCHCTP,10-L1-5,2019-02-05 09:45:00.0,BerPreFecMax,0.00375,CHCGILDTO6Y
MA6813400180,h_OCHCTP,10-L1-5,2019-02-05 09:45:00.0,PmdMin,1.33,CHCGILDTO6Y
MA6813400180,h_OCHCTP,10-L1-5,2019-02-05 09:45:00.0,SoPmdAve,2900.05,CHCGILDTO6Y
MA6813400180,h_OCHCTP,10-L1-6,2019-02-05 09:15:00.0,Qmin,8.77,CHCGILDTO6Y
MA6813400180,h_OCHCTP,10-L1-6,2019-02-05 09:15:00.0,PhaseCorrectionAve,-0.183,CHCGILDTO6Y
MA6813400180,h_OCHCTP,10-L1-6,2019-02-05 09:15:00.0,BerPreFecMax,0.00303,CHCGILDTO6Y
MA6813400180,h_OCHCTP,10-L1-6,2019-02-05 09:15:00.0,PmdMin,1.1,CHCGILDTO6Y
MA6813400180,h_OCHCTP,10-L1-6,2019-02-05 09:15:00.0,SoPmdAve,2754.24,CHCGILDTO6Y
MA6813400180,h_OCHCTP,10-L1-6,2019-02-05 09:30:00.0,Qmin,8.77,CHCGILDTO6Y
MA6813400180,h_OCHCTP,10-L1-6,2019-02-05 09:30:00.0,PhaseCorrectionAve,-0.061,CHCGILDTO6Y
MA6813400180,h_OCHCTP,10-L1-6,2019-02-05 09:30:00.0,BerPreFecMax,0.00301,CHCGILDTO6Y
MA6813400180,h_OCHCTP,10-L1-6,2019-02-05 09:30:00.0,PmdMin,1.89,CHCGILDTO6Y
MA6813400180,h_OCHCTP,10-L1-6,2019-02-05 09:30:00.0,SoPmdAve,2761.67,CHCGILDTO6Y
MA6813400180,h_OCHCTP,10-L1-6,2019-02-05 09:45:00.0,Qmin,8.76,CHCGILDTO6Y
MA6813400180,h_OCHCTP,10-L1-6,2019-02-05 09:45:00.0,PhaseCorrectionAve,-0.061,CHCGILDTO6Y
MA6813400180,h_OCHCTP,10-L1-6,2019-02-05 09:45:00.0,BerPreFecMax,0.00306,CHCGILDTO6Y
MA6813400180,h_OCHCTP,10-L1-6,2019-02-05 09:45:00.0,PmdMin,1.96,CHCGILDTO6Y
MA6813400180,h_OCHCTP,10-L1-6,2019-02-05 09:45:00.0,SoPmdAve,2776.71,CHCGILDTO6Y
MA6813400180,h_OCHCTP,10-L1-7,2019-02-05 09:15:00.0,Qmin,8.85,CHCGILDTO6Y
MA6813400180,h_OCHCTP,10-L1-7,2019-02-05 09:15:00.0,PhaseCorrectionAve,-0.183,CHCGILDTO6Y
MA6813400180,h_OCHCTP,10-L1-7,2019-02-05 09:15:00.0,BerPreFecMax,0.00282,CHCGILDTO6Y
MA6813400180,h_OCHCTP,10-L1-7,2019-02-05 09:15:00.0,PmdMin,1.4,CHCGILDTO6Y
MA6813400180,h_OCHCTP,10-L1-7,2019-02-05 09:15:00.0,SoPmdAve,3480.03,CHCGILDTO6Y
MA6813400180,h_OCHCTP,10-L1-7,2019-02-05 09:30:00.0,Qmin,8.84,CHCGILDTO6Y
MA6813400180,h_OCHCTP,10-L1-7,2019-02-05 09:30:00.0,PhaseCorrectionAve,-0.122,CHCGILDTO6Y
MA6813400180,h_OCHCTP,10-L1-7,2019-02-05 09:30:00.0,BerPreFecMax,0.00283,CHCGILDTO6Y
MA6813400180,h_OCHCTP,10-L1-7,2019-02-05 09:30:00.0,PmdMin,1.89,CHCGILDTO6Y
MA6813400180,h_OCHCTP,10-L1-7,2019-02-05 09:30:00.0,SoPmdAve,3451.99,CHCGILDTO6Y
MA6813400180,h_OCHCTP,10-L1-7,2019-02-05 09:45:00.0,Qmin,8.83,CHCGILDTO6Y
MA6813400180,h_OCHCTP,10-L1-7,2019-02-05 09:45:00.0,PhaseCorrectionAve,-0.061,CHCGILDTO6Y
MA6813400180,h_OCHCTP,10-L1-7,2019-02-05 09:45:00.0,BerPreFecMax,0.00284,CHCGILDTO6Y
MA6813400180,h_OCHCTP,10-L1-7,2019-02-05 09:45:00.0,PmdMin,1.76,CHCGILDTO6Y
MA6813400180,h_OCHCTP,10-L1-7,2019-02-05 09:45:00.0,SoPmdAve,3465.94,CHCGILDTO6Y
MA6813400180,h_OCHCTP,10-L1-8,2019-02-05 09:15:00.0,Qmin,9.31,CHCGILDTO6Y
MA6813400180,h_OCHCTP,10-L1-8,2019-02-05 09:15:00.0,PhaseCorrectionAve,-0.183,CHCGILDTO6Y
MA6813400180,h_OCHCTP,10-L1-8,2019-02-05 09:15:00.0,BerPreFecMax,0.00174,CHCGILDTO6Y
MA6813400180,h_OCHCTP,10-L1-8,2019-02-05 09:15:00.0,PmdMin,1.24,CHCGILDTO6Y
MA6813400180,h_OCHCTP,10-L1-8,2019-02-05 09:15:00.0,SoPmdAve,3339.0,CHCGILDTO6Y
MA6813400180,h_OCHCTP,10-L1-8,2019-02-05 09:30:00.0,Qmin,9.31,CHCGILDTO6Y
MA6813400180,h_OCHCTP,10-L1-8,2019-02-05 09:30:00.0,PhaseCorrectionAve,-0.122,CHCGILDTO6Y
MA6813400180,h_OCHCTP,10-L1-8,2019-02-05 09:30:00.0,BerPreFecMax,0.00174,CHCGILDTO6Y
MA6813400180,h_OCHCTP,10-L1-8,2019-02-05 09:30:00.0,PmdMin,1.29,CHCGILDTO6Y
MA6813400180,h_OCHCTP,10-L1-8,2019-02-05 09:30:00.0,SoPmdAve,3349.18,CHCGILDTO6Y
MA6813400180,h_OCHCTP,10-L1-8,2019-02-05 09:45:00.0,Qmin,9.31,CHCGILDTO6Y
MA6813400180,h_OCHCTP,10-L1-8,2019-02-05 09:45:00.0,PhaseCorrectionAve,-0.122,CHCGILDTO6Y
MA6813400180,h_OCHCTP,10-L1-8,2019-02-05 09:45:00.0,BerPreFecMax,0.00175,CHCGILDTO6Y
MA6813400180,h_OCHCTP,10-L1-8,2019-02-05 09:45:00.0,PmdMin,2.28,CHCGILDTO6Y
MA6813400180,h_OCHCTP,10-L1-8,2019-02-05 09:45:00.0,SoPmdAve,3341.27,CHCGILDTO6Y
MA6813400180,h_OCHCTP,10-L1-9,2019-02-05 09:15:00.0,Qmin,9.33,CHCGILDTO6Y
MA6813400180,h_OCHCTP,10-L1-9,2019-02-05 09:15:00.0,PhaseCorrectionAve,-0.183,CHCGILDTO6Y
MA6813400180,h_OCHCTP,10-L1-9,2019-02-05 09:15:00.0,BerPreFecMax,0.00171,CHCGILDTO6Y
MA6813400180,h_OCHCTP,10-L1-9,2019-02-05 09:15:00.0,PmdMin,2.05,CHCGILDTO6Y
MA6813400180,h_OCHCTP,10-L1-9,2019-02-05 09:15:00.0,SoPmdAve,3201.42,CHCGILDTO6Y
MA6813400180,h_OCHCTP,10-L1-9,2019-02-05 09:30:00.0,Qmin,9.33,CHCGILDTO6Y
MA6813400180,h_OCHCTP,10-L1-9,2019-02-05 09:30:00.0,PhaseCorrectionAve,-0.122,CHCGILDTO6Y
MA6813400180,h_OCHCTP,10-L1-9,2019-02-05 09:30:00.0,BerPreFecMax,0.00171,CHCGILDTO6Y
MA6813400180,h_OCHCTP,10-L1-9,2019-02-05 09:30:00.0,PmdMin,2.16,CHCGILDTO6Y
MA6813400180,h_OCHCTP,10-L1-9,2019-02-05 09:30:00.0,SoPmdAve,3155.47,CHCGILDTO6Y
MA6813400180,h_OCHCTP,10-L1-9,2019-02-05 09:45:00.0,Qmin,9.33,CHCGILDTO6Y
MA6813400180,h_OCHCTP,10-L1-9,2019-02-05 09:45:00.0,PhaseCorrectionAve,-0.122,CHCGILDTO6Y
MA6813400180,h_OCHCTP,10-L1-9,2019-02-05 09:45:00.0,BerPreFecMax,0.0017,CHCGILDTO6Y
MA6813400180,h_OCHCTP,10-L1-9,2019-02-05 09:45:00.0,PmdMin,2.74,CHCGILDTO6Y
MA6813400180,h_OCHCTP,10-L1-9,2019-02-05 09:45:00.0,SoPmdAve,3194.25,CHCGILDTO6Y
MA6813400180,h_OCHCTP,10-L1-10,2019-02-05 09:15:00.0,Qmin,9.37,CHCGILDTO6Y
MA6813400180,h_OCHCTP,10-L1-10,2019-02-05 09:15:00.0,PhaseCorrectionAve,-0.244,CHCGILDTO6Y
MA6813400180,h_OCHCTP,10-L1-10,2019-02-05 09:15:00.0,BerPreFecMax,0.00164,CHCGILDTO6Y
MA6813400180,h_OCHCTP,10-L1-10,2019-02-05 09:15:00.0,PmdMin,5.22,CHCGILDTO6Y
MA6813400180,h_OCHCTP,10-L1-10,2019-02-05 09:15:00.0,SoPmdAve,3394.35,CHCGILDTO6Y
MA6813400180,h_OCHCTP,10-L1-10,2019-02-05 09:30:00.0,Qmin,9.37,CHCGILDTO6Y
MA6813400180,h_OCHCTP,10-L1-10,2019-02-05 09:30:00.0,PhaseCorrectionAve,-0.122,CHCGILDTO6Y
MA6813400180,h_OCHCTP,10-L1-10,2019-02-05 09:30:00.0,BerPreFecMax,0.00164,CHCGILDTO6Y
MA6813400180,h_OCHCTP,10-L1-10,2019-02-05 09:30:00.0,PmdMin,5.41,CHCGILDTO6Y
MA6813400180,h_OCHCTP,10-L1-10,2019-02-05 09:30:00.0,SoPmdAve,3270.03,CHCGILDTO6Y
MA6813400180,h_OCHCTP,10-L1-10,2019-02-05 09:45:00.0,Qmin,9.38,CHCGILDTO6Y
MA6813400180,h_OCHCTP,10-L1-10,2019-02-05 09:45:00.0,PhaseCorrectionAve,-0.122,CHCGILDTO6Y
MA6813400180,h_OCHCTP,10-L1-10,2019-02-05 09:45:00.0,BerPreFecMax,0.00163,CHCGILDTO6Y
MA6813400180,h_OCHCTP,10-L1-10,2019-02-05 09:45:00.0,PmdMin,10.14,CHCGILDTO6Y
MA6813400180,h_OCHCTP,10-L1-10,2019-02-05 09:45:00.0,SoPmdAve,3195.35,CHCGILDTO6Y
MA6813400180,h_OCHCTP,11-L1-1,2019-02-05 09:15:00.0,Qmin,9.07,CHCGILDTO6Y
MA6813400180,h_OCHCTP,11-L1-1,2019-02-05 09:15:00.0,PhaseCorrectionAve,2.55e-07,CHCGILDTO6Y
MA6813400180,h_OCHCTP,11-L1-1,2019-02-05 09:15:00.0,BerPreFecMax,0.00224,CHCGILDTO6Y
MA6813400180,h_OCHCTP,11-L1-1,2019-02-05 09:15:00.0,PmdMin,0.98,CHCGILDTO6Y
MA6813400180,h_OCHCTP,11-L1-1,2019-02-05 09:15:00.0,SoPmdAve,3377.99,CHCGILDTO6Y
MA6813400180,h_OCHCTP,11-L1-1,2019-02-05 09:30:00.0,Qmin,9.09,CHCGILDTO6Y
MA6813400180,h_OCHCTP,11-L1-1,2019-02-05 09:30:00.0,PhaseCorrectionAve,2.4e-07,CHCGILDTO6Y
MA6813400180,h_OCHCTP,11-L1-1,2019-02-05 09:30:00.0,BerPreFecMax,0.0022,CHCGILDTO6Y
MA6813400180,h_OCHCTP,11-L1-1,2019-02-05 09:30:00.0,PmdMin,1.6,CHCGILDTO6Y
MA6813400180,h_OCHCTP,11-L1-1,2019-02-05 09:30:00.0,SoPmdAve,3332.56,CHCGILDTO6Y
MA6813400180,h_OCHCTP,11-L1-1,2019-02-05 09:45:00.0,Qmin,9.05,CHCGILDTO6Y
MA6813400180,h_OCHCTP,11-L1-1,2019-02-05 09:45:00.0,PhaseCorrectionAve,2.68e-07,CHCGILDTO6Y
MA6813400180,h_OCHCTP,11-L1-1,2019-02-05 09:45:00.0,BerPreFecMax,0.0023,CHCGILDTO6Y
MA6813400180,h_OCHCTP,11-L1-1,2019-02-05 09:45:00.0,PmdMin,0.913,CHCGILDTO6Y
MA6813400180,h_OCHCTP,11-L1-1,2019-02-05 09:45:00.0,SoPmdAve,3391.27,CHCGILDTO6Y
MA6813400180,h_OCHCTP,11-L1-2,2019-02-05 09:15:00.0,Qmin,9.05,CHCGILDTO6Y
MA6813400180,h_OCHCTP,11-L1-2,2019-02-05 09:15:00.0,PhaseCorrectionAve,6.4e-07,CHCGILDTO6Y
MA6813400180,h_OCHCTP,11-L1-2,2019-02-05 09:15:00.0,BerPreFecMax,0.0023,CHCGILDTO6Y
MA6813400180,h_OCHCTP,11-L1-2,2019-02-05 09:15:00.0,PmdMin,0.85,CHCGILDTO6Y
MA6813400180,h_OCHCTP,11-L1-2,2019-02-05 09:15:00.0,SoPmdAve,3133.71,CHCGILDTO6Y
MA6813400180,h_OCHCTP,11-L1-2,2019-02-05 09:30:00.0,Qmin,9.09,CHCGILDTO6Y
MA6813400180,h_OCHCTP,11-L1-2,2019-02-05 09:30:00.0,PhaseCorrectionAve,-0.061,CHCGILDTO6Y
MA6813400180,h_OCHCTP,11-L1-2,2019-02-05 09:30:00.0,BerPreFecMax,0.00221,CHCGILDTO6Y
MA6813400180,h_OCHCTP,11-L1-2,2019-02-05 09:30:00.0,PmdMin,0.767,CHCGILDTO6Y
MA6813400180,h_OCHCTP,11-L1-2,2019-02-05 09:30:00.0,SoPmdAve,3208.11,CHCGILDTO6Y
MA6813400180,h_OCHCTP,11-L1-2,2019-02-05 09:45:00.0,Qmin,9.09,CHCGILDTO6Y
MA6813400180,h_OCHCTP,11-L1-2,2019-02-05 09:45:00.0,PhaseCorrectionAve,-0.061,CHCGILDTO6Y
MA6813400180,h_OCHCTP,11-L1-2,2019-02-05 09:45:00.0,BerPreFecMax,0.00221,CHCGILDTO6Y
MA6813400180,h_OCHCTP,11-L1-2,2019-02-05 09:45:00.0,PmdMin,0.589,CHCGILDTO6Y
MA6813400180,h_OCHCTP,11-L1-2,2019-02-05 09:45:00.0,SoPmdAve,3117.52,CHCGILDTO6Y
MA6813400180,h_OCHCTP,11-L1-3,2019-02-05 09:15:00.0,Qmin,8.95,CHCGILDTO6Y
MA6813400180,h_OCHCTP,11-L1-3,2019-02-05 09:15:00.0,PhaseCorrectionAve,4.84e-07,CHCGILDTO6Y
MA6813400180,h_OCHCTP,11-L1-3,2019-02-05 09:15:00.0,BerPreFecMax,0.00254,CHCGILDTO6Y
MA6813400180,h_OCHCTP,11-L1-3,2019-02-05 09:15:00.0,PmdMin,0.195,CHCGILDTO6Y
MA6813400180,h_OCHCTP,11-L1-3,2019-02-05 09:15:00.0,SoPmdAve,2704.17,CHCGILDTO6Y
MA6813400180,h_OCHCTP,11-L1-3,2019-02-05 09:30:00.0,Qmin,9.0,CHCGILDTO6Y
MA6813400180,h_OCHCTP,11-L1-3,2019-02-05 09:30:00.0,PhaseCorrectionAve,-0.061,CHCGILDTO6Y
MA6813400180,h_OCHCTP,11-L1-3,2019-02-05 09:30:00.0,BerPreFecMax,0.00241,CHCGILDTO6Y
MA6813400180,h_OCHCTP,11-L1-3,2019-02-05 09:30:00.0,PmdMin,0.478,CHCGILDTO6Y
MA6813400180,h_OCHCTP,11-L1-3,2019-02-05 09:30:00.0,SoPmdAve,2694.41,CHCGILDTO6Y
MA6813400180,h_OCHCTP,11-L1-3,2019-02-05 09:45:00.0,Qmin,9.04,CHCGILDTO6Y
MA6813400180,h_OCHCTP,11-L1-3,2019-02-05 09:45:00.0,PhaseCorrectionAve,-0.061,CHCGILDTO6Y
MA6813400180,h_OCHCTP,11-L1-3,2019-02-05 09:45:00.0,BerPreFecMax,0.00232,CHCGILDTO6Y
MA6813400180,h_OCHCTP,11-L1-3,2019-02-05 09:45:00.0,PmdMin,0.478,CHCGILDTO6Y
MA6813400180,h_OCHCTP,11-L1-3,2019-02-05 09:45:00.0,SoPmdAve,2779.0,CHCGILDTO6Y
MA6813400180,h_OCHCTP,11-L1-4,2019-02-05 09:15:00.0,Qmin,8.82,CHCGILDTO6Y
MA6813400180,h_OCHCTP,11-L1-4,2019-02-05 09:15:00.0,PhaseCorrectionAve,4.92e-07,CHCGILDTO6Y
MA6813400180,h_OCHCTP,11-L1-4,2019-02-05 09:15:00.0,BerPreFecMax,0.00288,CHCGILDTO6Y
MA6813400180,h_OCHCTP,11-L1-4,2019-02-05 09:15:00.0,PmdMin,0.711,CHCGILDTO6Y
MA6813400180,h_OCHCTP,11-L1-4,2019-02-05 09:15:00.0,SoPmdAve,2946.7,CHCGILDTO6Y
MA6813400180,h_OCHCTP,11-L1-4,2019-02-05 09:30:00.0,Qmin,8.84,CHCGILDTO6Y
MA6813400180,h_OCHCTP,11-L1-4,2019-02-05 09:30:00.0,PhaseCorrectionAve,-0.061,CHCGILDTO6Y
MA6813400180,h_OCHCTP,11-L1-4,2019-02-05 09:30:00.0,BerPreFecMax,0.00283,CHCGILDTO6Y
MA6813400180,h_OCHCTP,11-L1-4,2019-02-05 09:30:00.0,PmdMin,0.261,CHCGILDTO6Y
MA6813400180,h_OCHCTP,11-L1-4,2019-02-05 09:30:00.0,SoPmdAve,2883.46,CHCGILDTO6Y
MA6813400180,h_OCHCTP,11-L1-4,2019-02-05 09:45:00.0,Qmin,8.91,CHCGILDTO6Y
MA6813400180,h_OCHCTP,11-L1-4,2019-02-05 09:45:00.0,PhaseCorrectionAve,-0.061,CHCGILDTO6Y
MA6813400180,h_OCHCTP,11-L1-4,2019-02-05 09:45:00.0,BerPreFecMax,0.00265,CHCGILDTO6Y
MA6813400180,h_OCHCTP,11-L1-4,2019-02-05 09:45:00.0,PmdMin,1.25,CHCGILDTO6Y
MA6813400180,h_OCHCTP,11-L1-4,2019-02-05 09:45:00.0,SoPmdAve,2933.76,CHCGILDTO6Y
MA6813400180,h_OCHCTP,11-L1-5,2019-02-05 09:15:00.0,Qmin,8.96,CHCGILDTO6Y
MA6813400180,h_OCHCTP,11-L1-5,2019-02-05 09:15:00.0,PhaseCorrectionAve,-0.0611,CHCGILDTO6Y
MA6813400180,h_OCHCTP,11-L1-5,2019-02-05 09:15:00.0,BerPreFecMax,0.00252,CHCGILDTO6Y
MA6813400180,h_OCHCTP,11-L1-5,2019-02-05 09:15:00.0,PmdMin,0.61,CHCGILDTO6Y
MA6813400180,h_OCHCTP,11-L1-5,2019-02-05 09:15:00.0,SoPmdAve,2535.05,CHCGILDTO6Y
MA6813400180,h_OCHCTP,11-L1-5,2019-02-05 09:30:00.0,Qmin,8.95,CHCGILDTO6Y
MA6813400180,h_OCHCTP,11-L1-5,2019-02-05 09:30:00.0,PhaseCorrectionAve,-0.122,CHCGILDTO6Y
MA6813400180,h_OCHCTP,11-L1-5,2019-02-05 09:30:00.0,BerPreFecMax,0.00253,CHCGILDTO6Y
MA6813400180,h_OCHCTP,11-L1-5,2019-02-05 09:30:00.0,PmdMin,0.762,CHCGILDTO6Y
MA6813400180,h_OCHCTP,11-L1-5,2019-02-05 09:30:00.0,SoPmdAve,2503.12,CHCGILDTO6Y
MA6813400180,h_OCHCTP,11-L1-5,2019-02-05 09:45:00.0,Qmin,8.97,CHCGILDTO6Y
MA6813400180,h_OCHCTP,11-L1-5,2019-02-05 09:45:00.0,PhaseCorrectionAve,-0.122,CHCGILDTO6Y
MA6813400180,h_OCHCTP,11-L1-5,2019-02-05 09:45:00.0,BerPreFecMax,0.00249,CHCGILDTO6Y
MA6813400180,h_OCHCTP,11-L1-5,2019-02-05 09:45:00.0,PmdMin,0.923,CHCGILDTO6Y
MA6813400180,h_OCHCTP,11-L1-5,2019-02-05 09:45:00.0,SoPmdAve,2571.41,CHCGILDTO6Y
MA6813400180,h_OCHCTP,11-L1-6,2019-02-05 09:15:00.0,Qmin,8.85,CHCGILDTO6Y
MA6813400180,h_OCHCTP,11-L1-6,2019-02-05 09:15:00.0,PhaseCorrectionAve,-0.0611,CHCGILDTO6Y
MA6813400180,h_OCHCTP,11-L1-6,2019-02-05 09:15:00.0,BerPreFecMax,0.00279,CHCGILDTO6Y
MA6813400180,h_OCHCTP,11-L1-6,2019-02-05 09:15:00.0,PmdMin,0.845,CHCGILDTO6Y
MA6813400180,h_OCHCTP,11-L1-6,2019-02-05 09:15:00.0,SoPmdAve,2475.18,CHCGILDTO6Y
MA6813400180,h_OCHCTP,11-L1-6,2019-02-05 09:30:00.0,Qmin,8.84,CHCGILDTO6Y
MA6813400180,h_OCHCTP,11-L1-6,2019-02-05 09:30:00.0,PhaseCorrectionAve,-0.122,CHCGILDTO6Y
MA6813400180,h_OCHCTP,11-L1-6,2019-02-05 09:30:00.0,BerPreFecMax,0.00282,CHCGILDTO6Y
MA6813400180,h_OCHCTP,11-L1-6,2019-02-05 09:30:00.0,PmdMin,0.59,CHCGILDTO6Y
MA6813400180,h_OCHCTP,11-L1-6,2019-02-05 09:30:00.0,SoPmdAve,2504.55,CHCGILDTO6Y
MA6813400180,h_OCHCTP,11-L1-6,2019-02-05 09:45:00.0,Qmin,8.86,CHCGILDTO6Y
MA6813400180,h_OCHCTP,11-L1-6,2019-02-05 09:45:00.0,PhaseCorrectionAve,-0.122,CHCGILDTO6Y
MA6813400180,h_OCHCTP,11-L1-6,2019-02-05 09:45:00.0,BerPreFecMax,0.00277,CHCGILDTO6Y
MA6813400180,h_OCHCTP,11-L1-6,2019-02-05 09:45:00.0,PmdMin,0.405,CHCGILDTO6Y
MA6813400180,h_OCHCTP,11-L1-6,2019-02-05 09:45:00.0,SoPmdAve,2513.98,CHCGILDTO6Y
MA6813400180,h_OCHCTP,11-L1-7,2019-02-05 09:15:00.0,Qmin,8.81,CHCGILDTO6Y
MA6813400180,h_OCHCTP,11-L1-7,2019-02-05 09:15:00.0,PhaseCorrectionAve,-0.0611,CHCGILDTO6Y
MA6813400180,h_OCHCTP,11-L1-7,2019-02-05 09:15:00.0,BerPreFecMax,0.0029,CHCGILDTO6Y
MA6813400180,h_OCHCTP,11-L1-7,2019-02-05 09:15:00.0,PmdMin,0.72,CHCGILDTO6Y
MA6813400180,h_OCHCTP,11-L1-7,2019-02-05 09:15:00.0,SoPmdAve,2966.24,CHCGILDTO6Y
MA6813400180,h_OCHCTP,11-L1-7,2019-02-05 09:30:00.0,Qmin,8.86,CHCGILDTO6Y
MA6813400180,h_OCHCTP,11-L1-7,2019-02-05 09:30:00.0,PhaseCorrectionAve,-0.122,CHCGILDTO6Y
MA6813400180,h_OCHCTP,11-L1-7,2019-02-05 09:30:00.0,BerPreFecMax,0.00277,CHCGILDTO6Y
MA6813400180,h_OCHCTP,11-L1-7,2019-02-05 09:30:00.0,PmdMin,1.18,CHCGILDTO6Y
MA6813400180,h_OCHCTP,11-L1-7,2019-02-05 09:30:00.0,SoPmdAve,3028.44,CHCGILDTO6Y
MA6813400180,h_OCHCTP,11-L1-7,2019-02-05 09:45:00.0,Qmin,8.86,CHCGILDTO6Y
MA6813400180,h_OCHCTP,11-L1-7,2019-02-05 09:45:00.0,PhaseCorrectionAve,-0.122,CHCGILDTO6Y
MA6813400180,h_OCHCTP,11-L1-7,2019-02-05 09:45:00.0,BerPreFecMax,0.00278,CHCGILDTO6Y
MA6813400180,h_OCHCTP,11-L1-7,2019-02-05 09:45:00.0,PmdMin,0.891,CHCGILDTO6Y
MA6813400180,h_OCHCTP,11-L1-7,2019-02-05 09:45:00.0,SoPmdAve,3099.49,CHCGILDTO6Y
MA6813400180,h_OCHCTP,11-L1-8,2019-02-05 09:15:00.0,Qmin,8.92,CHCGILDTO6Y
MA6813400180,h_OCHCTP,11-L1-8,2019-02-05 09:15:00.0,PhaseCorrectionAve,-0.0611,CHCGILDTO6Y
MA6813400180,h_OCHCTP,11-L1-8,2019-02-05 09:15:00.0,BerPreFecMax,0.00261,CHCGILDTO6Y
MA6813400180,h_OCHCTP,11-L1-8,2019-02-05 09:15:00.0,PmdMin,1.25,CHCGILDTO6Y
MA6813400180,h_OCHCTP,11-L1-8,2019-02-05 09:15:00.0,SoPmdAve,3103.73,CHCGILDTO6Y
MA6813400180,h_OCHCTP,11-L1-8,2019-02-05 09:30:00.0,Qmin,8.94,CHCGILDTO6Y
MA6813400180,h_OCHCTP,11-L1-8,2019-02-05 09:30:00.0,PhaseCorrectionAve,-0.122,CHCGILDTO6Y
MA6813400180,h_OCHCTP,11-L1-8,2019-02-05 09:30:00.0,BerPreFecMax,0.00256,CHCGILDTO6Y
MA6813400180,h_OCHCTP,11-L1-8,2019-02-05 09:30:00.0,PmdMin,0.964,CHCGILDTO6Y
MA6813400180,h_OCHCTP,11-L1-8,2019-02-05 09:30:00.0,SoPmdAve,3130.21,CHCGILDTO6Y
MA6813400180,h_OCHCTP,11-L1-8,2019-02-05 09:45:00.0,Qmin,8.84,CHCGILDTO6Y
MA6813400180,h_OCHCTP,11-L1-8,2019-02-05 09:45:00.0,PhaseCorrectionAve,-0.122,CHCGILDTO6Y
MA6813400180,h_OCHCTP,11-L1-8,2019-02-05 09:45:00.0,BerPreFecMax,0.00283,CHCGILDTO6Y
MA6813400180,h_OCHCTP,11-L1-8,2019-02-05 09:45:00.0,PmdMin,1.24,CHCGILDTO6Y
MA6813400180,h_OCHCTP,11-L1-8,2019-02-05 09:45:00.0,SoPmdAve,3109.22,CHCGILDTO6Y
MA6813400180,h_OCHCTP,11-L1-9,2019-02-05 09:15:00.0,Qmin,8.83,CHCGILDTO6Y
MA6813400180,h_OCHCTP,11-L1-9,2019-02-05 09:15:00.0,PhaseCorrectionAve,-0.0611,CHCGILDTO6Y
MA6813400180,h_OCHCTP,11-L1-9,2019-02-05 09:15:00.0,BerPreFecMax,0.00286,CHCGILDTO6Y
MA6813400180,h_OCHCTP,11-L1-9,2019-02-05 09:15:00.0,PmdMin,0.959,CHCGILDTO6Y
MA6813400180,h_OCHCTP,11-L1-9,2019-02-05 09:15:00.0,SoPmdAve,2865.34,CHCGILDTO6Y
MA6813400180,h_OCHCTP,11-L1-9,2019-02-05 09:30:00.0,Qmin,8.8,CHCGILDTO6Y
MA6813400180,h_OCHCTP,11-L1-9,2019-02-05 09:30:00.0,PhaseCorrectionAve,-0.183,CHCGILDTO6Y
MA6813400180,h_OCHCTP,11-L1-9,2019-02-05 09:30:00.0,BerPreFecMax,0.00293,CHCGILDTO6Y
MA6813400180,h_OCHCTP,11-L1-9,2019-02-05 09:30:00.0,PmdMin,0.566,CHCGILDTO6Y
MA6813400180,h_OCHCTP,11-L1-9,2019-02-05 09:30:00.0,SoPmdAve,2941.09,CHCGILDTO6Y
MA6813400180,h_OCHCTP,11-L1-9,2019-02-05 09:45:00.0,Qmin,8.84,CHCGILDTO6Y
MA6813400180,h_OCHCTP,11-L1-9,2019-02-05 09:45:00.0,PhaseCorrectionAve,-0.122,CHCGILDTO6Y
MA6813400180,h_OCHCTP,11-L1-9,2019-02-05 09:45:00.0,BerPreFecMax,0.00284,CHCGILDTO6Y
MA6813400180,h_OCHCTP,11-L1-9,2019-02-05 09:45:00.0,PmdMin,1.18,CHCGILDTO6Y
MA6813400180,h_OCHCTP,11-L1-9,2019-02-05 09:45:00.0,SoPmdAve,2910.84,CHCGILDTO6Y
MA6813400180,h_OCHCTP,11-L1-10,2019-02-05 09:15:00.0,Qmin,8.92,CHCGILDTO6Y
MA6813400180,h_OCHCTP,11-L1-10,2019-02-05 09:15:00.0,PhaseCorrectionAve,-0.0611,CHCGILDTO6Y
MA6813400180,h_OCHCTP,11-L1-10,2019-02-05 09:15:00.0,BerPreFecMax,0.00262,CHCGILDTO6Y
MA6813400180,h_OCHCTP,11-L1-10,2019-02-05 09:15:00.0,PmdMin,1.89,CHCGILDTO6Y
MA6813400180,h_OCHCTP,11-L1-10,2019-02-05 09:15:00.0,SoPmdAve,3065.78,CHCGILDTO6Y
MA6813400180,h_OCHCTP,11-L1-10,2019-02-05 09:30:00.0,Qmin,8.83,CHCGILDTO6Y
MA6813400180,h_OCHCTP,11-L1-10,2019-02-05 09:30:00.0,PhaseCorrectionAve,-0.244,CHCGILDTO6Y
MA6813400180,h_OCHCTP,11-L1-10,2019-02-05 09:30:00.0,BerPreFecMax,0.00286,CHCGILDTO6Y
MA6813400180,h_OCHCTP,11-L1-10,2019-02-05 09:30:00.0,PmdMin,0.882,CHCGILDTO6Y
MA6813400180,h_OCHCTP,11-L1-10,2019-02-05 09:30:00.0,SoPmdAve,3207.57,CHCGILDTO6Y
MA6813400180,h_OCHCTP,11-L1-10,2019-02-05 09:45:00.0,Qmin,8.94,CHCGILDTO6Y
MA6813400180,h_OCHCTP,11-L1-10,2019-02-05 09:45:00.0,PhaseCorrectionAve,-0.122,CHCGILDTO6Y
MA6813400180,h_OCHCTP,11-L1-10,2019-02-05 09:45:00.0,BerPreFecMax,0.00255,CHCGILDTO6Y
MA6813400180,h_OCHCTP,11-L1-10,2019-02-05 09:45:00.0,PmdMin,0.262,CHCGILDTO6Y
MA6813400180,h_OCHCTP,11-L1-10,2019-02-05 09:45:00.0,SoPmdAve,3004.83,CHCGILDTO6Y
MA6813400180,h_OCHCTP,13-L1-1,2019-02-05 09:15:00.0,Qmin,9.15,CHCGILDTO6Y
MA6813400180,h_OCHCTP,13-L1-1,2019-02-05 09:15:00.0,PhaseCorrectionAve,-0.122,CHCGILDTO6Y
MA6813400180,h_OCHCTP,13-L1-1,2019-02-05 09:15:00.0,BerPreFecMax,0.00207,CHCGILDTO6Y
MA6813400180,h_OCHCTP,13-L1-1,2019-02-05 09:15:00.0,PmdMin,1.18,CHCGILDTO6Y
MA6813400180,h_OCHCTP,13-L1-1,2019-02-05 09:15:00.0,SoPmdAve,3597.36,CHCGILDTO6Y
MA6813400180,h_OCHCTP,13-L1-1,2019-02-05 09:30:00.0,Qmin,9.15,CHCGILDTO6Y
MA6813400180,h_OCHCTP,13-L1-1,2019-02-05 09:30:00.0,PhaseCorrectionAve,3.44e-07,CHCGILDTO6Y
MA6813400180,h_OCHCTP,13-L1-1,2019-02-05 09:30:00.0,BerPreFecMax,0.00206,CHCGILDTO6Y
MA6813400180,h_OCHCTP,13-L1-1,2019-02-05 09:30:00.0,PmdMin,1.27,CHCGILDTO6Y
MA6813400180,h_OCHCTP,13-L1-1,2019-02-05 09:30:00.0,SoPmdAve,3554.97,CHCGILDTO6Y
MA6813400180,h_OCHCTP,13-L1-1,2019-02-05 09:45:00.0,Qmin,9.11,CHCGILDTO6Y
MA6813400180,h_OCHCTP,13-L1-1,2019-02-05 09:45:00.0,PhaseCorrectionAve,4.7e-07,CHCGILDTO6Y
MA6813400180,h_OCHCTP,13-L1-1,2019-02-05 09:45:00.0,BerPreFecMax,0.00216,CHCGILDTO6Y
MA6813400180,h_OCHCTP,13-L1-1,2019-02-05 09:45:00.0,PmdMin,1.26,CHCGILDTO6Y
MA6813400180,h_OCHCTP,13-L1-1,2019-02-05 09:45:00.0,SoPmdAve,3467.03,CHCGILDTO6Y
MA6813400180,h_OCHCTP,13-L1-2,2019-02-05 09:15:00.0,Qmin,9.18,CHCGILDTO6Y
MA6813400180,h_OCHCTP,13-L1-2,2019-02-05 09:15:00.0,PhaseCorrectionAve,-0.183,CHCGILDTO6Y
MA6813400180,h_OCHCTP,13-L1-2,2019-02-05 09:15:00.0,BerPreFecMax,0.002,CHCGILDTO6Y
MA6813400180,h_OCHCTP,13-L1-2,2019-02-05 09:15:00.0,PmdMin,1.08,CHCGILDTO6Y
MA6813400180,h_OCHCTP,13-L1-2,2019-02-05 09:15:00.0,SoPmdAve,3448.79,CHCGILDTO6Y
MA6813400180,h_OCHCTP,13-L1-2,2019-02-05 09:30:00.0,Qmin,9.18,CHCGILDTO6Y
MA6813400180,h_OCHCTP,13-L1-2,2019-02-05 09:30:00.0,PhaseCorrectionAve,-0.061,CHCGILDTO6Y
MA6813400180,h_OCHCTP,13-L1-2,2019-02-05 09:30:00.0,BerPreFecMax,0.00201,CHCGILDTO6Y
MA6813400180,h_OCHCTP,13-L1-2,2019-02-05 09:30:00.0,PmdMin,1.57,CHCGILDTO6Y
MA6813400180,h_OCHCTP,13-L1-2,2019-02-05 09:30:00.0,SoPmdAve,3487.65,CHCGILDTO6Y
MA6813400180,h_OCHCTP,13-L1-2,2019-02-05 09:45:00.0,Qmin,9.17,CHCGILDTO6Y
MA6813400180,h_OCHCTP,13-L1-2,2019-02-05 09:45:00.0,PhaseCorrectionAve,4.14e-07,CHCGILDTO6Y
MA6813400180,h_OCHCTP,13-L1-2,2019-02-05 09:45:00.0,BerPreFecMax,0.00203,CHCGILDTO6Y
MA6813400180,h_OCHCTP,13-L1-2,2019-02-05 09:45:00.0,PmdMin,0.753,CHCGILDTO6Y
MA6813400180,h_OCHCTP,13-L1-2,2019-02-05 09:45:00.0,SoPmdAve,3472.35,CHCGILDTO6Y
MA6813400180,h_OCHCTP,13-L1-3,2019-02-05 09:15:00.0,Qmin,8.94,CHCGILDTO6Y
MA6813400180,h_OCHCTP,13-L1-3,2019-02-05 09:15:00.0,PhaseCorrectionAve,-0.183,CHCGILDTO6Y
MA6813400180,h_OCHCTP,13-L1-3,2019-02-05 09:15:00.0,BerPreFecMax,0.00257,CHCGILDTO6Y
MA6813400180,h_OCHCTP,13-L1-3,2019-02-05 09:15:00.0,PmdMin,1.34,CHCGILDTO6Y
MA6813400180,h_OCHCTP,13-L1-3,2019-02-05 09:15:00.0,SoPmdAve,2955.17,CHCGILDTO6Y
MA6813400180,h_OCHCTP,13-L1-3,2019-02-05 09:30:00.0,Qmin,8.97,CHCGILDTO6Y
MA6813400180,h_OCHCTP,13-L1-3,2019-02-05 09:30:00.0,PhaseCorrectionAve,-0.061,CHCGILDTO6Y
MA6813400180,h_OCHCTP,13-L1-3,2019-02-05 09:30:00.0,BerPreFecMax,0.0025,CHCGILDTO6Y
MA6813400180,h_OCHCTP,13-L1-3,2019-02-05 09:30:00.0,PmdMin,0.892,CHCGILDTO6Y
MA6813400180,h_OCHCTP,13-L1-3,2019-02-05 09:30:00.0,SoPmdAve,2876.75,CHCGILDTO6Y
MA6813400180,h_OCHCTP,13-L1-3,2019-02-05 09:45:00.0,Qmin,9.03,CHCGILDTO6Y
MA6813400180,h_OCHCTP,13-L1-3,2019-02-05 09:45:00.0,PhaseCorrectionAve,5e-07,CHCGILDTO6Y
MA6813400180,h_OCHCTP,13-L1-3,2019-02-05 09:45:00.0,BerPreFecMax,0.00234,CHCGILDTO6Y
MA6813400180,h_OCHCTP,13-L1-3,2019-02-05 09:45:00.0,PmdMin,0.288,CHCGILDTO6Y
MA6813400180,h_OCHCTP,13-L1-3,2019-02-05 09:45:00.0,SoPmdAve,2886.17,CHCGILDTO6Y
MA6813400180,h_OCHCTP,13-L1-4,2019-02-05 09:15:00.0,Qmin,8.77,CHCGILDTO6Y
MA6813400180,h_OCHCTP,13-L1-4,2019-02-05 09:15:00.0,PhaseCorrectionAve,-0.183,CHCGILDTO6Y
MA6813400180,h_OCHCTP,13-L1-4,2019-02-05 09:15:00.0,BerPreFecMax,0.00304,CHCGILDTO6Y
MA6813400180,h_OCHCTP,13-L1-4,2019-02-05 09:15:00.0,PmdMin,1.1,CHCGILDTO6Y
MA6813400180,h_OCHCTP,13-L1-4,2019-02-05 09:15:00.0,SoPmdAve,3359.72,CHCGILDTO6Y
MA6813400180,h_OCHCTP,13-L1-4,2019-02-05 09:30:00.0,Qmin,8.84,CHCGILDTO6Y
MA6813400180,h_OCHCTP,13-L1-4,2019-02-05 09:30:00.0,PhaseCorrectionAve,-0.061,CHCGILDTO6Y
MA6813400180,h_OCHCTP,13-L1-4,2019-02-05 09:30:00.0,BerPreFecMax,0.00282,CHCGILDTO6Y
MA6813400180,h_OCHCTP,13-L1-4,2019-02-05 09:30:00.0,PmdMin,0.972,CHCGILDTO6Y
MA6813400180,h_OCHCTP,13-L1-4,2019-02-05 09:30:00.0,SoPmdAve,3325.2,CHCGILDTO6Y
MA6813400180,h_OCHCTP,13-L1-4,2019-02-05 09:45:00.0,Qmin,8.86,CHCGILDTO6Y
MA6813400180,h_OCHCTP,13-L1-4,2019-02-05 09:45:00.0,PhaseCorrectionAve,4.33e-07,CHCGILDTO6Y
MA6813400180,h_OCHCTP,13-L1-4,2019-02-05 09:45:00.0,BerPreFecMax,0.00277,CHCGILDTO6Y
MA6813400180,h_OCHCTP,13-L1-4,2019-02-05 09:45:00.0,PmdMin,0.526,CHCGILDTO6Y
MA6813400180,h_OCHCTP,13-L1-4,2019-02-05 09:45:00.0,SoPmdAve,3407.91,CHCGILDTO6Y
MA6813400180,h_OCHCTP,13-L1-5,2019-02-05 09:15:00.0,Qmin,8.8,CHCGILDTO6Y
MA6813400180,h_OCHCTP,13-L1-5,2019-02-05 09:15:00.0,PhaseCorrectionAve,-0.183,CHCGILDTO6Y
MA6813400180,h_OCHCTP,13-L1-5,2019-02-05 09:15:00.0,BerPreFecMax,0.00294,CHCGILDTO6Y
MA6813400180,h_OCHCTP,13-L1-5,2019-02-05 09:15:00.0,PmdMin,0.67,CHCGILDTO6Y
MA6813400180,h_OCHCTP,13-L1-5,2019-02-05 09:15:00.0,SoPmdAve,2844.85,CHCGILDTO6Y
MA6813400180,h_OCHCTP,13-L1-5,2019-02-05 09:30:00.0,Qmin,8.85,CHCGILDTO6Y
MA6813400180,h_OCHCTP,13-L1-5,2019-02-05 09:30:00.0,PhaseCorrectionAve,-0.061,CHCGILDTO6Y
MA6813400180,h_OCHCTP,13-L1-5,2019-02-05 09:30:00.0,BerPreFecMax,0.00281,CHCGILDTO6Y
MA6813400180,h_OCHCTP,13-L1-5,2019-02-05 09:30:00.0,PmdMin,0.524,CHCGILDTO6Y
MA6813400180,h_OCHCTP,13-L1-5,2019-02-05 09:30:00.0,SoPmdAve,2808.51,CHCGILDTO6Y
MA6813400180,h_OCHCTP,13-L1-5,2019-02-05 09:45:00.0,Qmin,8.83,CHCGILDTO6Y
MA6813400180,h_OCHCTP,13-L1-5,2019-02-05 09:45:00.0,PhaseCorrectionAve,2.8e-07,CHCGILDTO6Y
MA6813400180,h_OCHCTP,13-L1-5,2019-02-05 09:45:00.0,BerPreFecMax,0.00286,CHCGILDTO6Y
MA6813400180,h_OCHCTP,13-L1-5,2019-02-05 09:45:00.0,PmdMin,1.18,CHCGILDTO6Y
MA6813400180,h_OCHCTP,13-L1-5,2019-02-05 09:45:00.0,SoPmdAve,2760.51,CHCGILDTO6Y
MA6813400180,h_OCHCTP,13-L1-6,2019-02-05 09:15:00.0,Qmin,8.85,CHCGILDTO6Y
MA6813400180,h_OCHCTP,13-L1-6,2019-02-05 09:15:00.0,PhaseCorrectionAve,-0.183,CHCGILDTO6Y
MA6813400180,h_OCHCTP,13-L1-6,2019-02-05 09:15:00.0,BerPreFecMax,0.00279,CHCGILDTO6Y
MA6813400180,h_OCHCTP,13-L1-6,2019-02-05 09:15:00.0,PmdMin,0.822,CHCGILDTO6Y
MA6813400180,h_OCHCTP,13-L1-6,2019-02-05 09:15:00.0,SoPmdAve,3075.16,CHCGILDTO6Y
MA6813400180,h_OCHCTP,13-L1-6,2019-02-05 09:30:00.0,Qmin,8.87,CHCGILDTO6Y
MA6813400180,h_OCHCTP,13-L1-6,2019-02-05 09:30:00.0,PhaseCorrectionAve,-0.061,CHCGILDTO6Y
MA6813400180,h_OCHCTP,13-L1-6,2019-02-05 09:30:00.0,BerPreFecMax,0.00276,CHCGILDTO6Y
MA6813400180,h_OCHCTP,13-L1-6,2019-02-05 09:30:00.0,PmdMin,1.06,CHCGILDTO6Y
MA6813400180,h_OCHCTP,13-L1-6,2019-02-05 09:30:00.0,SoPmdAve,2970.31,CHCGILDTO6Y
MA6813400180,h_OCHCTP,13-L1-6,2019-02-05 09:45:00.0,Qmin,8.85,CHCGILDTO6Y
MA6813400180,h_OCHCTP,13-L1-6,2019-02-05 09:45:00.0,PhaseCorrectionAve,5.32e-07,CHCGILDTO6Y
MA6813400180,h_OCHCTP,13-L1-6,2019-02-05 09:45:00.0,BerPreFecMax,0.0028,CHCGILDTO6Y
MA6813400180,h_OCHCTP,13-L1-6,2019-02-05 09:45:00.0,PmdMin,1.14,CHCGILDTO6Y
MA6813400180,h_OCHCTP,13-L1-6,2019-02-05 09:45:00.0,SoPmdAve,2912.41,CHCGILDTO6Y
MA6813400180,h_OCHCTP,13-L1-7,2019-02-05 09:15:00.0,Qmin,8.76,CHCGILDTO6Y
MA6813400180,h_OCHCTP,13-L1-7,2019-02-05 09:15:00.0,PhaseCorrectionAve,-0.183,CHCGILDTO6Y
MA6813400180,h_OCHCTP,13-L1-7,2019-02-05 09:15:00.0,BerPreFecMax,0.00306,CHCGILDTO6Y
MA6813400180,h_OCHCTP,13-L1-7,2019-02-05 09:15:00.0,PmdMin,0.957,CHCGILDTO6Y
MA6813400180,h_OCHCTP,13-L1-7,2019-02-05 09:15:00.0,SoPmdAve,3746.03,CHCGILDTO6Y
MA6813400180,h_OCHCTP,13-L1-7,2019-02-05 09:30:00.0,Qmin,8.83,CHCGILDTO6Y
MA6813400180,h_OCHCTP,13-L1-7,2019-02-05 09:30:00.0,PhaseCorrectionAve,-0.061,CHCGILDTO6Y
MA6813400180,h_OCHCTP,13-L1-7,2019-02-05 09:30:00.0,BerPreFecMax,0.00285,CHCGILDTO6Y
MA6813400180,h_OCHCTP,13-L1-7,2019-02-05 09:30:00.0,PmdMin,0.76,CHCGILDTO6Y
MA6813400180,h_OCHCTP,13-L1-7,2019-02-05 09:30:00.0,SoPmdAve,3704.55,CHCGILDTO6Y
MA6813400180,h_OCHCTP,13-L1-7,2019-02-05 09:45:00.0,Qmin,8.74,CHCGILDTO6Y
MA6813400180,h_OCHCTP,13-L1-7,2019-02-05 09:45:00.0,PhaseCorrectionAve,5.15e-07,CHCGILDTO6Y
MA6813400180,h_OCHCTP,13-L1-7,2019-02-05 09:45:00.0,BerPreFecMax,0.00311,CHCGILDTO6Y
MA6813400180,h_OCHCTP,13-L1-7,2019-02-05 09:45:00.0,PmdMin,0.766,CHCGILDTO6Y
MA6813400180,h_OCHCTP,13-L1-7,2019-02-05 09:45:00.0,SoPmdAve,3793.45,CHCGILDTO6Y
MA6813400180,h_OCHCTP,13-L1-8,2019-02-05 09:15:00.0,Qmin,8.86,CHCGILDTO6Y
MA6813400180,h_OCHCTP,13-L1-8,2019-02-05 09:15:00.0,PhaseCorrectionAve,-0.244,CHCGILDTO6Y
MA6813400180,h_OCHCTP,13-L1-8,2019-02-05 09:15:00.0,BerPreFecMax,0.00277,CHCGILDTO6Y
MA6813400180,h_OCHCTP,13-L1-8,2019-02-05 09:15:00.0,PmdMin,0.282,CHCGILDTO6Y
MA6813400180,h_OCHCTP,13-L1-8,2019-02-05 09:15:00.0,SoPmdAve,3685.25,CHCGILDTO6Y
MA6813400180,h_OCHCTP,13-L1-8,2019-02-05 09:30:00.0,Qmin,8.87,CHCGILDTO6Y
MA6813400180,h_OCHCTP,13-L1-8,2019-02-05 09:30:00.0,PhaseCorrectionAve,-0.122,CHCGILDTO6Y
MA6813400180,h_OCHCTP,13-L1-8,2019-02-05 09:30:00.0,BerPreFecMax,0.00274,CHCGILDTO6Y
MA6813400180,h_OCHCTP,13-L1-8,2019-02-05 09:30:00.0,PmdMin,0.682,CHCGILDTO6Y
MA6813400180,h_OCHCTP,13-L1-8,2019-02-05 09:30:00.0,SoPmdAve,3821.22,CHCGILDTO6Y
MA6813400180,h_OCHCTP,13-L1-8,2019-02-05 09:45:00.0,Qmin,8.78,CHCGILDTO6Y
MA6813400180,h_OCHCTP,13-L1-8,2019-02-05 09:45:00.0,PhaseCorrectionAve,-0.061,CHCGILDTO6Y
MA6813400180,h_OCHCTP,13-L1-8,2019-02-05 09:45:00.0,BerPreFecMax,0.003,CHCGILDTO6Y
MA6813400180,h_OCHCTP,13-L1-8,2019-02-05 09:45:00.0,PmdMin,0.966,CHCGILDTO6Y
MA6813400180,h_OCHCTP,13-L1-8,2019-02-05 09:45:00.0,SoPmdAve,3778.83,CHCGILDTO6Y
MA6813400180,h_OCHCTP,13-L1-9,2019-02-05 09:15:00.0,Qmin,8.75,CHCGILDTO6Y
MA6813400180,h_OCHCTP,13-L1-9,2019-02-05 09:15:00.0,PhaseCorrectionAve,-0.244,CHCGILDTO6Y
MA6813400180,h_OCHCTP,13-L1-9,2019-02-05 09:15:00.0,BerPreFecMax,0.00309,CHCGILDTO6Y
MA6813400180,h_OCHCTP,13-L1-9,2019-02-05 09:15:00.0,PmdMin,0.206,CHCGILDTO6Y
MA6813400180,h_OCHCTP,13-L1-9,2019-02-05 09:15:00.0,SoPmdAve,3504.98,CHCGILDTO6Y
MA6813400180,h_OCHCTP,13-L1-9,2019-02-05 09:30:00.0,Qmin,8.8,CHCGILDTO6Y
MA6813400180,h_OCHCTP,13-L1-9,2019-02-05 09:30:00.0,PhaseCorrectionAve,-0.122,CHCGILDTO6Y
MA6813400180,h_OCHCTP,13-L1-9,2019-02-05 09:30:00.0,BerPreFecMax,0.00294,CHCGILDTO6Y
MA6813400180,h_OCHCTP,13-L1-9,2019-02-05 09:30:00.0,PmdMin,0.826,CHCGILDTO6Y
MA6813400180,h_OCHCTP,13-L1-9,2019-02-05 09:30:00.0,SoPmdAve,3533.48,CHCGILDTO6Y
MA6813400180,h_OCHCTP,13-L1-9,2019-02-05 09:45:00.0,Qmin,8.78,CHCGILDTO6Y
MA6813400180,h_OCHCTP,13-L1-9,2019-02-05 09:45:00.0,PhaseCorrectionAve,-0.122,CHCGILDTO6Y
MA6813400180,h_OCHCTP,13-L1-9,2019-02-05 09:45:00.0,BerPreFecMax,0.00299,CHCGILDTO6Y
MA6813400180,h_OCHCTP,13-L1-9,2019-02-05 09:45:00.0,PmdMin,0.465,CHCGILDTO6Y
MA6813400180,h_OCHCTP,13-L1-9,2019-02-05 09:45:00.0,SoPmdAve,3548.36,CHCGILDTO6Y
MA6813400180,h_OCHCTP,13-L1-10,2019-02-05 09:15:00.0,Qmin,8.63,CHCGILDTO6Y
MA6813400180,h_OCHCTP,13-L1-10,2019-02-05 09:15:00.0,PhaseCorrectionAve,-0.244,CHCGILDTO6Y
MA6813400180,h_OCHCTP,13-L1-10,2019-02-05 09:15:00.0,BerPreFecMax,0.00345,CHCGILDTO6Y
MA6813400180,h_OCHCTP,13-L1-10,2019-02-05 09:15:00.0,PmdMin,1.37,CHCGILDTO6Y
MA6813400180,h_OCHCTP,13-L1-10,2019-02-05 09:15:00.0,SoPmdAve,3750.43,CHCGILDTO6Y
MA6813400180,h_OCHCTP,13-L1-10,2019-02-05 09:30:00.0,Qmin,8.55,CHCGILDTO6Y
MA6813400180,h_OCHCTP,13-L1-10,2019-02-05 09:30:00.0,PhaseCorrectionAve,-0.183,CHCGILDTO6Y
MA6813400180,h_OCHCTP,13-L1-10,2019-02-05 09:30:00.0,BerPreFecMax,0.00372,CHCGILDTO6Y
MA6813400180,h_OCHCTP,13-L1-10,2019-02-05 09:30:00.0,PmdMin,0.511,CHCGILDTO6Y
MA6813400180,h_OCHCTP,13-L1-10,2019-02-05 09:30:00.0,SoPmdAve,3819.17,CHCGILDTO6Y
MA6813400180,h_OCHCTP,13-L1-10,2019-02-05 09:45:00.0,Qmin,8.71,CHCGILDTO6Y
MA6813400180,h_OCHCTP,13-L1-10,2019-02-05 09:45:00.0,PhaseCorrectionAve,-0.122,CHCGILDTO6Y
MA6813400180,h_OCHCTP,13-L1-10,2019-02-05 09:45:00.0,BerPreFecMax,0.00321,CHCGILDTO6Y
MA6813400180,h_OCHCTP,13-L1-10,2019-02-05 09:45:00.0,PmdMin,0.822,CHCGILDTO6Y
MA6813400180,h_OCHCTP,13-L1-10,2019-02-05 09:45:00.0,SoPmdAve,4026.27,CHCGILDTO6Y
