MA6813400180,h_OCHCTP,10-L1-1,2019-02-05 15:15:00.0,Qmin,9.48,CHCGILDTO6Y
MA6813400180,h_OCHCTP,10-L1-1,2019-02-05 15:15:00.0,PhaseCorrectionAve,5.61e-07,CHCGILDTO6Y
MA6813400180,h_OCHCTP,10-L1-1,2019-02-05 15:15:00.0,BerPreFecMax,0.00145,CHCGILDTO6Y
MA6813400180,h_OCHCTP,10-L1-1,2019-02-05 15:15:00.0,PmdMin,0.979,CHCGILDTO6Y
MA6813400180,h_OCHCTP,10-L1-1,2019-02-05 15:15:00.0,SoPmdAve,3545.73,CHCGILDTO6Y
MA6813400180,h_OCHCTP,10-L1-1,2019-02-05 15:30:00.0,Qmin,9.48,CHCGILDTO6Y
MA6813400180,h_OCHCTP,10-L1-1,2019-02-05 15:30:00.0,PhaseCorrectionAve,5.08e-07,CHCGILDTO6Y
MA6813400180,h_OCHCTP,10-L1-1,2019-02-05 15:30:00.0,BerPreFecMax,0.00144,CHCGILDTO6Y
MA6813400180,h_OCHCTP,10-L1-1,2019-02-05 15:30:00.0,PmdMin,1.71,CHCGILDTO6Y
MA6813400180,h_OCHCTP,10-L1-1,2019-02-05 15:30:00.0,SoPmdAve,3608.0,CHCGILDTO6Y
MA6813400180,h_OCHCTP,10-L1-1,2019-02-05 15:45:00.0,Qmin,9.49,CHCGILDTO6Y
MA6813400180,h_OCHCTP,10-L1-1,2019-02-05 15:45:00.0,PhaseCorrectionAve,4.72e-07,CHCGILDTO6Y
MA6813400180,h_OCHCTP,10-L1-1,2019-02-05 15:45:00.0,BerPreFecMax,0.00143,CHCGILDTO6Y
MA6813400180,h_OCHCTP,10-L1-1,2019-02-05 15:45:00.0,PmdMin,1.39,CHCGILDTO6Y
MA6813400180,h_OCHCTP,10-L1-1,2019-02-05 15:45:00.0,SoPmdAve,3632.84,CHCGILDTO6Y
MA6813400180,h_OCHCTP,10-L1-2,2019-02-05 15:15:00.0,Qmin,9.19,CHCGILDTO6Y
MA6813400180,h_OCHCTP,10-L1-2,2019-02-05 15:15:00.0,PhaseCorrectionAve,3.75e-07,CHCGILDTO6Y
MA6813400180,h_OCHCTP,10-L1-2,2019-02-05 15:15:00.0,BerPreFecMax,0.00198,CHCGILDTO6Y
MA6813400180,h_OCHCTP,10-L1-2,2019-02-05 15:15:00.0,PmdMin,6.3,CHCGILDTO6Y
MA6813400180,h_OCHCTP,10-L1-2,2019-02-05 15:15:00.0,SoPmdAve,3361.42,CHCGILDTO6Y
MA6813400180,h_OCHCTP,10-L1-2,2019-02-05 15:30:00.0,Qmin,9.2,CHCGILDTO6Y
MA6813400180,h_OCHCTP,10-L1-2,2019-02-05 15:30:00.0,PhaseCorrectionAve,3.64e-07,CHCGILDTO6Y
MA6813400180,h_OCHCTP,10-L1-2,2019-02-05 15:30:00.0,BerPreFecMax,0.00197,CHCGILDTO6Y
MA6813400180,h_OCHCTP,10-L1-2,2019-02-05 15:30:00.0,PmdMin,2.96,CHCGILDTO6Y
MA6813400180,h_OCHCTP,10-L1-2,2019-02-05 15:30:00.0,SoPmdAve,3361.14,CHCGILDTO6Y
MA6813400180,h_OCHCTP,10-L1-2,2019-02-05 15:45:00.0,Qmin,9.2,CHCGILDTO6Y
MA6813400180,h_OCHCTP,10-L1-2,2019-02-05 15:45:00.0,PhaseCorrectionAve,-0.0611,CHCGILDTO6Y
MA6813400180,h_OCHCTP,10-L1-2,2019-02-05 15:45:00.0,BerPreFecMax,0.00195,CHCGILDTO6Y
MA6813400180,h_OCHCTP,10-L1-2,2019-02-05 15:45:00.0,PmdMin,4.22,CHCGILDTO6Y
MA6813400180,h_OCHCTP,10-L1-2,2019-02-05 15:45:00.0,SoPmdAve,3360.38,CHCGILDTO6Y
MA6813400180,h_OCHCTP,10-L1-3,2019-02-05 15:15:00.0,Qmin,8.95,CHCGILDTO6Y
MA6813400180,h_OCHCTP,10-L1-3,2019-02-05 15:15:00.0,PhaseCorrectionAve,5.63e-07,CHCGILDTO6Y
MA6813400180,h_OCHCTP,10-L1-3,2019-02-05 15:15:00.0,BerPreFecMax,0.00253,CHCGILDTO6Y
MA6813400180,h_OCHCTP,10-L1-3,2019-02-05 15:15:00.0,PmdMin,2.42,CHCGILDTO6Y
MA6813400180,h_OCHCTP,10-L1-3,2019-02-05 15:15:00.0,SoPmdAve,2822.56,CHCGILDTO6Y
MA6813400180,h_OCHCTP,10-L1-3,2019-02-05 15:30:00.0,Qmin,8.95,CHCGILDTO6Y
MA6813400180,h_OCHCTP,10-L1-3,2019-02-05 15:30:00.0,PhaseCorrectionAve,5.59e-07,CHCGILDTO6Y
MA6813400180,h_OCHCTP,10-L1-3,2019-02-05 15:30:00.0,BerPreFecMax,0.00253,CHCGILDTO6Y
MA6813400180,h_OCHCTP,10-L1-3,2019-02-05 15:30:00.0,PmdMin,4.49,CHCGILDTO6Y
MA6813400180,h_OCHCTP,10-L1-3,2019-02-05 15:30:00.0,SoPmdAve,2953.76,CHCGILDTO6Y
MA6813400180,h_OCHCTP,10-L1-3,2019-02-05 15:45:00.0,Qmin,8.96,CHCGILDTO6Y
MA6813400180,h_OCHCTP,10-L1-3,2019-02-05 15:45:00.0,PhaseCorrectionAve,-0.122,CHCGILDTO6Y
MA6813400180,h_OCHCTP,10-L1-3,2019-02-05 15:45:00.0,BerPreFecMax,0.0025,CHCGILDTO6Y
MA6813400180,h_OCHCTP,10-L1-3,2019-02-05 15:45:00.0,PmdMin,6.81,CHCGILDTO6Y
MA6813400180,h_OCHCTP,10-L1-3,2019-02-05 15:45:00.0,SoPmdAve,2824.86,CHCGILDTO6Y
MA6813400180,h_OCHCTP,10-L1-4,2019-02-05 15:15:00.0,Qmin,8.42,CHCGILDTO6Y
MA6813400180,h_OCHCTP,10-L1-4,2019-02-05 15:15:00.0,PhaseCorrectionAve,1.96e-06,CHCGILDTO6Y
MA6813400180,h_OCHCTP,10-L1-4,2019-02-05 15:15:00.0,BerPreFecMax,0.00418,CHCGILDTO6Y
MA6813400180,h_OCHCTP,10-L1-4,2019-02-05 15:15:00.0,PmdMin,1.33,CHCGILDTO6Y
MA6813400180,h_OCHCTP,10-L1-4,2019-02-05 15:15:00.0,SoPmdAve,3202.0,CHCGILDTO6Y
MA6813400180,h_OCHCTP,10-L1-4,2019-02-05 15:30:00.0,Qmin,8.41,CHCGILDTO6Y
MA6813400180,h_OCHCTP,10-L1-4,2019-02-05 15:30:00.0,PhaseCorrectionAve,-0.061,CHCGILDTO6Y
MA6813400180,h_OCHCTP,10-L1-4,2019-02-05 15:30:00.0,BerPreFecMax,0.00424,CHCGILDTO6Y
MA6813400180,h_OCHCTP,10-L1-4,2019-02-05 15:30:00.0,PmdMin,1.12,CHCGILDTO6Y
MA6813400180,h_OCHCTP,10-L1-4,2019-02-05 15:30:00.0,SoPmdAve,3039.71,CHCGILDTO6Y
MA6813400180,h_OCHCTP,10-L1-4,2019-02-05 15:45:00.0,Qmin,8.42,CHCGILDTO6Y
MA6813400180,h_OCHCTP,10-L1-4,2019-02-05 15:45:00.0,PhaseCorrectionAve,-0.122,CHCGILDTO6Y
MA6813400180,h_OCHCTP,10-L1-4,2019-02-05 15:45:00.0,BerPreFecMax,0.00418,CHCGILDTO6Y
MA6813400180,h_OCHCTP,10-L1-4,2019-02-05 15:45:00.0,PmdMin,1.53,CHCGILDTO6Y
MA6813400180,h_OCHCTP,10-L1-4,2019-02-05 15:45:00.0,SoPmdAve,3107.97,CHCGILDTO6Y
MA6813400180,h_OCHCTP,10-L1-5,2019-02-05 15:15:00.0,Qmin,8.63,CHCGILDTO6Y
MA6813400180,h_OCHCTP,10-L1-5,2019-02-05 15:15:00.0,PhaseCorrectionAve,1.2e-06,CHCGILDTO6Y
MA6813400180,h_OCHCTP,10-L1-5,2019-02-05 15:15:00.0,BerPreFecMax,0.00346,CHCGILDTO6Y
MA6813400180,h_OCHCTP,10-L1-5,2019-02-05 15:15:00.0,PmdMin,0.678,CHCGILDTO6Y
MA6813400180,h_OCHCTP,10-L1-5,2019-02-05 15:15:00.0,SoPmdAve,2796.94,CHCGILDTO6Y
MA6813400180,h_OCHCTP,10-L1-5,2019-02-05 15:30:00.0,Qmin,8.6,CHCGILDTO6Y
MA6813400180,h_OCHCTP,10-L1-5,2019-02-05 15:30:00.0,PhaseCorrectionAve,-0.061,CHCGILDTO6Y
MA6813400180,h_OCHCTP,10-L1-5,2019-02-05 15:30:00.0,BerPreFecMax,0.00354,CHCGILDTO6Y
MA6813400180,h_OCHCTP,10-L1-5,2019-02-05 15:30:00.0,PmdMin,1.37,CHCGILDTO6Y
MA6813400180,h_OCHCTP,10-L1-5,2019-02-05 15:30:00.0,SoPmdAve,2887.48,CHCGILDTO6Y
MA6813400180,h_OCHCTP,10-L1-5,2019-02-05 15:45:00.0,Qmin,8.63,CHCGILDTO6Y
MA6813400180,h_OCHCTP,10-L1-5,2019-02-05 15:45:00.0,PhaseCorrectionAve,-0.183,CHCGILDTO6Y
MA6813400180,h_OCHCTP,10-L1-5,2019-02-05 15:45:00.0,BerPreFecMax,0.00347,CHCGILDTO6Y
MA6813400180,h_OCHCTP,10-L1-5,2019-02-05 15:45:00.0,PmdMin,1.01,CHCGILDTO6Y
MA6813400180,h_OCHCTP,10-L1-5,2019-02-05 15:45:00.0,SoPmdAve,2874.26,CHCGILDTO6Y
MA6813400180,h_OCHCTP,10-L1-6,2019-02-05 15:15:00.0,Qmin,8.85,CHCGILDTO6Y
MA6813400180,h_OCHCTP,10-L1-6,2019-02-05 15:15:00.0,PhaseCorrectionAve,-0.061,CHCGILDTO6Y
MA6813400180,h_OCHCTP,10-L1-6,2019-02-05 15:15:00.0,BerPreFecMax,0.00279,CHCGILDTO6Y
MA6813400180,h_OCHCTP,10-L1-6,2019-02-05 15:15:00.0,PmdMin,0.802,CHCGILDTO6Y
MA6813400180,h_OCHCTP,10-L1-6,2019-02-05 15:15:00.0,SoPmdAve,2796.59,CHCGILDTO6Y
MA6813400180,h_OCHCTP,10-L1-6,2019-02-05 15:30:00.0,Qmin,8.8,CHCGILDTO6Y
MA6813400180,h_OCHCTP,10-L1-6,2019-02-05 15:30:00.0,PhaseCorrectionAve,-0.061,CHCGILDTO6Y
MA6813400180,h_OCHCTP,10-L1-6,2019-02-05 15:30:00.0,BerPreFecMax,0.00294,CHCGILDTO6Y
MA6813400180,h_OCHCTP,10-L1-6,2019-02-05 15:30:00.0,PmdMin,1.14,CHCGILDTO6Y
MA6813400180,h_OCHCTP,10-L1-6,2019-02-05 15:30:00.0,SoPmdAve,2789.94,CHCGILDTO6Y
MA6813400180,h_OCHCTP,10-L1-6,2019-02-05 15:45:00.0,Qmin,8.79,CHCGILDTO6Y
MA6813400180,h_OCHCTP,10-L1-6,2019-02-05 15:45:00.0,PhaseCorrectionAve,-0.183,CHCGILDTO6Y
MA6813400180,h_OCHCTP,10-L1-6,2019-02-05 15:45:00.0,BerPreFecMax,0.00296,CHCGILDTO6Y
MA6813400180,h_OCHCTP,10-L1-6,2019-02-05 15:45:00.0,PmdMin,1.04,CHCGILDTO6Y
MA6813400180,h_OCHCTP,10-L1-6,2019-02-05 15:45:00.0,SoPmdAve,2830.42,CHCGILDTO6Y
MA6813400180,h_OCHCTP,10-L1-7,2019-02-05 15:15:00.0,Qmin,8.92,CHCGILDTO6Y
MA6813400180,h_OCHCTP,10-L1-7,2019-02-05 15:15:00.0,PhaseCorrectionAve,-0.061,CHCGILDTO6Y
MA6813400180,h_OCHCTP,10-L1-7,2019-02-05 15:15:00.0,BerPreFecMax,0.00263,CHCGILDTO6Y
MA6813400180,h_OCHCTP,10-L1-7,2019-02-05 15:15:00.0,PmdMin,1.43,CHCGILDTO6Y
MA6813400180,h_OCHCTP,10-L1-7,2019-02-05 15:15:00.0,SoPmdAve,3339.94,CHCGILDTO6Y
MA6813400180,h_OCHCTP,10-L1-7,2019-02-05 15:30:00.0,Qmin,8.88,CHCGILDTO6Y
MA6813400180,h_OCHCTP,10-L1-7,2019-02-05 15:30:00.0,PhaseCorrectionAve,-0.061,CHCGILDTO6Y
MA6813400180,h_OCHCTP,10-L1-7,2019-02-05 15:30:00.0,BerPreFecMax,0.00273,CHCGILDTO6Y
MA6813400180,h_OCHCTP,10-L1-7,2019-02-05 15:30:00.0,PmdMin,1.84,CHCGILDTO6Y
MA6813400180,h_OCHCTP,10-L1-7,2019-02-05 15:30:00.0,SoPmdAve,3481.57,CHCGILDTO6Y
MA6813400180,h_OCHCTP,10-L1-7,2019-02-05 15:45:00.0,Qmin,8.87,CHCGILDTO6Y
MA6813400180,h_OCHCTP,10-L1-7,2019-02-05 15:45:00.0,PhaseCorrectionAve,-0.244,CHCGILDTO6Y
MA6813400180,h_OCHCTP,10-L1-7,2019-02-05 15:45:00.0,BerPreFecMax,0.00275,CHCGILDTO6Y
MA6813400180,h_OCHCTP,10-L1-7,2019-02-05 15:45:00.0,PmdMin,1.2,CHCGILDTO6Y
MA6813400180,h_OCHCTP,10-L1-7,2019-02-05 15:45:00.0,SoPmdAve,3459.04,CHCGILDTO6Y
MA6813400180,h_OCHCTP,10-L1-8,2019-02-05 15:15:00.0,Qmin,9.3,CHCGILDTO6Y
MA6813400180,h_OCHCTP,10-L1-8,2019-02-05 15:15:00.0,PhaseCorrectionAve,-0.061,CHCGILDTO6Y
MA6813400180,h_OCHCTP,10-L1-8,2019-02-05 15:15:00.0,BerPreFecMax,0.00177,CHCGILDTO6Y
MA6813400180,h_OCHCTP,10-L1-8,2019-02-05 15:15:00.0,PmdMin,3.16,CHCGILDTO6Y
MA6813400180,h_OCHCTP,10-L1-8,2019-02-05 15:15:00.0,SoPmdAve,3319.71,CHCGILDTO6Y
MA6813400180,h_OCHCTP,10-L1-8,2019-02-05 15:30:00.0,Qmin,9.31,CHCGILDTO6Y
MA6813400180,h_OCHCTP,10-L1-8,2019-02-05 15:30:00.0,PhaseCorrectionAve,-0.061,CHCGILDTO6Y
MA6813400180,h_OCHCTP,10-L1-8,2019-02-05 15:30:00.0,BerPreFecMax,0.00175,CHCGILDTO6Y
MA6813400180,h_OCHCTP,10-L1-8,2019-02-05 15:30:00.0,PmdMin,1.61,CHCGILDTO6Y
MA6813400180,h_OCHCTP,10-L1-8,2019-02-05 15:30:00.0,SoPmdAve,3335.31,CHCGILDTO6Y
MA6813400180,h_OCHCTP,10-L1-8,2019-02-05 15:45:00.0,Qmin,9.31,CHCGILDTO6Y
MA6813400180,h_OCHCTP,10-L1-8,2019-02-05 15:45:00.0,PhaseCorrectionAve,-0.244,CHCGILDTO6Y
MA6813400180,h_OCHCTP,10-L1-8,2019-02-05 15:45:00.0,BerPreFecMax,0.00174,CHCGILDTO6Y
MA6813400180,h_OCHCTP,10-L1-8,2019-02-05 15:45:00.0,PmdMin,1.56,CHCGILDTO6Y
MA6813400180,h_OCHCTP,10-L1-8,2019-02-05 15:45:00.0,SoPmdAve,3299.0,CHCGILDTO6Y
MA6813400180,h_OCHCTP,10-L1-9,2019-02-05 15:15:00.0,Qmin,9.3,CHCGILDTO6Y
MA6813400180,h_OCHCTP,10-L1-9,2019-02-05 15:15:00.0,PhaseCorrectionAve,-0.061,CHCGILDTO6Y
MA6813400180,h_OCHCTP,10-L1-9,2019-02-05 15:15:00.0,BerPreFecMax,0.00176,CHCGILDTO6Y
MA6813400180,h_OCHCTP,10-L1-9,2019-02-05 15:15:00.0,PmdMin,5.37,CHCGILDTO6Y
MA6813400180,h_OCHCTP,10-L1-9,2019-02-05 15:15:00.0,SoPmdAve,3384.34,CHCGILDTO6Y
MA6813400180,h_OCHCTP,10-L1-9,2019-02-05 15:30:00.0,Qmin,9.32,CHCGILDTO6Y
MA6813400180,h_OCHCTP,10-L1-9,2019-02-05 15:30:00.0,PhaseCorrectionAve,-0.061,CHCGILDTO6Y
MA6813400180,h_OCHCTP,10-L1-9,2019-02-05 15:30:00.0,BerPreFecMax,0.00172,CHCGILDTO6Y
MA6813400180,h_OCHCTP,10-L1-9,2019-02-05 15:30:00.0,PmdMin,3.8,CHCGILDTO6Y
MA6813400180,h_OCHCTP,10-L1-9,2019-02-05 15:30:00.0,SoPmdAve,3250.76,CHCGILDTO6Y
MA6813400180,h_OCHCTP,10-L1-9,2019-02-05 15:45:00.0,Qmin,9.34,CHCGILDTO6Y
MA6813400180,h_OCHCTP,10-L1-9,2019-02-05 15:45:00.0,PhaseCorrectionAve,-0.244,CHCGILDTO6Y
MA6813400180,h_OCHCTP,10-L1-9,2019-02-05 15:45:00.0,BerPreFecMax,0.0017,CHCGILDTO6Y
MA6813400180,h_OCHCTP,10-L1-9,2019-02-05 15:45:00.0,PmdMin,1.88,CHCGILDTO6Y
MA6813400180,h_OCHCTP,10-L1-9,2019-02-05 15:45:00.0,SoPmdAve,3279.23,CHCGILDTO6Y
MA6813400180,h_OCHCTP,10-L1-10,2019-02-05 15:15:00.0,Qmin,9.36,CHCGILDTO6Y
MA6813400180,h_OCHCTP,10-L1-10,2019-02-05 15:15:00.0,PhaseCorrectionAve,-0.122,CHCGILDTO6Y
MA6813400180,h_OCHCTP,10-L1-10,2019-02-05 15:15:00.0,BerPreFecMax,0.00165,CHCGILDTO6Y
MA6813400180,h_OCHCTP,10-L1-10,2019-02-05 15:15:00.0,PmdMin,9.16,CHCGILDTO6Y
MA6813400180,h_OCHCTP,10-L1-10,2019-02-05 15:15:00.0,SoPmdAve,3201.22,CHCGILDTO6Y
MA6813400180,h_OCHCTP,10-L1-10,2019-02-05 15:30:00.0,Qmin,9.34,CHCGILDTO6Y
MA6813400180,h_OCHCTP,10-L1-10,2019-02-05 15:30:00.0,PhaseCorrectionAve,-0.122,CHCGILDTO6Y
MA6813400180,h_OCHCTP,10-L1-10,2019-02-05 15:30:00.0,BerPreFecMax,0.0017,CHCGILDTO6Y
MA6813400180,h_OCHCTP,10-L1-10,2019-02-05 15:30:00.0,PmdMin,8.45,CHCGILDTO6Y
MA6813400180,h_OCHCTP,10-L1-10,2019-02-05 15:30:00.0,SoPmdAve,3347.44,CHCGILDTO6Y
MA6813400180,h_OCHCTP,10-L1-10,2019-02-05 15:45:00.0,Qmin,9.36,CHCGILDTO6Y
MA6813400180,h_OCHCTP,10-L1-10,2019-02-05 15:45:00.0,PhaseCorrectionAve,-0.244,CHCGILDTO6Y
MA6813400180,h_OCHCTP,10-L1-10,2019-02-05 15:45:00.0,BerPreFecMax,0.00166,CHCGILDTO6Y
MA6813400180,h_OCHCTP,10-L1-10,2019-02-05 15:45:00.0,PmdMin,7.26,CHCGILDTO6Y
MA6813400180,h_OCHCTP,10-L1-10,2019-02-05 15:45:00.0,SoPmdAve,3253.63,CHCGILDTO6Y
MA6813400180,h_OCHCTP,11-L1-1,2019-02-05 15:15:00.0,Qmin,9.18,CHCGILDTO6Y
MA6813400180,h_OCHCTP,11-L1-1,2019-02-05 15:15:00.0,PhaseCorrectionAve,2.15e-07,CHCGILDTO6Y
MA6813400180,h_OCHCTP,11-L1-1,2019-02-05 15:15:00.0,BerPreFecMax,0.002,CHCGILDTO6Y
MA6813400180,h_OCHCTP,11-L1-1,2019-02-05 15:15:00.0,PmdMin,1.01,CHCGILDTO6Y
MA6813400180,h_OCHCTP,11-L1-1,2019-02-05 15:15:00.0,SoPmdAve,3413.4,CHCGILDTO6Y
MA6813400180,h_OCHCTP,11-L1-1,2019-02-05 15:30:00.0,Qmin,9.08,CHCGILDTO6Y
MA6813400180,h_OCHCTP,11-L1-1,2019-02-05 15:30:00.0,PhaseCorrectionAve,2e-07,CHCGILDTO6Y
MA6813400180,h_OCHCTP,11-L1-1,2019-02-05 15:30:00.0,BerPreFecMax,0.00222,CHCGILDTO6Y
MA6813400180,h_OCHCTP,11-L1-1,2019-02-05 15:30:00.0,PmdMin,0.654,CHCGILDTO6Y
MA6813400180,h_OCHCTP,11-L1-1,2019-02-05 15:30:00.0,SoPmdAve,3368.96,CHCGILDTO6Y
MA6813400180,h_OCHCTP,11-L1-1,2019-02-05 15:45:00.0,Qmin,9.09,CHCGILDTO6Y
MA6813400180,h_OCHCTP,11-L1-1,2019-02-05 15:45:00.0,PhaseCorrectionAve,1.55e-07,CHCGILDTO6Y
MA6813400180,h_OCHCTP,11-L1-1,2019-02-05 15:45:00.0,BerPreFecMax,0.0022,CHCGILDTO6Y
MA6813400180,h_OCHCTP,11-L1-1,2019-02-05 15:45:00.0,PmdMin,0.726,CHCGILDTO6Y
MA6813400180,h_OCHCTP,11-L1-1,2019-02-05 15:45:00.0,SoPmdAve,3473.15,CHCGILDTO6Y
MA6813400180,h_OCHCTP,11-L1-2,2019-02-05 15:15:00.0,Qmin,9.1,CHCGILDTO6Y
MA6813400180,h_OCHCTP,11-L1-2,2019-02-05 15:15:00.0,PhaseCorrectionAve,-0.061,CHCGILDTO6Y
MA6813400180,h_OCHCTP,11-L1-2,2019-02-05 15:15:00.0,BerPreFecMax,0.00217,CHCGILDTO6Y
MA6813400180,h_OCHCTP,11-L1-2,2019-02-05 15:15:00.0,PmdMin,1.38,CHCGILDTO6Y
MA6813400180,h_OCHCTP,11-L1-2,2019-02-05 15:15:00.0,SoPmdAve,3203.1,CHCGILDTO6Y
MA6813400180,h_OCHCTP,11-L1-2,2019-02-05 15:30:00.0,Qmin,8.98,CHCGILDTO6Y
MA6813400180,h_OCHCTP,11-L1-2,2019-02-05 15:30:00.0,PhaseCorrectionAve,5.93e-07,CHCGILDTO6Y
MA6813400180,h_OCHCTP,11-L1-2,2019-02-05 15:30:00.0,BerPreFecMax,0.00246,CHCGILDTO6Y
MA6813400180,h_OCHCTP,11-L1-2,2019-02-05 15:30:00.0,PmdMin,0.946,CHCGILDTO6Y
MA6813400180,h_OCHCTP,11-L1-2,2019-02-05 15:30:00.0,SoPmdAve,3151.74,CHCGILDTO6Y
MA6813400180,h_OCHCTP,11-L1-2,2019-02-05 15:45:00.0,Qmin,9.06,CHCGILDTO6Y
MA6813400180,h_OCHCTP,11-L1-2,2019-02-05 15:45:00.0,PhaseCorrectionAve,-0.122,CHCGILDTO6Y
MA6813400180,h_OCHCTP,11-L1-2,2019-02-05 15:45:00.0,BerPreFecMax,0.00227,CHCGILDTO6Y
MA6813400180,h_OCHCTP,11-L1-2,2019-02-05 15:45:00.0,PmdMin,0.596,CHCGILDTO6Y
MA6813400180,h_OCHCTP,11-L1-2,2019-02-05 15:45:00.0,SoPmdAve,3111.86,CHCGILDTO6Y
MA6813400180,h_OCHCTP,11-L1-3,2019-02-05 15:15:00.0,Qmin,8.94,CHCGILDTO6Y
MA6813400180,h_OCHCTP,11-L1-3,2019-02-05 15:15:00.0,PhaseCorrectionAve,-0.061,CHCGILDTO6Y
MA6813400180,h_OCHCTP,11-L1-3,2019-02-05 15:15:00.0,BerPreFecMax,0.00255,CHCGILDTO6Y
MA6813400180,h_OCHCTP,11-L1-3,2019-02-05 15:15:00.0,PmdMin,0.825,CHCGILDTO6Y
MA6813400180,h_OCHCTP,11-L1-3,2019-02-05 15:15:00.0,SoPmdAve,2701.13,CHCGILDTO6Y
MA6813400180,h_OCHCTP,11-L1-3,2019-02-05 15:30:00.0,Qmin,9.0,CHCGILDTO6Y
MA6813400180,h_OCHCTP,11-L1-3,2019-02-05 15:30:00.0,PhaseCorrectionAve,4.1e-07,CHCGILDTO6Y
MA6813400180,h_OCHCTP,11-L1-3,2019-02-05 15:30:00.0,BerPreFecMax,0.00241,CHCGILDTO6Y
MA6813400180,h_OCHCTP,11-L1-3,2019-02-05 15:30:00.0,PmdMin,0.892,CHCGILDTO6Y
MA6813400180,h_OCHCTP,11-L1-3,2019-02-05 15:30:00.0,SoPmdAve,2742.72,CHCGILDTO6Y
MA6813400180,h_OCHCTP,11-L1-3,2019-02-05 15:45:00.0,Qmin,8.96,CHCGILDTO6Y
MA6813400180,h_OCHCTP,11-L1-3,2019-02-05 15:45:00.0,PhaseCorrectionAve,-0.122,CHCGILDTO6Y
MA6813400180,h_OCHCTP,11-L1-3,2019-02-05 15:45:00.0,BerPreFecMax,0.00252,CHCGILDTO6Y
MA6813400180,h_OCHCTP,11-L1-3,2019-02-05 15:45:00.0,PmdMin,1.04,CHCGILDTO6Y
MA6813400180,h_OCHCTP,11-L1-3,2019-02-05 15:45:00.0,SoPmdAve,2716.57,CHCGILDTO6Y
MA6813400180,h_OCHCTP,11-L1-4,2019-02-05 15:15:00.0,Qmin,8.74,CHCGILDTO6Y
MA6813400180,h_OCHCTP,11-L1-4,2019-02-05 15:15:00.0,PhaseCorrectionAve,-0.122,CHCGILDTO6Y
MA6813400180,h_OCHCTP,11-L1-4,2019-02-05 15:15:00.0,BerPreFecMax,0.00312,CHCGILDTO6Y
MA6813400180,h_OCHCTP,11-L1-4,2019-02-05 15:15:00.0,PmdMin,0.713,CHCGILDTO6Y
MA6813400180,h_OCHCTP,11-L1-4,2019-02-05 15:15:00.0,SoPmdAve,2871.66,CHCGILDTO6Y
MA6813400180,h_OCHCTP,11-L1-4,2019-02-05 15:30:00.0,Qmin,8.83,CHCGILDTO6Y
MA6813400180,h_OCHCTP,11-L1-4,2019-02-05 15:30:00.0,PhaseCorrectionAve,-0.061,CHCGILDTO6Y
MA6813400180,h_OCHCTP,11-L1-4,2019-02-05 15:30:00.0,BerPreFecMax,0.00287,CHCGILDTO6Y
MA6813400180,h_OCHCTP,11-L1-4,2019-02-05 15:30:00.0,PmdMin,0.633,CHCGILDTO6Y
MA6813400180,h_OCHCTP,11-L1-4,2019-02-05 15:30:00.0,SoPmdAve,2973.05,CHCGILDTO6Y
MA6813400180,h_OCHCTP,11-L1-4,2019-02-05 15:45:00.0,Qmin,8.74,CHCGILDTO6Y
MA6813400180,h_OCHCTP,11-L1-4,2019-02-05 15:45:00.0,PhaseCorrectionAve,-0.183,CHCGILDTO6Y
MA6813400180,h_OCHCTP,11-L1-4,2019-02-05 15:45:00.0,BerPreFecMax,0.00311,CHCGILDTO6Y
MA6813400180,h_OCHCTP,11-L1-4,2019-02-05 15:45:00.0,PmdMin,0.903,CHCGILDTO6Y
MA6813400180,h_OCHCTP,11-L1-4,2019-02-05 15:45:00.0,SoPmdAve,2876.47,CHCGILDTO6Y
MA6813400180,h_OCHCTP,11-L1-5,2019-02-05 15:15:00.0,Qmin,8.9,CHCGILDTO6Y
MA6813400180,h_OCHCTP,11-L1-5,2019-02-05 15:15:00.0,PhaseCorrectionAve,-0.122,CHCGILDTO6Y
MA6813400180,h_OCHCTP,11-L1-5,2019-02-05 15:15:00.0,BerPreFecMax,0.00267,CHCGILDTO6Y
MA6813400180,h_OCHCTP,11-L1-5,2019-02-05 15:15:00.0,PmdMin,0.994,CHCGILDTO6Y
MA6813400180,h_OCHCTP,11-L1-5,2019-02-05 15:15:00.0,SoPmdAve,2506.73,CHCGILDTO6Y
MA6813400180,h_OCHCTP,11-L1-5,2019-02-05 15:30:00.0,Qmin,8.83,CHCGILDTO6Y
MA6813400180,h_OCHCTP,11-L1-5,2019-02-05 15:30:00.0,PhaseCorrectionAve,-0.061,CHCGILDTO6Y
MA6813400180,h_OCHCTP,11-L1-5,2019-02-05 15:30:00.0,BerPreFecMax,0.00286,CHCGILDTO6Y
MA6813400180,h_OCHCTP,11-L1-5,2019-02-05 15:30:00.0,PmdMin,0.944,CHCGILDTO6Y
MA6813400180,h_OCHCTP,11-L1-5,2019-02-05 15:30:00.0,SoPmdAve,2621.62,CHCGILDTO6Y
MA6813400180,h_OCHCTP,11-L1-5,2019-02-05 15:45:00.0,Qmin,8.87,CHCGILDTO6Y
MA6813400180,h_OCHCTP,11-L1-5,2019-02-05 15:45:00.0,PhaseCorrectionAve,-0.244,CHCGILDTO6Y
MA6813400180,h_OCHCTP,11-L1-5,2019-02-05 15:45:00.0,BerPreFecMax,0.00275,CHCGILDTO6Y
MA6813400180,h_OCHCTP,11-L1-5,2019-02-05 15:45:00.0,PmdMin,0.296,CHCGILDTO6Y
MA6813400180,h_OCHCTP,11-L1-5,2019-02-05 15:45:00.0,SoPmdAve,2613.41,CHCGILDTO6Y
MA6813400180,h_OCHCTP,11-L1-6,2019-02-05 15:15:00.0,Qmin,8.79,CHCGILDTO6Y
MA6813400180,h_OCHCTP,11-L1-6,2019-02-05 15:15:00.0,PhaseCorrectionAve,-0.122,CHCGILDTO6Y
MA6813400180,h_OCHCTP,11-L1-6,2019-02-05 15:15:00.0,BerPreFecMax,0.00297,CHCGILDTO6Y
MA6813400180,h_OCHCTP,11-L1-6,2019-02-05 15:15:00.0,PmdMin,0.598,CHCGILDTO6Y
MA6813400180,h_OCHCTP,11-L1-6,2019-02-05 15:15:00.0,SoPmdAve,2388.49,CHCGILDTO6Y
MA6813400180,h_OCHCTP,11-L1-6,2019-02-05 15:30:00.0,Qmin,8.78,CHCGILDTO6Y
MA6813400180,h_OCHCTP,11-L1-6,2019-02-05 15:30:00.0,PhaseCorrectionAve,-0.061,CHCGILDTO6Y
MA6813400180,h_OCHCTP,11-L1-6,2019-02-05 15:30:00.0,BerPreFecMax,0.00299,CHCGILDTO6Y
MA6813400180,h_OCHCTP,11-L1-6,2019-02-05 15:30:00.0,PmdMin,0.694,CHCGILDTO6Y
MA6813400180,h_OCHCTP,11-L1-6,2019-02-05 15:30:00.0,SoPmdAve,2534.77,CHCGILDTO6Y
MA6813400180,h_OCHCTP,11-L1-6,2019-02-05 15:45:00.0,Qmin,8.78,CHCGILDTO6Y
MA6813400180,h_OCHCTP,11-L1-6,2019-02-05 15:45:00.0,PhaseCorrectionAve,-0.244,CHCGILDTO6Y
MA6813400180,h_OCHCTP,11-L1-6,2019-02-05 15:45:00.0,BerPreFecMax,0.00299,CHCGILDTO6Y
MA6813400180,h_OCHCTP,11-L1-6,2019-02-05 15:45:00.0,PmdMin,0.405,CHCGILDTO6Y
MA6813400180,h_OCHCTP,11-L1-6,2019-02-05 15:45:00.0,SoPmdAve,2537.58,CHCGILDTO6Y
MA6813400180,h_OCHCTP,11-L1-7,2019-02-05 15:15:00.0,Qmin,8.78,CHCGILDTO6Y
MA6813400180,h_OCHCTP,11-L1-7,2019-02-05 15:15:00.0,PhaseCorrectionAve,-0.122,CHCGILDTO6Y
MA6813400180,h_OCHCTP,11-L1-7,2019-02-05 15:15:00.0,BerPreFecMax,0.003,CHCGILDTO6Y
MA6813400180,h_OCHCTP,11-L1-7,2019-02-05 15:15:00.0,PmdMin,0.889,CHCGILDTO6Y
MA6813400180,h_OCHCTP,11-L1-7,2019-02-05 15:15:00.0,SoPmdAve,3127.52,CHCGILDTO6Y
MA6813400180,h_OCHCTP,11-L1-7,2019-02-05 15:30:00.0,Qmin,8.82,CHCGILDTO6Y
MA6813400180,h_OCHCTP,11-L1-7,2019-02-05 15:30:00.0,PhaseCorrectionAve,-0.061,CHCGILDTO6Y
MA6813400180,h_OCHCTP,11-L1-7,2019-02-05 15:30:00.0,BerPreFecMax,0.00288,CHCGILDTO6Y
MA6813400180,h_OCHCTP,11-L1-7,2019-02-05 15:30:00.0,PmdMin,1.16,CHCGILDTO6Y
MA6813400180,h_OCHCTP,11-L1-7,2019-02-05 15:30:00.0,SoPmdAve,3037.45,CHCGILDTO6Y
MA6813400180,h_OCHCTP,11-L1-7,2019-02-05 15:45:00.0,Qmin,8.84,CHCGILDTO6Y
MA6813400180,h_OCHCTP,11-L1-7,2019-02-05 15:45:00.0,PhaseCorrectionAve,-0.244,CHCGILDTO6Y
MA6813400180,h_OCHCTP,11-L1-7,2019-02-05 15:45:00.0,BerPreFecMax,0.00283,CHCGILDTO6Y
MA6813400180,h_OCHCTP,11-L1-7,2019-02-05 15:45:00.0,PmdMin,0.569,CHCGILDTO6Y
MA6813400180,h_OCHCTP,11-L1-7,2019-02-05 15:45:00.0,SoPmdAve,3023.08,CHCGILDTO6Y
MA6813400180,h_OCHCTP,11-L1-8,2019-02-05 15:15:00.0,Qmin,8.76,CHCGILDTO6Y
MA6813400180,h_OCHCTP,11-L1-8,2019-02-05 15:15:00.0,PhaseCorrectionAve,-0.122,CHCGILDTO6Y
MA6813400180,h_OCHCTP,11-L1-8,2019-02-05 15:15:00.0,BerPreFecMax,0.00305,CHCGILDTO6Y
MA6813400180,h_OCHCTP,11-L1-8,2019-02-05 15:15:00.0,PmdMin,1.93,CHCGILDTO6Y
MA6813400180,h_OCHCTP,11-L1-8,2019-02-05 15:15:00.0,SoPmdAve,3080.97,CHCGILDTO6Y
MA6813400180,h_OCHCTP,11-L1-8,2019-02-05 15:30:00.0,Qmin,8.84,CHCGILDTO6Y
MA6813400180,h_OCHCTP,11-L1-8,2019-02-05 15:30:00.0,PhaseCorrectionAve,-0.061,CHCGILDTO6Y
MA6813400180,h_OCHCTP,11-L1-8,2019-02-05 15:30:00.0,BerPreFecMax,0.00282,CHCGILDTO6Y
MA6813400180,h_OCHCTP,11-L1-8,2019-02-05 15:30:00.0,PmdMin,0.292,CHCGILDTO6Y
MA6813400180,h_OCHCTP,11-L1-8,2019-02-05 15:30:00.0,SoPmdAve,3141.77,CHCGILDTO6Y
MA6813400180,h_OCHCTP,11-L1-8,2019-02-05 15:45:00.0,Qmin,8.81,CHCGILDTO6Y
MA6813400180,h_OCHCTP,11-L1-8,2019-02-05 15:45:00.0,PhaseCorrectionAve,-0.244,CHCGILDTO6Y
MA6813400180,h_OCHCTP,11-L1-8,2019-02-05 15:45:00.0,BerPreFecMax,0.00293,CHCGILDTO6Y
MA6813400180,h_OCHCTP,11-L1-8,2019-02-05 15:45:00.0,PmdMin,1.14,CHCGILDTO6Y
MA6813400180,h_OCHCTP,11-L1-8,2019-02-05 15:45:00.0,SoPmdAve,3122.97,CHCGILDTO6Y
MA6813400180,h_OCHCTP,11-L1-9,2019-02-05 15:15:00.0,Qmin,8.71,CHCGILDTO6Y
MA6813400180,h_OCHCTP,11-L1-9,2019-02-05 15:15:00.0,PhaseCorrectionAve,-0.122,CHCGILDTO6Y
MA6813400180,h_OCHCTP,11-L1-9,2019-02-05 15:15:00.0,BerPreFecMax,0.0032,CHCGILDTO6Y
MA6813400180,h_OCHCTP,11-L1-9,2019-02-05 15:15:00.0,PmdMin,0.478,CHCGILDTO6Y
MA6813400180,h_OCHCTP,11-L1-9,2019-02-05 15:15:00.0,SoPmdAve,2933.15,CHCGILDTO6Y
MA6813400180,h_OCHCTP,11-L1-9,2019-02-05 15:30:00.0,Qmin,8.78,CHCGILDTO6Y
MA6813400180,h_OCHCTP,11-L1-9,2019-02-05 15:30:00.0,PhaseCorrectionAve,-0.122,CHCGILDTO6Y
MA6813400180,h_OCHCTP,11-L1-9,2019-02-05 15:30:00.0,BerPreFecMax,0.00299,CHCGILDTO6Y
MA6813400180,h_OCHCTP,11-L1-9,2019-02-05 15:30:00.0,PmdMin,0.96,CHCGILDTO6Y
MA6813400180,h_OCHCTP,11-L1-9,2019-02-05 15:30:00.0,SoPmdAve,3037.33,CHCGILDTO6Y
MA6813400180,h_OCHCTP,11-L1-9,2019-02-05 15:45:00.0,Qmin,8.79,CHCGILDTO6Y
MA6813400180,h_OCHCTP,11-L1-9,2019-02-05 15:45:00.0,PhaseCorrectionAve,-0.244,CHCGILDTO6Y
MA6813400180,h_OCHCTP,11-L1-9,2019-02-05 15:45:00.0,BerPreFecMax,0.00297,CHCGILDTO6Y
MA6813400180,h_OCHCTP,11-L1-9,2019-02-05 15:45:00.0,PmdMin,0.688,CHCGILDTO6Y
MA6813400180,h_OCHCTP,11-L1-9,2019-02-05 15:45:00.0,SoPmdAve,2927.01,CHCGILDTO6Y
MA6813400180,h_OCHCTP,11-L1-10,2019-02-05 15:15:00.0,Qmin,8.93,CHCGILDTO6Y
MA6813400180,h_OCHCTP,11-L1-10,2019-02-05 15:15:00.0,PhaseCorrectionAve,-0.122,CHCGILDTO6Y
MA6813400180,h_OCHCTP,11-L1-10,2019-02-05 15:15:00.0,BerPreFecMax,0.00259,CHCGILDTO6Y
MA6813400180,h_OCHCTP,11-L1-10,2019-02-05 15:15:00.0,PmdMin,1.02,CHCGILDTO6Y
MA6813400180,h_OCHCTP,11-L1-10,2019-02-05 15:15:00.0,SoPmdAve,3016.51,CHCGILDTO6Y
MA6813400180,h_OCHCTP,11-L1-10,2019-02-05 15:30:00.0,Qmin,8.81,CHCGILDTO6Y
MA6813400180,h_OCHCTP,11-L1-10,2019-02-05 15:30:00.0,PhaseCorrectionAve,-0.122,CHCGILDTO6Y
MA6813400180,h_OCHCTP,11-L1-10,2019-02-05 15:30:00.0,BerPreFecMax,0.00292,CHCGILDTO6Y
MA6813400180,h_OCHCTP,11-L1-10,2019-02-05 15:30:00.0,PmdMin,1.07,CHCGILDTO6Y
MA6813400180,h_OCHCTP,11-L1-10,2019-02-05 15:30:00.0,SoPmdAve,3104.38,CHCGILDTO6Y
MA6813400180,h_OCHCTP,11-L1-10,2019-02-05 15:45:00.0,Qmin,8.97,CHCGILDTO6Y
MA6813400180,h_OCHCTP,11-L1-10,2019-02-05 15:45:00.0,PhaseCorrectionAve,-0.244,CHCGILDTO6Y
MA6813400180,h_OCHCTP,11-L1-10,2019-02-05 15:45:00.0,BerPreFecMax,0.0025,CHCGILDTO6Y
MA6813400180,h_OCHCTP,11-L1-10,2019-02-05 15:45:00.0,PmdMin,0.788,CHCGILDTO6Y
MA6813400180,h_OCHCTP,11-L1-10,2019-02-05 15:45:00.0,SoPmdAve,3069.98,CHCGILDTO6Y
MA6813400180,h_OCHCTP,13-L1-1,2019-02-05 15:15:00.0,Qmin,9.16,CHCGILDTO6Y
MA6813400180,h_OCHCTP,13-L1-1,2019-02-05 15:15:00.0,PhaseCorrectionAve,3.7e-07,CHCGILDTO6Y
MA6813400180,h_OCHCTP,13-L1-1,2019-02-05 15:15:00.0,BerPreFecMax,0.00205,CHCGILDTO6Y
MA6813400180,h_OCHCTP,13-L1-1,2019-02-05 15:15:00.0,PmdMin,0.59,CHCGILDTO6Y
MA6813400180,h_OCHCTP,13-L1-1,2019-02-05 15:15:00.0,SoPmdAve,3455.7,CHCGILDTO6Y
MA6813400180,h_OCHCTP,13-L1-1,2019-02-05 15:30:00.0,Qmin,9.14,CHCGILDTO6Y
MA6813400180,h_OCHCTP,13-L1-1,2019-02-05 15:30:00.0,PhaseCorrectionAve,3.69e-07,CHCGILDTO6Y
MA6813400180,h_OCHCTP,13-L1-1,2019-02-05 15:30:00.0,BerPreFecMax,0.00208,CHCGILDTO6Y
MA6813400180,h_OCHCTP,13-L1-1,2019-02-05 15:30:00.0,PmdMin,1.19,CHCGILDTO6Y
MA6813400180,h_OCHCTP,13-L1-1,2019-02-05 15:30:00.0,SoPmdAve,3620.13,CHCGILDTO6Y
MA6813400180,h_OCHCTP,13-L1-1,2019-02-05 15:45:00.0,Qmin,9.12,CHCGILDTO6Y
MA6813400180,h_OCHCTP,13-L1-1,2019-02-05 15:45:00.0,PhaseCorrectionAve,2.86e-07,CHCGILDTO6Y
MA6813400180,h_OCHCTP,13-L1-1,2019-02-05 15:45:00.0,BerPreFecMax,0.00213,CHCGILDTO6Y
MA6813400180,h_OCHCTP,13-L1-1,2019-02-05 15:45:00.0,PmdMin,1.69,CHCGILDTO6Y
MA6813400180,h_OCHCTP,13-L1-1,2019-02-05 15:45:00.0,SoPmdAve,3570.57,CHCGILDTO6Y
MA6813400180,h_OCHCTP,13-L1-2,2019-02-05 15:15:00.0,Qmin,9.2,CHCGILDTO6Y
MA6813400180,h_OCHCTP,13-L1-2,2019-02-05 15:15:00.0,PhaseCorrectionAve,4.48e-07,CHCGILDTO6Y
MA6813400180,h_OCHCTP,13-L1-2,2019-02-05 15:15:00.0,BerPreFecMax,0.00196,CHCGILDTO6Y
MA6813400180,h_OCHCTP,13-L1-2,2019-02-05 15:15:00.0,PmdMin,0.966,CHCGILDTO6Y
MA6813400180,h_OCHCTP,13-L1-2,2019-02-05 15:15:00.0,SoPmdAve,3459.21,CHCGILDTO6Y
MA6813400180,h_OCHCTP,13-L1-2,2019-02-05 15:30:00.0,Qmin,9.12,CHCGILDTO6Y
MA6813400180,h_OCHCTP,13-L1-2,2019-02-05 15:30:00.0,PhaseCorrectionAve,4.66e-07,CHCGILDTO6Y
MA6813400180,h_OCHCTP,13-L1-2,2019-02-05 15:30:00.0,BerPreFecMax,0.00212,CHCGILDTO6Y
MA6813400180,h_OCHCTP,13-L1-2,2019-02-05 15:30:00.0,PmdMin,1.2,CHCGILDTO6Y
MA6813400180,h_OCHCTP,13-L1-2,2019-02-05 15:30:00.0,SoPmdAve,3505.27,CHCGILDTO6Y
MA6813400180,h_OCHCTP,13-L1-2,2019-02-05 15:45:00.0,Qmin,9.09,CHCGILDTO6Y
MA6813400180,h_OCHCTP,13-L1-2,2019-02-05 15:45:00.0,PhaseCorrectionAve,3.42e-07,CHCGILDTO6Y
MA6813400180,h_OCHCTP,13-L1-2,2019-02-05 15:45:00.0,BerPreFecMax,0.00219,CHCGILDTO6Y
MA6813400180,h_OCHCTP,13-L1-2,2019-02-05 15:45:00.0,PmdMin,0.973,CHCGILDTO6Y
MA6813400180,h_OCHCTP,13-L1-2,2019-02-05 15:45:00.0,SoPmdAve,3525.59,CHCGILDTO6Y
MA6813400180,h_OCHCTP,13-L1-3,2019-02-05 15:15:00.0,Qmin,9.03,CHCGILDTO6Y
MA6813400180,h_OCHCTP,13-L1-3,2019-02-05 15:15:00.0,PhaseCorrectionAve,-0.061,CHCGILDTO6Y
MA6813400180,h_OCHCTP,13-L1-3,2019-02-05 15:15:00.0,BerPreFecMax,0.00235,CHCGILDTO6Y
MA6813400180,h_OCHCTP,13-L1-3,2019-02-05 15:15:00.0,PmdMin,0.714,CHCGILDTO6Y
MA6813400180,h_OCHCTP,13-L1-3,2019-02-05 15:15:00.0,SoPmdAve,3007.09,CHCGILDTO6Y
MA6813400180,h_OCHCTP,13-L1-3,2019-02-05 15:30:00.0,Qmin,9.01,CHCGILDTO6Y
MA6813400180,h_OCHCTP,13-L1-3,2019-02-05 15:30:00.0,PhaseCorrectionAve,5.3e-07,CHCGILDTO6Y
MA6813400180,h_OCHCTP,13-L1-3,2019-02-05 15:30:00.0,BerPreFecMax,0.00238,CHCGILDTO6Y
MA6813400180,h_OCHCTP,13-L1-3,2019-02-05 15:30:00.0,PmdMin,0.987,CHCGILDTO6Y
MA6813400180,h_OCHCTP,13-L1-3,2019-02-05 15:30:00.0,SoPmdAve,2884.63,CHCGILDTO6Y
MA6813400180,h_OCHCTP,13-L1-3,2019-02-05 15:45:00.0,Qmin,8.97,CHCGILDTO6Y
MA6813400180,h_OCHCTP,13-L1-3,2019-02-05 15:45:00.0,PhaseCorrectionAve,5.47e-07,CHCGILDTO6Y
MA6813400180,h_OCHCTP,13-L1-3,2019-02-05 15:45:00.0,BerPreFecMax,0.00249,CHCGILDTO6Y
MA6813400180,h_OCHCTP,13-L1-3,2019-02-05 15:45:00.0,PmdMin,0.843,CHCGILDTO6Y
MA6813400180,h_OCHCTP,13-L1-3,2019-02-05 15:45:00.0,SoPmdAve,2879.83,CHCGILDTO6Y
MA6813400180,h_OCHCTP,13-L1-4,2019-02-05 15:15:00.0,Qmin,8.75,CHCGILDTO6Y
MA6813400180,h_OCHCTP,13-L1-4,2019-02-05 15:15:00.0,PhaseCorrectionAve,-0.061,CHCGILDTO6Y
MA6813400180,h_OCHCTP,13-L1-4,2019-02-05 15:15:00.0,BerPreFecMax,0.00308,CHCGILDTO6Y
MA6813400180,h_OCHCTP,13-L1-4,2019-02-05 15:15:00.0,PmdMin,0.499,CHCGILDTO6Y
MA6813400180,h_OCHCTP,13-L1-4,2019-02-05 15:15:00.0,SoPmdAve,3311.42,CHCGILDTO6Y
MA6813400180,h_OCHCTP,13-L1-4,2019-02-05 15:30:00.0,Qmin,8.77,CHCGILDTO6Y
MA6813400180,h_OCHCTP,13-L1-4,2019-02-05 15:30:00.0,PhaseCorrectionAve,5.22e-07,CHCGILDTO6Y
MA6813400180,h_OCHCTP,13-L1-4,2019-02-05 15:30:00.0,BerPreFecMax,0.00303,CHCGILDTO6Y
MA6813400180,h_OCHCTP,13-L1-4,2019-02-05 15:30:00.0,PmdMin,0.963,CHCGILDTO6Y
MA6813400180,h_OCHCTP,13-L1-4,2019-02-05 15:30:00.0,SoPmdAve,3375.11,CHCGILDTO6Y
MA6813400180,h_OCHCTP,13-L1-4,2019-02-05 15:45:00.0,Qmin,8.74,CHCGILDTO6Y
MA6813400180,h_OCHCTP,13-L1-4,2019-02-05 15:45:00.0,PhaseCorrectionAve,5.34e-07,CHCGILDTO6Y
MA6813400180,h_OCHCTP,13-L1-4,2019-02-05 15:45:00.0,BerPreFecMax,0.00312,CHCGILDTO6Y
MA6813400180,h_OCHCTP,13-L1-4,2019-02-05 15:45:00.0,PmdMin,1.33,CHCGILDTO6Y
MA6813400180,h_OCHCTP,13-L1-4,2019-02-05 15:45:00.0,SoPmdAve,3352.44,CHCGILDTO6Y
MA6813400180,h_OCHCTP,13-L1-5,2019-02-05 15:15:00.0,Qmin,8.76,CHCGILDTO6Y
MA6813400180,h_OCHCTP,13-L1-5,2019-02-05 15:15:00.0,PhaseCorrectionAve,-0.061,CHCGILDTO6Y
MA6813400180,h_OCHCTP,13-L1-5,2019-02-05 15:15:00.0,BerPreFecMax,0.00307,CHCGILDTO6Y
MA6813400180,h_OCHCTP,13-L1-5,2019-02-05 15:15:00.0,PmdMin,0.586,CHCGILDTO6Y
MA6813400180,h_OCHCTP,13-L1-5,2019-02-05 15:15:00.0,SoPmdAve,2742.44,CHCGILDTO6Y
MA6813400180,h_OCHCTP,13-L1-5,2019-02-05 15:30:00.0,Qmin,8.7,CHCGILDTO6Y
MA6813400180,h_OCHCTP,13-L1-5,2019-02-05 15:30:00.0,PhaseCorrectionAve,-0.061,CHCGILDTO6Y
MA6813400180,h_OCHCTP,13-L1-5,2019-02-05 15:30:00.0,BerPreFecMax,0.00324,CHCGILDTO6Y
MA6813400180,h_OCHCTP,13-L1-5,2019-02-05 15:30:00.0,PmdMin,1.12,CHCGILDTO6Y
MA6813400180,h_OCHCTP,13-L1-5,2019-02-05 15:30:00.0,SoPmdAve,2881.1,CHCGILDTO6Y
MA6813400180,h_OCHCTP,13-L1-5,2019-02-05 15:45:00.0,Qmin,8.71,CHCGILDTO6Y
MA6813400180,h_OCHCTP,13-L1-5,2019-02-05 15:45:00.0,PhaseCorrectionAve,3.43e-07,CHCGILDTO6Y
MA6813400180,h_OCHCTP,13-L1-5,2019-02-05 15:45:00.0,BerPreFecMax,0.00319,CHCGILDTO6Y
MA6813400180,h_OCHCTP,13-L1-5,2019-02-05 15:45:00.0,PmdMin,1.05,CHCGILDTO6Y
MA6813400180,h_OCHCTP,13-L1-5,2019-02-05 15:45:00.0,SoPmdAve,2864.26,CHCGILDTO6Y
MA6813400180,h_OCHCTP,13-L1-6,2019-02-05 15:15:00.0,Qmin,8.8,CHCGILDTO6Y
MA6813400180,h_OCHCTP,13-L1-6,2019-02-05 15:15:00.0,PhaseCorrectionAve,-0.061,CHCGILDTO6Y
MA6813400180,h_OCHCTP,13-L1-6,2019-02-05 15:15:00.0,BerPreFecMax,0.00294,CHCGILDTO6Y
MA6813400180,h_OCHCTP,13-L1-6,2019-02-05 15:15:00.0,PmdMin,0.521,CHCGILDTO6Y
MA6813400180,h_OCHCTP,13-L1-6,2019-02-05 15:15:00.0,SoPmdAve,3055.06,CHCGILDTO6Y
MA6813400180,h_OCHCTP,13-L1-6,2019-02-05 15:30:00.0,Qmin,8.76,CHCGILDTO6Y
MA6813400180,h_OCHCTP,13-L1-6,2019-02-05 15:30:00.0,PhaseCorrectionAve,-0.061,CHCGILDTO6Y
MA6813400180,h_OCHCTP,13-L1-6,2019-02-05 15:30:00.0,BerPreFecMax,0.00306,CHCGILDTO6Y
MA6813400180,h_OCHCTP,13-L1-6,2019-02-05 15:30:00.0,PmdMin,1.15,CHCGILDTO6Y
MA6813400180,h_OCHCTP,13-L1-6,2019-02-05 15:30:00.0,SoPmdAve,3062.25,CHCGILDTO6Y
MA6813400180,h_OCHCTP,13-L1-6,2019-02-05 15:45:00.0,Qmin,8.7,CHCGILDTO6Y
MA6813400180,h_OCHCTP,13-L1-6,2019-02-05 15:45:00.0,PhaseCorrectionAve,-0.061,CHCGILDTO6Y
MA6813400180,h_OCHCTP,13-L1-6,2019-02-05 15:45:00.0,BerPreFecMax,0.00324,CHCGILDTO6Y
MA6813400180,h_OCHCTP,13-L1-6,2019-02-05 15:45:00.0,PmdMin,1.25,CHCGILDTO6Y
MA6813400180,h_OCHCTP,13-L1-6,2019-02-05 15:45:00.0,SoPmdAve,3078.67,CHCGILDTO6Y
MA6813400180,h_OCHCTP,13-L1-7,2019-02-05 15:15:00.0,Qmin,8.7,CHCGILDTO6Y
MA6813400180,h_OCHCTP,13-L1-7,2019-02-05 15:15:00.0,PhaseCorrectionAve,-0.061,CHCGILDTO6Y
MA6813400180,h_OCHCTP,13-L1-7,2019-02-05 15:15:00.0,BerPreFecMax,0.00324,CHCGILDTO6Y
MA6813400180,h_OCHCTP,13-L1-7,2019-02-05 15:15:00.0,PmdMin,0.848,CHCGILDTO6Y
MA6813400180,h_OCHCTP,13-L1-7,2019-02-05 15:15:00.0,SoPmdAve,3662.46,CHCGILDTO6Y
MA6813400180,h_OCHCTP,13-L1-7,2019-02-05 15:30:00.0,Qmin,8.79,CHCGILDTO6Y
MA6813400180,h_OCHCTP,13-L1-7,2019-02-05 15:30:00.0,PhaseCorrectionAve,-0.061,CHCGILDTO6Y
MA6813400180,h_OCHCTP,13-L1-7,2019-02-05 15:30:00.0,BerPreFecMax,0.00297,CHCGILDTO6Y
MA6813400180,h_OCHCTP,13-L1-7,2019-02-05 15:30:00.0,PmdMin,0.859,CHCGILDTO6Y
MA6813400180,h_OCHCTP,13-L1-7,2019-02-05 15:30:00.0,SoPmdAve,3803.97,CHCGILDTO6Y
MA6813400180,h_OCHCTP,13-L1-7,2019-02-05 15:45:00.0,Qmin,8.79,CHCGILDTO6Y
MA6813400180,h_OCHCTP,13-L1-7,2019-02-05 15:45:00.0,PhaseCorrectionAve,-0.061,CHCGILDTO6Y
MA6813400180,h_OCHCTP,13-L1-7,2019-02-05 15:45:00.0,BerPreFecMax,0.00296,CHCGILDTO6Y
MA6813400180,h_OCHCTP,13-L1-7,2019-02-05 15:45:00.0,PmdMin,0.763,CHCGILDTO6Y
MA6813400180,h_OCHCTP,13-L1-7,2019-02-05 15:45:00.0,SoPmdAve,3792.62,CHCGILDTO6Y
MA6813400180,h_OCHCTP,13-L1-8,2019-02-05 15:15:00.0,Qmin,8.7,CHCGILDTO6Y
MA6813400180,h_OCHCTP,13-L1-8,2019-02-05 15:15:00.0,PhaseCorrectionAve,-0.061,CHCGILDTO6Y
MA6813400180,h_OCHCTP,13-L1-8,2019-02-05 15:15:00.0,BerPreFecMax,0.00323,CHCGILDTO6Y
MA6813400180,h_OCHCTP,13-L1-8,2019-02-05 15:15:00.0,PmdMin,5.96e-08,CHCGILDTO6Y
MA6813400180,h_OCHCTP,13-L1-8,2019-02-05 15:15:00.0,SoPmdAve,3748.22,CHCGILDTO6Y
MA6813400180,h_OCHCTP,13-L1-8,2019-02-05 15:30:00.0,Qmin,8.8,CHCGILDTO6Y
MA6813400180,h_OCHCTP,13-L1-8,2019-02-05 15:30:00.0,PhaseCorrectionAve,-0.122,CHCGILDTO6Y
MA6813400180,h_OCHCTP,13-L1-8,2019-02-05 15:30:00.0,BerPreFecMax,0.00293,CHCGILDTO6Y
MA6813400180,h_OCHCTP,13-L1-8,2019-02-05 15:30:00.0,PmdMin,0.957,CHCGILDTO6Y
MA6813400180,h_OCHCTP,13-L1-8,2019-02-05 15:30:00.0,SoPmdAve,3895.93,CHCGILDTO6Y
MA6813400180,h_OCHCTP,13-L1-8,2019-02-05 15:45:00.0,Qmin,8.79,CHCGILDTO6Y
MA6813400180,h_OCHCTP,13-L1-8,2019-02-05 15:45:00.0,PhaseCorrectionAve,-0.061,CHCGILDTO6Y
MA6813400180,h_OCHCTP,13-L1-8,2019-02-05 15:45:00.0,BerPreFecMax,0.00296,CHCGILDTO6Y
MA6813400180,h_OCHCTP,13-L1-8,2019-02-05 15:45:00.0,PmdMin,1.02,CHCGILDTO6Y
MA6813400180,h_OCHCTP,13-L1-8,2019-02-05 15:45:00.0,SoPmdAve,3889.35,CHCGILDTO6Y
MA6813400180,h_OCHCTP,13-L1-9,2019-02-05 15:15:00.0,Qmin,8.71,CHCGILDTO6Y
MA6813400180,h_OCHCTP,13-L1-9,2019-02-05 15:15:00.0,PhaseCorrectionAve,-0.061,CHCGILDTO6Y
MA6813400180,h_OCHCTP,13-L1-9,2019-02-05 15:15:00.0,BerPreFecMax,0.0032,CHCGILDTO6Y
MA6813400180,h_OCHCTP,13-L1-9,2019-02-05 15:15:00.0,PmdMin,0.887,CHCGILDTO6Y
MA6813400180,h_OCHCTP,13-L1-9,2019-02-05 15:15:00.0,SoPmdAve,3479.42,CHCGILDTO6Y
MA6813400180,h_OCHCTP,13-L1-9,2019-02-05 15:30:00.0,Qmin,8.7,CHCGILDTO6Y
MA6813400180,h_OCHCTP,13-L1-9,2019-02-05 15:30:00.0,PhaseCorrectionAve,-0.122,CHCGILDTO6Y
MA6813400180,h_OCHCTP,13-L1-9,2019-02-05 15:30:00.0,BerPreFecMax,0.00322,CHCGILDTO6Y
MA6813400180,h_OCHCTP,13-L1-9,2019-02-05 15:30:00.0,PmdMin,0.843,CHCGILDTO6Y
MA6813400180,h_OCHCTP,13-L1-9,2019-02-05 15:30:00.0,SoPmdAve,3640.67,CHCGILDTO6Y
MA6813400180,h_OCHCTP,13-L1-9,2019-02-05 15:45:00.0,Qmin,8.76,CHCGILDTO6Y
MA6813400180,h_OCHCTP,13-L1-9,2019-02-05 15:45:00.0,PhaseCorrectionAve,-0.061,CHCGILDTO6Y
MA6813400180,h_OCHCTP,13-L1-9,2019-02-05 15:45:00.0,BerPreFecMax,0.00305,CHCGILDTO6Y
MA6813400180,h_OCHCTP,13-L1-9,2019-02-05 15:45:00.0,PmdMin,1.15,CHCGILDTO6Y
MA6813400180,h_OCHCTP,13-L1-9,2019-02-05 15:45:00.0,SoPmdAve,3562.11,CHCGILDTO6Y
MA6813400180,h_OCHCTP,13-L1-10,2019-02-05 15:15:00.0,Qmin,8.62,CHCGILDTO6Y
MA6813400180,h_OCHCTP,13-L1-10,2019-02-05 15:15:00.0,PhaseCorrectionAve,-0.061,CHCGILDTO6Y
MA6813400180,h_OCHCTP,13-L1-10,2019-02-05 15:15:00.0,BerPreFecMax,0.00348,CHCGILDTO6Y
MA6813400180,h_OCHCTP,13-L1-10,2019-02-05 15:15:00.0,PmdMin,0.961,CHCGILDTO6Y
MA6813400180,h_OCHCTP,13-L1-10,2019-02-05 15:15:00.0,SoPmdAve,3840.67,CHCGILDTO6Y
MA6813400180,h_OCHCTP,13-L1-10,2019-02-05 15:30:00.0,Qmin,8.51,CHCGILDTO6Y
MA6813400180,h_OCHCTP,13-L1-10,2019-02-05 15:30:00.0,PhaseCorrectionAve,-0.122,CHCGILDTO6Y
MA6813400180,h_OCHCTP,13-L1-10,2019-02-05 15:30:00.0,BerPreFecMax,0.00386,CHCGILDTO6Y
MA6813400180,h_OCHCTP,13-L1-10,2019-02-05 15:30:00.0,PmdMin,1.57,CHCGILDTO6Y
MA6813400180,h_OCHCTP,13-L1-10,2019-02-05 15:30:00.0,SoPmdAve,3826.01,CHCGILDTO6Y
MA6813400180,h_OCHCTP,13-L1-10,2019-02-05 15:45:00.0,Qmin,8.69,CHCGILDTO6Y
MA6813400180,h_OCHCTP,13-L1-10,2019-02-05 15:45:00.0,PhaseCorrectionAve,-0.061,CHCGILDTO6Y
MA6813400180,h_OCHCTP,13-L1-10,2019-02-05 15:45:00.0,BerPreFecMax,0.00327,CHCGILDTO6Y
MA6813400180,h_OCHCTP,13-L1-10,2019-02-05 15:45:00.0,PmdMin,1.17,CHCGILDTO6Y
MA6813400180,h_OCHCTP,13-L1-10,2019-02-05 15:45:00.0,SoPmdAve,3785.37,CHCGILDTO6Y
