MA6813400180,h_OCHCTP,11-L1-1,2019-02-01 13:00:00.0,Qmin,9.18,CHCGILDTO6Y
MA6813400180,h_OCHCTP,11-L1-1,2019-02-01 13:00:00.0,PhaseCorrectionAve,1.24e-07,CHCGILDTO6Y
MA6813400180,h_OCHCTP,11-L1-1,2019-02-01 13:00:00.0,BerPreFecMax,0.002,CHCGILDTO6Y
MA6813400180,h_OCHCTP,11-L1-1,2019-02-01 13:00:00.0,PmdMin,0.397,CHCGILDTO6Y
MA6813400180,h_OCHCTP,11-L1-1,2019-02-01 13:00:00.0,SoPmdAve,3393.49,CHCGILDTO6Y
MA6813400180,h_OCHCTP,11-L1-1,2019-02-01 13:15:00.0,Qmin,9.16,CHCGILDTO6Y
MA6813400180,h_OCHCTP,11-L1-1,2019-02-01 13:15:00.0,PhaseCorrectionAve,1.31e-07,CHCGILDTO6Y
MA6813400180,h_OCHCTP,11-L1-1,2019-02-01 13:15:00.0,BerPreFecMax,0.00204,CHCGILDTO6Y
MA6813400180,h_OCHCTP,11-L1-1,2019-02-01 13:15:00.0,PmdMin,1.12,CHCGILDTO6Y
MA6813400180,h_OCHCTP,11-L1-1,2019-02-01 13:15:00.0,SoPmdAve,3424.14,CHCGILDTO6Y
MA6813400180,h_OCHCTP,11-L1-1,2019-02-01 13:30:00.0,Qmin,9.18,CHCGILDTO6Y
MA6813400180,h_OCHCTP,11-L1-1,2019-02-01 13:30:00.0,PhaseCorrectionAve,1.4e-07,CHCGILDTO6Y
MA6813400180,h_OCHCTP,11-L1-1,2019-02-01 13:30:00.0,BerPreFecMax,0.00201,CHCGILDTO6Y
MA6813400180,h_OCHCTP,11-L1-1,2019-02-01 13:30:00.0,PmdMin,0.65,CHCGILDTO6Y
MA6813400180,h_OCHCTP,11-L1-1,2019-02-01 13:30:00.0,SoPmdAve,3357.57,CHCGILDTO6Y
MA6813400180,h_OCHCTP,11-L1-2,2019-02-01 13:00:00.0,Qmin,9.11,CHCGILDTO6Y
MA6813400180,h_OCHCTP,11-L1-2,2019-02-01 13:00:00.0,PhaseCorrectionAve,3.96e-07,CHCGILDTO6Y
MA6813400180,h_OCHCTP,11-L1-2,2019-02-01 13:00:00.0,BerPreFecMax,0.00216,CHCGILDTO6Y
MA6813400180,h_OCHCTP,11-L1-2,2019-02-01 13:00:00.0,PmdMin,0.957,CHCGILDTO6Y
MA6813400180,h_OCHCTP,11-L1-2,2019-02-01 13:00:00.0,SoPmdAve,3113.53,CHCGILDTO6Y
MA6813400180,h_OCHCTP,11-L1-2,2019-02-01 13:15:00.0,Qmin,9.03,CHCGILDTO6Y
MA6813400180,h_OCHCTP,11-L1-2,2019-02-01 13:15:00.0,PhaseCorrectionAve,5.38e-07,CHCGILDTO6Y
MA6813400180,h_OCHCTP,11-L1-2,2019-02-01 13:15:00.0,BerPreFecMax,0.00234,CHCGILDTO6Y
MA6813400180,h_OCHCTP,11-L1-2,2019-02-01 13:15:00.0,PmdMin,0.784,CHCGILDTO6Y
MA6813400180,h_OCHCTP,11-L1-2,2019-02-01 13:15:00.0,SoPmdAve,3120.6,CHCGILDTO6Y
MA6813400180,h_OCHCTP,11-L1-2,2019-02-01 13:30:00.0,Qmin,8.9,CHCGILDTO6Y
MA6813400180,h_OCHCTP,11-L1-2,2019-02-01 13:30:00.0,PhaseCorrectionAve,5.06e-07,CHCGILDTO6Y
MA6813400180,h_OCHCTP,11-L1-2,2019-02-01 13:30:00.0,BerPreFecMax,0.00265,CHCGILDTO6Y
MA6813400180,h_OCHCTP,11-L1-2,2019-02-01 13:30:00.0,PmdMin,0.768,CHCGILDTO6Y
MA6813400180,h_OCHCTP,11-L1-2,2019-02-01 13:30:00.0,SoPmdAve,3160.21,CHCGILDTO6Y
MA6813400180,h_OCHCTP,11-L1-3,2019-02-01 13:00:00.0,Qmin,8.99,CHCGILDTO6Y
MA6813400180,h_OCHCTP,11-L1-3,2019-02-01 13:00:00.0,PhaseCorrectionAve,3.42e-07,CHCGILDTO6Y
MA6813400180,h_OCHCTP,11-L1-3,2019-02-01 13:00:00.0,BerPreFecMax,0.00244,CHCGILDTO6Y
MA6813400180,h_OCHCTP,11-L1-3,2019-02-01 13:00:00.0,PmdMin,0.688,CHCGILDTO6Y
MA6813400180,h_OCHCTP,11-L1-3,2019-02-01 13:00:00.0,SoPmdAve,2761.29,CHCGILDTO6Y
MA6813400180,h_OCHCTP,11-L1-3,2019-02-01 13:15:00.0,Qmin,9.0,CHCGILDTO6Y
MA6813400180,h_OCHCTP,11-L1-3,2019-02-01 13:15:00.0,PhaseCorrectionAve,3.09e-07,CHCGILDTO6Y
MA6813400180,h_OCHCTP,11-L1-3,2019-02-01 13:15:00.0,BerPreFecMax,0.00241,CHCGILDTO6Y
MA6813400180,h_OCHCTP,11-L1-3,2019-02-01 13:15:00.0,PmdMin,1.21,CHCGILDTO6Y
MA6813400180,h_OCHCTP,11-L1-3,2019-02-01 13:15:00.0,SoPmdAve,2705.64,CHCGILDTO6Y
MA6813400180,h_OCHCTP,11-L1-3,2019-02-01 13:30:00.0,Qmin,8.98,CHCGILDTO6Y
MA6813400180,h_OCHCTP,11-L1-3,2019-02-01 13:30:00.0,PhaseCorrectionAve,-0.061,CHCGILDTO6Y
MA6813400180,h_OCHCTP,11-L1-3,2019-02-01 13:30:00.0,BerPreFecMax,0.00246,CHCGILDTO6Y
MA6813400180,h_OCHCTP,11-L1-3,2019-02-01 13:30:00.0,PmdMin,0.989,CHCGILDTO6Y
MA6813400180,h_OCHCTP,11-L1-3,2019-02-01 13:30:00.0,SoPmdAve,2677.21,CHCGILDTO6Y
MA6813400180,h_OCHCTP,11-L1-4,2019-02-01 13:00:00.0,Qmin,8.84,CHCGILDTO6Y
MA6813400180,h_OCHCTP,11-L1-4,2019-02-01 13:00:00.0,PhaseCorrectionAve,4.19e-07,CHCGILDTO6Y
MA6813400180,h_OCHCTP,11-L1-4,2019-02-01 13:00:00.0,BerPreFecMax,0.00282,CHCGILDTO6Y
MA6813400180,h_OCHCTP,11-L1-4,2019-02-01 13:00:00.0,PmdMin,0.451,CHCGILDTO6Y
MA6813400180,h_OCHCTP,11-L1-4,2019-02-01 13:00:00.0,SoPmdAve,2880.13,CHCGILDTO6Y
MA6813400180,h_OCHCTP,11-L1-4,2019-02-01 13:15:00.0,Qmin,8.9,CHCGILDTO6Y
MA6813400180,h_OCHCTP,11-L1-4,2019-02-01 13:15:00.0,PhaseCorrectionAve,4.01e-07,CHCGILDTO6Y
MA6813400180,h_OCHCTP,11-L1-4,2019-02-01 13:15:00.0,BerPreFecMax,0.00266,CHCGILDTO6Y
MA6813400180,h_OCHCTP,11-L1-4,2019-02-01 13:15:00.0,PmdMin,1.19,CHCGILDTO6Y
MA6813400180,h_OCHCTP,11-L1-4,2019-02-01 13:15:00.0,SoPmdAve,3008.42,CHCGILDTO6Y
MA6813400180,h_OCHCTP,11-L1-4,2019-02-01 13:30:00.0,Qmin,8.85,CHCGILDTO6Y
MA6813400180,h_OCHCTP,11-L1-4,2019-02-01 13:30:00.0,PhaseCorrectionAve,-0.061,CHCGILDTO6Y
MA6813400180,h_OCHCTP,11-L1-4,2019-02-01 13:30:00.0,BerPreFecMax,0.00279,CHCGILDTO6Y
MA6813400180,h_OCHCTP,11-L1-4,2019-02-01 13:30:00.0,PmdMin,0.785,CHCGILDTO6Y
MA6813400180,h_OCHCTP,11-L1-4,2019-02-01 13:30:00.0,SoPmdAve,2908.49,CHCGILDTO6Y
MA6813400180,h_OCHCTP,11-L1-5,2019-02-01 13:00:00.0,Qmin,8.87,CHCGILDTO6Y
MA6813400180,h_OCHCTP,11-L1-5,2019-02-01 13:00:00.0,PhaseCorrectionAve,1.65e-07,CHCGILDTO6Y
MA6813400180,h_OCHCTP,11-L1-5,2019-02-01 13:00:00.0,BerPreFecMax,0.00274,CHCGILDTO6Y
MA6813400180,h_OCHCTP,11-L1-5,2019-02-01 13:00:00.0,PmdMin,0.887,CHCGILDTO6Y
MA6813400180,h_OCHCTP,11-L1-5,2019-02-01 13:00:00.0,SoPmdAve,2600.9,CHCGILDTO6Y
MA6813400180,h_OCHCTP,11-L1-5,2019-02-01 13:15:00.0,Qmin,8.97,CHCGILDTO6Y
MA6813400180,h_OCHCTP,11-L1-5,2019-02-01 13:15:00.0,PhaseCorrectionAve,1.34e-07,CHCGILDTO6Y
MA6813400180,h_OCHCTP,11-L1-5,2019-02-01 13:15:00.0,BerPreFecMax,0.0025,CHCGILDTO6Y
MA6813400180,h_OCHCTP,11-L1-5,2019-02-01 13:15:00.0,PmdMin,0.859,CHCGILDTO6Y
MA6813400180,h_OCHCTP,11-L1-5,2019-02-01 13:15:00.0,SoPmdAve,2488.01,CHCGILDTO6Y
MA6813400180,h_OCHCTP,11-L1-5,2019-02-01 13:30:00.0,Qmin,8.94,CHCGILDTO6Y
MA6813400180,h_OCHCTP,11-L1-5,2019-02-01 13:30:00.0,PhaseCorrectionAve,-0.061,CHCGILDTO6Y
MA6813400180,h_OCHCTP,11-L1-5,2019-02-01 13:30:00.0,BerPreFecMax,0.00256,CHCGILDTO6Y
MA6813400180,h_OCHCTP,11-L1-5,2019-02-01 13:30:00.0,PmdMin,0.212,CHCGILDTO6Y
MA6813400180,h_OCHCTP,11-L1-5,2019-02-01 13:30:00.0,SoPmdAve,2553.64,CHCGILDTO6Y
MA6813400180,h_OCHCTP,11-L1-6,2019-02-01 13:00:00.0,Qmin,8.82,CHCGILDTO6Y
MA6813400180,h_OCHCTP,11-L1-6,2019-02-01 13:00:00.0,PhaseCorrectionAve,4.88e-07,CHCGILDTO6Y
MA6813400180,h_OCHCTP,11-L1-6,2019-02-01 13:00:00.0,BerPreFecMax,0.00289,CHCGILDTO6Y
MA6813400180,h_OCHCTP,11-L1-6,2019-02-01 13:00:00.0,PmdMin,0.638,CHCGILDTO6Y
MA6813400180,h_OCHCTP,11-L1-6,2019-02-01 13:00:00.0,SoPmdAve,2545.87,CHCGILDTO6Y
MA6813400180,h_OCHCTP,11-L1-6,2019-02-01 13:15:00.0,Qmin,8.9,CHCGILDTO6Y
MA6813400180,h_OCHCTP,11-L1-6,2019-02-01 13:15:00.0,PhaseCorrectionAve,-0.061,CHCGILDTO6Y
MA6813400180,h_OCHCTP,11-L1-6,2019-02-01 13:15:00.0,BerPreFecMax,0.00265,CHCGILDTO6Y
MA6813400180,h_OCHCTP,11-L1-6,2019-02-01 13:15:00.0,PmdMin,0.924,CHCGILDTO6Y
MA6813400180,h_OCHCTP,11-L1-6,2019-02-01 13:15:00.0,SoPmdAve,2517.17,CHCGILDTO6Y
MA6813400180,h_OCHCTP,11-L1-6,2019-02-01 13:30:00.0,Qmin,8.86,CHCGILDTO6Y
MA6813400180,h_OCHCTP,11-L1-6,2019-02-01 13:30:00.0,PhaseCorrectionAve,-0.061,CHCGILDTO6Y
MA6813400180,h_OCHCTP,11-L1-6,2019-02-01 13:30:00.0,BerPreFecMax,0.00276,CHCGILDTO6Y
MA6813400180,h_OCHCTP,11-L1-6,2019-02-01 13:30:00.0,PmdMin,0.704,CHCGILDTO6Y
MA6813400180,h_OCHCTP,11-L1-6,2019-02-01 13:30:00.0,SoPmdAve,2568.96,CHCGILDTO6Y
MA6813400180,h_OCHCTP,11-L1-7,2019-02-01 13:00:00.0,Qmin,8.84,CHCGILDTO6Y
MA6813400180,h_OCHCTP,11-L1-7,2019-02-01 13:00:00.0,PhaseCorrectionAve,2.97e-07,CHCGILDTO6Y
MA6813400180,h_OCHCTP,11-L1-7,2019-02-01 13:00:00.0,BerPreFecMax,0.00283,CHCGILDTO6Y
MA6813400180,h_OCHCTP,11-L1-7,2019-02-01 13:00:00.0,PmdMin,1.48,CHCGILDTO6Y
MA6813400180,h_OCHCTP,11-L1-7,2019-02-01 13:00:00.0,SoPmdAve,3025.39,CHCGILDTO6Y
MA6813400180,h_OCHCTP,11-L1-7,2019-02-01 13:15:00.0,Qmin,8.89,CHCGILDTO6Y
MA6813400180,h_OCHCTP,11-L1-7,2019-02-01 13:15:00.0,PhaseCorrectionAve,-0.061,CHCGILDTO6Y
MA6813400180,h_OCHCTP,11-L1-7,2019-02-01 13:15:00.0,BerPreFecMax,0.0027,CHCGILDTO6Y
MA6813400180,h_OCHCTP,11-L1-7,2019-02-01 13:15:00.0,PmdMin,0.659,CHCGILDTO6Y
MA6813400180,h_OCHCTP,11-L1-7,2019-02-01 13:15:00.0,SoPmdAve,2997.46,CHCGILDTO6Y
MA6813400180,h_OCHCTP,11-L1-7,2019-02-01 13:30:00.0,Qmin,8.94,CHCGILDTO6Y
MA6813400180,h_OCHCTP,11-L1-7,2019-02-01 13:30:00.0,PhaseCorrectionAve,-0.122,CHCGILDTO6Y
MA6813400180,h_OCHCTP,11-L1-7,2019-02-01 13:30:00.0,BerPreFecMax,0.00256,CHCGILDTO6Y
MA6813400180,h_OCHCTP,11-L1-7,2019-02-01 13:30:00.0,PmdMin,0.517,CHCGILDTO6Y
MA6813400180,h_OCHCTP,11-L1-7,2019-02-01 13:30:00.0,SoPmdAve,2978.57,CHCGILDTO6Y
MA6813400180,h_OCHCTP,11-L1-8,2019-02-01 13:00:00.0,Qmin,9.01,CHCGILDTO6Y
MA6813400180,h_OCHCTP,11-L1-8,2019-02-01 13:00:00.0,PhaseCorrectionAve,7.33e-07,CHCGILDTO6Y
MA6813400180,h_OCHCTP,11-L1-8,2019-02-01 13:00:00.0,BerPreFecMax,0.0024,CHCGILDTO6Y
MA6813400180,h_OCHCTP,11-L1-8,2019-02-01 13:00:00.0,PmdMin,1.04,CHCGILDTO6Y
MA6813400180,h_OCHCTP,11-L1-8,2019-02-01 13:00:00.0,SoPmdAve,3139.93,CHCGILDTO6Y
MA6813400180,h_OCHCTP,11-L1-8,2019-02-01 13:15:00.0,Qmin,9.02,CHCGILDTO6Y
MA6813400180,h_OCHCTP,11-L1-8,2019-02-01 13:15:00.0,PhaseCorrectionAve,-0.061,CHCGILDTO6Y
MA6813400180,h_OCHCTP,11-L1-8,2019-02-01 13:15:00.0,BerPreFecMax,0.00237,CHCGILDTO6Y
MA6813400180,h_OCHCTP,11-L1-8,2019-02-01 13:15:00.0,PmdMin,1.18,CHCGILDTO6Y
MA6813400180,h_OCHCTP,11-L1-8,2019-02-01 13:15:00.0,SoPmdAve,3127.47,CHCGILDTO6Y
MA6813400180,h_OCHCTP,11-L1-8,2019-02-01 13:30:00.0,Qmin,9.0,CHCGILDTO6Y
MA6813400180,h_OCHCTP,11-L1-8,2019-02-01 13:30:00.0,PhaseCorrectionAve,-0.122,CHCGILDTO6Y
MA6813400180,h_OCHCTP,11-L1-8,2019-02-01 13:30:00.0,BerPreFecMax,0.00242,CHCGILDTO6Y
MA6813400180,h_OCHCTP,11-L1-8,2019-02-01 13:30:00.0,PmdMin,0.631,CHCGILDTO6Y
MA6813400180,h_OCHCTP,11-L1-8,2019-02-01 13:30:00.0,SoPmdAve,3091.44,CHCGILDTO6Y
MA6813400180,h_OCHCTP,11-L1-9,2019-02-01 13:00:00.0,Qmin,8.89,CHCGILDTO6Y
MA6813400180,h_OCHCTP,11-L1-9,2019-02-01 13:00:00.0,PhaseCorrectionAve,-0.061,CHCGILDTO6Y
MA6813400180,h_OCHCTP,11-L1-9,2019-02-01 13:00:00.0,BerPreFecMax,0.00269,CHCGILDTO6Y
MA6813400180,h_OCHCTP,11-L1-9,2019-02-01 13:00:00.0,PmdMin,0.811,CHCGILDTO6Y
MA6813400180,h_OCHCTP,11-L1-9,2019-02-01 13:00:00.0,SoPmdAve,3007.18,CHCGILDTO6Y
MA6813400180,h_OCHCTP,11-L1-9,2019-02-01 13:15:00.0,Qmin,8.85,CHCGILDTO6Y
MA6813400180,h_OCHCTP,11-L1-9,2019-02-01 13:15:00.0,PhaseCorrectionAve,-0.061,CHCGILDTO6Y
MA6813400180,h_OCHCTP,11-L1-9,2019-02-01 13:15:00.0,BerPreFecMax,0.0028,CHCGILDTO6Y
MA6813400180,h_OCHCTP,11-L1-9,2019-02-01 13:15:00.0,PmdMin,0.648,CHCGILDTO6Y
MA6813400180,h_OCHCTP,11-L1-9,2019-02-01 13:15:00.0,SoPmdAve,3009.98,CHCGILDTO6Y
MA6813400180,h_OCHCTP,11-L1-9,2019-02-01 13:30:00.0,Qmin,8.89,CHCGILDTO6Y
MA6813400180,h_OCHCTP,11-L1-9,2019-02-01 13:30:00.0,PhaseCorrectionAve,-0.183,CHCGILDTO6Y
MA6813400180,h_OCHCTP,11-L1-9,2019-02-01 13:30:00.0,BerPreFecMax,0.00269,CHCGILDTO6Y
MA6813400180,h_OCHCTP,11-L1-9,2019-02-01 13:30:00.0,PmdMin,1.07,CHCGILDTO6Y
MA6813400180,h_OCHCTP,11-L1-9,2019-02-01 13:30:00.0,SoPmdAve,2866.18,CHCGILDTO6Y
MA6813400180,h_OCHCTP,11-L1-10,2019-02-01 13:00:00.0,Qmin,9.07,CHCGILDTO6Y
MA6813400180,h_OCHCTP,11-L1-10,2019-02-01 13:00:00.0,PhaseCorrectionAve,-0.061,CHCGILDTO6Y
MA6813400180,h_OCHCTP,11-L1-10,2019-02-01 13:00:00.0,BerPreFecMax,0.00225,CHCGILDTO6Y
MA6813400180,h_OCHCTP,11-L1-10,2019-02-01 13:00:00.0,PmdMin,1.34,CHCGILDTO6Y
MA6813400180,h_OCHCTP,11-L1-10,2019-02-01 13:00:00.0,SoPmdAve,3059.98,CHCGILDTO6Y
MA6813400180,h_OCHCTP,11-L1-10,2019-02-01 13:15:00.0,Qmin,9.03,CHCGILDTO6Y
MA6813400180,h_OCHCTP,11-L1-10,2019-02-01 13:15:00.0,PhaseCorrectionAve,-0.122,CHCGILDTO6Y
MA6813400180,h_OCHCTP,11-L1-10,2019-02-01 13:15:00.0,BerPreFecMax,0.00234,CHCGILDTO6Y
MA6813400180,h_OCHCTP,11-L1-10,2019-02-01 13:15:00.0,PmdMin,0.665,CHCGILDTO6Y
MA6813400180,h_OCHCTP,11-L1-10,2019-02-01 13:15:00.0,SoPmdAve,3034.27,CHCGILDTO6Y
MA6813400180,h_OCHCTP,11-L1-10,2019-02-01 13:30:00.0,Qmin,9.01,CHCGILDTO6Y
MA6813400180,h_OCHCTP,11-L1-10,2019-02-01 13:30:00.0,PhaseCorrectionAve,-0.244,CHCGILDTO6Y
MA6813400180,h_OCHCTP,11-L1-10,2019-02-01 13:30:00.0,BerPreFecMax,0.00239,CHCGILDTO6Y
MA6813400180,h_OCHCTP,11-L1-10,2019-02-01 13:30:00.0,PmdMin,1.23,CHCGILDTO6Y
MA6813400180,h_OCHCTP,11-L1-10,2019-02-01 13:30:00.0,SoPmdAve,2982.16,CHCGILDTO6Y
MA6813400180,h_OCHCTP,10-L1-1,2019-02-01 13:00:00.0,Qmin,9.46,CHCGILDTO6Y
MA6813400180,h_OCHCTP,10-L1-1,2019-02-01 13:00:00.0,PhaseCorrectionAve,3.44e-07,CHCGILDTO6Y
MA6813400180,h_OCHCTP,10-L1-1,2019-02-01 13:00:00.0,BerPreFecMax,0.00148,CHCGILDTO6Y
MA6813400180,h_OCHCTP,10-L1-1,2019-02-01 13:00:00.0,PmdMin,4.42,CHCGILDTO6Y
MA6813400180,h_OCHCTP,10-L1-1,2019-02-01 13:00:00.0,SoPmdAve,3471.32,CHCGILDTO6Y
MA6813400180,h_OCHCTP,10-L1-1,2019-02-01 13:15:00.0,Qmin,9.47,CHCGILDTO6Y
MA6813400180,h_OCHCTP,10-L1-1,2019-02-01 13:15:00.0,PhaseCorrectionAve,3.52e-07,CHCGILDTO6Y
MA6813400180,h_OCHCTP,10-L1-1,2019-02-01 13:15:00.0,BerPreFecMax,0.00146,CHCGILDTO6Y
MA6813400180,h_OCHCTP,10-L1-1,2019-02-01 13:15:00.0,PmdMin,1.65,CHCGILDTO6Y
MA6813400180,h_OCHCTP,10-L1-1,2019-02-01 13:15:00.0,SoPmdAve,3471.23,CHCGILDTO6Y
MA6813400180,h_OCHCTP,10-L1-1,2019-02-01 13:30:00.0,Qmin,9.47,CHCGILDTO6Y
MA6813400180,h_OCHCTP,10-L1-1,2019-02-01 13:30:00.0,PhaseCorrectionAve,3.49e-07,CHCGILDTO6Y
MA6813400180,h_OCHCTP,10-L1-1,2019-02-01 13:30:00.0,BerPreFecMax,0.00147,CHCGILDTO6Y
MA6813400180,h_OCHCTP,10-L1-1,2019-02-01 13:30:00.0,PmdMin,6.21,CHCGILDTO6Y
MA6813400180,h_OCHCTP,10-L1-1,2019-02-01 13:30:00.0,SoPmdAve,3624.02,CHCGILDTO6Y
MA6813400180,h_OCHCTP,10-L1-2,2019-02-01 13:00:00.0,Qmin,9.15,CHCGILDTO6Y
MA6813400180,h_OCHCTP,10-L1-2,2019-02-01 13:00:00.0,PhaseCorrectionAve,-0.061,CHCGILDTO6Y
MA6813400180,h_OCHCTP,10-L1-2,2019-02-01 13:00:00.0,BerPreFecMax,0.00206,CHCGILDTO6Y
MA6813400180,h_OCHCTP,10-L1-2,2019-02-01 13:00:00.0,PmdMin,3.38,CHCGILDTO6Y
MA6813400180,h_OCHCTP,10-L1-2,2019-02-01 13:00:00.0,SoPmdAve,3365.54,CHCGILDTO6Y
MA6813400180,h_OCHCTP,10-L1-2,2019-02-01 13:15:00.0,Qmin,9.17,CHCGILDTO6Y
MA6813400180,h_OCHCTP,10-L1-2,2019-02-01 13:15:00.0,PhaseCorrectionAve,3.15e-07,CHCGILDTO6Y
MA6813400180,h_OCHCTP,10-L1-2,2019-02-01 13:15:00.0,BerPreFecMax,0.00202,CHCGILDTO6Y
MA6813400180,h_OCHCTP,10-L1-2,2019-02-01 13:15:00.0,PmdMin,3.98,CHCGILDTO6Y
MA6813400180,h_OCHCTP,10-L1-2,2019-02-01 13:15:00.0,SoPmdAve,3370.07,CHCGILDTO6Y
MA6813400180,h_OCHCTP,10-L1-2,2019-02-01 13:30:00.0,Qmin,9.17,CHCGILDTO6Y
MA6813400180,h_OCHCTP,10-L1-2,2019-02-01 13:30:00.0,PhaseCorrectionAve,-0.122,CHCGILDTO6Y
MA6813400180,h_OCHCTP,10-L1-2,2019-02-01 13:30:00.0,BerPreFecMax,0.00202,CHCGILDTO6Y
MA6813400180,h_OCHCTP,10-L1-2,2019-02-01 13:30:00.0,PmdMin,2.23,CHCGILDTO6Y
MA6813400180,h_OCHCTP,10-L1-2,2019-02-01 13:30:00.0,SoPmdAve,3389.29,CHCGILDTO6Y
MA6813400180,h_OCHCTP,10-L1-3,2019-02-01 13:00:00.0,Qmin,8.89,CHCGILDTO6Y
MA6813400180,h_OCHCTP,10-L1-3,2019-02-01 13:00:00.0,PhaseCorrectionAve,-0.061,CHCGILDTO6Y
MA6813400180,h_OCHCTP,10-L1-3,2019-02-01 13:00:00.0,BerPreFecMax,0.0027,CHCGILDTO6Y
MA6813400180,h_OCHCTP,10-L1-3,2019-02-01 13:00:00.0,PmdMin,5.32,CHCGILDTO6Y
MA6813400180,h_OCHCTP,10-L1-3,2019-02-01 13:00:00.0,SoPmdAve,2760.84,CHCGILDTO6Y
MA6813400180,h_OCHCTP,10-L1-3,2019-02-01 13:15:00.0,Qmin,8.88,CHCGILDTO6Y
MA6813400180,h_OCHCTP,10-L1-3,2019-02-01 13:15:00.0,PhaseCorrectionAve,-0.122,CHCGILDTO6Y
MA6813400180,h_OCHCTP,10-L1-3,2019-02-01 13:15:00.0,BerPreFecMax,0.00271,CHCGILDTO6Y
MA6813400180,h_OCHCTP,10-L1-3,2019-02-01 13:15:00.0,PmdMin,3.32,CHCGILDTO6Y
MA6813400180,h_OCHCTP,10-L1-3,2019-02-01 13:15:00.0,SoPmdAve,2818.22,CHCGILDTO6Y
MA6813400180,h_OCHCTP,10-L1-3,2019-02-01 13:30:00.0,Qmin,8.87,CHCGILDTO6Y
MA6813400180,h_OCHCTP,10-L1-3,2019-02-01 13:30:00.0,PhaseCorrectionAve,-0.122,CHCGILDTO6Y
MA6813400180,h_OCHCTP,10-L1-3,2019-02-01 13:30:00.0,BerPreFecMax,0.00275,CHCGILDTO6Y
MA6813400180,h_OCHCTP,10-L1-3,2019-02-01 13:30:00.0,PmdMin,3.66,CHCGILDTO6Y
MA6813400180,h_OCHCTP,10-L1-3,2019-02-01 13:30:00.0,SoPmdAve,2817.52,CHCGILDTO6Y
MA6813400180,h_OCHCTP,10-L1-4,2019-02-01 13:00:00.0,Qmin,8.26,CHCGILDTO6Y
MA6813400180,h_OCHCTP,10-L1-4,2019-02-01 13:00:00.0,PhaseCorrectionAve,-0.122,CHCGILDTO6Y
MA6813400180,h_OCHCTP,10-L1-4,2019-02-01 13:00:00.0,BerPreFecMax,0.00483,CHCGILDTO6Y
MA6813400180,h_OCHCTP,10-L1-4,2019-02-01 13:00:00.0,PmdMin,1.16,CHCGILDTO6Y
MA6813400180,h_OCHCTP,10-L1-4,2019-02-01 13:00:00.0,SoPmdAve,3016.84,CHCGILDTO6Y
MA6813400180,h_OCHCTP,10-L1-4,2019-02-01 13:15:00.0,Qmin,8.28,CHCGILDTO6Y
MA6813400180,h_OCHCTP,10-L1-4,2019-02-01 13:15:00.0,PhaseCorrectionAve,-0.122,CHCGILDTO6Y
MA6813400180,h_OCHCTP,10-L1-4,2019-02-01 13:15:00.0,BerPreFecMax,0.00472,CHCGILDTO6Y
MA6813400180,h_OCHCTP,10-L1-4,2019-02-01 13:15:00.0,PmdMin,0.571,CHCGILDTO6Y
MA6813400180,h_OCHCTP,10-L1-4,2019-02-01 13:15:00.0,SoPmdAve,3007.04,CHCGILDTO6Y
MA6813400180,h_OCHCTP,10-L1-4,2019-02-01 13:30:00.0,Qmin,8.27,CHCGILDTO6Y
MA6813400180,h_OCHCTP,10-L1-4,2019-02-01 13:30:00.0,PhaseCorrectionAve,-0.122,CHCGILDTO6Y
MA6813400180,h_OCHCTP,10-L1-4,2019-02-01 13:30:00.0,BerPreFecMax,0.00478,CHCGILDTO6Y
MA6813400180,h_OCHCTP,10-L1-4,2019-02-01 13:30:00.0,PmdMin,1.32,CHCGILDTO6Y
MA6813400180,h_OCHCTP,10-L1-4,2019-02-01 13:30:00.0,SoPmdAve,3052.11,CHCGILDTO6Y
MA6813400180,h_OCHCTP,10-L1-5,2019-02-01 13:00:00.0,Qmin,8.43,CHCGILDTO6Y
MA6813400180,h_OCHCTP,10-L1-5,2019-02-01 13:00:00.0,PhaseCorrectionAve,-0.122,CHCGILDTO6Y
MA6813400180,h_OCHCTP,10-L1-5,2019-02-01 13:00:00.0,BerPreFecMax,0.00415,CHCGILDTO6Y
MA6813400180,h_OCHCTP,10-L1-5,2019-02-01 13:00:00.0,PmdMin,2.69,CHCGILDTO6Y
MA6813400180,h_OCHCTP,10-L1-5,2019-02-01 13:00:00.0,SoPmdAve,2826.71,CHCGILDTO6Y
MA6813400180,h_OCHCTP,10-L1-5,2019-02-01 13:15:00.0,Qmin,8.44,CHCGILDTO6Y
MA6813400180,h_OCHCTP,10-L1-5,2019-02-01 13:15:00.0,PhaseCorrectionAve,-0.122,CHCGILDTO6Y
MA6813400180,h_OCHCTP,10-L1-5,2019-02-01 13:15:00.0,BerPreFecMax,0.00411,CHCGILDTO6Y
MA6813400180,h_OCHCTP,10-L1-5,2019-02-01 13:15:00.0,PmdMin,2.28,CHCGILDTO6Y
MA6813400180,h_OCHCTP,10-L1-5,2019-02-01 13:15:00.0,SoPmdAve,2790.78,CHCGILDTO6Y
MA6813400180,h_OCHCTP,10-L1-5,2019-02-01 13:30:00.0,Qmin,8.43,CHCGILDTO6Y
MA6813400180,h_OCHCTP,10-L1-5,2019-02-01 13:30:00.0,PhaseCorrectionAve,-0.122,CHCGILDTO6Y
MA6813400180,h_OCHCTP,10-L1-5,2019-02-01 13:30:00.0,BerPreFecMax,0.00416,CHCGILDTO6Y
MA6813400180,h_OCHCTP,10-L1-5,2019-02-01 13:30:00.0,PmdMin,1.91,CHCGILDTO6Y
MA6813400180,h_OCHCTP,10-L1-5,2019-02-01 13:30:00.0,SoPmdAve,2842.65,CHCGILDTO6Y
MA6813400180,h_OCHCTP,10-L1-6,2019-02-01 13:00:00.0,Qmin,8.63,CHCGILDTO6Y
MA6813400180,h_OCHCTP,10-L1-6,2019-02-01 13:00:00.0,PhaseCorrectionAve,-0.122,CHCGILDTO6Y
MA6813400180,h_OCHCTP,10-L1-6,2019-02-01 13:00:00.0,BerPreFecMax,0.00346,CHCGILDTO6Y
MA6813400180,h_OCHCTP,10-L1-6,2019-02-01 13:00:00.0,PmdMin,5.23,CHCGILDTO6Y
MA6813400180,h_OCHCTP,10-L1-6,2019-02-01 13:00:00.0,SoPmdAve,2699.75,CHCGILDTO6Y
MA6813400180,h_OCHCTP,10-L1-6,2019-02-01 13:15:00.0,Qmin,8.64,CHCGILDTO6Y
MA6813400180,h_OCHCTP,10-L1-6,2019-02-01 13:15:00.0,PhaseCorrectionAve,-0.122,CHCGILDTO6Y
MA6813400180,h_OCHCTP,10-L1-6,2019-02-01 13:15:00.0,BerPreFecMax,0.00343,CHCGILDTO6Y
MA6813400180,h_OCHCTP,10-L1-6,2019-02-01 13:15:00.0,PmdMin,6.68,CHCGILDTO6Y
MA6813400180,h_OCHCTP,10-L1-6,2019-02-01 13:15:00.0,SoPmdAve,2781.28,CHCGILDTO6Y
MA6813400180,h_OCHCTP,10-L1-6,2019-02-01 13:30:00.0,Qmin,8.63,CHCGILDTO6Y
MA6813400180,h_OCHCTP,10-L1-6,2019-02-01 13:30:00.0,PhaseCorrectionAve,-0.183,CHCGILDTO6Y
MA6813400180,h_OCHCTP,10-L1-6,2019-02-01 13:30:00.0,BerPreFecMax,0.00346,CHCGILDTO6Y
MA6813400180,h_OCHCTP,10-L1-6,2019-02-01 13:30:00.0,PmdMin,5.24,CHCGILDTO6Y
MA6813400180,h_OCHCTP,10-L1-6,2019-02-01 13:30:00.0,SoPmdAve,2799.24,CHCGILDTO6Y
MA6813400180,h_OCHCTP,10-L1-7,2019-02-01 13:00:00.0,Qmin,8.73,CHCGILDTO6Y
MA6813400180,h_OCHCTP,10-L1-7,2019-02-01 13:00:00.0,PhaseCorrectionAve,-0.122,CHCGILDTO6Y
MA6813400180,h_OCHCTP,10-L1-7,2019-02-01 13:00:00.0,BerPreFecMax,0.00316,CHCGILDTO6Y
MA6813400180,h_OCHCTP,10-L1-7,2019-02-01 13:00:00.0,PmdMin,1.06,CHCGILDTO6Y
MA6813400180,h_OCHCTP,10-L1-7,2019-02-01 13:00:00.0,SoPmdAve,3433.35,CHCGILDTO6Y
MA6813400180,h_OCHCTP,10-L1-7,2019-02-01 13:15:00.0,Qmin,8.73,CHCGILDTO6Y
MA6813400180,h_OCHCTP,10-L1-7,2019-02-01 13:15:00.0,PhaseCorrectionAve,-0.122,CHCGILDTO6Y
MA6813400180,h_OCHCTP,10-L1-7,2019-02-01 13:15:00.0,BerPreFecMax,0.00315,CHCGILDTO6Y
MA6813400180,h_OCHCTP,10-L1-7,2019-02-01 13:15:00.0,PmdMin,1.5,CHCGILDTO6Y
MA6813400180,h_OCHCTP,10-L1-7,2019-02-01 13:15:00.0,SoPmdAve,3583.9,CHCGILDTO6Y
MA6813400180,h_OCHCTP,10-L1-7,2019-02-01 13:30:00.0,Qmin,8.75,CHCGILDTO6Y
MA6813400180,h_OCHCTP,10-L1-7,2019-02-01 13:30:00.0,PhaseCorrectionAve,-0.244,CHCGILDTO6Y
MA6813400180,h_OCHCTP,10-L1-7,2019-02-01 13:30:00.0,BerPreFecMax,0.00307,CHCGILDTO6Y
MA6813400180,h_OCHCTP,10-L1-7,2019-02-01 13:30:00.0,PmdMin,1.19,CHCGILDTO6Y
MA6813400180,h_OCHCTP,10-L1-7,2019-02-01 13:30:00.0,SoPmdAve,3579.88,CHCGILDTO6Y
MA6813400180,h_OCHCTP,10-L1-8,2019-02-01 13:00:00.0,Qmin,9.28,CHCGILDTO6Y
MA6813400180,h_OCHCTP,10-L1-8,2019-02-01 13:00:00.0,PhaseCorrectionAve,-0.122,CHCGILDTO6Y
MA6813400180,h_OCHCTP,10-L1-8,2019-02-01 13:00:00.0,BerPreFecMax,0.0018,CHCGILDTO6Y
MA6813400180,h_OCHCTP,10-L1-8,2019-02-01 13:00:00.0,PmdMin,1.27,CHCGILDTO6Y
MA6813400180,h_OCHCTP,10-L1-8,2019-02-01 13:00:00.0,SoPmdAve,3212.91,CHCGILDTO6Y
MA6813400180,h_OCHCTP,10-L1-8,2019-02-01 13:15:00.0,Qmin,9.29,CHCGILDTO6Y
MA6813400180,h_OCHCTP,10-L1-8,2019-02-01 13:15:00.0,PhaseCorrectionAve,-0.122,CHCGILDTO6Y
MA6813400180,h_OCHCTP,10-L1-8,2019-02-01 13:15:00.0,BerPreFecMax,0.00179,CHCGILDTO6Y
MA6813400180,h_OCHCTP,10-L1-8,2019-02-01 13:15:00.0,PmdMin,0.866,CHCGILDTO6Y
MA6813400180,h_OCHCTP,10-L1-8,2019-02-01 13:15:00.0,SoPmdAve,3347.98,CHCGILDTO6Y
MA6813400180,h_OCHCTP,10-L1-8,2019-02-01 13:30:00.0,Qmin,9.3,CHCGILDTO6Y
MA6813400180,h_OCHCTP,10-L1-8,2019-02-01 13:30:00.0,PhaseCorrectionAve,-0.244,CHCGILDTO6Y
MA6813400180,h_OCHCTP,10-L1-8,2019-02-01 13:30:00.0,BerPreFecMax,0.00177,CHCGILDTO6Y
MA6813400180,h_OCHCTP,10-L1-8,2019-02-01 13:30:00.0,PmdMin,1.19,CHCGILDTO6Y
MA6813400180,h_OCHCTP,10-L1-8,2019-02-01 13:30:00.0,SoPmdAve,3298.35,CHCGILDTO6Y
MA6813400180,h_OCHCTP,10-L1-9,2019-02-01 13:00:00.0,Qmin,9.34,CHCGILDTO6Y
MA6813400180,h_OCHCTP,10-L1-9,2019-02-01 13:00:00.0,PhaseCorrectionAve,-0.183,CHCGILDTO6Y
MA6813400180,h_OCHCTP,10-L1-9,2019-02-01 13:00:00.0,BerPreFecMax,0.00169,CHCGILDTO6Y
MA6813400180,h_OCHCTP,10-L1-9,2019-02-01 13:00:00.0,PmdMin,3.71,CHCGILDTO6Y
MA6813400180,h_OCHCTP,10-L1-9,2019-02-01 13:00:00.0,SoPmdAve,3329.29,CHCGILDTO6Y
MA6813400180,h_OCHCTP,10-L1-9,2019-02-01 13:15:00.0,Qmin,9.33,CHCGILDTO6Y
MA6813400180,h_OCHCTP,10-L1-9,2019-02-01 13:15:00.0,PhaseCorrectionAve,-0.122,CHCGILDTO6Y
MA6813400180,h_OCHCTP,10-L1-9,2019-02-01 13:15:00.0,BerPreFecMax,0.00171,CHCGILDTO6Y
MA6813400180,h_OCHCTP,10-L1-9,2019-02-01 13:15:00.0,PmdMin,0.953,CHCGILDTO6Y
MA6813400180,h_OCHCTP,10-L1-9,2019-02-01 13:15:00.0,SoPmdAve,3419.45,CHCGILDTO6Y
MA6813400180,h_OCHCTP,10-L1-9,2019-02-01 13:30:00.0,Qmin,9.35,CHCGILDTO6Y
MA6813400180,h_OCHCTP,10-L1-9,2019-02-01 13:30:00.0,PhaseCorrectionAve,-0.244,CHCGILDTO6Y
MA6813400180,h_OCHCTP,10-L1-9,2019-02-01 13:30:00.0,BerPreFecMax,0.00168,CHCGILDTO6Y
MA6813400180,h_OCHCTP,10-L1-9,2019-02-01 13:30:00.0,PmdMin,1.42,CHCGILDTO6Y
MA6813400180,h_OCHCTP,10-L1-9,2019-02-01 13:30:00.0,SoPmdAve,3422.59,CHCGILDTO6Y
MA6813400180,h_OCHCTP,10-L1-10,2019-02-01 13:00:00.0,Qmin,9.34,CHCGILDTO6Y
MA6813400180,h_OCHCTP,10-L1-10,2019-02-01 13:00:00.0,PhaseCorrectionAve,-0.183,CHCGILDTO6Y
MA6813400180,h_OCHCTP,10-L1-10,2019-02-01 13:00:00.0,BerPreFecMax,0.0017,CHCGILDTO6Y
MA6813400180,h_OCHCTP,10-L1-10,2019-02-01 13:00:00.0,PmdMin,4.94,CHCGILDTO6Y
MA6813400180,h_OCHCTP,10-L1-10,2019-02-01 13:00:00.0,SoPmdAve,3374.89,CHCGILDTO6Y
MA6813400180,h_OCHCTP,10-L1-10,2019-02-01 13:15:00.0,Qmin,9.33,CHCGILDTO6Y
MA6813400180,h_OCHCTP,10-L1-10,2019-02-01 13:15:00.0,PhaseCorrectionAve,-0.122,CHCGILDTO6Y
MA6813400180,h_OCHCTP,10-L1-10,2019-02-01 13:15:00.0,BerPreFecMax,0.00171,CHCGILDTO6Y
MA6813400180,h_OCHCTP,10-L1-10,2019-02-01 13:15:00.0,PmdMin,6.31,CHCGILDTO6Y
MA6813400180,h_OCHCTP,10-L1-10,2019-02-01 13:15:00.0,SoPmdAve,3344.07,CHCGILDTO6Y
MA6813400180,h_OCHCTP,10-L1-10,2019-02-01 13:30:00.0,Qmin,9.33,CHCGILDTO6Y
MA6813400180,h_OCHCTP,10-L1-10,2019-02-01 13:30:00.0,PhaseCorrectionAve,-0.244,CHCGILDTO6Y
MA6813400180,h_OCHCTP,10-L1-10,2019-02-01 13:30:00.0,BerPreFecMax,0.0017,CHCGILDTO6Y
MA6813400180,h_OCHCTP,10-L1-10,2019-02-01 13:30:00.0,PmdMin,5.52,CHCGILDTO6Y
MA6813400180,h_OCHCTP,10-L1-10,2019-02-01 13:30:00.0,SoPmdAve,3358.21,CHCGILDTO6Y
MA6813400180,h_OCHCTP,13-L1-1,2019-02-01 13:00:00.0,Qmin,9.23,CHCGILDTO6Y
MA6813400180,h_OCHCTP,13-L1-1,2019-02-01 13:00:00.0,PhaseCorrectionAve,2.66e-07,CHCGILDTO6Y
MA6813400180,h_OCHCTP,13-L1-1,2019-02-01 13:00:00.0,BerPreFecMax,0.0019,CHCGILDTO6Y
MA6813400180,h_OCHCTP,13-L1-1,2019-02-01 13:00:00.0,PmdMin,0.792,CHCGILDTO6Y
MA6813400180,h_OCHCTP,13-L1-1,2019-02-01 13:00:00.0,SoPmdAve,3512.42,CHCGILDTO6Y
MA6813400180,h_OCHCTP,13-L1-1,2019-02-01 13:15:00.0,Qmin,9.18,CHCGILDTO6Y
MA6813400180,h_OCHCTP,13-L1-1,2019-02-01 13:15:00.0,PhaseCorrectionAve,2.39e-07,CHCGILDTO6Y
MA6813400180,h_OCHCTP,13-L1-1,2019-02-01 13:15:00.0,BerPreFecMax,0.002,CHCGILDTO6Y
MA6813400180,h_OCHCTP,13-L1-1,2019-02-01 13:15:00.0,PmdMin,1.14,CHCGILDTO6Y
MA6813400180,h_OCHCTP,13-L1-1,2019-02-01 13:15:00.0,SoPmdAve,3538.83,CHCGILDTO6Y
MA6813400180,h_OCHCTP,13-L1-1,2019-02-01 13:30:00.0,Qmin,9.21,CHCGILDTO6Y
MA6813400180,h_OCHCTP,13-L1-1,2019-02-01 13:30:00.0,PhaseCorrectionAve,2.39e-07,CHCGILDTO6Y
MA6813400180,h_OCHCTP,13-L1-1,2019-02-01 13:30:00.0,BerPreFecMax,0.00195,CHCGILDTO6Y
MA6813400180,h_OCHCTP,13-L1-1,2019-02-01 13:30:00.0,PmdMin,1.16,CHCGILDTO6Y
MA6813400180,h_OCHCTP,13-L1-1,2019-02-01 13:30:00.0,SoPmdAve,3597.03,CHCGILDTO6Y
MA6813400180,h_OCHCTP,13-L1-2,2019-02-01 13:00:00.0,Qmin,9.22,CHCGILDTO6Y
MA6813400180,h_OCHCTP,13-L1-2,2019-02-01 13:00:00.0,PhaseCorrectionAve,-0.061,CHCGILDTO6Y
MA6813400180,h_OCHCTP,13-L1-2,2019-02-01 13:00:00.0,BerPreFecMax,0.00193,CHCGILDTO6Y
MA6813400180,h_OCHCTP,13-L1-2,2019-02-01 13:00:00.0,PmdMin,1.36,CHCGILDTO6Y
MA6813400180,h_OCHCTP,13-L1-2,2019-02-01 13:00:00.0,SoPmdAve,3544.8,CHCGILDTO6Y
MA6813400180,h_OCHCTP,13-L1-2,2019-02-01 13:15:00.0,Qmin,9.13,CHCGILDTO6Y
MA6813400180,h_OCHCTP,13-L1-2,2019-02-01 13:15:00.0,PhaseCorrectionAve,3.92e-07,CHCGILDTO6Y
MA6813400180,h_OCHCTP,13-L1-2,2019-02-01 13:15:00.0,BerPreFecMax,0.00211,CHCGILDTO6Y
MA6813400180,h_OCHCTP,13-L1-2,2019-02-01 13:15:00.0,PmdMin,1.37,CHCGILDTO6Y
MA6813400180,h_OCHCTP,13-L1-2,2019-02-01 13:15:00.0,SoPmdAve,3537.97,CHCGILDTO6Y
MA6813400180,h_OCHCTP,13-L1-2,2019-02-01 13:30:00.0,Qmin,8.99,CHCGILDTO6Y
MA6813400180,h_OCHCTP,13-L1-2,2019-02-01 13:30:00.0,PhaseCorrectionAve,4.36e-07,CHCGILDTO6Y
MA6813400180,h_OCHCTP,13-L1-2,2019-02-01 13:30:00.0,BerPreFecMax,0.00243,CHCGILDTO6Y
MA6813400180,h_OCHCTP,13-L1-2,2019-02-01 13:30:00.0,PmdMin,1.35,CHCGILDTO6Y
MA6813400180,h_OCHCTP,13-L1-2,2019-02-01 13:30:00.0,SoPmdAve,3504.83,CHCGILDTO6Y
MA6813400180,h_OCHCTP,13-L1-3,2019-02-01 13:00:00.0,Qmin,9.04,CHCGILDTO6Y
MA6813400180,h_OCHCTP,13-L1-3,2019-02-01 13:00:00.0,PhaseCorrectionAve,-0.122,CHCGILDTO6Y
MA6813400180,h_OCHCTP,13-L1-3,2019-02-01 13:00:00.0,BerPreFecMax,0.00233,CHCGILDTO6Y
MA6813400180,h_OCHCTP,13-L1-3,2019-02-01 13:00:00.0,PmdMin,0.855,CHCGILDTO6Y
MA6813400180,h_OCHCTP,13-L1-3,2019-02-01 13:00:00.0,SoPmdAve,2863.36,CHCGILDTO6Y
MA6813400180,h_OCHCTP,13-L1-3,2019-02-01 13:15:00.0,Qmin,9.01,CHCGILDTO6Y
MA6813400180,h_OCHCTP,13-L1-3,2019-02-01 13:15:00.0,PhaseCorrectionAve,-0.061,CHCGILDTO6Y
MA6813400180,h_OCHCTP,13-L1-3,2019-02-01 13:15:00.0,BerPreFecMax,0.00238,CHCGILDTO6Y
MA6813400180,h_OCHCTP,13-L1-3,2019-02-01 13:15:00.0,PmdMin,1.0,CHCGILDTO6Y
MA6813400180,h_OCHCTP,13-L1-3,2019-02-01 13:15:00.0,SoPmdAve,2846.08,CHCGILDTO6Y
MA6813400180,h_OCHCTP,13-L1-3,2019-02-01 13:30:00.0,Qmin,8.99,CHCGILDTO6Y
MA6813400180,h_OCHCTP,13-L1-3,2019-02-01 13:30:00.0,PhaseCorrectionAve,4.47e-07,CHCGILDTO6Y
MA6813400180,h_OCHCTP,13-L1-3,2019-02-01 13:30:00.0,BerPreFecMax,0.00243,CHCGILDTO6Y
MA6813400180,h_OCHCTP,13-L1-3,2019-02-01 13:30:00.0,PmdMin,0.665,CHCGILDTO6Y
MA6813400180,h_OCHCTP,13-L1-3,2019-02-01 13:30:00.0,SoPmdAve,2838.54,CHCGILDTO6Y
MA6813400180,h_OCHCTP,13-L1-4,2019-02-01 13:00:00.0,Qmin,8.8,CHCGILDTO6Y
MA6813400180,h_OCHCTP,13-L1-4,2019-02-01 13:00:00.0,PhaseCorrectionAve,-0.122,CHCGILDTO6Y
MA6813400180,h_OCHCTP,13-L1-4,2019-02-01 13:00:00.0,BerPreFecMax,0.00294,CHCGILDTO6Y
MA6813400180,h_OCHCTP,13-L1-4,2019-02-01 13:00:00.0,PmdMin,0.606,CHCGILDTO6Y
MA6813400180,h_OCHCTP,13-L1-4,2019-02-01 13:00:00.0,SoPmdAve,3402.96,CHCGILDTO6Y
MA6813400180,h_OCHCTP,13-L1-4,2019-02-01 13:15:00.0,Qmin,8.86,CHCGILDTO6Y
MA6813400180,h_OCHCTP,13-L1-4,2019-02-01 13:15:00.0,PhaseCorrectionAve,-0.122,CHCGILDTO6Y
MA6813400180,h_OCHCTP,13-L1-4,2019-02-01 13:15:00.0,BerPreFecMax,0.00278,CHCGILDTO6Y
MA6813400180,h_OCHCTP,13-L1-4,2019-02-01 13:15:00.0,PmdMin,0.295,CHCGILDTO6Y
MA6813400180,h_OCHCTP,13-L1-4,2019-02-01 13:15:00.0,SoPmdAve,3304.16,CHCGILDTO6Y
MA6813400180,h_OCHCTP,13-L1-4,2019-02-01 13:30:00.0,Qmin,8.82,CHCGILDTO6Y
MA6813400180,h_OCHCTP,13-L1-4,2019-02-01 13:30:00.0,PhaseCorrectionAve,3.84e-07,CHCGILDTO6Y
MA6813400180,h_OCHCTP,13-L1-4,2019-02-01 13:30:00.0,BerPreFecMax,0.0029,CHCGILDTO6Y
MA6813400180,h_OCHCTP,13-L1-4,2019-02-01 13:30:00.0,PmdMin,0.929,CHCGILDTO6Y
MA6813400180,h_OCHCTP,13-L1-4,2019-02-01 13:30:00.0,SoPmdAve,3363.88,CHCGILDTO6Y
MA6813400180,h_OCHCTP,13-L1-5,2019-02-01 13:00:00.0,Qmin,8.78,CHCGILDTO6Y
MA6813400180,h_OCHCTP,13-L1-5,2019-02-01 13:00:00.0,PhaseCorrectionAve,-0.122,CHCGILDTO6Y
MA6813400180,h_OCHCTP,13-L1-5,2019-02-01 13:00:00.0,BerPreFecMax,0.003,CHCGILDTO6Y
MA6813400180,h_OCHCTP,13-L1-5,2019-02-01 13:00:00.0,PmdMin,0.906,CHCGILDTO6Y
MA6813400180,h_OCHCTP,13-L1-5,2019-02-01 13:00:00.0,SoPmdAve,2769.07,CHCGILDTO6Y
MA6813400180,h_OCHCTP,13-L1-5,2019-02-01 13:15:00.0,Qmin,8.84,CHCGILDTO6Y
MA6813400180,h_OCHCTP,13-L1-5,2019-02-01 13:15:00.0,PhaseCorrectionAve,-0.122,CHCGILDTO6Y
MA6813400180,h_OCHCTP,13-L1-5,2019-02-01 13:15:00.0,BerPreFecMax,0.00282,CHCGILDTO6Y
MA6813400180,h_OCHCTP,13-L1-5,2019-02-01 13:15:00.0,PmdMin,1.02,CHCGILDTO6Y
MA6813400180,h_OCHCTP,13-L1-5,2019-02-01 13:15:00.0,SoPmdAve,2853.52,CHCGILDTO6Y
MA6813400180,h_OCHCTP,13-L1-5,2019-02-01 13:30:00.0,Qmin,8.8,CHCGILDTO6Y
MA6813400180,h_OCHCTP,13-L1-5,2019-02-01 13:30:00.0,PhaseCorrectionAve,2.95e-07,CHCGILDTO6Y
MA6813400180,h_OCHCTP,13-L1-5,2019-02-01 13:30:00.0,BerPreFecMax,0.00295,CHCGILDTO6Y
MA6813400180,h_OCHCTP,13-L1-5,2019-02-01 13:30:00.0,PmdMin,1.13,CHCGILDTO6Y
MA6813400180,h_OCHCTP,13-L1-5,2019-02-01 13:30:00.0,SoPmdAve,2801.43,CHCGILDTO6Y
MA6813400180,h_OCHCTP,13-L1-6,2019-02-01 13:00:00.0,Qmin,8.81,CHCGILDTO6Y
MA6813400180,h_OCHCTP,13-L1-6,2019-02-01 13:00:00.0,PhaseCorrectionAve,-0.122,CHCGILDTO6Y
MA6813400180,h_OCHCTP,13-L1-6,2019-02-01 13:00:00.0,BerPreFecMax,0.00291,CHCGILDTO6Y
MA6813400180,h_OCHCTP,13-L1-6,2019-02-01 13:00:00.0,PmdMin,0.956,CHCGILDTO6Y
MA6813400180,h_OCHCTP,13-L1-6,2019-02-01 13:00:00.0,SoPmdAve,3090.15,CHCGILDTO6Y
MA6813400180,h_OCHCTP,13-L1-6,2019-02-01 13:15:00.0,Qmin,8.91,CHCGILDTO6Y
MA6813400180,h_OCHCTP,13-L1-6,2019-02-01 13:15:00.0,PhaseCorrectionAve,-0.122,CHCGILDTO6Y
MA6813400180,h_OCHCTP,13-L1-6,2019-02-01 13:15:00.0,BerPreFecMax,0.00264,CHCGILDTO6Y
MA6813400180,h_OCHCTP,13-L1-6,2019-02-01 13:15:00.0,PmdMin,0.771,CHCGILDTO6Y
MA6813400180,h_OCHCTP,13-L1-6,2019-02-01 13:15:00.0,SoPmdAve,3008.69,CHCGILDTO6Y
MA6813400180,h_OCHCTP,13-L1-6,2019-02-01 13:30:00.0,Qmin,8.87,CHCGILDTO6Y
MA6813400180,h_OCHCTP,13-L1-6,2019-02-01 13:30:00.0,PhaseCorrectionAve,4.81e-07,CHCGILDTO6Y
MA6813400180,h_OCHCTP,13-L1-6,2019-02-01 13:30:00.0,BerPreFecMax,0.00274,CHCGILDTO6Y
MA6813400180,h_OCHCTP,13-L1-6,2019-02-01 13:30:00.0,PmdMin,0.577,CHCGILDTO6Y
MA6813400180,h_OCHCTP,13-L1-6,2019-02-01 13:30:00.0,SoPmdAve,3066.9,CHCGILDTO6Y
MA6813400180,h_OCHCTP,13-L1-7,2019-02-01 13:00:00.0,Qmin,8.83,CHCGILDTO6Y
MA6813400180,h_OCHCTP,13-L1-7,2019-02-01 13:00:00.0,PhaseCorrectionAve,-0.122,CHCGILDTO6Y
MA6813400180,h_OCHCTP,13-L1-7,2019-02-01 13:00:00.0,BerPreFecMax,0.00287,CHCGILDTO6Y
MA6813400180,h_OCHCTP,13-L1-7,2019-02-01 13:00:00.0,PmdMin,1.06,CHCGILDTO6Y
MA6813400180,h_OCHCTP,13-L1-7,2019-02-01 13:00:00.0,SoPmdAve,3574.73,CHCGILDTO6Y
MA6813400180,h_OCHCTP,13-L1-7,2019-02-01 13:15:00.0,Qmin,8.86,CHCGILDTO6Y
MA6813400180,h_OCHCTP,13-L1-7,2019-02-01 13:15:00.0,PhaseCorrectionAve,-0.122,CHCGILDTO6Y
MA6813400180,h_OCHCTP,13-L1-7,2019-02-01 13:15:00.0,BerPreFecMax,0.00277,CHCGILDTO6Y
MA6813400180,h_OCHCTP,13-L1-7,2019-02-01 13:15:00.0,PmdMin,0.8,CHCGILDTO6Y
MA6813400180,h_OCHCTP,13-L1-7,2019-02-01 13:15:00.0,SoPmdAve,3869.46,CHCGILDTO6Y
MA6813400180,h_OCHCTP,13-L1-7,2019-02-01 13:30:00.0,Qmin,8.83,CHCGILDTO6Y
MA6813400180,h_OCHCTP,13-L1-7,2019-02-01 13:30:00.0,PhaseCorrectionAve,4.13e-07,CHCGILDTO6Y
MA6813400180,h_OCHCTP,13-L1-7,2019-02-01 13:30:00.0,BerPreFecMax,0.00285,CHCGILDTO6Y
MA6813400180,h_OCHCTP,13-L1-7,2019-02-01 13:30:00.0,PmdMin,0.928,CHCGILDTO6Y
MA6813400180,h_OCHCTP,13-L1-7,2019-02-01 13:30:00.0,SoPmdAve,3717.12,CHCGILDTO6Y
MA6813400180,h_OCHCTP,13-L1-8,2019-02-01 13:00:00.0,Qmin,8.86,CHCGILDTO6Y
MA6813400180,h_OCHCTP,13-L1-8,2019-02-01 13:00:00.0,PhaseCorrectionAve,-0.122,CHCGILDTO6Y
MA6813400180,h_OCHCTP,13-L1-8,2019-02-01 13:00:00.0,BerPreFecMax,0.00276,CHCGILDTO6Y
MA6813400180,h_OCHCTP,13-L1-8,2019-02-01 13:00:00.0,PmdMin,0.407,CHCGILDTO6Y
MA6813400180,h_OCHCTP,13-L1-8,2019-02-01 13:00:00.0,SoPmdAve,3765.04,CHCGILDTO6Y
MA6813400180,h_OCHCTP,13-L1-8,2019-02-01 13:15:00.0,Qmin,8.92,CHCGILDTO6Y
MA6813400180,h_OCHCTP,13-L1-8,2019-02-01 13:15:00.0,PhaseCorrectionAve,-0.122,CHCGILDTO6Y
MA6813400180,h_OCHCTP,13-L1-8,2019-02-01 13:15:00.0,BerPreFecMax,0.00261,CHCGILDTO6Y
MA6813400180,h_OCHCTP,13-L1-8,2019-02-01 13:15:00.0,PmdMin,0.541,CHCGILDTO6Y
MA6813400180,h_OCHCTP,13-L1-8,2019-02-01 13:15:00.0,SoPmdAve,3792.36,CHCGILDTO6Y
MA6813400180,h_OCHCTP,13-L1-8,2019-02-01 13:30:00.0,Qmin,8.91,CHCGILDTO6Y
MA6813400180,h_OCHCTP,13-L1-8,2019-02-01 13:30:00.0,PhaseCorrectionAve,-0.122,CHCGILDTO6Y
MA6813400180,h_OCHCTP,13-L1-8,2019-02-01 13:30:00.0,BerPreFecMax,0.00264,CHCGILDTO6Y
MA6813400180,h_OCHCTP,13-L1-8,2019-02-01 13:30:00.0,PmdMin,1.11,CHCGILDTO6Y
MA6813400180,h_OCHCTP,13-L1-8,2019-02-01 13:30:00.0,SoPmdAve,3776.12,CHCGILDTO6Y
MA6813400180,h_OCHCTP,13-L1-9,2019-02-01 13:00:00.0,Qmin,8.86,CHCGILDTO6Y
MA6813400180,h_OCHCTP,13-L1-9,2019-02-01 13:00:00.0,PhaseCorrectionAve,-0.183,CHCGILDTO6Y
MA6813400180,h_OCHCTP,13-L1-9,2019-02-01 13:00:00.0,BerPreFecMax,0.00278,CHCGILDTO6Y
MA6813400180,h_OCHCTP,13-L1-9,2019-02-01 13:00:00.0,PmdMin,0.941,CHCGILDTO6Y
MA6813400180,h_OCHCTP,13-L1-9,2019-02-01 13:00:00.0,SoPmdAve,3419.46,CHCGILDTO6Y
MA6813400180,h_OCHCTP,13-L1-9,2019-02-01 13:15:00.0,Qmin,8.83,CHCGILDTO6Y
MA6813400180,h_OCHCTP,13-L1-9,2019-02-01 13:15:00.0,PhaseCorrectionAve,-0.122,CHCGILDTO6Y
MA6813400180,h_OCHCTP,13-L1-9,2019-02-01 13:15:00.0,BerPreFecMax,0.00285,CHCGILDTO6Y
MA6813400180,h_OCHCTP,13-L1-9,2019-02-01 13:15:00.0,PmdMin,1.14,CHCGILDTO6Y
MA6813400180,h_OCHCTP,13-L1-9,2019-02-01 13:15:00.0,SoPmdAve,3513.98,CHCGILDTO6Y
MA6813400180,h_OCHCTP,13-L1-9,2019-02-01 13:30:00.0,Qmin,8.82,CHCGILDTO6Y
MA6813400180,h_OCHCTP,13-L1-9,2019-02-01 13:30:00.0,PhaseCorrectionAve,-0.122,CHCGILDTO6Y
MA6813400180,h_OCHCTP,13-L1-9,2019-02-01 13:30:00.0,BerPreFecMax,0.00287,CHCGILDTO6Y
MA6813400180,h_OCHCTP,13-L1-9,2019-02-01 13:30:00.0,PmdMin,1.34,CHCGILDTO6Y
MA6813400180,h_OCHCTP,13-L1-9,2019-02-01 13:30:00.0,SoPmdAve,3525.85,CHCGILDTO6Y
MA6813400180,h_OCHCTP,13-L1-10,2019-02-01 13:00:00.0,Qmin,8.78,CHCGILDTO6Y
MA6813400180,h_OCHCTP,13-L1-10,2019-02-01 13:00:00.0,PhaseCorrectionAve,-0.183,CHCGILDTO6Y
MA6813400180,h_OCHCTP,13-L1-10,2019-02-01 13:00:00.0,BerPreFecMax,0.00299,CHCGILDTO6Y
MA6813400180,h_OCHCTP,13-L1-10,2019-02-01 13:00:00.0,PmdMin,1.39,CHCGILDTO6Y
MA6813400180,h_OCHCTP,13-L1-10,2019-02-01 13:00:00.0,SoPmdAve,3829.16,CHCGILDTO6Y
MA6813400180,h_OCHCTP,13-L1-10,2019-02-01 13:15:00.0,Qmin,8.77,CHCGILDTO6Y
MA6813400180,h_OCHCTP,13-L1-10,2019-02-01 13:15:00.0,PhaseCorrectionAve,-0.183,CHCGILDTO6Y
MA6813400180,h_OCHCTP,13-L1-10,2019-02-01 13:15:00.0,BerPreFecMax,0.00302,CHCGILDTO6Y
MA6813400180,h_OCHCTP,13-L1-10,2019-02-01 13:15:00.0,PmdMin,0.507,CHCGILDTO6Y
MA6813400180,h_OCHCTP,13-L1-10,2019-02-01 13:15:00.0,SoPmdAve,3828.41,CHCGILDTO6Y
MA6813400180,h_OCHCTP,13-L1-10,2019-02-01 13:30:00.0,Qmin,8.74,CHCGILDTO6Y
MA6813400180,h_OCHCTP,13-L1-10,2019-02-01 13:30:00.0,PhaseCorrectionAve,-0.122,CHCGILDTO6Y
MA6813400180,h_OCHCTP,13-L1-10,2019-02-01 13:30:00.0,BerPreFecMax,0.0031,CHCGILDTO6Y
MA6813400180,h_OCHCTP,13-L1-10,2019-02-01 13:30:00.0,PmdMin,1.18,CHCGILDTO6Y
MA6813400180,h_OCHCTP,13-L1-10,2019-02-01 13:30:00.0,SoPmdAve,3721.9,CHCGILDTO6Y
MA6813400180,h_OCHCTP,10-L1-1,2019-02-01 12:45:00.0,Qmin,9.46,CHCGILDTO6Y
MA6813400180,h_OCHCTP,10-L1-1,2019-02-01 12:45:00.0,PhaseCorrectionAve,3.52e-07,CHCGILDTO6Y
MA6813400180,h_OCHCTP,10-L1-1,2019-02-01 12:45:00.0,BerPreFecMax,0.00148,CHCGILDTO6Y
MA6813400180,h_OCHCTP,10-L1-1,2019-02-01 12:45:00.0,PmdMin,4.53,CHCGILDTO6Y
MA6813400180,h_OCHCTP,10-L1-1,2019-02-01 12:45:00.0,SoPmdAve,3489.79,CHCGILDTO6Y
MA6813400180,h_OCHCTP,10-L1-2,2019-02-01 12:45:00.0,Qmin,9.16,CHCGILDTO6Y
MA6813400180,h_OCHCTP,10-L1-2,2019-02-01 12:45:00.0,PhaseCorrectionAve,-0.061,CHCGILDTO6Y
MA6813400180,h_OCHCTP,10-L1-2,2019-02-01 12:45:00.0,BerPreFecMax,0.00205,CHCGILDTO6Y
MA6813400180,h_OCHCTP,10-L1-2,2019-02-01 12:45:00.0,PmdMin,3.16,CHCGILDTO6Y
MA6813400180,h_OCHCTP,10-L1-2,2019-02-01 12:45:00.0,SoPmdAve,3374.33,CHCGILDTO6Y
MA6813400180,h_OCHCTP,10-L1-3,2019-02-01 12:45:00.0,Qmin,8.89,CHCGILDTO6Y
MA6813400180,h_OCHCTP,10-L1-3,2019-02-01 12:45:00.0,PhaseCorrectionAve,-0.061,CHCGILDTO6Y
MA6813400180,h_OCHCTP,10-L1-3,2019-02-01 12:45:00.0,BerPreFecMax,0.00269,CHCGILDTO6Y
MA6813400180,h_OCHCTP,10-L1-3,2019-02-01 12:45:00.0,PmdMin,4.31,CHCGILDTO6Y
MA6813400180,h_OCHCTP,10-L1-3,2019-02-01 12:45:00.0,SoPmdAve,2807.68,CHCGILDTO6Y
MA6813400180,h_OCHCTP,10-L1-4,2019-02-01 12:45:00.0,Qmin,8.25,CHCGILDTO6Y
MA6813400180,h_OCHCTP,10-L1-4,2019-02-01 12:45:00.0,PhaseCorrectionAve,-0.061,CHCGILDTO6Y
MA6813400180,h_OCHCTP,10-L1-4,2019-02-01 12:45:00.0,BerPreFecMax,0.00487,CHCGILDTO6Y
MA6813400180,h_OCHCTP,10-L1-4,2019-02-01 12:45:00.0,PmdMin,1.46,CHCGILDTO6Y
MA6813400180,h_OCHCTP,10-L1-4,2019-02-01 12:45:00.0,SoPmdAve,3041.92,CHCGILDTO6Y
MA6813400180,h_OCHCTP,10-L1-5,2019-02-01 12:45:00.0,Qmin,8.45,CHCGILDTO6Y
MA6813400180,h_OCHCTP,10-L1-5,2019-02-01 12:45:00.0,PhaseCorrectionAve,-0.122,CHCGILDTO6Y
MA6813400180,h_OCHCTP,10-L1-5,2019-02-01 12:45:00.0,BerPreFecMax,0.00409,CHCGILDTO6Y
MA6813400180,h_OCHCTP,10-L1-5,2019-02-01 12:45:00.0,PmdMin,1.67,CHCGILDTO6Y
MA6813400180,h_OCHCTP,10-L1-5,2019-02-01 12:45:00.0,SoPmdAve,2802.63,CHCGILDTO6Y
MA6813400180,h_OCHCTP,10-L1-6,2019-02-01 12:45:00.0,Qmin,8.64,CHCGILDTO6Y
MA6813400180,h_OCHCTP,10-L1-6,2019-02-01 12:45:00.0,PhaseCorrectionAve,-0.122,CHCGILDTO6Y
MA6813400180,h_OCHCTP,10-L1-6,2019-02-01 12:45:00.0,BerPreFecMax,0.00343,CHCGILDTO6Y
MA6813400180,h_OCHCTP,10-L1-6,2019-02-01 12:45:00.0,PmdMin,4.13,CHCGILDTO6Y
MA6813400180,h_OCHCTP,10-L1-6,2019-02-01 12:45:00.0,SoPmdAve,2661.87,CHCGILDTO6Y
MA6813400180,h_OCHCTP,10-L1-7,2019-02-01 12:45:00.0,Qmin,8.71,CHCGILDTO6Y
MA6813400180,h_OCHCTP,10-L1-7,2019-02-01 12:45:00.0,PhaseCorrectionAve,-0.183,CHCGILDTO6Y
MA6813400180,h_OCHCTP,10-L1-7,2019-02-01 12:45:00.0,BerPreFecMax,0.00321,CHCGILDTO6Y
MA6813400180,h_OCHCTP,10-L1-7,2019-02-01 12:45:00.0,PmdMin,1.36,CHCGILDTO6Y
MA6813400180,h_OCHCTP,10-L1-7,2019-02-01 12:45:00.0,SoPmdAve,3584.86,CHCGILDTO6Y
MA6813400180,h_OCHCTP,10-L1-8,2019-02-01 12:45:00.0,Qmin,9.26,CHCGILDTO6Y
MA6813400180,h_OCHCTP,10-L1-8,2019-02-01 12:45:00.0,PhaseCorrectionAve,-0.244,CHCGILDTO6Y
MA6813400180,h_OCHCTP,10-L1-8,2019-02-01 12:45:00.0,BerPreFecMax,0.00184,CHCGILDTO6Y
MA6813400180,h_OCHCTP,10-L1-8,2019-02-01 12:45:00.0,PmdMin,1.15,CHCGILDTO6Y
MA6813400180,h_OCHCTP,10-L1-8,2019-02-01 12:45:00.0,SoPmdAve,3333.21,CHCGILDTO6Y
MA6813400180,h_OCHCTP,10-L1-9,2019-02-01 12:45:00.0,Qmin,9.34,CHCGILDTO6Y
MA6813400180,h_OCHCTP,10-L1-9,2019-02-01 12:45:00.0,PhaseCorrectionAve,-0.244,CHCGILDTO6Y
MA6813400180,h_OCHCTP,10-L1-9,2019-02-01 12:45:00.0,BerPreFecMax,0.00169,CHCGILDTO6Y
MA6813400180,h_OCHCTP,10-L1-9,2019-02-01 12:45:00.0,PmdMin,2.15,CHCGILDTO6Y
MA6813400180,h_OCHCTP,10-L1-9,2019-02-01 12:45:00.0,SoPmdAve,3539.29,CHCGILDTO6Y
MA6813400180,h_OCHCTP,10-L1-10,2019-02-01 12:45:00.0,Qmin,9.32,CHCGILDTO6Y
MA6813400180,h_OCHCTP,10-L1-10,2019-02-01 12:45:00.0,PhaseCorrectionAve,-0.244,CHCGILDTO6Y
MA6813400180,h_OCHCTP,10-L1-10,2019-02-01 12:45:00.0,BerPreFecMax,0.00172,CHCGILDTO6Y
MA6813400180,h_OCHCTP,10-L1-10,2019-02-01 12:45:00.0,PmdMin,8.33,CHCGILDTO6Y
MA6813400180,h_OCHCTP,10-L1-10,2019-02-01 12:45:00.0,SoPmdAve,3354.38,CHCGILDTO6Y
MA6813400180,h_OCHCTP,11-L1-1,2019-02-01 12:45:00.0,Qmin,9.21,CHCGILDTO6Y
MA6813400180,h_OCHCTP,11-L1-1,2019-02-01 12:45:00.0,PhaseCorrectionAve,1.2e-07,CHCGILDTO6Y
MA6813400180,h_OCHCTP,11-L1-1,2019-02-01 12:45:00.0,BerPreFecMax,0.00194,CHCGILDTO6Y
MA6813400180,h_OCHCTP,11-L1-1,2019-02-01 12:45:00.0,PmdMin,0.561,CHCGILDTO6Y
MA6813400180,h_OCHCTP,11-L1-1,2019-02-01 12:45:00.0,SoPmdAve,3332.4,CHCGILDTO6Y
MA6813400180,h_OCHCTP,11-L1-2,2019-02-01 12:45:00.0,Qmin,9.13,CHCGILDTO6Y
MA6813400180,h_OCHCTP,11-L1-2,2019-02-01 12:45:00.0,PhaseCorrectionAve,-0.122,CHCGILDTO6Y
MA6813400180,h_OCHCTP,11-L1-2,2019-02-01 12:45:00.0,BerPreFecMax,0.00211,CHCGILDTO6Y
MA6813400180,h_OCHCTP,11-L1-2,2019-02-01 12:45:00.0,PmdMin,0.87,CHCGILDTO6Y
MA6813400180,h_OCHCTP,11-L1-2,2019-02-01 12:45:00.0,SoPmdAve,3172.71,CHCGILDTO6Y
MA6813400180,h_OCHCTP,11-L1-3,2019-02-01 12:45:00.0,Qmin,9.05,CHCGILDTO6Y
MA6813400180,h_OCHCTP,11-L1-3,2019-02-01 12:45:00.0,PhaseCorrectionAve,-0.122,CHCGILDTO6Y
MA6813400180,h_OCHCTP,11-L1-3,2019-02-01 12:45:00.0,BerPreFecMax,0.0023,CHCGILDTO6Y
MA6813400180,h_OCHCTP,11-L1-3,2019-02-01 12:45:00.0,PmdMin,0.582,CHCGILDTO6Y
MA6813400180,h_OCHCTP,11-L1-3,2019-02-01 12:45:00.0,SoPmdAve,2746.92,CHCGILDTO6Y
MA6813400180,h_OCHCTP,11-L1-4,2019-02-01 12:45:00.0,Qmin,8.81,CHCGILDTO6Y
MA6813400180,h_OCHCTP,11-L1-4,2019-02-01 12:45:00.0,PhaseCorrectionAve,-0.122,CHCGILDTO6Y
MA6813400180,h_OCHCTP,11-L1-4,2019-02-01 12:45:00.0,BerPreFecMax,0.0029,CHCGILDTO6Y
MA6813400180,h_OCHCTP,11-L1-4,2019-02-01 12:45:00.0,PmdMin,0.906,CHCGILDTO6Y
MA6813400180,h_OCHCTP,11-L1-4,2019-02-01 12:45:00.0,SoPmdAve,3106.18,CHCGILDTO6Y
MA6813400180,h_OCHCTP,11-L1-5,2019-02-01 12:45:00.0,Qmin,8.89,CHCGILDTO6Y
MA6813400180,h_OCHCTP,11-L1-5,2019-02-01 12:45:00.0,PhaseCorrectionAve,-0.122,CHCGILDTO6Y
MA6813400180,h_OCHCTP,11-L1-5,2019-02-01 12:45:00.0,BerPreFecMax,0.00269,CHCGILDTO6Y
MA6813400180,h_OCHCTP,11-L1-5,2019-02-01 12:45:00.0,PmdMin,0.322,CHCGILDTO6Y
MA6813400180,h_OCHCTP,11-L1-5,2019-02-01 12:45:00.0,SoPmdAve,2501.04,CHCGILDTO6Y
MA6813400180,h_OCHCTP,11-L1-6,2019-02-01 12:45:00.0,Qmin,8.84,CHCGILDTO6Y
MA6813400180,h_OCHCTP,11-L1-6,2019-02-01 12:45:00.0,PhaseCorrectionAve,-0.122,CHCGILDTO6Y
MA6813400180,h_OCHCTP,11-L1-6,2019-02-01 12:45:00.0,BerPreFecMax,0.00284,CHCGILDTO6Y
MA6813400180,h_OCHCTP,11-L1-6,2019-02-01 12:45:00.0,PmdMin,0.864,CHCGILDTO6Y
MA6813400180,h_OCHCTP,11-L1-6,2019-02-01 12:45:00.0,SoPmdAve,2483.91,CHCGILDTO6Y
MA6813400180,h_OCHCTP,11-L1-7,2019-02-01 12:45:00.0,Qmin,8.83,CHCGILDTO6Y
MA6813400180,h_OCHCTP,11-L1-7,2019-02-01 12:45:00.0,PhaseCorrectionAve,-0.183,CHCGILDTO6Y
MA6813400180,h_OCHCTP,11-L1-7,2019-02-01 12:45:00.0,BerPreFecMax,0.00285,CHCGILDTO6Y
MA6813400180,h_OCHCTP,11-L1-7,2019-02-01 12:45:00.0,PmdMin,1.76,CHCGILDTO6Y
MA6813400180,h_OCHCTP,11-L1-7,2019-02-01 12:45:00.0,SoPmdAve,3055.63,CHCGILDTO6Y
MA6813400180,h_OCHCTP,11-L1-8,2019-02-01 12:45:00.0,Qmin,9.01,CHCGILDTO6Y
MA6813400180,h_OCHCTP,11-L1-8,2019-02-01 12:45:00.0,PhaseCorrectionAve,-0.183,CHCGILDTO6Y
MA6813400180,h_OCHCTP,11-L1-8,2019-02-01 12:45:00.0,BerPreFecMax,0.00239,CHCGILDTO6Y
MA6813400180,h_OCHCTP,11-L1-8,2019-02-01 12:45:00.0,PmdMin,1.24,CHCGILDTO6Y
MA6813400180,h_OCHCTP,11-L1-8,2019-02-01 12:45:00.0,SoPmdAve,3056.59,CHCGILDTO6Y
MA6813400180,h_OCHCTP,11-L1-9,2019-02-01 12:45:00.0,Qmin,8.92,CHCGILDTO6Y
MA6813400180,h_OCHCTP,11-L1-9,2019-02-01 12:45:00.0,PhaseCorrectionAve,-0.244,CHCGILDTO6Y
MA6813400180,h_OCHCTP,11-L1-9,2019-02-01 12:45:00.0,BerPreFecMax,0.00262,CHCGILDTO6Y
MA6813400180,h_OCHCTP,11-L1-9,2019-02-01 12:45:00.0,PmdMin,0.615,CHCGILDTO6Y
MA6813400180,h_OCHCTP,11-L1-9,2019-02-01 12:45:00.0,SoPmdAve,2992.66,CHCGILDTO6Y
MA6813400180,h_OCHCTP,11-L1-10,2019-02-01 12:45:00.0,Qmin,9.03,CHCGILDTO6Y
MA6813400180,h_OCHCTP,11-L1-10,2019-02-01 12:45:00.0,PhaseCorrectionAve,-0.244,CHCGILDTO6Y
MA6813400180,h_OCHCTP,11-L1-10,2019-02-01 12:45:00.0,BerPreFecMax,0.00233,CHCGILDTO6Y
MA6813400180,h_OCHCTP,11-L1-10,2019-02-01 12:45:00.0,PmdMin,0.715,CHCGILDTO6Y
MA6813400180,h_OCHCTP,11-L1-10,2019-02-01 12:45:00.0,SoPmdAve,3105.2,CHCGILDTO6Y
MA6813400180,h_OCHCTP,13-L1-1,2019-02-01 12:45:00.0,Qmin,9.26,CHCGILDTO6Y
MA6813400180,h_OCHCTP,13-L1-1,2019-02-01 12:45:00.0,PhaseCorrectionAve,2.84e-07,CHCGILDTO6Y
MA6813400180,h_OCHCTP,13-L1-1,2019-02-01 12:45:00.0,BerPreFecMax,0.00184,CHCGILDTO6Y
MA6813400180,h_OCHCTP,13-L1-1,2019-02-01 12:45:00.0,PmdMin,0.313,CHCGILDTO6Y
MA6813400180,h_OCHCTP,13-L1-1,2019-02-01 12:45:00.0,SoPmdAve,3440.32,CHCGILDTO6Y
MA6813400180,h_OCHCTP,13-L1-2,2019-02-01 12:45:00.0,Qmin,9.25,CHCGILDTO6Y
MA6813400180,h_OCHCTP,13-L1-2,2019-02-01 12:45:00.0,PhaseCorrectionAve,-0.122,CHCGILDTO6Y
MA6813400180,h_OCHCTP,13-L1-2,2019-02-01 12:45:00.0,BerPreFecMax,0.00186,CHCGILDTO6Y
MA6813400180,h_OCHCTP,13-L1-2,2019-02-01 12:45:00.0,PmdMin,1.15,CHCGILDTO6Y
MA6813400180,h_OCHCTP,13-L1-2,2019-02-01 12:45:00.0,SoPmdAve,3474.56,CHCGILDTO6Y
MA6813400180,h_OCHCTP,13-L1-3,2019-02-01 12:45:00.0,Qmin,9.03,CHCGILDTO6Y
MA6813400180,h_OCHCTP,13-L1-3,2019-02-01 12:45:00.0,PhaseCorrectionAve,-0.122,CHCGILDTO6Y
MA6813400180,h_OCHCTP,13-L1-3,2019-02-01 12:45:00.0,BerPreFecMax,0.00233,CHCGILDTO6Y
MA6813400180,h_OCHCTP,13-L1-3,2019-02-01 12:45:00.0,PmdMin,1.13,CHCGILDTO6Y
MA6813400180,h_OCHCTP,13-L1-3,2019-02-01 12:45:00.0,SoPmdAve,2887.91,CHCGILDTO6Y
MA6813400180,h_OCHCTP,13-L1-4,2019-02-01 12:45:00.0,Qmin,8.75,CHCGILDTO6Y
MA6813400180,h_OCHCTP,13-L1-4,2019-02-01 12:45:00.0,PhaseCorrectionAve,-0.183,CHCGILDTO6Y
MA6813400180,h_OCHCTP,13-L1-4,2019-02-01 12:45:00.0,BerPreFecMax,0.00308,CHCGILDTO6Y
MA6813400180,h_OCHCTP,13-L1-4,2019-02-01 12:45:00.0,PmdMin,1.11,CHCGILDTO6Y
MA6813400180,h_OCHCTP,13-L1-4,2019-02-01 12:45:00.0,SoPmdAve,3377.0,CHCGILDTO6Y
MA6813400180,h_OCHCTP,13-L1-5,2019-02-01 12:45:00.0,Qmin,8.79,CHCGILDTO6Y
MA6813400180,h_OCHCTP,13-L1-5,2019-02-01 12:45:00.0,PhaseCorrectionAve,-0.244,CHCGILDTO6Y
MA6813400180,h_OCHCTP,13-L1-5,2019-02-01 12:45:00.0,BerPreFecMax,0.00297,CHCGILDTO6Y
MA6813400180,h_OCHCTP,13-L1-5,2019-02-01 12:45:00.0,PmdMin,0.881,CHCGILDTO6Y
MA6813400180,h_OCHCTP,13-L1-5,2019-02-01 12:45:00.0,SoPmdAve,2858.68,CHCGILDTO6Y
MA6813400180,h_OCHCTP,13-L1-6,2019-02-01 12:45:00.0,Qmin,8.84,CHCGILDTO6Y
MA6813400180,h_OCHCTP,13-L1-6,2019-02-01 12:45:00.0,PhaseCorrectionAve,-0.244,CHCGILDTO6Y
MA6813400180,h_OCHCTP,13-L1-6,2019-02-01 12:45:00.0,BerPreFecMax,0.00284,CHCGILDTO6Y
MA6813400180,h_OCHCTP,13-L1-6,2019-02-01 12:45:00.0,PmdMin,1.14,CHCGILDTO6Y
MA6813400180,h_OCHCTP,13-L1-6,2019-02-01 12:45:00.0,SoPmdAve,3089.34,CHCGILDTO6Y
MA6813400180,h_OCHCTP,13-L1-7,2019-02-01 12:45:00.0,Qmin,8.75,CHCGILDTO6Y
MA6813400180,h_OCHCTP,13-L1-7,2019-02-01 12:45:00.0,PhaseCorrectionAve,-0.305,CHCGILDTO6Y
MA6813400180,h_OCHCTP,13-L1-7,2019-02-01 12:45:00.0,BerPreFecMax,0.00309,CHCGILDTO6Y
MA6813400180,h_OCHCTP,13-L1-7,2019-02-01 12:45:00.0,PmdMin,1.06,CHCGILDTO6Y
MA6813400180,h_OCHCTP,13-L1-7,2019-02-01 12:45:00.0,SoPmdAve,3799.61,CHCGILDTO6Y
MA6813400180,h_OCHCTP,13-L1-8,2019-02-01 12:45:00.0,Qmin,8.88,CHCGILDTO6Y
MA6813400180,h_OCHCTP,13-L1-8,2019-02-01 12:45:00.0,PhaseCorrectionAve,-0.366,CHCGILDTO6Y
MA6813400180,h_OCHCTP,13-L1-8,2019-02-01 12:45:00.0,BerPreFecMax,0.00272,CHCGILDTO6Y
MA6813400180,h_OCHCTP,13-L1-8,2019-02-01 12:45:00.0,PmdMin,1.35,CHCGILDTO6Y
MA6813400180,h_OCHCTP,13-L1-8,2019-02-01 12:45:00.0,SoPmdAve,3809.63,CHCGILDTO6Y
MA6813400180,h_OCHCTP,13-L1-9,2019-02-01 12:45:00.0,Qmin,8.89,CHCGILDTO6Y
MA6813400180,h_OCHCTP,13-L1-9,2019-02-01 12:45:00.0,PhaseCorrectionAve,-0.366,CHCGILDTO6Y
MA6813400180,h_OCHCTP,13-L1-9,2019-02-01 12:45:00.0,BerPreFecMax,0.00269,CHCGILDTO6Y
MA6813400180,h_OCHCTP,13-L1-9,2019-02-01 12:45:00.0,PmdMin,1.34,CHCGILDTO6Y
MA6813400180,h_OCHCTP,13-L1-9,2019-02-01 12:45:00.0,SoPmdAve,3460.47,CHCGILDTO6Y
MA6813400180,h_OCHCTP,13-L1-10,2019-02-01 12:45:00.0,Qmin,8.76,CHCGILDTO6Y
MA6813400180,h_OCHCTP,13-L1-10,2019-02-01 12:45:00.0,PhaseCorrectionAve,-0.366,CHCGILDTO6Y
MA6813400180,h_OCHCTP,13-L1-10,2019-02-01 12:45:00.0,BerPreFecMax,0.00307,CHCGILDTO6Y
MA6813400180,h_OCHCTP,13-L1-10,2019-02-01 12:45:00.0,PmdMin,0.656,CHCGILDTO6Y
MA6813400180,h_OCHCTP,13-L1-10,2019-02-01 12:45:00.0,SoPmdAve,3908.65,CHCGILDTO6Y
