MA6813400180,h_OCHCTP,11-L1-1,2019-01-24 19:15:00.0,Qmin,9.14,CHCGILDTO6Y
MA6813400180,h_OCHCTP,11-L1-1,2019-01-24 19:15:00.0,PhaseCorrectionAve,1.3e-07,CHCGILDTO6Y
MA6813400180,h_OCHCTP,11-L1-1,2019-01-24 19:15:00.0,BerPreFecMax,0.00209,CHCGILDTO6Y
MA6813400180,h_OCHCTP,11-L1-1,2019-01-24 19:15:00.0,PmdMin,0.72,CHCGILDTO6Y
MA6813400180,h_OCHCTP,11-L1-1,2019-01-24 19:15:00.0,SoPmdAve,3321.83,CHCGILDTO6Y
MA6813400180,h_OCHCTP,11-L1-1,2019-01-24 19:30:00.0,Qmin,9.15,CHCGILDTO6Y
MA6813400180,h_OCHCTP,11-L1-1,2019-01-24 19:30:00.0,PhaseCorrectionAve,1.14e-07,CHCGILDTO6Y
MA6813400180,h_OCHCTP,11-L1-1,2019-01-24 19:30:00.0,BerPreFecMax,0.00207,CHCGILDTO6Y
MA6813400180,h_OCHCTP,11-L1-1,2019-01-24 19:30:00.0,PmdMin,0.886,CHCGILDTO6Y
MA6813400180,h_OCHCTP,11-L1-1,2019-01-24 19:30:00.0,SoPmdAve,3288.98,CHCGILDTO6Y
MA6813400180,h_OCHCTP,11-L1-1,2019-01-24 19:45:00.0,Qmin,9.21,CHCGILDTO6Y
MA6813400180,h_OCHCTP,11-L1-1,2019-01-24 19:45:00.0,PhaseCorrectionAve,1.02e-07,CHCGILDTO6Y
MA6813400180,h_OCHCTP,11-L1-1,2019-01-24 19:45:00.0,BerPreFecMax,0.00194,CHCGILDTO6Y
MA6813400180,h_OCHCTP,11-L1-1,2019-01-24 19:45:00.0,PmdMin,0.681,CHCGILDTO6Y
MA6813400180,h_OCHCTP,11-L1-1,2019-01-24 19:45:00.0,SoPmdAve,3373.54,CHCGILDTO6Y
MA6813400180,h_OCHCTP,11-L1-2,2019-01-24 19:15:00.0,Qmin,9.03,CHCGILDTO6Y
MA6813400180,h_OCHCTP,11-L1-2,2019-01-24 19:15:00.0,PhaseCorrectionAve,-0.061,CHCGILDTO6Y
MA6813400180,h_OCHCTP,11-L1-2,2019-01-24 19:15:00.0,BerPreFecMax,0.00233,CHCGILDTO6Y
MA6813400180,h_OCHCTP,11-L1-2,2019-01-24 19:15:00.0,PmdMin,0.959,CHCGILDTO6Y
MA6813400180,h_OCHCTP,11-L1-2,2019-01-24 19:15:00.0,SoPmdAve,3068.38,CHCGILDTO6Y
MA6813400180,h_OCHCTP,11-L1-2,2019-01-24 19:30:00.0,Qmin,9.09,CHCGILDTO6Y
MA6813400180,h_OCHCTP,11-L1-2,2019-01-24 19:30:00.0,PhaseCorrectionAve,3.59e-07,CHCGILDTO6Y
MA6813400180,h_OCHCTP,11-L1-2,2019-01-24 19:30:00.0,BerPreFecMax,0.00221,CHCGILDTO6Y
MA6813400180,h_OCHCTP,11-L1-2,2019-01-24 19:30:00.0,PmdMin,0.711,CHCGILDTO6Y
MA6813400180,h_OCHCTP,11-L1-2,2019-01-24 19:30:00.0,SoPmdAve,3153.61,CHCGILDTO6Y
MA6813400180,h_OCHCTP,11-L1-2,2019-01-24 19:45:00.0,Qmin,9.13,CHCGILDTO6Y
MA6813400180,h_OCHCTP,11-L1-2,2019-01-24 19:45:00.0,PhaseCorrectionAve,3.32e-07,CHCGILDTO6Y
MA6813400180,h_OCHCTP,11-L1-2,2019-01-24 19:45:00.0,BerPreFecMax,0.00212,CHCGILDTO6Y
MA6813400180,h_OCHCTP,11-L1-2,2019-01-24 19:45:00.0,PmdMin,0.85,CHCGILDTO6Y
MA6813400180,h_OCHCTP,11-L1-2,2019-01-24 19:45:00.0,SoPmdAve,3170.15,CHCGILDTO6Y
MA6813400180,h_OCHCTP,11-L1-3,2019-01-24 19:15:00.0,Qmin,8.94,CHCGILDTO6Y
MA6813400180,h_OCHCTP,11-L1-3,2019-01-24 19:15:00.0,PhaseCorrectionAve,-0.061,CHCGILDTO6Y
MA6813400180,h_OCHCTP,11-L1-3,2019-01-24 19:15:00.0,BerPreFecMax,0.00255,CHCGILDTO6Y
MA6813400180,h_OCHCTP,11-L1-3,2019-01-24 19:15:00.0,PmdMin,0.782,CHCGILDTO6Y
MA6813400180,h_OCHCTP,11-L1-3,2019-01-24 19:15:00.0,SoPmdAve,2710.39,CHCGILDTO6Y
MA6813400180,h_OCHCTP,11-L1-3,2019-01-24 19:30:00.0,Qmin,9.02,CHCGILDTO6Y
MA6813400180,h_OCHCTP,11-L1-3,2019-01-24 19:30:00.0,PhaseCorrectionAve,-0.061,CHCGILDTO6Y
MA6813400180,h_OCHCTP,11-L1-3,2019-01-24 19:30:00.0,BerPreFecMax,0.00237,CHCGILDTO6Y
MA6813400180,h_OCHCTP,11-L1-3,2019-01-24 19:30:00.0,PmdMin,0.378,CHCGILDTO6Y
MA6813400180,h_OCHCTP,11-L1-3,2019-01-24 19:30:00.0,SoPmdAve,2696.49,CHCGILDTO6Y
MA6813400180,h_OCHCTP,11-L1-3,2019-01-24 19:45:00.0,Qmin,8.99,CHCGILDTO6Y
MA6813400180,h_OCHCTP,11-L1-3,2019-01-24 19:45:00.0,PhaseCorrectionAve,3.25e-07,CHCGILDTO6Y
MA6813400180,h_OCHCTP,11-L1-3,2019-01-24 19:45:00.0,BerPreFecMax,0.00243,CHCGILDTO6Y
MA6813400180,h_OCHCTP,11-L1-3,2019-01-24 19:45:00.0,PmdMin,0.871,CHCGILDTO6Y
MA6813400180,h_OCHCTP,11-L1-3,2019-01-24 19:45:00.0,SoPmdAve,2727.61,CHCGILDTO6Y
MA6813400180,h_OCHCTP,11-L1-4,2019-01-24 19:15:00.0,Qmin,8.77,CHCGILDTO6Y
MA6813400180,h_OCHCTP,11-L1-4,2019-01-24 19:15:00.0,PhaseCorrectionAve,-0.061,CHCGILDTO6Y
MA6813400180,h_OCHCTP,11-L1-4,2019-01-24 19:15:00.0,BerPreFecMax,0.00303,CHCGILDTO6Y
MA6813400180,h_OCHCTP,11-L1-4,2019-01-24 19:15:00.0,PmdMin,0.519,CHCGILDTO6Y
MA6813400180,h_OCHCTP,11-L1-4,2019-01-24 19:15:00.0,SoPmdAve,2932.65,CHCGILDTO6Y
MA6813400180,h_OCHCTP,11-L1-4,2019-01-24 19:30:00.0,Qmin,8.87,CHCGILDTO6Y
MA6813400180,h_OCHCTP,11-L1-4,2019-01-24 19:30:00.0,PhaseCorrectionAve,-0.061,CHCGILDTO6Y
MA6813400180,h_OCHCTP,11-L1-4,2019-01-24 19:30:00.0,BerPreFecMax,0.00275,CHCGILDTO6Y
MA6813400180,h_OCHCTP,11-L1-4,2019-01-24 19:30:00.0,PmdMin,0.809,CHCGILDTO6Y
MA6813400180,h_OCHCTP,11-L1-4,2019-01-24 19:30:00.0,SoPmdAve,2940.82,CHCGILDTO6Y
MA6813400180,h_OCHCTP,11-L1-4,2019-01-24 19:45:00.0,Qmin,8.83,CHCGILDTO6Y
MA6813400180,h_OCHCTP,11-L1-4,2019-01-24 19:45:00.0,PhaseCorrectionAve,4e-07,CHCGILDTO6Y
MA6813400180,h_OCHCTP,11-L1-4,2019-01-24 19:45:00.0,BerPreFecMax,0.00285,CHCGILDTO6Y
MA6813400180,h_OCHCTP,11-L1-4,2019-01-24 19:45:00.0,PmdMin,0.708,CHCGILDTO6Y
MA6813400180,h_OCHCTP,11-L1-4,2019-01-24 19:45:00.0,SoPmdAve,2861.95,CHCGILDTO6Y
MA6813400180,h_OCHCTP,11-L1-5,2019-01-24 19:15:00.0,Qmin,8.91,CHCGILDTO6Y
MA6813400180,h_OCHCTP,11-L1-5,2019-01-24 19:15:00.0,PhaseCorrectionAve,-0.122,CHCGILDTO6Y
MA6813400180,h_OCHCTP,11-L1-5,2019-01-24 19:15:00.0,BerPreFecMax,0.00263,CHCGILDTO6Y
MA6813400180,h_OCHCTP,11-L1-5,2019-01-24 19:15:00.0,PmdMin,0.751,CHCGILDTO6Y
MA6813400180,h_OCHCTP,11-L1-5,2019-01-24 19:15:00.0,SoPmdAve,2545.75,CHCGILDTO6Y
MA6813400180,h_OCHCTP,11-L1-5,2019-01-24 19:30:00.0,Qmin,8.91,CHCGILDTO6Y
MA6813400180,h_OCHCTP,11-L1-5,2019-01-24 19:30:00.0,PhaseCorrectionAve,-0.061,CHCGILDTO6Y
MA6813400180,h_OCHCTP,11-L1-5,2019-01-24 19:30:00.0,BerPreFecMax,0.00263,CHCGILDTO6Y
MA6813400180,h_OCHCTP,11-L1-5,2019-01-24 19:30:00.0,PmdMin,1.11,CHCGILDTO6Y
MA6813400180,h_OCHCTP,11-L1-5,2019-01-24 19:30:00.0,SoPmdAve,2489.22,CHCGILDTO6Y
MA6813400180,h_OCHCTP,11-L1-5,2019-01-24 19:45:00.0,Qmin,8.95,CHCGILDTO6Y
MA6813400180,h_OCHCTP,11-L1-5,2019-01-24 19:45:00.0,PhaseCorrectionAve,1.41e-07,CHCGILDTO6Y
MA6813400180,h_OCHCTP,11-L1-5,2019-01-24 19:45:00.0,BerPreFecMax,0.00252,CHCGILDTO6Y
MA6813400180,h_OCHCTP,11-L1-5,2019-01-24 19:45:00.0,PmdMin,0.673,CHCGILDTO6Y
MA6813400180,h_OCHCTP,11-L1-5,2019-01-24 19:45:00.0,SoPmdAve,2462.92,CHCGILDTO6Y
MA6813400180,h_OCHCTP,11-L1-6,2019-01-24 19:15:00.0,Qmin,8.79,CHCGILDTO6Y
MA6813400180,h_OCHCTP,11-L1-6,2019-01-24 19:15:00.0,PhaseCorrectionAve,-0.122,CHCGILDTO6Y
MA6813400180,h_OCHCTP,11-L1-6,2019-01-24 19:15:00.0,BerPreFecMax,0.00296,CHCGILDTO6Y
MA6813400180,h_OCHCTP,11-L1-6,2019-01-24 19:15:00.0,PmdMin,0.873,CHCGILDTO6Y
MA6813400180,h_OCHCTP,11-L1-6,2019-01-24 19:15:00.0,SoPmdAve,2528.9,CHCGILDTO6Y
MA6813400180,h_OCHCTP,11-L1-6,2019-01-24 19:30:00.0,Qmin,8.77,CHCGILDTO6Y
MA6813400180,h_OCHCTP,11-L1-6,2019-01-24 19:30:00.0,PhaseCorrectionAve,-0.061,CHCGILDTO6Y
MA6813400180,h_OCHCTP,11-L1-6,2019-01-24 19:30:00.0,BerPreFecMax,0.00304,CHCGILDTO6Y
MA6813400180,h_OCHCTP,11-L1-6,2019-01-24 19:30:00.0,PmdMin,0.644,CHCGILDTO6Y
MA6813400180,h_OCHCTP,11-L1-6,2019-01-24 19:30:00.0,SoPmdAve,2490.4,CHCGILDTO6Y
MA6813400180,h_OCHCTP,11-L1-6,2019-01-24 19:45:00.0,Qmin,8.8,CHCGILDTO6Y
MA6813400180,h_OCHCTP,11-L1-6,2019-01-24 19:45:00.0,PhaseCorrectionAve,4.41e-07,CHCGILDTO6Y
MA6813400180,h_OCHCTP,11-L1-6,2019-01-24 19:45:00.0,BerPreFecMax,0.00294,CHCGILDTO6Y
MA6813400180,h_OCHCTP,11-L1-6,2019-01-24 19:45:00.0,PmdMin,0.652,CHCGILDTO6Y
MA6813400180,h_OCHCTP,11-L1-6,2019-01-24 19:45:00.0,SoPmdAve,2506.85,CHCGILDTO6Y
MA6813400180,h_OCHCTP,11-L1-7,2019-01-24 19:15:00.0,Qmin,8.85,CHCGILDTO6Y
MA6813400180,h_OCHCTP,11-L1-7,2019-01-24 19:15:00.0,PhaseCorrectionAve,-0.122,CHCGILDTO6Y
MA6813400180,h_OCHCTP,11-L1-7,2019-01-24 19:15:00.0,BerPreFecMax,0.00279,CHCGILDTO6Y
MA6813400180,h_OCHCTP,11-L1-7,2019-01-24 19:15:00.0,PmdMin,1.08,CHCGILDTO6Y
MA6813400180,h_OCHCTP,11-L1-7,2019-01-24 19:15:00.0,SoPmdAve,3070.59,CHCGILDTO6Y
MA6813400180,h_OCHCTP,11-L1-7,2019-01-24 19:30:00.0,Qmin,8.8,CHCGILDTO6Y
MA6813400180,h_OCHCTP,11-L1-7,2019-01-24 19:30:00.0,PhaseCorrectionAve,-0.061,CHCGILDTO6Y
MA6813400180,h_OCHCTP,11-L1-7,2019-01-24 19:30:00.0,BerPreFecMax,0.00294,CHCGILDTO6Y
MA6813400180,h_OCHCTP,11-L1-7,2019-01-24 19:30:00.0,PmdMin,0.569,CHCGILDTO6Y
MA6813400180,h_OCHCTP,11-L1-7,2019-01-24 19:30:00.0,SoPmdAve,2968.72,CHCGILDTO6Y
MA6813400180,h_OCHCTP,11-L1-7,2019-01-24 19:45:00.0,Qmin,8.82,CHCGILDTO6Y
MA6813400180,h_OCHCTP,11-L1-7,2019-01-24 19:45:00.0,PhaseCorrectionAve,2.93e-07,CHCGILDTO6Y
MA6813400180,h_OCHCTP,11-L1-7,2019-01-24 19:45:00.0,BerPreFecMax,0.00287,CHCGILDTO6Y
MA6813400180,h_OCHCTP,11-L1-7,2019-01-24 19:45:00.0,PmdMin,1.32,CHCGILDTO6Y
MA6813400180,h_OCHCTP,11-L1-7,2019-01-24 19:45:00.0,SoPmdAve,2947.83,CHCGILDTO6Y
MA6813400180,h_OCHCTP,11-L1-8,2019-01-24 19:15:00.0,Qmin,8.89,CHCGILDTO6Y
MA6813400180,h_OCHCTP,11-L1-8,2019-01-24 19:15:00.0,PhaseCorrectionAve,-0.122,CHCGILDTO6Y
MA6813400180,h_OCHCTP,11-L1-8,2019-01-24 19:15:00.0,BerPreFecMax,0.0027,CHCGILDTO6Y
MA6813400180,h_OCHCTP,11-L1-8,2019-01-24 19:15:00.0,PmdMin,1.22,CHCGILDTO6Y
MA6813400180,h_OCHCTP,11-L1-8,2019-01-24 19:15:00.0,SoPmdAve,3178.52,CHCGILDTO6Y
MA6813400180,h_OCHCTP,11-L1-8,2019-01-24 19:30:00.0,Qmin,8.91,CHCGILDTO6Y
MA6813400180,h_OCHCTP,11-L1-8,2019-01-24 19:30:00.0,PhaseCorrectionAve,-0.061,CHCGILDTO6Y
MA6813400180,h_OCHCTP,11-L1-8,2019-01-24 19:30:00.0,BerPreFecMax,0.00264,CHCGILDTO6Y
MA6813400180,h_OCHCTP,11-L1-8,2019-01-24 19:30:00.0,PmdMin,0.703,CHCGILDTO6Y
MA6813400180,h_OCHCTP,11-L1-8,2019-01-24 19:30:00.0,SoPmdAve,3181.29,CHCGILDTO6Y
MA6813400180,h_OCHCTP,11-L1-8,2019-01-24 19:45:00.0,Qmin,8.89,CHCGILDTO6Y
MA6813400180,h_OCHCTP,11-L1-8,2019-01-24 19:45:00.0,PhaseCorrectionAve,1.08e-06,CHCGILDTO6Y
MA6813400180,h_OCHCTP,11-L1-8,2019-01-24 19:45:00.0,BerPreFecMax,0.0027,CHCGILDTO6Y
MA6813400180,h_OCHCTP,11-L1-8,2019-01-24 19:45:00.0,PmdMin,0.571,CHCGILDTO6Y
MA6813400180,h_OCHCTP,11-L1-8,2019-01-24 19:45:00.0,SoPmdAve,3117.05,CHCGILDTO6Y
MA6813400180,h_OCHCTP,11-L1-9,2019-01-24 19:15:00.0,Qmin,8.82,CHCGILDTO6Y
MA6813400180,h_OCHCTP,11-L1-9,2019-01-24 19:15:00.0,PhaseCorrectionAve,-0.122,CHCGILDTO6Y
MA6813400180,h_OCHCTP,11-L1-9,2019-01-24 19:15:00.0,BerPreFecMax,0.00287,CHCGILDTO6Y
MA6813400180,h_OCHCTP,11-L1-9,2019-01-24 19:15:00.0,PmdMin,0.631,CHCGILDTO6Y
MA6813400180,h_OCHCTP,11-L1-9,2019-01-24 19:15:00.0,SoPmdAve,3064.04,CHCGILDTO6Y
MA6813400180,h_OCHCTP,11-L1-9,2019-01-24 19:30:00.0,Qmin,8.86,CHCGILDTO6Y
MA6813400180,h_OCHCTP,11-L1-9,2019-01-24 19:30:00.0,PhaseCorrectionAve,-0.061,CHCGILDTO6Y
MA6813400180,h_OCHCTP,11-L1-9,2019-01-24 19:30:00.0,BerPreFecMax,0.00277,CHCGILDTO6Y
MA6813400180,h_OCHCTP,11-L1-9,2019-01-24 19:30:00.0,PmdMin,0.805,CHCGILDTO6Y
MA6813400180,h_OCHCTP,11-L1-9,2019-01-24 19:30:00.0,SoPmdAve,3122.43,CHCGILDTO6Y
MA6813400180,h_OCHCTP,11-L1-9,2019-01-24 19:45:00.0,Qmin,8.87,CHCGILDTO6Y
MA6813400180,h_OCHCTP,11-L1-9,2019-01-24 19:45:00.0,PhaseCorrectionAve,1.77e-06,CHCGILDTO6Y
MA6813400180,h_OCHCTP,11-L1-9,2019-01-24 19:45:00.0,BerPreFecMax,0.00275,CHCGILDTO6Y
MA6813400180,h_OCHCTP,11-L1-9,2019-01-24 19:45:00.0,PmdMin,0.534,CHCGILDTO6Y
MA6813400180,h_OCHCTP,11-L1-9,2019-01-24 19:45:00.0,SoPmdAve,3075.65,CHCGILDTO6Y
MA6813400180,h_OCHCTP,11-L1-10,2019-01-24 19:15:00.0,Qmin,8.97,CHCGILDTO6Y
MA6813400180,h_OCHCTP,11-L1-10,2019-01-24 19:15:00.0,PhaseCorrectionAve,-0.122,CHCGILDTO6Y
MA6813400180,h_OCHCTP,11-L1-10,2019-01-24 19:15:00.0,BerPreFecMax,0.00248,CHCGILDTO6Y
MA6813400180,h_OCHCTP,11-L1-10,2019-01-24 19:15:00.0,PmdMin,1.0,CHCGILDTO6Y
MA6813400180,h_OCHCTP,11-L1-10,2019-01-24 19:15:00.0,SoPmdAve,3070.2,CHCGILDTO6Y
MA6813400180,h_OCHCTP,11-L1-10,2019-01-24 19:30:00.0,Qmin,8.99,CHCGILDTO6Y
MA6813400180,h_OCHCTP,11-L1-10,2019-01-24 19:30:00.0,PhaseCorrectionAve,-0.061,CHCGILDTO6Y
MA6813400180,h_OCHCTP,11-L1-10,2019-01-24 19:30:00.0,BerPreFecMax,0.00243,CHCGILDTO6Y
MA6813400180,h_OCHCTP,11-L1-10,2019-01-24 19:30:00.0,PmdMin,0.337,CHCGILDTO6Y
MA6813400180,h_OCHCTP,11-L1-10,2019-01-24 19:30:00.0,SoPmdAve,3084.05,CHCGILDTO6Y
MA6813400180,h_OCHCTP,11-L1-10,2019-01-24 19:45:00.0,Qmin,9.01,CHCGILDTO6Y
MA6813400180,h_OCHCTP,11-L1-10,2019-01-24 19:45:00.0,PhaseCorrectionAve,2.29e-06,CHCGILDTO6Y
MA6813400180,h_OCHCTP,11-L1-10,2019-01-24 19:45:00.0,BerPreFecMax,0.00239,CHCGILDTO6Y
MA6813400180,h_OCHCTP,11-L1-10,2019-01-24 19:45:00.0,PmdMin,0.894,CHCGILDTO6Y
MA6813400180,h_OCHCTP,11-L1-10,2019-01-24 19:45:00.0,SoPmdAve,3088.11,CHCGILDTO6Y
MA6813400180,h_OCHCTP,10-L1-1,2019-01-24 19:15:00.0,Qmin,9.47,CHCGILDTO6Y
MA6813400180,h_OCHCTP,10-L1-1,2019-01-24 19:15:00.0,PhaseCorrectionAve,4.48e-07,CHCGILDTO6Y
MA6813400180,h_OCHCTP,10-L1-1,2019-01-24 19:15:00.0,BerPreFecMax,0.00147,CHCGILDTO6Y
MA6813400180,h_OCHCTP,10-L1-1,2019-01-24 19:15:00.0,PmdMin,4.7,CHCGILDTO6Y
MA6813400180,h_OCHCTP,10-L1-1,2019-01-24 19:15:00.0,SoPmdAve,3288.61,CHCGILDTO6Y
MA6813400180,h_OCHCTP,10-L1-1,2019-01-24 19:30:00.0,Qmin,9.47,CHCGILDTO6Y
MA6813400180,h_OCHCTP,10-L1-1,2019-01-24 19:30:00.0,PhaseCorrectionAve,4.74e-07,CHCGILDTO6Y
MA6813400180,h_OCHCTP,10-L1-1,2019-01-24 19:30:00.0,BerPreFecMax,0.00147,CHCGILDTO6Y
MA6813400180,h_OCHCTP,10-L1-1,2019-01-24 19:30:00.0,PmdMin,4.49,CHCGILDTO6Y
MA6813400180,h_OCHCTP,10-L1-1,2019-01-24 19:30:00.0,SoPmdAve,3375.36,CHCGILDTO6Y
MA6813400180,h_OCHCTP,10-L1-1,2019-01-24 19:45:00.0,Qmin,9.46,CHCGILDTO6Y
MA6813400180,h_OCHCTP,10-L1-1,2019-01-24 19:45:00.0,PhaseCorrectionAve,4.71e-07,CHCGILDTO6Y
MA6813400180,h_OCHCTP,10-L1-1,2019-01-24 19:45:00.0,BerPreFecMax,0.00147,CHCGILDTO6Y
MA6813400180,h_OCHCTP,10-L1-1,2019-01-24 19:45:00.0,PmdMin,2.91,CHCGILDTO6Y
MA6813400180,h_OCHCTP,10-L1-1,2019-01-24 19:45:00.0,SoPmdAve,3397.16,CHCGILDTO6Y
MA6813400180,h_OCHCTP,10-L1-2,2019-01-24 19:15:00.0,Qmin,9.15,CHCGILDTO6Y
MA6813400180,h_OCHCTP,10-L1-2,2019-01-24 19:15:00.0,PhaseCorrectionAve,-0.061,CHCGILDTO6Y
MA6813400180,h_OCHCTP,10-L1-2,2019-01-24 19:15:00.0,BerPreFecMax,0.00206,CHCGILDTO6Y
MA6813400180,h_OCHCTP,10-L1-2,2019-01-24 19:15:00.0,PmdMin,0.498,CHCGILDTO6Y
MA6813400180,h_OCHCTP,10-L1-2,2019-01-24 19:15:00.0,SoPmdAve,3364.87,CHCGILDTO6Y
MA6813400180,h_OCHCTP,10-L1-2,2019-01-24 19:30:00.0,Qmin,9.16,CHCGILDTO6Y
MA6813400180,h_OCHCTP,10-L1-2,2019-01-24 19:30:00.0,PhaseCorrectionAve,3.81e-07,CHCGILDTO6Y
MA6813400180,h_OCHCTP,10-L1-2,2019-01-24 19:30:00.0,BerPreFecMax,0.00205,CHCGILDTO6Y
MA6813400180,h_OCHCTP,10-L1-2,2019-01-24 19:30:00.0,PmdMin,1.41,CHCGILDTO6Y
MA6813400180,h_OCHCTP,10-L1-2,2019-01-24 19:30:00.0,SoPmdAve,3351.35,CHCGILDTO6Y
MA6813400180,h_OCHCTP,10-L1-2,2019-01-24 19:45:00.0,Qmin,9.15,CHCGILDTO6Y
MA6813400180,h_OCHCTP,10-L1-2,2019-01-24 19:45:00.0,PhaseCorrectionAve,-0.061,CHCGILDTO6Y
MA6813400180,h_OCHCTP,10-L1-2,2019-01-24 19:45:00.0,BerPreFecMax,0.00206,CHCGILDTO6Y
MA6813400180,h_OCHCTP,10-L1-2,2019-01-24 19:45:00.0,PmdMin,1.86,CHCGILDTO6Y
MA6813400180,h_OCHCTP,10-L1-2,2019-01-24 19:45:00.0,SoPmdAve,3476.08,CHCGILDTO6Y
MA6813400180,h_OCHCTP,10-L1-3,2019-01-24 19:15:00.0,Qmin,8.91,CHCGILDTO6Y
MA6813400180,h_OCHCTP,10-L1-3,2019-01-24 19:15:00.0,PhaseCorrectionAve,-0.061,CHCGILDTO6Y
MA6813400180,h_OCHCTP,10-L1-3,2019-01-24 19:15:00.0,BerPreFecMax,0.00265,CHCGILDTO6Y
MA6813400180,h_OCHCTP,10-L1-3,2019-01-24 19:15:00.0,PmdMin,3.81,CHCGILDTO6Y
MA6813400180,h_OCHCTP,10-L1-3,2019-01-24 19:15:00.0,SoPmdAve,2798.07,CHCGILDTO6Y
MA6813400180,h_OCHCTP,10-L1-3,2019-01-24 19:30:00.0,Qmin,8.92,CHCGILDTO6Y
MA6813400180,h_OCHCTP,10-L1-3,2019-01-24 19:30:00.0,PhaseCorrectionAve,5.47e-07,CHCGILDTO6Y
MA6813400180,h_OCHCTP,10-L1-3,2019-01-24 19:30:00.0,BerPreFecMax,0.00261,CHCGILDTO6Y
MA6813400180,h_OCHCTP,10-L1-3,2019-01-24 19:30:00.0,PmdMin,3.29,CHCGILDTO6Y
MA6813400180,h_OCHCTP,10-L1-3,2019-01-24 19:30:00.0,SoPmdAve,2850.73,CHCGILDTO6Y
MA6813400180,h_OCHCTP,10-L1-3,2019-01-24 19:45:00.0,Qmin,8.92,CHCGILDTO6Y
MA6813400180,h_OCHCTP,10-L1-3,2019-01-24 19:45:00.0,PhaseCorrectionAve,-0.061,CHCGILDTO6Y
MA6813400180,h_OCHCTP,10-L1-3,2019-01-24 19:45:00.0,BerPreFecMax,0.00262,CHCGILDTO6Y
MA6813400180,h_OCHCTP,10-L1-3,2019-01-24 19:45:00.0,PmdMin,2.88,CHCGILDTO6Y
MA6813400180,h_OCHCTP,10-L1-3,2019-01-24 19:45:00.0,SoPmdAve,2804.38,CHCGILDTO6Y
MA6813400180,h_OCHCTP,10-L1-4,2019-01-24 19:15:00.0,Qmin,8.33,CHCGILDTO6Y
MA6813400180,h_OCHCTP,10-L1-4,2019-01-24 19:15:00.0,PhaseCorrectionAve,-0.061,CHCGILDTO6Y
MA6813400180,h_OCHCTP,10-L1-4,2019-01-24 19:15:00.0,BerPreFecMax,0.00453,CHCGILDTO6Y
MA6813400180,h_OCHCTP,10-L1-4,2019-01-24 19:15:00.0,PmdMin,1.66,CHCGILDTO6Y
MA6813400180,h_OCHCTP,10-L1-4,2019-01-24 19:15:00.0,SoPmdAve,3092.24,CHCGILDTO6Y
MA6813400180,h_OCHCTP,10-L1-4,2019-01-24 19:30:00.0,Qmin,8.33,CHCGILDTO6Y
MA6813400180,h_OCHCTP,10-L1-4,2019-01-24 19:30:00.0,PhaseCorrectionAve,2.65e-06,CHCGILDTO6Y
MA6813400180,h_OCHCTP,10-L1-4,2019-01-24 19:30:00.0,BerPreFecMax,0.00452,CHCGILDTO6Y
MA6813400180,h_OCHCTP,10-L1-4,2019-01-24 19:30:00.0,PmdMin,3.42,CHCGILDTO6Y
MA6813400180,h_OCHCTP,10-L1-4,2019-01-24 19:30:00.0,SoPmdAve,3064.64,CHCGILDTO6Y
MA6813400180,h_OCHCTP,10-L1-4,2019-01-24 19:45:00.0,Qmin,8.35,CHCGILDTO6Y
MA6813400180,h_OCHCTP,10-L1-4,2019-01-24 19:45:00.0,PhaseCorrectionAve,-0.061,CHCGILDTO6Y
MA6813400180,h_OCHCTP,10-L1-4,2019-01-24 19:45:00.0,BerPreFecMax,0.00445,CHCGILDTO6Y
MA6813400180,h_OCHCTP,10-L1-4,2019-01-24 19:45:00.0,PmdMin,3.45,CHCGILDTO6Y
MA6813400180,h_OCHCTP,10-L1-4,2019-01-24 19:45:00.0,SoPmdAve,3036.11,CHCGILDTO6Y
MA6813400180,h_OCHCTP,10-L1-5,2019-01-24 19:15:00.0,Qmin,8.53,CHCGILDTO6Y
MA6813400180,h_OCHCTP,10-L1-5,2019-01-24 19:15:00.0,PhaseCorrectionAve,-0.061,CHCGILDTO6Y
MA6813400180,h_OCHCTP,10-L1-5,2019-01-24 19:15:00.0,BerPreFecMax,0.00379,CHCGILDTO6Y
MA6813400180,h_OCHCTP,10-L1-5,2019-01-24 19:15:00.0,PmdMin,1.18,CHCGILDTO6Y
MA6813400180,h_OCHCTP,10-L1-5,2019-01-24 19:15:00.0,SoPmdAve,2870.83,CHCGILDTO6Y
MA6813400180,h_OCHCTP,10-L1-5,2019-01-24 19:30:00.0,Qmin,8.53,CHCGILDTO6Y
MA6813400180,h_OCHCTP,10-L1-5,2019-01-24 19:30:00.0,PhaseCorrectionAve,1.35e-06,CHCGILDTO6Y
MA6813400180,h_OCHCTP,10-L1-5,2019-01-24 19:30:00.0,BerPreFecMax,0.00379,CHCGILDTO6Y
MA6813400180,h_OCHCTP,10-L1-5,2019-01-24 19:30:00.0,PmdMin,1.5,CHCGILDTO6Y
MA6813400180,h_OCHCTP,10-L1-5,2019-01-24 19:30:00.0,SoPmdAve,2825.7,CHCGILDTO6Y
MA6813400180,h_OCHCTP,10-L1-5,2019-01-24 19:45:00.0,Qmin,8.55,CHCGILDTO6Y
MA6813400180,h_OCHCTP,10-L1-5,2019-01-24 19:45:00.0,PhaseCorrectionAve,-0.061,CHCGILDTO6Y
MA6813400180,h_OCHCTP,10-L1-5,2019-01-24 19:45:00.0,BerPreFecMax,0.00374,CHCGILDTO6Y
MA6813400180,h_OCHCTP,10-L1-5,2019-01-24 19:45:00.0,PmdMin,1.5,CHCGILDTO6Y
MA6813400180,h_OCHCTP,10-L1-5,2019-01-24 19:45:00.0,SoPmdAve,2885.21,CHCGILDTO6Y
MA6813400180,h_OCHCTP,10-L1-6,2019-01-24 19:15:00.0,Qmin,8.74,CHCGILDTO6Y
MA6813400180,h_OCHCTP,10-L1-6,2019-01-24 19:15:00.0,PhaseCorrectionAve,-0.061,CHCGILDTO6Y
MA6813400180,h_OCHCTP,10-L1-6,2019-01-24 19:15:00.0,BerPreFecMax,0.0031,CHCGILDTO6Y
MA6813400180,h_OCHCTP,10-L1-6,2019-01-24 19:15:00.0,PmdMin,2.37,CHCGILDTO6Y
MA6813400180,h_OCHCTP,10-L1-6,2019-01-24 19:15:00.0,SoPmdAve,2769.91,CHCGILDTO6Y
MA6813400180,h_OCHCTP,10-L1-6,2019-01-24 19:30:00.0,Qmin,8.74,CHCGILDTO6Y
MA6813400180,h_OCHCTP,10-L1-6,2019-01-24 19:30:00.0,PhaseCorrectionAve,9.13e-07,CHCGILDTO6Y
MA6813400180,h_OCHCTP,10-L1-6,2019-01-24 19:30:00.0,BerPreFecMax,0.0031,CHCGILDTO6Y
MA6813400180,h_OCHCTP,10-L1-6,2019-01-24 19:30:00.0,PmdMin,2.15,CHCGILDTO6Y
MA6813400180,h_OCHCTP,10-L1-6,2019-01-24 19:30:00.0,SoPmdAve,2800.27,CHCGILDTO6Y
MA6813400180,h_OCHCTP,10-L1-6,2019-01-24 19:45:00.0,Qmin,8.76,CHCGILDTO6Y
MA6813400180,h_OCHCTP,10-L1-6,2019-01-24 19:45:00.0,PhaseCorrectionAve,-0.061,CHCGILDTO6Y
MA6813400180,h_OCHCTP,10-L1-6,2019-01-24 19:45:00.0,BerPreFecMax,0.00305,CHCGILDTO6Y
MA6813400180,h_OCHCTP,10-L1-6,2019-01-24 19:45:00.0,PmdMin,2.44,CHCGILDTO6Y
MA6813400180,h_OCHCTP,10-L1-6,2019-01-24 19:45:00.0,SoPmdAve,2800.03,CHCGILDTO6Y
MA6813400180,h_OCHCTP,10-L1-7,2019-01-24 19:15:00.0,Qmin,8.84,CHCGILDTO6Y
MA6813400180,h_OCHCTP,10-L1-7,2019-01-24 19:15:00.0,PhaseCorrectionAve,-0.061,CHCGILDTO6Y
MA6813400180,h_OCHCTP,10-L1-7,2019-01-24 19:15:00.0,BerPreFecMax,0.00282,CHCGILDTO6Y
MA6813400180,h_OCHCTP,10-L1-7,2019-01-24 19:15:00.0,PmdMin,2.46,CHCGILDTO6Y
MA6813400180,h_OCHCTP,10-L1-7,2019-01-24 19:15:00.0,SoPmdAve,3365.53,CHCGILDTO6Y
MA6813400180,h_OCHCTP,10-L1-7,2019-01-24 19:30:00.0,Qmin,8.83,CHCGILDTO6Y
MA6813400180,h_OCHCTP,10-L1-7,2019-01-24 19:30:00.0,PhaseCorrectionAve,5.93e-07,CHCGILDTO6Y
MA6813400180,h_OCHCTP,10-L1-7,2019-01-24 19:30:00.0,BerPreFecMax,0.00285,CHCGILDTO6Y
MA6813400180,h_OCHCTP,10-L1-7,2019-01-24 19:30:00.0,PmdMin,1.78,CHCGILDTO6Y
MA6813400180,h_OCHCTP,10-L1-7,2019-01-24 19:30:00.0,SoPmdAve,3403.62,CHCGILDTO6Y
MA6813400180,h_OCHCTP,10-L1-7,2019-01-24 19:45:00.0,Qmin,8.84,CHCGILDTO6Y
MA6813400180,h_OCHCTP,10-L1-7,2019-01-24 19:45:00.0,PhaseCorrectionAve,-0.122,CHCGILDTO6Y
MA6813400180,h_OCHCTP,10-L1-7,2019-01-24 19:45:00.0,BerPreFecMax,0.00282,CHCGILDTO6Y
MA6813400180,h_OCHCTP,10-L1-7,2019-01-24 19:45:00.0,PmdMin,2.78,CHCGILDTO6Y
MA6813400180,h_OCHCTP,10-L1-7,2019-01-24 19:45:00.0,SoPmdAve,3459.07,CHCGILDTO6Y
MA6813400180,h_OCHCTP,10-L1-8,2019-01-24 19:15:00.0,Qmin,9.31,CHCGILDTO6Y
MA6813400180,h_OCHCTP,10-L1-8,2019-01-24 19:15:00.0,PhaseCorrectionAve,-0.061,CHCGILDTO6Y
MA6813400180,h_OCHCTP,10-L1-8,2019-01-24 19:15:00.0,BerPreFecMax,0.00174,CHCGILDTO6Y
MA6813400180,h_OCHCTP,10-L1-8,2019-01-24 19:15:00.0,PmdMin,1.43,CHCGILDTO6Y
MA6813400180,h_OCHCTP,10-L1-8,2019-01-24 19:15:00.0,SoPmdAve,3528.47,CHCGILDTO6Y
MA6813400180,h_OCHCTP,10-L1-8,2019-01-24 19:30:00.0,Qmin,9.32,CHCGILDTO6Y
MA6813400180,h_OCHCTP,10-L1-8,2019-01-24 19:30:00.0,PhaseCorrectionAve,1.19e-06,CHCGILDTO6Y
MA6813400180,h_OCHCTP,10-L1-8,2019-01-24 19:30:00.0,BerPreFecMax,0.00173,CHCGILDTO6Y
MA6813400180,h_OCHCTP,10-L1-8,2019-01-24 19:30:00.0,PmdMin,1.38,CHCGILDTO6Y
MA6813400180,h_OCHCTP,10-L1-8,2019-01-24 19:30:00.0,SoPmdAve,3434.33,CHCGILDTO6Y
MA6813400180,h_OCHCTP,10-L1-8,2019-01-24 19:45:00.0,Qmin,9.32,CHCGILDTO6Y
MA6813400180,h_OCHCTP,10-L1-8,2019-01-24 19:45:00.0,PhaseCorrectionAve,-0.122,CHCGILDTO6Y
MA6813400180,h_OCHCTP,10-L1-8,2019-01-24 19:45:00.0,BerPreFecMax,0.00173,CHCGILDTO6Y
MA6813400180,h_OCHCTP,10-L1-8,2019-01-24 19:45:00.0,PmdMin,0.613,CHCGILDTO6Y
MA6813400180,h_OCHCTP,10-L1-8,2019-01-24 19:45:00.0,SoPmdAve,3584.99,CHCGILDTO6Y
MA6813400180,h_OCHCTP,10-L1-9,2019-01-24 19:15:00.0,Qmin,9.34,CHCGILDTO6Y
MA6813400180,h_OCHCTP,10-L1-9,2019-01-24 19:15:00.0,PhaseCorrectionAve,-0.122,CHCGILDTO6Y
MA6813400180,h_OCHCTP,10-L1-9,2019-01-24 19:15:00.0,BerPreFecMax,0.00169,CHCGILDTO6Y
MA6813400180,h_OCHCTP,10-L1-9,2019-01-24 19:15:00.0,PmdMin,1.91,CHCGILDTO6Y
MA6813400180,h_OCHCTP,10-L1-9,2019-01-24 19:15:00.0,SoPmdAve,3441.11,CHCGILDTO6Y
MA6813400180,h_OCHCTP,10-L1-9,2019-01-24 19:30:00.0,Qmin,9.34,CHCGILDTO6Y
MA6813400180,h_OCHCTP,10-L1-9,2019-01-24 19:30:00.0,PhaseCorrectionAve,1.93e-06,CHCGILDTO6Y
MA6813400180,h_OCHCTP,10-L1-9,2019-01-24 19:30:00.0,BerPreFecMax,0.00169,CHCGILDTO6Y
MA6813400180,h_OCHCTP,10-L1-9,2019-01-24 19:30:00.0,PmdMin,2.48,CHCGILDTO6Y
MA6813400180,h_OCHCTP,10-L1-9,2019-01-24 19:30:00.0,SoPmdAve,3390.28,CHCGILDTO6Y
MA6813400180,h_OCHCTP,10-L1-9,2019-01-24 19:45:00.0,Qmin,9.32,CHCGILDTO6Y
MA6813400180,h_OCHCTP,10-L1-9,2019-01-24 19:45:00.0,PhaseCorrectionAve,-0.122,CHCGILDTO6Y
MA6813400180,h_OCHCTP,10-L1-9,2019-01-24 19:45:00.0,BerPreFecMax,0.00172,CHCGILDTO6Y
MA6813400180,h_OCHCTP,10-L1-9,2019-01-24 19:45:00.0,PmdMin,2.53,CHCGILDTO6Y
MA6813400180,h_OCHCTP,10-L1-9,2019-01-24 19:45:00.0,SoPmdAve,3426.81,CHCGILDTO6Y
MA6813400180,h_OCHCTP,10-L1-10,2019-01-24 19:15:00.0,Qmin,9.36,CHCGILDTO6Y
MA6813400180,h_OCHCTP,10-L1-10,2019-01-24 19:15:00.0,PhaseCorrectionAve,-0.122,CHCGILDTO6Y
MA6813400180,h_OCHCTP,10-L1-10,2019-01-24 19:15:00.0,BerPreFecMax,0.00164,CHCGILDTO6Y
MA6813400180,h_OCHCTP,10-L1-10,2019-01-24 19:15:00.0,PmdMin,5.6,CHCGILDTO6Y
MA6813400180,h_OCHCTP,10-L1-10,2019-01-24 19:15:00.0,SoPmdAve,3295.2,CHCGILDTO6Y
MA6813400180,h_OCHCTP,10-L1-10,2019-01-24 19:30:00.0,Qmin,9.36,CHCGILDTO6Y
MA6813400180,h_OCHCTP,10-L1-10,2019-01-24 19:30:00.0,PhaseCorrectionAve,1.35e-06,CHCGILDTO6Y
MA6813400180,h_OCHCTP,10-L1-10,2019-01-24 19:30:00.0,BerPreFecMax,0.00165,CHCGILDTO6Y
MA6813400180,h_OCHCTP,10-L1-10,2019-01-24 19:30:00.0,PmdMin,4.65,CHCGILDTO6Y
MA6813400180,h_OCHCTP,10-L1-10,2019-01-24 19:30:00.0,SoPmdAve,3273.82,CHCGILDTO6Y
MA6813400180,h_OCHCTP,10-L1-10,2019-01-24 19:45:00.0,Qmin,9.36,CHCGILDTO6Y
MA6813400180,h_OCHCTP,10-L1-10,2019-01-24 19:45:00.0,PhaseCorrectionAve,-0.122,CHCGILDTO6Y
MA6813400180,h_OCHCTP,10-L1-10,2019-01-24 19:45:00.0,BerPreFecMax,0.00165,CHCGILDTO6Y
MA6813400180,h_OCHCTP,10-L1-10,2019-01-24 19:45:00.0,PmdMin,2.91,CHCGILDTO6Y
MA6813400180,h_OCHCTP,10-L1-10,2019-01-24 19:45:00.0,SoPmdAve,3285.53,CHCGILDTO6Y
MA6813400180,h_OCHCTP,13-L1-1,2019-01-24 19:15:00.0,Qmin,9.15,CHCGILDTO6Y
MA6813400180,h_OCHCTP,13-L1-1,2019-01-24 19:15:00.0,PhaseCorrectionAve,2.44e-07,CHCGILDTO6Y
MA6813400180,h_OCHCTP,13-L1-1,2019-01-24 19:15:00.0,BerPreFecMax,0.00208,CHCGILDTO6Y
MA6813400180,h_OCHCTP,13-L1-1,2019-01-24 19:15:00.0,PmdMin,0.326,CHCGILDTO6Y
MA6813400180,h_OCHCTP,13-L1-1,2019-01-24 19:15:00.0,SoPmdAve,3440.75,CHCGILDTO6Y
MA6813400180,h_OCHCTP,13-L1-1,2019-01-24 19:30:00.0,Qmin,9.16,CHCGILDTO6Y
MA6813400180,h_OCHCTP,13-L1-1,2019-01-24 19:30:00.0,PhaseCorrectionAve,2.15e-07,CHCGILDTO6Y
MA6813400180,h_OCHCTP,13-L1-1,2019-01-24 19:30:00.0,BerPreFecMax,0.00205,CHCGILDTO6Y
MA6813400180,h_OCHCTP,13-L1-1,2019-01-24 19:30:00.0,PmdMin,0.493,CHCGILDTO6Y
MA6813400180,h_OCHCTP,13-L1-1,2019-01-24 19:30:00.0,SoPmdAve,3593.63,CHCGILDTO6Y
MA6813400180,h_OCHCTP,13-L1-1,2019-01-24 19:45:00.0,Qmin,9.23,CHCGILDTO6Y
MA6813400180,h_OCHCTP,13-L1-1,2019-01-24 19:45:00.0,PhaseCorrectionAve,1.95e-07,CHCGILDTO6Y
MA6813400180,h_OCHCTP,13-L1-1,2019-01-24 19:45:00.0,BerPreFecMax,0.0019,CHCGILDTO6Y
MA6813400180,h_OCHCTP,13-L1-1,2019-01-24 19:45:00.0,PmdMin,0.738,CHCGILDTO6Y
MA6813400180,h_OCHCTP,13-L1-1,2019-01-24 19:45:00.0,SoPmdAve,3638.73,CHCGILDTO6Y
MA6813400180,h_OCHCTP,13-L1-2,2019-01-24 19:15:00.0,Qmin,9.12,CHCGILDTO6Y
MA6813400180,h_OCHCTP,13-L1-2,2019-01-24 19:15:00.0,PhaseCorrectionAve,3.25e-07,CHCGILDTO6Y
MA6813400180,h_OCHCTP,13-L1-2,2019-01-24 19:15:00.0,BerPreFecMax,0.00214,CHCGILDTO6Y
MA6813400180,h_OCHCTP,13-L1-2,2019-01-24 19:15:00.0,PmdMin,0.669,CHCGILDTO6Y
MA6813400180,h_OCHCTP,13-L1-2,2019-01-24 19:15:00.0,SoPmdAve,3480.09,CHCGILDTO6Y
MA6813400180,h_OCHCTP,13-L1-2,2019-01-24 19:30:00.0,Qmin,9.18,CHCGILDTO6Y
MA6813400180,h_OCHCTP,13-L1-2,2019-01-24 19:30:00.0,PhaseCorrectionAve,2.94e-07,CHCGILDTO6Y
MA6813400180,h_OCHCTP,13-L1-2,2019-01-24 19:30:00.0,BerPreFecMax,0.00201,CHCGILDTO6Y
MA6813400180,h_OCHCTP,13-L1-2,2019-01-24 19:30:00.0,PmdMin,1.3,CHCGILDTO6Y
MA6813400180,h_OCHCTP,13-L1-2,2019-01-24 19:30:00.0,SoPmdAve,3603.69,CHCGILDTO6Y
MA6813400180,h_OCHCTP,13-L1-2,2019-01-24 19:45:00.0,Qmin,9.22,CHCGILDTO6Y
MA6813400180,h_OCHCTP,13-L1-2,2019-01-24 19:45:00.0,PhaseCorrectionAve,2.67e-07,CHCGILDTO6Y
MA6813400180,h_OCHCTP,13-L1-2,2019-01-24 19:45:00.0,BerPreFecMax,0.00193,CHCGILDTO6Y
MA6813400180,h_OCHCTP,13-L1-2,2019-01-24 19:45:00.0,PmdMin,0.571,CHCGILDTO6Y
MA6813400180,h_OCHCTP,13-L1-2,2019-01-24 19:45:00.0,SoPmdAve,3515.81,CHCGILDTO6Y
MA6813400180,h_OCHCTP,13-L1-3,2019-01-24 19:15:00.0,Qmin,8.94,CHCGILDTO6Y
MA6813400180,h_OCHCTP,13-L1-3,2019-01-24 19:15:00.0,PhaseCorrectionAve,-0.122,CHCGILDTO6Y
MA6813400180,h_OCHCTP,13-L1-3,2019-01-24 19:15:00.0,BerPreFecMax,0.00256,CHCGILDTO6Y
MA6813400180,h_OCHCTP,13-L1-3,2019-01-24 19:15:00.0,PmdMin,1.14,CHCGILDTO6Y
MA6813400180,h_OCHCTP,13-L1-3,2019-01-24 19:15:00.0,SoPmdAve,2991.77,CHCGILDTO6Y
MA6813400180,h_OCHCTP,13-L1-3,2019-01-24 19:30:00.0,Qmin,9.02,CHCGILDTO6Y
MA6813400180,h_OCHCTP,13-L1-3,2019-01-24 19:30:00.0,PhaseCorrectionAve,4.1e-07,CHCGILDTO6Y
MA6813400180,h_OCHCTP,13-L1-3,2019-01-24 19:30:00.0,BerPreFecMax,0.00235,CHCGILDTO6Y
MA6813400180,h_OCHCTP,13-L1-3,2019-01-24 19:30:00.0,PmdMin,0.469,CHCGILDTO6Y
MA6813400180,h_OCHCTP,13-L1-3,2019-01-24 19:30:00.0,SoPmdAve,3004.2,CHCGILDTO6Y
MA6813400180,h_OCHCTP,13-L1-3,2019-01-24 19:45:00.0,Qmin,9.02,CHCGILDTO6Y
MA6813400180,h_OCHCTP,13-L1-3,2019-01-24 19:45:00.0,PhaseCorrectionAve,-0.061,CHCGILDTO6Y
MA6813400180,h_OCHCTP,13-L1-3,2019-01-24 19:45:00.0,BerPreFecMax,0.00236,CHCGILDTO6Y
MA6813400180,h_OCHCTP,13-L1-3,2019-01-24 19:45:00.0,PmdMin,1.32,CHCGILDTO6Y
MA6813400180,h_OCHCTP,13-L1-3,2019-01-24 19:45:00.0,SoPmdAve,2970.3,CHCGILDTO6Y
MA6813400180,h_OCHCTP,13-L1-4,2019-01-24 19:15:00.0,Qmin,8.73,CHCGILDTO6Y
MA6813400180,h_OCHCTP,13-L1-4,2019-01-24 19:15:00.0,PhaseCorrectionAve,-0.122,CHCGILDTO6Y
MA6813400180,h_OCHCTP,13-L1-4,2019-01-24 19:15:00.0,BerPreFecMax,0.00314,CHCGILDTO6Y
MA6813400180,h_OCHCTP,13-L1-4,2019-01-24 19:15:00.0,PmdMin,0.755,CHCGILDTO6Y
MA6813400180,h_OCHCTP,13-L1-4,2019-01-24 19:15:00.0,SoPmdAve,3384.66,CHCGILDTO6Y
MA6813400180,h_OCHCTP,13-L1-4,2019-01-24 19:30:00.0,Qmin,8.84,CHCGILDTO6Y
MA6813400180,h_OCHCTP,13-L1-4,2019-01-24 19:30:00.0,PhaseCorrectionAve,-0.061,CHCGILDTO6Y
MA6813400180,h_OCHCTP,13-L1-4,2019-01-24 19:30:00.0,BerPreFecMax,0.00284,CHCGILDTO6Y
MA6813400180,h_OCHCTP,13-L1-4,2019-01-24 19:30:00.0,PmdMin,1.18,CHCGILDTO6Y
MA6813400180,h_OCHCTP,13-L1-4,2019-01-24 19:30:00.0,SoPmdAve,3329.65,CHCGILDTO6Y
MA6813400180,h_OCHCTP,13-L1-4,2019-01-24 19:45:00.0,Qmin,8.82,CHCGILDTO6Y
MA6813400180,h_OCHCTP,13-L1-4,2019-01-24 19:45:00.0,PhaseCorrectionAve,-0.061,CHCGILDTO6Y
MA6813400180,h_OCHCTP,13-L1-4,2019-01-24 19:45:00.0,BerPreFecMax,0.00289,CHCGILDTO6Y
MA6813400180,h_OCHCTP,13-L1-4,2019-01-24 19:45:00.0,PmdMin,1.02,CHCGILDTO6Y
MA6813400180,h_OCHCTP,13-L1-4,2019-01-24 19:45:00.0,SoPmdAve,3376.71,CHCGILDTO6Y
MA6813400180,h_OCHCTP,13-L1-5,2019-01-24 19:15:00.0,Qmin,8.79,CHCGILDTO6Y
MA6813400180,h_OCHCTP,13-L1-5,2019-01-24 19:15:00.0,PhaseCorrectionAve,-0.122,CHCGILDTO6Y
MA6813400180,h_OCHCTP,13-L1-5,2019-01-24 19:15:00.0,BerPreFecMax,0.00298,CHCGILDTO6Y
MA6813400180,h_OCHCTP,13-L1-5,2019-01-24 19:15:00.0,PmdMin,1.0,CHCGILDTO6Y
MA6813400180,h_OCHCTP,13-L1-5,2019-01-24 19:15:00.0,SoPmdAve,2784.35,CHCGILDTO6Y
MA6813400180,h_OCHCTP,13-L1-5,2019-01-24 19:30:00.0,Qmin,8.79,CHCGILDTO6Y
MA6813400180,h_OCHCTP,13-L1-5,2019-01-24 19:30:00.0,PhaseCorrectionAve,-0.122,CHCGILDTO6Y
MA6813400180,h_OCHCTP,13-L1-5,2019-01-24 19:30:00.0,BerPreFecMax,0.00298,CHCGILDTO6Y
MA6813400180,h_OCHCTP,13-L1-5,2019-01-24 19:30:00.0,PmdMin,0.488,CHCGILDTO6Y
MA6813400180,h_OCHCTP,13-L1-5,2019-01-24 19:30:00.0,SoPmdAve,2788.1,CHCGILDTO6Y
MA6813400180,h_OCHCTP,13-L1-5,2019-01-24 19:45:00.0,Qmin,8.81,CHCGILDTO6Y
MA6813400180,h_OCHCTP,13-L1-5,2019-01-24 19:45:00.0,PhaseCorrectionAve,-0.061,CHCGILDTO6Y
MA6813400180,h_OCHCTP,13-L1-5,2019-01-24 19:45:00.0,BerPreFecMax,0.0029,CHCGILDTO6Y
MA6813400180,h_OCHCTP,13-L1-5,2019-01-24 19:45:00.0,PmdMin,0.761,CHCGILDTO6Y
MA6813400180,h_OCHCTP,13-L1-5,2019-01-24 19:45:00.0,SoPmdAve,2858.58,CHCGILDTO6Y
MA6813400180,h_OCHCTP,13-L1-6,2019-01-24 19:15:00.0,Qmin,8.81,CHCGILDTO6Y
MA6813400180,h_OCHCTP,13-L1-6,2019-01-24 19:15:00.0,PhaseCorrectionAve,-0.122,CHCGILDTO6Y
MA6813400180,h_OCHCTP,13-L1-6,2019-01-24 19:15:00.0,BerPreFecMax,0.00291,CHCGILDTO6Y
MA6813400180,h_OCHCTP,13-L1-6,2019-01-24 19:15:00.0,PmdMin,1.73,CHCGILDTO6Y
MA6813400180,h_OCHCTP,13-L1-6,2019-01-24 19:15:00.0,SoPmdAve,3013.33,CHCGILDTO6Y
MA6813400180,h_OCHCTP,13-L1-6,2019-01-24 19:30:00.0,Qmin,8.78,CHCGILDTO6Y
MA6813400180,h_OCHCTP,13-L1-6,2019-01-24 19:30:00.0,PhaseCorrectionAve,-0.122,CHCGILDTO6Y
MA6813400180,h_OCHCTP,13-L1-6,2019-01-24 19:30:00.0,BerPreFecMax,0.00299,CHCGILDTO6Y
MA6813400180,h_OCHCTP,13-L1-6,2019-01-24 19:30:00.0,PmdMin,0.254,CHCGILDTO6Y
MA6813400180,h_OCHCTP,13-L1-6,2019-01-24 19:30:00.0,SoPmdAve,3073.39,CHCGILDTO6Y
MA6813400180,h_OCHCTP,13-L1-6,2019-01-24 19:45:00.0,Qmin,8.83,CHCGILDTO6Y
MA6813400180,h_OCHCTP,13-L1-6,2019-01-24 19:45:00.0,PhaseCorrectionAve,-0.061,CHCGILDTO6Y
MA6813400180,h_OCHCTP,13-L1-6,2019-01-24 19:45:00.0,BerPreFecMax,0.00285,CHCGILDTO6Y
MA6813400180,h_OCHCTP,13-L1-6,2019-01-24 19:45:00.0,PmdMin,0.729,CHCGILDTO6Y
MA6813400180,h_OCHCTP,13-L1-6,2019-01-24 19:45:00.0,SoPmdAve,2973.83,CHCGILDTO6Y
MA6813400180,h_OCHCTP,13-L1-7,2019-01-24 19:15:00.0,Qmin,8.78,CHCGILDTO6Y
MA6813400180,h_OCHCTP,13-L1-7,2019-01-24 19:15:00.0,PhaseCorrectionAve,-0.122,CHCGILDTO6Y
MA6813400180,h_OCHCTP,13-L1-7,2019-01-24 19:15:00.0,BerPreFecMax,0.00299,CHCGILDTO6Y
MA6813400180,h_OCHCTP,13-L1-7,2019-01-24 19:15:00.0,PmdMin,0.647,CHCGILDTO6Y
MA6813400180,h_OCHCTP,13-L1-7,2019-01-24 19:15:00.0,SoPmdAve,3593.62,CHCGILDTO6Y
MA6813400180,h_OCHCTP,13-L1-7,2019-01-24 19:30:00.0,Qmin,8.73,CHCGILDTO6Y
MA6813400180,h_OCHCTP,13-L1-7,2019-01-24 19:30:00.0,PhaseCorrectionAve,-0.122,CHCGILDTO6Y
MA6813400180,h_OCHCTP,13-L1-7,2019-01-24 19:30:00.0,BerPreFecMax,0.00313,CHCGILDTO6Y
MA6813400180,h_OCHCTP,13-L1-7,2019-01-24 19:30:00.0,PmdMin,0.4,CHCGILDTO6Y
MA6813400180,h_OCHCTP,13-L1-7,2019-01-24 19:30:00.0,SoPmdAve,3671.88,CHCGILDTO6Y
MA6813400180,h_OCHCTP,13-L1-7,2019-01-24 19:45:00.0,Qmin,8.77,CHCGILDTO6Y
MA6813400180,h_OCHCTP,13-L1-7,2019-01-24 19:45:00.0,PhaseCorrectionAve,-0.061,CHCGILDTO6Y
MA6813400180,h_OCHCTP,13-L1-7,2019-01-24 19:45:00.0,BerPreFecMax,0.00303,CHCGILDTO6Y
MA6813400180,h_OCHCTP,13-L1-7,2019-01-24 19:45:00.0,PmdMin,1.49,CHCGILDTO6Y
MA6813400180,h_OCHCTP,13-L1-7,2019-01-24 19:45:00.0,SoPmdAve,3768.77,CHCGILDTO6Y
MA6813400180,h_OCHCTP,13-L1-8,2019-01-24 19:15:00.0,Qmin,8.84,CHCGILDTO6Y
MA6813400180,h_OCHCTP,13-L1-8,2019-01-24 19:15:00.0,PhaseCorrectionAve,-0.122,CHCGILDTO6Y
MA6813400180,h_OCHCTP,13-L1-8,2019-01-24 19:15:00.0,BerPreFecMax,0.00283,CHCGILDTO6Y
MA6813400180,h_OCHCTP,13-L1-8,2019-01-24 19:15:00.0,PmdMin,2.02,CHCGILDTO6Y
MA6813400180,h_OCHCTP,13-L1-8,2019-01-24 19:15:00.0,SoPmdAve,3852.32,CHCGILDTO6Y
MA6813400180,h_OCHCTP,13-L1-8,2019-01-24 19:30:00.0,Qmin,8.86,CHCGILDTO6Y
MA6813400180,h_OCHCTP,13-L1-8,2019-01-24 19:30:00.0,PhaseCorrectionAve,-0.183,CHCGILDTO6Y
MA6813400180,h_OCHCTP,13-L1-8,2019-01-24 19:30:00.0,BerPreFecMax,0.00277,CHCGILDTO6Y
MA6813400180,h_OCHCTP,13-L1-8,2019-01-24 19:30:00.0,PmdMin,0.552,CHCGILDTO6Y
MA6813400180,h_OCHCTP,13-L1-8,2019-01-24 19:30:00.0,SoPmdAve,3830.05,CHCGILDTO6Y
MA6813400180,h_OCHCTP,13-L1-8,2019-01-24 19:45:00.0,Qmin,8.83,CHCGILDTO6Y
MA6813400180,h_OCHCTP,13-L1-8,2019-01-24 19:45:00.0,PhaseCorrectionAve,-0.061,CHCGILDTO6Y
MA6813400180,h_OCHCTP,13-L1-8,2019-01-24 19:45:00.0,BerPreFecMax,0.00286,CHCGILDTO6Y
MA6813400180,h_OCHCTP,13-L1-8,2019-01-24 19:45:00.0,PmdMin,0.598,CHCGILDTO6Y
MA6813400180,h_OCHCTP,13-L1-8,2019-01-24 19:45:00.0,SoPmdAve,3923.53,CHCGILDTO6Y
MA6813400180,h_OCHCTP,13-L1-9,2019-01-24 19:15:00.0,Qmin,8.79,CHCGILDTO6Y
MA6813400180,h_OCHCTP,13-L1-9,2019-01-24 19:15:00.0,PhaseCorrectionAve,-0.183,CHCGILDTO6Y
MA6813400180,h_OCHCTP,13-L1-9,2019-01-24 19:15:00.0,BerPreFecMax,0.00297,CHCGILDTO6Y
MA6813400180,h_OCHCTP,13-L1-9,2019-01-24 19:15:00.0,PmdMin,1.49,CHCGILDTO6Y
MA6813400180,h_OCHCTP,13-L1-9,2019-01-24 19:15:00.0,SoPmdAve,3529.46,CHCGILDTO6Y
MA6813400180,h_OCHCTP,13-L1-9,2019-01-24 19:30:00.0,Qmin,8.85,CHCGILDTO6Y
MA6813400180,h_OCHCTP,13-L1-9,2019-01-24 19:30:00.0,PhaseCorrectionAve,-0.183,CHCGILDTO6Y
MA6813400180,h_OCHCTP,13-L1-9,2019-01-24 19:30:00.0,BerPreFecMax,0.00281,CHCGILDTO6Y
MA6813400180,h_OCHCTP,13-L1-9,2019-01-24 19:30:00.0,PmdMin,0.889,CHCGILDTO6Y
MA6813400180,h_OCHCTP,13-L1-9,2019-01-24 19:30:00.0,SoPmdAve,3538.5,CHCGILDTO6Y
MA6813400180,h_OCHCTP,13-L1-9,2019-01-24 19:45:00.0,Qmin,8.82,CHCGILDTO6Y
MA6813400180,h_OCHCTP,13-L1-9,2019-01-24 19:45:00.0,PhaseCorrectionAve,-0.061,CHCGILDTO6Y
MA6813400180,h_OCHCTP,13-L1-9,2019-01-24 19:45:00.0,BerPreFecMax,0.00287,CHCGILDTO6Y
MA6813400180,h_OCHCTP,13-L1-9,2019-01-24 19:45:00.0,PmdMin,1.12,CHCGILDTO6Y
MA6813400180,h_OCHCTP,13-L1-9,2019-01-24 19:45:00.0,SoPmdAve,3510.87,CHCGILDTO6Y
MA6813400180,h_OCHCTP,13-L1-10,2019-01-24 19:15:00.0,Qmin,8.71,CHCGILDTO6Y
MA6813400180,h_OCHCTP,13-L1-10,2019-01-24 19:15:00.0,PhaseCorrectionAve,-0.183,CHCGILDTO6Y
MA6813400180,h_OCHCTP,13-L1-10,2019-01-24 19:15:00.0,BerPreFecMax,0.00319,CHCGILDTO6Y
MA6813400180,h_OCHCTP,13-L1-10,2019-01-24 19:15:00.0,PmdMin,0.57,CHCGILDTO6Y
MA6813400180,h_OCHCTP,13-L1-10,2019-01-24 19:15:00.0,SoPmdAve,3785.56,CHCGILDTO6Y
MA6813400180,h_OCHCTP,13-L1-10,2019-01-24 19:30:00.0,Qmin,8.72,CHCGILDTO6Y
MA6813400180,h_OCHCTP,13-L1-10,2019-01-24 19:30:00.0,PhaseCorrectionAve,-0.183,CHCGILDTO6Y
MA6813400180,h_OCHCTP,13-L1-10,2019-01-24 19:30:00.0,BerPreFecMax,0.00319,CHCGILDTO6Y
MA6813400180,h_OCHCTP,13-L1-10,2019-01-24 19:30:00.0,PmdMin,0.668,CHCGILDTO6Y
MA6813400180,h_OCHCTP,13-L1-10,2019-01-24 19:30:00.0,SoPmdAve,3802.67,CHCGILDTO6Y
MA6813400180,h_OCHCTP,13-L1-10,2019-01-24 19:45:00.0,Qmin,8.75,CHCGILDTO6Y
MA6813400180,h_OCHCTP,13-L1-10,2019-01-24 19:45:00.0,PhaseCorrectionAve,-0.122,CHCGILDTO6Y
MA6813400180,h_OCHCTP,13-L1-10,2019-01-24 19:45:00.0,BerPreFecMax,0.0031,CHCGILDTO6Y
MA6813400180,h_OCHCTP,13-L1-10,2019-01-24 19:45:00.0,PmdMin,0.568,CHCGILDTO6Y
MA6813400180,h_OCHCTP,13-L1-10,2019-01-24 19:45:00.0,SoPmdAve,3767.59,CHCGILDTO6Y
