MA6813400180,h_OCHCTP,11-L1-1,2019-02-06 16:15:00.0,Qmin,9.12,CHCGILDTO6Y
MA6813400180,h_OCHCTP,11-L1-1,2019-02-06 16:15:00.0,PhaseCorrectionAve,1.58e-07,CHCGILDTO6Y
MA6813400180,h_OCHCTP,11-L1-1,2019-02-06 16:15:00.0,BerPreFecMax,0.00213,CHCGILDTO6Y
MA6813400180,h_OCHCTP,11-L1-1,2019-02-06 16:15:00.0,PmdMin,0.666,CHCGILDTO6Y
MA6813400180,h_OCHCTP,11-L1-1,2019-02-06 16:15:00.0,SoPmdAve,3317.34,CHCGILDTO6Y
MA6813400180,h_OCHCTP,11-L1-1,2019-02-06 16:30:00.0,Qmin,9.15,CHCGILDTO6Y
MA6813400180,h_OCHCTP,11-L1-1,2019-02-06 16:30:00.0,PhaseCorrectionAve,1.44e-07,CHCGILDTO6Y
MA6813400180,h_OCHCTP,11-L1-1,2019-02-06 16:30:00.0,BerPreFecMax,0.00208,CHCGILDTO6Y
MA6813400180,h_OCHCTP,11-L1-1,2019-02-06 16:30:00.0,PmdMin,0.557,CHCGILDTO6Y
MA6813400180,h_OCHCTP,11-L1-1,2019-02-06 16:30:00.0,SoPmdAve,3373.73,CHCGILDTO6Y
MA6813400180,h_OCHCTP,11-L1-1,2019-02-06 16:45:00.0,Qmin,9.11,CHCGILDTO6Y
MA6813400180,h_OCHCTP,11-L1-1,2019-02-06 16:45:00.0,PhaseCorrectionAve,1.48e-07,CHCGILDTO6Y
MA6813400180,h_OCHCTP,11-L1-1,2019-02-06 16:45:00.0,BerPreFecMax,0.00216,CHCGILDTO6Y
MA6813400180,h_OCHCTP,11-L1-1,2019-02-06 16:45:00.0,PmdMin,0.643,CHCGILDTO6Y
MA6813400180,h_OCHCTP,11-L1-1,2019-02-06 16:45:00.0,SoPmdAve,3415.48,CHCGILDTO6Y
MA6813400180,h_OCHCTP,11-L1-2,2019-02-06 16:15:00.0,Qmin,8.99,CHCGILDTO6Y
MA6813400180,h_OCHCTP,11-L1-2,2019-02-06 16:15:00.0,PhaseCorrectionAve,4.45e-07,CHCGILDTO6Y
MA6813400180,h_OCHCTP,11-L1-2,2019-02-06 16:15:00.0,BerPreFecMax,0.00244,CHCGILDTO6Y
MA6813400180,h_OCHCTP,11-L1-2,2019-02-06 16:15:00.0,PmdMin,0.714,CHCGILDTO6Y
MA6813400180,h_OCHCTP,11-L1-2,2019-02-06 16:15:00.0,SoPmdAve,3151.05,CHCGILDTO6Y
MA6813400180,h_OCHCTP,11-L1-2,2019-02-06 16:30:00.0,Qmin,9.0,CHCGILDTO6Y
MA6813400180,h_OCHCTP,11-L1-2,2019-02-06 16:30:00.0,PhaseCorrectionAve,4.29e-07,CHCGILDTO6Y
MA6813400180,h_OCHCTP,11-L1-2,2019-02-06 16:30:00.0,BerPreFecMax,0.00241,CHCGILDTO6Y
MA6813400180,h_OCHCTP,11-L1-2,2019-02-06 16:30:00.0,PmdMin,0.431,CHCGILDTO6Y
MA6813400180,h_OCHCTP,11-L1-2,2019-02-06 16:30:00.0,SoPmdAve,3141.26,CHCGILDTO6Y
MA6813400180,h_OCHCTP,11-L1-2,2019-02-06 16:45:00.0,Qmin,9.0,CHCGILDTO6Y
MA6813400180,h_OCHCTP,11-L1-2,2019-02-06 16:45:00.0,PhaseCorrectionAve,-0.061,CHCGILDTO6Y
MA6813400180,h_OCHCTP,11-L1-2,2019-02-06 16:45:00.0,BerPreFecMax,0.00242,CHCGILDTO6Y
MA6813400180,h_OCHCTP,11-L1-2,2019-02-06 16:45:00.0,PmdMin,0.938,CHCGILDTO6Y
MA6813400180,h_OCHCTP,11-L1-2,2019-02-06 16:45:00.0,SoPmdAve,3134.93,CHCGILDTO6Y
MA6813400180,h_OCHCTP,11-L1-3,2019-02-06 16:15:00.0,Qmin,8.91,CHCGILDTO6Y
MA6813400180,h_OCHCTP,11-L1-3,2019-02-06 16:15:00.0,PhaseCorrectionAve,3.61e-07,CHCGILDTO6Y
MA6813400180,h_OCHCTP,11-L1-3,2019-02-06 16:15:00.0,BerPreFecMax,0.00263,CHCGILDTO6Y
MA6813400180,h_OCHCTP,11-L1-3,2019-02-06 16:15:00.0,PmdMin,0.509,CHCGILDTO6Y
MA6813400180,h_OCHCTP,11-L1-3,2019-02-06 16:15:00.0,SoPmdAve,2721.65,CHCGILDTO6Y
MA6813400180,h_OCHCTP,11-L1-3,2019-02-06 16:30:00.0,Qmin,8.88,CHCGILDTO6Y
MA6813400180,h_OCHCTP,11-L1-3,2019-02-06 16:30:00.0,PhaseCorrectionAve,-0.061,CHCGILDTO6Y
MA6813400180,h_OCHCTP,11-L1-3,2019-02-06 16:30:00.0,BerPreFecMax,0.00272,CHCGILDTO6Y
MA6813400180,h_OCHCTP,11-L1-3,2019-02-06 16:30:00.0,PmdMin,0.69,CHCGILDTO6Y
MA6813400180,h_OCHCTP,11-L1-3,2019-02-06 16:30:00.0,SoPmdAve,2758.57,CHCGILDTO6Y
MA6813400180,h_OCHCTP,11-L1-3,2019-02-06 16:45:00.0,Qmin,8.95,CHCGILDTO6Y
MA6813400180,h_OCHCTP,11-L1-3,2019-02-06 16:45:00.0,PhaseCorrectionAve,-0.061,CHCGILDTO6Y
MA6813400180,h_OCHCTP,11-L1-3,2019-02-06 16:45:00.0,BerPreFecMax,0.00255,CHCGILDTO6Y
MA6813400180,h_OCHCTP,11-L1-3,2019-02-06 16:45:00.0,PmdMin,0.531,CHCGILDTO6Y
MA6813400180,h_OCHCTP,11-L1-3,2019-02-06 16:45:00.0,SoPmdAve,2753.88,CHCGILDTO6Y
MA6813400180,h_OCHCTP,11-L1-4,2019-02-06 16:15:00.0,Qmin,8.76,CHCGILDTO6Y
MA6813400180,h_OCHCTP,11-L1-4,2019-02-06 16:15:00.0,PhaseCorrectionAve,5.16e-07,CHCGILDTO6Y
MA6813400180,h_OCHCTP,11-L1-4,2019-02-06 16:15:00.0,BerPreFecMax,0.00304,CHCGILDTO6Y
MA6813400180,h_OCHCTP,11-L1-4,2019-02-06 16:15:00.0,PmdMin,0.8,CHCGILDTO6Y
MA6813400180,h_OCHCTP,11-L1-4,2019-02-06 16:15:00.0,SoPmdAve,3027.05,CHCGILDTO6Y
MA6813400180,h_OCHCTP,11-L1-4,2019-02-06 16:30:00.0,Qmin,8.7,CHCGILDTO6Y
MA6813400180,h_OCHCTP,11-L1-4,2019-02-06 16:30:00.0,PhaseCorrectionAve,-0.061,CHCGILDTO6Y
MA6813400180,h_OCHCTP,11-L1-4,2019-02-06 16:30:00.0,BerPreFecMax,0.00324,CHCGILDTO6Y
MA6813400180,h_OCHCTP,11-L1-4,2019-02-06 16:30:00.0,PmdMin,1.2,CHCGILDTO6Y
MA6813400180,h_OCHCTP,11-L1-4,2019-02-06 16:30:00.0,SoPmdAve,2973.67,CHCGILDTO6Y
MA6813400180,h_OCHCTP,11-L1-4,2019-02-06 16:45:00.0,Qmin,8.71,CHCGILDTO6Y
MA6813400180,h_OCHCTP,11-L1-4,2019-02-06 16:45:00.0,PhaseCorrectionAve,-0.122,CHCGILDTO6Y
MA6813400180,h_OCHCTP,11-L1-4,2019-02-06 16:45:00.0,BerPreFecMax,0.0032,CHCGILDTO6Y
MA6813400180,h_OCHCTP,11-L1-4,2019-02-06 16:45:00.0,PmdMin,0.617,CHCGILDTO6Y
MA6813400180,h_OCHCTP,11-L1-4,2019-02-06 16:45:00.0,SoPmdAve,2964.04,CHCGILDTO6Y
MA6813400180,h_OCHCTP,11-L1-5,2019-02-06 16:15:00.0,Qmin,8.82,CHCGILDTO6Y
MA6813400180,h_OCHCTP,11-L1-5,2019-02-06 16:15:00.0,PhaseCorrectionAve,-0.061,CHCGILDTO6Y
MA6813400180,h_OCHCTP,11-L1-5,2019-02-06 16:15:00.0,BerPreFecMax,0.00288,CHCGILDTO6Y
MA6813400180,h_OCHCTP,11-L1-5,2019-02-06 16:15:00.0,PmdMin,0.782,CHCGILDTO6Y
MA6813400180,h_OCHCTP,11-L1-5,2019-02-06 16:15:00.0,SoPmdAve,2523.62,CHCGILDTO6Y
MA6813400180,h_OCHCTP,11-L1-5,2019-02-06 16:30:00.0,Qmin,8.8,CHCGILDTO6Y
MA6813400180,h_OCHCTP,11-L1-5,2019-02-06 16:30:00.0,PhaseCorrectionAve,-0.061,CHCGILDTO6Y
MA6813400180,h_OCHCTP,11-L1-5,2019-02-06 16:30:00.0,BerPreFecMax,0.00294,CHCGILDTO6Y
MA6813400180,h_OCHCTP,11-L1-5,2019-02-06 16:30:00.0,PmdMin,0.978,CHCGILDTO6Y
MA6813400180,h_OCHCTP,11-L1-5,2019-02-06 16:30:00.0,SoPmdAve,2618.29,CHCGILDTO6Y
MA6813400180,h_OCHCTP,11-L1-5,2019-02-06 16:45:00.0,Qmin,8.79,CHCGILDTO6Y
MA6813400180,h_OCHCTP,11-L1-5,2019-02-06 16:45:00.0,PhaseCorrectionAve,-0.183,CHCGILDTO6Y
MA6813400180,h_OCHCTP,11-L1-5,2019-02-06 16:45:00.0,BerPreFecMax,0.00297,CHCGILDTO6Y
MA6813400180,h_OCHCTP,11-L1-5,2019-02-06 16:45:00.0,PmdMin,0.668,CHCGILDTO6Y
MA6813400180,h_OCHCTP,11-L1-5,2019-02-06 16:45:00.0,SoPmdAve,2602.17,CHCGILDTO6Y
MA6813400180,h_OCHCTP,11-L1-6,2019-02-06 16:15:00.0,Qmin,8.72,CHCGILDTO6Y
MA6813400180,h_OCHCTP,11-L1-6,2019-02-06 16:15:00.0,PhaseCorrectionAve,-0.061,CHCGILDTO6Y
MA6813400180,h_OCHCTP,11-L1-6,2019-02-06 16:15:00.0,BerPreFecMax,0.00319,CHCGILDTO6Y
MA6813400180,h_OCHCTP,11-L1-6,2019-02-06 16:15:00.0,PmdMin,0.615,CHCGILDTO6Y
MA6813400180,h_OCHCTP,11-L1-6,2019-02-06 16:15:00.0,SoPmdAve,2485.98,CHCGILDTO6Y
MA6813400180,h_OCHCTP,11-L1-6,2019-02-06 16:30:00.0,Qmin,8.76,CHCGILDTO6Y
MA6813400180,h_OCHCTP,11-L1-6,2019-02-06 16:30:00.0,PhaseCorrectionAve,-0.061,CHCGILDTO6Y
MA6813400180,h_OCHCTP,11-L1-6,2019-02-06 16:30:00.0,BerPreFecMax,0.00307,CHCGILDTO6Y
MA6813400180,h_OCHCTP,11-L1-6,2019-02-06 16:30:00.0,PmdMin,0.857,CHCGILDTO6Y
MA6813400180,h_OCHCTP,11-L1-6,2019-02-06 16:30:00.0,SoPmdAve,2488.9,CHCGILDTO6Y
MA6813400180,h_OCHCTP,11-L1-6,2019-02-06 16:45:00.0,Qmin,8.72,CHCGILDTO6Y
MA6813400180,h_OCHCTP,11-L1-6,2019-02-06 16:45:00.0,PhaseCorrectionAve,-0.183,CHCGILDTO6Y
MA6813400180,h_OCHCTP,11-L1-6,2019-02-06 16:45:00.0,BerPreFecMax,0.00318,CHCGILDTO6Y
MA6813400180,h_OCHCTP,11-L1-6,2019-02-06 16:45:00.0,PmdMin,0.754,CHCGILDTO6Y
MA6813400180,h_OCHCTP,11-L1-6,2019-02-06 16:45:00.0,SoPmdAve,2549.83,CHCGILDTO6Y
MA6813400180,h_OCHCTP,11-L1-7,2019-02-06 16:15:00.0,Qmin,8.75,CHCGILDTO6Y
MA6813400180,h_OCHCTP,11-L1-7,2019-02-06 16:15:00.0,PhaseCorrectionAve,-0.183,CHCGILDTO6Y
MA6813400180,h_OCHCTP,11-L1-7,2019-02-06 16:15:00.0,BerPreFecMax,0.00309,CHCGILDTO6Y
MA6813400180,h_OCHCTP,11-L1-7,2019-02-06 16:15:00.0,PmdMin,1.04,CHCGILDTO6Y
MA6813400180,h_OCHCTP,11-L1-7,2019-02-06 16:15:00.0,SoPmdAve,2975.58,CHCGILDTO6Y
MA6813400180,h_OCHCTP,11-L1-7,2019-02-06 16:30:00.0,Qmin,8.84,CHCGILDTO6Y
MA6813400180,h_OCHCTP,11-L1-7,2019-02-06 16:30:00.0,PhaseCorrectionAve,-0.061,CHCGILDTO6Y
MA6813400180,h_OCHCTP,11-L1-7,2019-02-06 16:30:00.0,BerPreFecMax,0.00284,CHCGILDTO6Y
MA6813400180,h_OCHCTP,11-L1-7,2019-02-06 16:30:00.0,PmdMin,1.27,CHCGILDTO6Y
MA6813400180,h_OCHCTP,11-L1-7,2019-02-06 16:30:00.0,SoPmdAve,3028.44,CHCGILDTO6Y
MA6813400180,h_OCHCTP,11-L1-7,2019-02-06 16:45:00.0,Qmin,8.82,CHCGILDTO6Y
MA6813400180,h_OCHCTP,11-L1-7,2019-02-06 16:45:00.0,PhaseCorrectionAve,-0.183,CHCGILDTO6Y
MA6813400180,h_OCHCTP,11-L1-7,2019-02-06 16:45:00.0,BerPreFecMax,0.0029,CHCGILDTO6Y
MA6813400180,h_OCHCTP,11-L1-7,2019-02-06 16:45:00.0,PmdMin,0.393,CHCGILDTO6Y
MA6813400180,h_OCHCTP,11-L1-7,2019-02-06 16:45:00.0,SoPmdAve,3080.47,CHCGILDTO6Y
MA6813400180,h_OCHCTP,11-L1-8,2019-02-06 16:15:00.0,Qmin,8.77,CHCGILDTO6Y
MA6813400180,h_OCHCTP,11-L1-8,2019-02-06 16:15:00.0,PhaseCorrectionAve,-0.183,CHCGILDTO6Y
MA6813400180,h_OCHCTP,11-L1-8,2019-02-06 16:15:00.0,BerPreFecMax,0.00304,CHCGILDTO6Y
MA6813400180,h_OCHCTP,11-L1-8,2019-02-06 16:15:00.0,PmdMin,0.631,CHCGILDTO6Y
MA6813400180,h_OCHCTP,11-L1-8,2019-02-06 16:15:00.0,SoPmdAve,3125.12,CHCGILDTO6Y
MA6813400180,h_OCHCTP,11-L1-8,2019-02-06 16:30:00.0,Qmin,8.87,CHCGILDTO6Y
MA6813400180,h_OCHCTP,11-L1-8,2019-02-06 16:30:00.0,PhaseCorrectionAve,-0.061,CHCGILDTO6Y
MA6813400180,h_OCHCTP,11-L1-8,2019-02-06 16:30:00.0,BerPreFecMax,0.00275,CHCGILDTO6Y
MA6813400180,h_OCHCTP,11-L1-8,2019-02-06 16:30:00.0,PmdMin,2.09,CHCGILDTO6Y
MA6813400180,h_OCHCTP,11-L1-8,2019-02-06 16:30:00.0,SoPmdAve,2986.75,CHCGILDTO6Y
MA6813400180,h_OCHCTP,11-L1-8,2019-02-06 16:45:00.0,Qmin,8.91,CHCGILDTO6Y
MA6813400180,h_OCHCTP,11-L1-8,2019-02-06 16:45:00.0,PhaseCorrectionAve,-0.183,CHCGILDTO6Y
MA6813400180,h_OCHCTP,11-L1-8,2019-02-06 16:45:00.0,BerPreFecMax,0.00265,CHCGILDTO6Y
MA6813400180,h_OCHCTP,11-L1-8,2019-02-06 16:45:00.0,PmdMin,0.913,CHCGILDTO6Y
MA6813400180,h_OCHCTP,11-L1-8,2019-02-06 16:45:00.0,SoPmdAve,3110.7,CHCGILDTO6Y
MA6813400180,h_OCHCTP,11-L1-9,2019-02-06 16:15:00.0,Qmin,8.79,CHCGILDTO6Y
MA6813400180,h_OCHCTP,11-L1-9,2019-02-06 16:15:00.0,PhaseCorrectionAve,-0.244,CHCGILDTO6Y
MA6813400180,h_OCHCTP,11-L1-9,2019-02-06 16:15:00.0,BerPreFecMax,0.00298,CHCGILDTO6Y
MA6813400180,h_OCHCTP,11-L1-9,2019-02-06 16:15:00.0,PmdMin,0.683,CHCGILDTO6Y
MA6813400180,h_OCHCTP,11-L1-9,2019-02-06 16:15:00.0,SoPmdAve,2940.46,CHCGILDTO6Y
MA6813400180,h_OCHCTP,11-L1-9,2019-02-06 16:30:00.0,Qmin,8.81,CHCGILDTO6Y
MA6813400180,h_OCHCTP,11-L1-9,2019-02-06 16:30:00.0,PhaseCorrectionAve,-0.061,CHCGILDTO6Y
MA6813400180,h_OCHCTP,11-L1-9,2019-02-06 16:30:00.0,BerPreFecMax,0.00292,CHCGILDTO6Y
MA6813400180,h_OCHCTP,11-L1-9,2019-02-06 16:30:00.0,PmdMin,0.499,CHCGILDTO6Y
MA6813400180,h_OCHCTP,11-L1-9,2019-02-06 16:30:00.0,SoPmdAve,2958.2,CHCGILDTO6Y
MA6813400180,h_OCHCTP,11-L1-9,2019-02-06 16:45:00.0,Qmin,8.79,CHCGILDTO6Y
MA6813400180,h_OCHCTP,11-L1-9,2019-02-06 16:45:00.0,PhaseCorrectionAve,-0.183,CHCGILDTO6Y
MA6813400180,h_OCHCTP,11-L1-9,2019-02-06 16:45:00.0,BerPreFecMax,0.00298,CHCGILDTO6Y
MA6813400180,h_OCHCTP,11-L1-9,2019-02-06 16:45:00.0,PmdMin,1.18,CHCGILDTO6Y
MA6813400180,h_OCHCTP,11-L1-9,2019-02-06 16:45:00.0,SoPmdAve,2936.87,CHCGILDTO6Y
MA6813400180,h_OCHCTP,11-L1-10,2019-02-06 16:15:00.0,Qmin,8.88,CHCGILDTO6Y
MA6813400180,h_OCHCTP,11-L1-10,2019-02-06 16:15:00.0,PhaseCorrectionAve,-0.244,CHCGILDTO6Y
MA6813400180,h_OCHCTP,11-L1-10,2019-02-06 16:15:00.0,BerPreFecMax,0.00271,CHCGILDTO6Y
MA6813400180,h_OCHCTP,11-L1-10,2019-02-06 16:15:00.0,PmdMin,1.26,CHCGILDTO6Y
MA6813400180,h_OCHCTP,11-L1-10,2019-02-06 16:15:00.0,SoPmdAve,3032.65,CHCGILDTO6Y
MA6813400180,h_OCHCTP,11-L1-10,2019-02-06 16:30:00.0,Qmin,8.9,CHCGILDTO6Y
MA6813400180,h_OCHCTP,11-L1-10,2019-02-06 16:30:00.0,PhaseCorrectionAve,-0.061,CHCGILDTO6Y
MA6813400180,h_OCHCTP,11-L1-10,2019-02-06 16:30:00.0,BerPreFecMax,0.00267,CHCGILDTO6Y
MA6813400180,h_OCHCTP,11-L1-10,2019-02-06 16:30:00.0,PmdMin,1.01,CHCGILDTO6Y
MA6813400180,h_OCHCTP,11-L1-10,2019-02-06 16:30:00.0,SoPmdAve,3132.62,CHCGILDTO6Y
MA6813400180,h_OCHCTP,11-L1-10,2019-02-06 16:45:00.0,Qmin,8.94,CHCGILDTO6Y
MA6813400180,h_OCHCTP,11-L1-10,2019-02-06 16:45:00.0,PhaseCorrectionAve,-0.183,CHCGILDTO6Y
MA6813400180,h_OCHCTP,11-L1-10,2019-02-06 16:45:00.0,BerPreFecMax,0.00258,CHCGILDTO6Y
MA6813400180,h_OCHCTP,11-L1-10,2019-02-06 16:45:00.0,PmdMin,0.952,CHCGILDTO6Y
MA6813400180,h_OCHCTP,11-L1-10,2019-02-06 16:45:00.0,SoPmdAve,3113.5,CHCGILDTO6Y
MA6813400180,h_OCHCTP,10-L1-1,2019-02-06 16:15:00.0,Qmin,9.47,CHCGILDTO6Y
MA6813400180,h_OCHCTP,10-L1-1,2019-02-06 16:15:00.0,PhaseCorrectionAve,3.9e-07,CHCGILDTO6Y
MA6813400180,h_OCHCTP,10-L1-1,2019-02-06 16:15:00.0,BerPreFecMax,0.00146,CHCGILDTO6Y
MA6813400180,h_OCHCTP,10-L1-1,2019-02-06 16:15:00.0,PmdMin,3.35,CHCGILDTO6Y
MA6813400180,h_OCHCTP,10-L1-1,2019-02-06 16:15:00.0,SoPmdAve,3499.71,CHCGILDTO6Y
MA6813400180,h_OCHCTP,10-L1-1,2019-02-06 16:30:00.0,Qmin,9.48,CHCGILDTO6Y
MA6813400180,h_OCHCTP,10-L1-1,2019-02-06 16:30:00.0,PhaseCorrectionAve,-0.122,CHCGILDTO6Y
MA6813400180,h_OCHCTP,10-L1-1,2019-02-06 16:30:00.0,BerPreFecMax,0.00145,CHCGILDTO6Y
MA6813400180,h_OCHCTP,10-L1-1,2019-02-06 16:30:00.0,PmdMin,2.1,CHCGILDTO6Y
MA6813400180,h_OCHCTP,10-L1-1,2019-02-06 16:30:00.0,SoPmdAve,3516.29,CHCGILDTO6Y
MA6813400180,h_OCHCTP,10-L1-1,2019-02-06 16:45:00.0,Qmin,9.47,CHCGILDTO6Y
MA6813400180,h_OCHCTP,10-L1-1,2019-02-06 16:45:00.0,PhaseCorrectionAve,4.05e-07,CHCGILDTO6Y
MA6813400180,h_OCHCTP,10-L1-1,2019-02-06 16:45:00.0,BerPreFecMax,0.00147,CHCGILDTO6Y
MA6813400180,h_OCHCTP,10-L1-1,2019-02-06 16:45:00.0,PmdMin,2.05,CHCGILDTO6Y
MA6813400180,h_OCHCTP,10-L1-1,2019-02-06 16:45:00.0,SoPmdAve,3519.87,CHCGILDTO6Y
MA6813400180,h_OCHCTP,10-L1-2,2019-02-06 16:15:00.0,Qmin,9.13,CHCGILDTO6Y
MA6813400180,h_OCHCTP,10-L1-2,2019-02-06 16:15:00.0,PhaseCorrectionAve,-0.061,CHCGILDTO6Y
MA6813400180,h_OCHCTP,10-L1-2,2019-02-06 16:15:00.0,BerPreFecMax,0.00212,CHCGILDTO6Y
MA6813400180,h_OCHCTP,10-L1-2,2019-02-06 16:15:00.0,PmdMin,3.26,CHCGILDTO6Y
MA6813400180,h_OCHCTP,10-L1-2,2019-02-06 16:15:00.0,SoPmdAve,3293.33,CHCGILDTO6Y
MA6813400180,h_OCHCTP,10-L1-2,2019-02-06 16:30:00.0,Qmin,9.14,CHCGILDTO6Y
MA6813400180,h_OCHCTP,10-L1-2,2019-02-06 16:30:00.0,PhaseCorrectionAve,-0.183,CHCGILDTO6Y
MA6813400180,h_OCHCTP,10-L1-2,2019-02-06 16:30:00.0,BerPreFecMax,0.00209,CHCGILDTO6Y
MA6813400180,h_OCHCTP,10-L1-2,2019-02-06 16:30:00.0,PmdMin,1.28,CHCGILDTO6Y
MA6813400180,h_OCHCTP,10-L1-2,2019-02-06 16:30:00.0,SoPmdAve,3278.04,CHCGILDTO6Y
MA6813400180,h_OCHCTP,10-L1-2,2019-02-06 16:45:00.0,Qmin,9.15,CHCGILDTO6Y
MA6813400180,h_OCHCTP,10-L1-2,2019-02-06 16:45:00.0,PhaseCorrectionAve,-0.0611,CHCGILDTO6Y
MA6813400180,h_OCHCTP,10-L1-2,2019-02-06 16:45:00.0,BerPreFecMax,0.00207,CHCGILDTO6Y
MA6813400180,h_OCHCTP,10-L1-2,2019-02-06 16:45:00.0,PmdMin,1.54,CHCGILDTO6Y
MA6813400180,h_OCHCTP,10-L1-2,2019-02-06 16:45:00.0,SoPmdAve,3306.15,CHCGILDTO6Y
MA6813400180,h_OCHCTP,10-L1-3,2019-02-06 16:15:00.0,Qmin,8.81,CHCGILDTO6Y
MA6813400180,h_OCHCTP,10-L1-3,2019-02-06 16:15:00.0,PhaseCorrectionAve,-0.061,CHCGILDTO6Y
MA6813400180,h_OCHCTP,10-L1-3,2019-02-06 16:15:00.0,BerPreFecMax,0.00292,CHCGILDTO6Y
MA6813400180,h_OCHCTP,10-L1-3,2019-02-06 16:15:00.0,PmdMin,4.5,CHCGILDTO6Y
MA6813400180,h_OCHCTP,10-L1-3,2019-02-06 16:15:00.0,SoPmdAve,2788.08,CHCGILDTO6Y
MA6813400180,h_OCHCTP,10-L1-3,2019-02-06 16:30:00.0,Qmin,8.84,CHCGILDTO6Y
MA6813400180,h_OCHCTP,10-L1-3,2019-02-06 16:30:00.0,PhaseCorrectionAve,-0.183,CHCGILDTO6Y
MA6813400180,h_OCHCTP,10-L1-3,2019-02-06 16:30:00.0,BerPreFecMax,0.00284,CHCGILDTO6Y
MA6813400180,h_OCHCTP,10-L1-3,2019-02-06 16:30:00.0,PmdMin,2.82,CHCGILDTO6Y
MA6813400180,h_OCHCTP,10-L1-3,2019-02-06 16:30:00.0,SoPmdAve,2801.25,CHCGILDTO6Y
MA6813400180,h_OCHCTP,10-L1-3,2019-02-06 16:45:00.0,Qmin,8.85,CHCGILDTO6Y
MA6813400180,h_OCHCTP,10-L1-3,2019-02-06 16:45:00.0,PhaseCorrectionAve,-0.0611,CHCGILDTO6Y
MA6813400180,h_OCHCTP,10-L1-3,2019-02-06 16:45:00.0,BerPreFecMax,0.0028,CHCGILDTO6Y
MA6813400180,h_OCHCTP,10-L1-3,2019-02-06 16:45:00.0,PmdMin,4.23,CHCGILDTO6Y
MA6813400180,h_OCHCTP,10-L1-3,2019-02-06 16:45:00.0,SoPmdAve,2882.54,CHCGILDTO6Y
MA6813400180,h_OCHCTP,10-L1-4,2019-02-06 16:15:00.0,Qmin,8.19,CHCGILDTO6Y
MA6813400180,h_OCHCTP,10-L1-4,2019-02-06 16:15:00.0,PhaseCorrectionAve,-0.061,CHCGILDTO6Y
MA6813400180,h_OCHCTP,10-L1-4,2019-02-06 16:15:00.0,BerPreFecMax,0.0051,CHCGILDTO6Y
MA6813400180,h_OCHCTP,10-L1-4,2019-02-06 16:15:00.0,PmdMin,0.535,CHCGILDTO6Y
MA6813400180,h_OCHCTP,10-L1-4,2019-02-06 16:15:00.0,SoPmdAve,3149.49,CHCGILDTO6Y
MA6813400180,h_OCHCTP,10-L1-4,2019-02-06 16:30:00.0,Qmin,8.22,CHCGILDTO6Y
MA6813400180,h_OCHCTP,10-L1-4,2019-02-06 16:30:00.0,PhaseCorrectionAve,-0.243,CHCGILDTO6Y
MA6813400180,h_OCHCTP,10-L1-4,2019-02-06 16:30:00.0,BerPreFecMax,0.00498,CHCGILDTO6Y
MA6813400180,h_OCHCTP,10-L1-4,2019-02-06 16:30:00.0,PmdMin,1.64,CHCGILDTO6Y
MA6813400180,h_OCHCTP,10-L1-4,2019-02-06 16:30:00.0,SoPmdAve,3118.71,CHCGILDTO6Y
MA6813400180,h_OCHCTP,10-L1-4,2019-02-06 16:45:00.0,Qmin,8.24,CHCGILDTO6Y
MA6813400180,h_OCHCTP,10-L1-4,2019-02-06 16:45:00.0,PhaseCorrectionAve,-0.0611,CHCGILDTO6Y
MA6813400180,h_OCHCTP,10-L1-4,2019-02-06 16:45:00.0,BerPreFecMax,0.00492,CHCGILDTO6Y
MA6813400180,h_OCHCTP,10-L1-4,2019-02-06 16:45:00.0,PmdMin,0.515,CHCGILDTO6Y
MA6813400180,h_OCHCTP,10-L1-4,2019-02-06 16:45:00.0,SoPmdAve,3143.1,CHCGILDTO6Y
MA6813400180,h_OCHCTP,10-L1-5,2019-02-06 16:15:00.0,Qmin,8.43,CHCGILDTO6Y
MA6813400180,h_OCHCTP,10-L1-5,2019-02-06 16:15:00.0,PhaseCorrectionAve,-0.061,CHCGILDTO6Y
MA6813400180,h_OCHCTP,10-L1-5,2019-02-06 16:15:00.0,BerPreFecMax,0.00416,CHCGILDTO6Y
MA6813400180,h_OCHCTP,10-L1-5,2019-02-06 16:15:00.0,PmdMin,3.71,CHCGILDTO6Y
MA6813400180,h_OCHCTP,10-L1-5,2019-02-06 16:15:00.0,SoPmdAve,2781.71,CHCGILDTO6Y
MA6813400180,h_OCHCTP,10-L1-5,2019-02-06 16:30:00.0,Qmin,8.44,CHCGILDTO6Y
MA6813400180,h_OCHCTP,10-L1-5,2019-02-06 16:30:00.0,PhaseCorrectionAve,-0.243,CHCGILDTO6Y
MA6813400180,h_OCHCTP,10-L1-5,2019-02-06 16:30:00.0,BerPreFecMax,0.00412,CHCGILDTO6Y
MA6813400180,h_OCHCTP,10-L1-5,2019-02-06 16:30:00.0,PmdMin,4.85,CHCGILDTO6Y
MA6813400180,h_OCHCTP,10-L1-5,2019-02-06 16:30:00.0,SoPmdAve,2871.15,CHCGILDTO6Y
MA6813400180,h_OCHCTP,10-L1-5,2019-02-06 16:45:00.0,Qmin,8.44,CHCGILDTO6Y
MA6813400180,h_OCHCTP,10-L1-5,2019-02-06 16:45:00.0,PhaseCorrectionAve,-0.0611,CHCGILDTO6Y
MA6813400180,h_OCHCTP,10-L1-5,2019-02-06 16:45:00.0,BerPreFecMax,0.00412,CHCGILDTO6Y
MA6813400180,h_OCHCTP,10-L1-5,2019-02-06 16:45:00.0,PmdMin,2.59,CHCGILDTO6Y
MA6813400180,h_OCHCTP,10-L1-5,2019-02-06 16:45:00.0,SoPmdAve,2812.41,CHCGILDTO6Y
MA6813400180,h_OCHCTP,10-L1-6,2019-02-06 16:15:00.0,Qmin,8.68,CHCGILDTO6Y
MA6813400180,h_OCHCTP,10-L1-6,2019-02-06 16:15:00.0,PhaseCorrectionAve,-0.122,CHCGILDTO6Y
MA6813400180,h_OCHCTP,10-L1-6,2019-02-06 16:15:00.0,BerPreFecMax,0.00332,CHCGILDTO6Y
MA6813400180,h_OCHCTP,10-L1-6,2019-02-06 16:15:00.0,PmdMin,0.646,CHCGILDTO6Y
MA6813400180,h_OCHCTP,10-L1-6,2019-02-06 16:15:00.0,SoPmdAve,2861.89,CHCGILDTO6Y
MA6813400180,h_OCHCTP,10-L1-6,2019-02-06 16:30:00.0,Qmin,8.69,CHCGILDTO6Y
MA6813400180,h_OCHCTP,10-L1-6,2019-02-06 16:30:00.0,PhaseCorrectionAve,-0.304,CHCGILDTO6Y
MA6813400180,h_OCHCTP,10-L1-6,2019-02-06 16:30:00.0,BerPreFecMax,0.00326,CHCGILDTO6Y
MA6813400180,h_OCHCTP,10-L1-6,2019-02-06 16:30:00.0,PmdMin,0.968,CHCGILDTO6Y
MA6813400180,h_OCHCTP,10-L1-6,2019-02-06 16:30:00.0,SoPmdAve,2825.93,CHCGILDTO6Y
MA6813400180,h_OCHCTP,10-L1-6,2019-02-06 16:45:00.0,Qmin,8.69,CHCGILDTO6Y
MA6813400180,h_OCHCTP,10-L1-6,2019-02-06 16:45:00.0,PhaseCorrectionAve,-0.0611,CHCGILDTO6Y
MA6813400180,h_OCHCTP,10-L1-6,2019-02-06 16:45:00.0,BerPreFecMax,0.00325,CHCGILDTO6Y
MA6813400180,h_OCHCTP,10-L1-6,2019-02-06 16:45:00.0,PmdMin,0.945,CHCGILDTO6Y
MA6813400180,h_OCHCTP,10-L1-6,2019-02-06 16:45:00.0,SoPmdAve,2851.62,CHCGILDTO6Y
MA6813400180,h_OCHCTP,10-L1-7,2019-02-06 16:15:00.0,Qmin,8.81,CHCGILDTO6Y
MA6813400180,h_OCHCTP,10-L1-7,2019-02-06 16:15:00.0,PhaseCorrectionAve,-0.183,CHCGILDTO6Y
MA6813400180,h_OCHCTP,10-L1-7,2019-02-06 16:15:00.0,BerPreFecMax,0.00291,CHCGILDTO6Y
MA6813400180,h_OCHCTP,10-L1-7,2019-02-06 16:15:00.0,PmdMin,0.465,CHCGILDTO6Y
MA6813400180,h_OCHCTP,10-L1-7,2019-02-06 16:15:00.0,SoPmdAve,3518.81,CHCGILDTO6Y
MA6813400180,h_OCHCTP,10-L1-7,2019-02-06 16:30:00.0,Qmin,8.82,CHCGILDTO6Y
MA6813400180,h_OCHCTP,10-L1-7,2019-02-06 16:30:00.0,PhaseCorrectionAve,-0.304,CHCGILDTO6Y
MA6813400180,h_OCHCTP,10-L1-7,2019-02-06 16:30:00.0,BerPreFecMax,0.00289,CHCGILDTO6Y
MA6813400180,h_OCHCTP,10-L1-7,2019-02-06 16:30:00.0,PmdMin,1.24,CHCGILDTO6Y
MA6813400180,h_OCHCTP,10-L1-7,2019-02-06 16:30:00.0,SoPmdAve,3571.07,CHCGILDTO6Y
MA6813400180,h_OCHCTP,10-L1-7,2019-02-06 16:45:00.0,Qmin,8.82,CHCGILDTO6Y
MA6813400180,h_OCHCTP,10-L1-7,2019-02-06 16:45:00.0,PhaseCorrectionAve,-0.122,CHCGILDTO6Y
MA6813400180,h_OCHCTP,10-L1-7,2019-02-06 16:45:00.0,BerPreFecMax,0.00289,CHCGILDTO6Y
MA6813400180,h_OCHCTP,10-L1-7,2019-02-06 16:45:00.0,PmdMin,2.06,CHCGILDTO6Y
MA6813400180,h_OCHCTP,10-L1-7,2019-02-06 16:45:00.0,SoPmdAve,3352.37,CHCGILDTO6Y
MA6813400180,h_OCHCTP,10-L1-8,2019-02-06 16:15:00.0,Qmin,9.34,CHCGILDTO6Y
MA6813400180,h_OCHCTP,10-L1-8,2019-02-06 16:15:00.0,PhaseCorrectionAve,-0.183,CHCGILDTO6Y
MA6813400180,h_OCHCTP,10-L1-8,2019-02-06 16:15:00.0,BerPreFecMax,0.0017,CHCGILDTO6Y
MA6813400180,h_OCHCTP,10-L1-8,2019-02-06 16:15:00.0,PmdMin,0.511,CHCGILDTO6Y
MA6813400180,h_OCHCTP,10-L1-8,2019-02-06 16:15:00.0,SoPmdAve,3294.63,CHCGILDTO6Y
MA6813400180,h_OCHCTP,10-L1-8,2019-02-06 16:30:00.0,Qmin,9.33,CHCGILDTO6Y
MA6813400180,h_OCHCTP,10-L1-8,2019-02-06 16:30:00.0,PhaseCorrectionAve,-0.304,CHCGILDTO6Y
MA6813400180,h_OCHCTP,10-L1-8,2019-02-06 16:30:00.0,BerPreFecMax,0.0017,CHCGILDTO6Y
MA6813400180,h_OCHCTP,10-L1-8,2019-02-06 16:30:00.0,PmdMin,1.22,CHCGILDTO6Y
MA6813400180,h_OCHCTP,10-L1-8,2019-02-06 16:30:00.0,SoPmdAve,3284.76,CHCGILDTO6Y
MA6813400180,h_OCHCTP,10-L1-8,2019-02-06 16:45:00.0,Qmin,9.33,CHCGILDTO6Y
MA6813400180,h_OCHCTP,10-L1-8,2019-02-06 16:45:00.0,PhaseCorrectionAve,-0.183,CHCGILDTO6Y
MA6813400180,h_OCHCTP,10-L1-8,2019-02-06 16:45:00.0,BerPreFecMax,0.0017,CHCGILDTO6Y
MA6813400180,h_OCHCTP,10-L1-8,2019-02-06 16:45:00.0,PmdMin,1.17,CHCGILDTO6Y
MA6813400180,h_OCHCTP,10-L1-8,2019-02-06 16:45:00.0,SoPmdAve,3351.77,CHCGILDTO6Y
MA6813400180,h_OCHCTP,10-L1-9,2019-02-06 16:15:00.0,Qmin,9.38,CHCGILDTO6Y
MA6813400180,h_OCHCTP,10-L1-9,2019-02-06 16:15:00.0,PhaseCorrectionAve,-0.183,CHCGILDTO6Y
MA6813400180,h_OCHCTP,10-L1-9,2019-02-06 16:15:00.0,BerPreFecMax,0.00162,CHCGILDTO6Y
MA6813400180,h_OCHCTP,10-L1-9,2019-02-06 16:15:00.0,PmdMin,3.63,CHCGILDTO6Y
MA6813400180,h_OCHCTP,10-L1-9,2019-02-06 16:15:00.0,SoPmdAve,3222.38,CHCGILDTO6Y
MA6813400180,h_OCHCTP,10-L1-9,2019-02-06 16:30:00.0,Qmin,9.36,CHCGILDTO6Y
MA6813400180,h_OCHCTP,10-L1-9,2019-02-06 16:30:00.0,PhaseCorrectionAve,-0.304,CHCGILDTO6Y
MA6813400180,h_OCHCTP,10-L1-9,2019-02-06 16:30:00.0,BerPreFecMax,0.00165,CHCGILDTO6Y
MA6813400180,h_OCHCTP,10-L1-9,2019-02-06 16:30:00.0,PmdMin,1.94,CHCGILDTO6Y
MA6813400180,h_OCHCTP,10-L1-9,2019-02-06 16:30:00.0,SoPmdAve,3259.55,CHCGILDTO6Y
MA6813400180,h_OCHCTP,10-L1-9,2019-02-06 16:45:00.0,Qmin,9.36,CHCGILDTO6Y
MA6813400180,h_OCHCTP,10-L1-9,2019-02-06 16:45:00.0,PhaseCorrectionAve,-0.244,CHCGILDTO6Y
MA6813400180,h_OCHCTP,10-L1-9,2019-02-06 16:45:00.0,BerPreFecMax,0.00164,CHCGILDTO6Y
MA6813400180,h_OCHCTP,10-L1-9,2019-02-06 16:45:00.0,PmdMin,3.21,CHCGILDTO6Y
MA6813400180,h_OCHCTP,10-L1-9,2019-02-06 16:45:00.0,SoPmdAve,3322.06,CHCGILDTO6Y
MA6813400180,h_OCHCTP,10-L1-10,2019-02-06 16:15:00.0,Qmin,9.39,CHCGILDTO6Y
MA6813400180,h_OCHCTP,10-L1-10,2019-02-06 16:15:00.0,PhaseCorrectionAve,-0.183,CHCGILDTO6Y
MA6813400180,h_OCHCTP,10-L1-10,2019-02-06 16:15:00.0,BerPreFecMax,0.0016,CHCGILDTO6Y
MA6813400180,h_OCHCTP,10-L1-10,2019-02-06 16:15:00.0,PmdMin,10.41,CHCGILDTO6Y
MA6813400180,h_OCHCTP,10-L1-10,2019-02-06 16:15:00.0,SoPmdAve,3320.33,CHCGILDTO6Y
MA6813400180,h_OCHCTP,10-L1-10,2019-02-06 16:30:00.0,Qmin,9.38,CHCGILDTO6Y
MA6813400180,h_OCHCTP,10-L1-10,2019-02-06 16:30:00.0,PhaseCorrectionAve,-0.304,CHCGILDTO6Y
MA6813400180,h_OCHCTP,10-L1-10,2019-02-06 16:30:00.0,BerPreFecMax,0.00161,CHCGILDTO6Y
MA6813400180,h_OCHCTP,10-L1-10,2019-02-06 16:30:00.0,PmdMin,10.27,CHCGILDTO6Y
MA6813400180,h_OCHCTP,10-L1-10,2019-02-06 16:30:00.0,SoPmdAve,3274.81,CHCGILDTO6Y
MA6813400180,h_OCHCTP,10-L1-10,2019-02-06 16:45:00.0,Qmin,9.39,CHCGILDTO6Y
MA6813400180,h_OCHCTP,10-L1-10,2019-02-06 16:45:00.0,PhaseCorrectionAve,-0.244,CHCGILDTO6Y
MA6813400180,h_OCHCTP,10-L1-10,2019-02-06 16:45:00.0,BerPreFecMax,0.0016,CHCGILDTO6Y
MA6813400180,h_OCHCTP,10-L1-10,2019-02-06 16:45:00.0,PmdMin,3.45,CHCGILDTO6Y
MA6813400180,h_OCHCTP,10-L1-10,2019-02-06 16:45:00.0,SoPmdAve,3257.14,CHCGILDTO6Y
MA6813400180,h_OCHCTP,13-L1-1,2019-02-06 16:15:00.0,Qmin,9.11,CHCGILDTO6Y
MA6813400180,h_OCHCTP,13-L1-1,2019-02-06 16:15:00.0,PhaseCorrectionAve,3.03e-07,CHCGILDTO6Y
MA6813400180,h_OCHCTP,13-L1-1,2019-02-06 16:15:00.0,BerPreFecMax,0.00214,CHCGILDTO6Y
MA6813400180,h_OCHCTP,13-L1-1,2019-02-06 16:15:00.0,PmdMin,1.16,CHCGILDTO6Y
MA6813400180,h_OCHCTP,13-L1-1,2019-02-06 16:15:00.0,SoPmdAve,3531.26,CHCGILDTO6Y
MA6813400180,h_OCHCTP,13-L1-1,2019-02-06 16:30:00.0,Qmin,9.17,CHCGILDTO6Y
MA6813400180,h_OCHCTP,13-L1-1,2019-02-06 16:30:00.0,PhaseCorrectionAve,2.53e-07,CHCGILDTO6Y
MA6813400180,h_OCHCTP,13-L1-1,2019-02-06 16:30:00.0,BerPreFecMax,0.00203,CHCGILDTO6Y
MA6813400180,h_OCHCTP,13-L1-1,2019-02-06 16:30:00.0,PmdMin,0.277,CHCGILDTO6Y
MA6813400180,h_OCHCTP,13-L1-1,2019-02-06 16:30:00.0,SoPmdAve,3583.97,CHCGILDTO6Y
MA6813400180,h_OCHCTP,13-L1-1,2019-02-06 16:45:00.0,Qmin,9.11,CHCGILDTO6Y
MA6813400180,h_OCHCTP,13-L1-1,2019-02-06 16:45:00.0,PhaseCorrectionAve,2.62e-07,CHCGILDTO6Y
MA6813400180,h_OCHCTP,13-L1-1,2019-02-06 16:45:00.0,BerPreFecMax,0.00215,CHCGILDTO6Y
MA6813400180,h_OCHCTP,13-L1-1,2019-02-06 16:45:00.0,PmdMin,0.831,CHCGILDTO6Y
MA6813400180,h_OCHCTP,13-L1-1,2019-02-06 16:45:00.0,SoPmdAve,3508.94,CHCGILDTO6Y
MA6813400180,h_OCHCTP,13-L1-2,2019-02-06 16:15:00.0,Qmin,9.09,CHCGILDTO6Y
MA6813400180,h_OCHCTP,13-L1-2,2019-02-06 16:15:00.0,PhaseCorrectionAve,3.8e-07,CHCGILDTO6Y
MA6813400180,h_OCHCTP,13-L1-2,2019-02-06 16:15:00.0,BerPreFecMax,0.00221,CHCGILDTO6Y
MA6813400180,h_OCHCTP,13-L1-2,2019-02-06 16:15:00.0,PmdMin,1.43,CHCGILDTO6Y
MA6813400180,h_OCHCTP,13-L1-2,2019-02-06 16:15:00.0,SoPmdAve,3437.54,CHCGILDTO6Y
MA6813400180,h_OCHCTP,13-L1-2,2019-02-06 16:30:00.0,Qmin,9.05,CHCGILDTO6Y
MA6813400180,h_OCHCTP,13-L1-2,2019-02-06 16:30:00.0,PhaseCorrectionAve,-0.0611,CHCGILDTO6Y
MA6813400180,h_OCHCTP,13-L1-2,2019-02-06 16:30:00.0,BerPreFecMax,0.00229,CHCGILDTO6Y
MA6813400180,h_OCHCTP,13-L1-2,2019-02-06 16:30:00.0,PmdMin,1.47,CHCGILDTO6Y
MA6813400180,h_OCHCTP,13-L1-2,2019-02-06 16:30:00.0,SoPmdAve,3579.48,CHCGILDTO6Y
MA6813400180,h_OCHCTP,13-L1-2,2019-02-06 16:45:00.0,Qmin,9.05,CHCGILDTO6Y
MA6813400180,h_OCHCTP,13-L1-2,2019-02-06 16:45:00.0,PhaseCorrectionAve,3.62e-07,CHCGILDTO6Y
MA6813400180,h_OCHCTP,13-L1-2,2019-02-06 16:45:00.0,BerPreFecMax,0.00229,CHCGILDTO6Y
MA6813400180,h_OCHCTP,13-L1-2,2019-02-06 16:45:00.0,PmdMin,0.966,CHCGILDTO6Y
MA6813400180,h_OCHCTP,13-L1-2,2019-02-06 16:45:00.0,SoPmdAve,3561.43,CHCGILDTO6Y
MA6813400180,h_OCHCTP,13-L1-3,2019-02-06 16:15:00.0,Qmin,8.91,CHCGILDTO6Y
MA6813400180,h_OCHCTP,13-L1-3,2019-02-06 16:15:00.0,PhaseCorrectionAve,4.64e-07,CHCGILDTO6Y
MA6813400180,h_OCHCTP,13-L1-3,2019-02-06 16:15:00.0,BerPreFecMax,0.00265,CHCGILDTO6Y
MA6813400180,h_OCHCTP,13-L1-3,2019-02-06 16:15:00.0,PmdMin,0.525,CHCGILDTO6Y
MA6813400180,h_OCHCTP,13-L1-3,2019-02-06 16:15:00.0,SoPmdAve,2857.27,CHCGILDTO6Y
MA6813400180,h_OCHCTP,13-L1-3,2019-02-06 16:30:00.0,Qmin,8.88,CHCGILDTO6Y
MA6813400180,h_OCHCTP,13-L1-3,2019-02-06 16:30:00.0,PhaseCorrectionAve,-0.0611,CHCGILDTO6Y
MA6813400180,h_OCHCTP,13-L1-3,2019-02-06 16:30:00.0,BerPreFecMax,0.00272,CHCGILDTO6Y
MA6813400180,h_OCHCTP,13-L1-3,2019-02-06 16:30:00.0,PmdMin,0.229,CHCGILDTO6Y
MA6813400180,h_OCHCTP,13-L1-3,2019-02-06 16:30:00.0,SoPmdAve,2853.74,CHCGILDTO6Y
MA6813400180,h_OCHCTP,13-L1-3,2019-02-06 16:45:00.0,Qmin,8.9,CHCGILDTO6Y
MA6813400180,h_OCHCTP,13-L1-3,2019-02-06 16:45:00.0,PhaseCorrectionAve,5.59e-07,CHCGILDTO6Y
MA6813400180,h_OCHCTP,13-L1-3,2019-02-06 16:45:00.0,BerPreFecMax,0.00265,CHCGILDTO6Y
MA6813400180,h_OCHCTP,13-L1-3,2019-02-06 16:45:00.0,PmdMin,0.817,CHCGILDTO6Y
MA6813400180,h_OCHCTP,13-L1-3,2019-02-06 16:45:00.0,SoPmdAve,2928.41,CHCGILDTO6Y
MA6813400180,h_OCHCTP,13-L1-4,2019-02-06 16:15:00.0,Qmin,8.72,CHCGILDTO6Y
MA6813400180,h_OCHCTP,13-L1-4,2019-02-06 16:15:00.0,PhaseCorrectionAve,-0.061,CHCGILDTO6Y
MA6813400180,h_OCHCTP,13-L1-4,2019-02-06 16:15:00.0,BerPreFecMax,0.00319,CHCGILDTO6Y
MA6813400180,h_OCHCTP,13-L1-4,2019-02-06 16:15:00.0,PmdMin,1.08,CHCGILDTO6Y
MA6813400180,h_OCHCTP,13-L1-4,2019-02-06 16:15:00.0,SoPmdAve,3406.49,CHCGILDTO6Y
MA6813400180,h_OCHCTP,13-L1-4,2019-02-06 16:30:00.0,Qmin,8.72,CHCGILDTO6Y
MA6813400180,h_OCHCTP,13-L1-4,2019-02-06 16:30:00.0,PhaseCorrectionAve,-0.0611,CHCGILDTO6Y
MA6813400180,h_OCHCTP,13-L1-4,2019-02-06 16:30:00.0,BerPreFecMax,0.00319,CHCGILDTO6Y
MA6813400180,h_OCHCTP,13-L1-4,2019-02-06 16:30:00.0,PmdMin,0.56,CHCGILDTO6Y
MA6813400180,h_OCHCTP,13-L1-4,2019-02-06 16:30:00.0,SoPmdAve,3406.46,CHCGILDTO6Y
MA6813400180,h_OCHCTP,13-L1-4,2019-02-06 16:45:00.0,Qmin,8.71,CHCGILDTO6Y
MA6813400180,h_OCHCTP,13-L1-4,2019-02-06 16:45:00.0,PhaseCorrectionAve,-0.061,CHCGILDTO6Y
MA6813400180,h_OCHCTP,13-L1-4,2019-02-06 16:45:00.0,BerPreFecMax,0.00321,CHCGILDTO6Y
MA6813400180,h_OCHCTP,13-L1-4,2019-02-06 16:45:00.0,PmdMin,0.848,CHCGILDTO6Y
MA6813400180,h_OCHCTP,13-L1-4,2019-02-06 16:45:00.0,SoPmdAve,3397.15,CHCGILDTO6Y
MA6813400180,h_OCHCTP,13-L1-5,2019-02-06 16:15:00.0,Qmin,8.72,CHCGILDTO6Y
MA6813400180,h_OCHCTP,13-L1-5,2019-02-06 16:15:00.0,PhaseCorrectionAve,-0.061,CHCGILDTO6Y
MA6813400180,h_OCHCTP,13-L1-5,2019-02-06 16:15:00.0,BerPreFecMax,0.00318,CHCGILDTO6Y
MA6813400180,h_OCHCTP,13-L1-5,2019-02-06 16:15:00.0,PmdMin,0.419,CHCGILDTO6Y
MA6813400180,h_OCHCTP,13-L1-5,2019-02-06 16:15:00.0,SoPmdAve,2851.62,CHCGILDTO6Y
MA6813400180,h_OCHCTP,13-L1-5,2019-02-06 16:30:00.0,Qmin,8.67,CHCGILDTO6Y
MA6813400180,h_OCHCTP,13-L1-5,2019-02-06 16:30:00.0,PhaseCorrectionAve,-0.0611,CHCGILDTO6Y
MA6813400180,h_OCHCTP,13-L1-5,2019-02-06 16:30:00.0,BerPreFecMax,0.00334,CHCGILDTO6Y
MA6813400180,h_OCHCTP,13-L1-5,2019-02-06 16:30:00.0,PmdMin,0.131,CHCGILDTO6Y
MA6813400180,h_OCHCTP,13-L1-5,2019-02-06 16:30:00.0,SoPmdAve,2824.44,CHCGILDTO6Y
MA6813400180,h_OCHCTP,13-L1-5,2019-02-06 16:45:00.0,Qmin,8.68,CHCGILDTO6Y
MA6813400180,h_OCHCTP,13-L1-5,2019-02-06 16:45:00.0,PhaseCorrectionAve,-0.061,CHCGILDTO6Y
MA6813400180,h_OCHCTP,13-L1-5,2019-02-06 16:45:00.0,BerPreFecMax,0.00331,CHCGILDTO6Y
MA6813400180,h_OCHCTP,13-L1-5,2019-02-06 16:45:00.0,PmdMin,0.546,CHCGILDTO6Y
MA6813400180,h_OCHCTP,13-L1-5,2019-02-06 16:45:00.0,SoPmdAve,2890.26,CHCGILDTO6Y
MA6813400180,h_OCHCTP,13-L1-6,2019-02-06 16:15:00.0,Qmin,8.77,CHCGILDTO6Y
MA6813400180,h_OCHCTP,13-L1-6,2019-02-06 16:15:00.0,PhaseCorrectionAve,-0.061,CHCGILDTO6Y
MA6813400180,h_OCHCTP,13-L1-6,2019-02-06 16:15:00.0,BerPreFecMax,0.00302,CHCGILDTO6Y
MA6813400180,h_OCHCTP,13-L1-6,2019-02-06 16:15:00.0,PmdMin,0.569,CHCGILDTO6Y
MA6813400180,h_OCHCTP,13-L1-6,2019-02-06 16:15:00.0,SoPmdAve,3024.31,CHCGILDTO6Y
MA6813400180,h_OCHCTP,13-L1-6,2019-02-06 16:30:00.0,Qmin,8.74,CHCGILDTO6Y
MA6813400180,h_OCHCTP,13-L1-6,2019-02-06 16:30:00.0,PhaseCorrectionAve,-0.0611,CHCGILDTO6Y
MA6813400180,h_OCHCTP,13-L1-6,2019-02-06 16:30:00.0,BerPreFecMax,0.00312,CHCGILDTO6Y
MA6813400180,h_OCHCTP,13-L1-6,2019-02-06 16:30:00.0,PmdMin,0.646,CHCGILDTO6Y
MA6813400180,h_OCHCTP,13-L1-6,2019-02-06 16:30:00.0,SoPmdAve,2980.12,CHCGILDTO6Y
MA6813400180,h_OCHCTP,13-L1-6,2019-02-06 16:45:00.0,Qmin,8.67,CHCGILDTO6Y
MA6813400180,h_OCHCTP,13-L1-6,2019-02-06 16:45:00.0,PhaseCorrectionAve,-0.061,CHCGILDTO6Y
MA6813400180,h_OCHCTP,13-L1-6,2019-02-06 16:45:00.0,BerPreFecMax,0.00333,CHCGILDTO6Y
MA6813400180,h_OCHCTP,13-L1-6,2019-02-06 16:45:00.0,PmdMin,0.666,CHCGILDTO6Y
MA6813400180,h_OCHCTP,13-L1-6,2019-02-06 16:45:00.0,SoPmdAve,3092.44,CHCGILDTO6Y
MA6813400180,h_OCHCTP,13-L1-7,2019-02-06 16:15:00.0,Qmin,8.69,CHCGILDTO6Y
MA6813400180,h_OCHCTP,13-L1-7,2019-02-06 16:15:00.0,PhaseCorrectionAve,-0.061,CHCGILDTO6Y
MA6813400180,h_OCHCTP,13-L1-7,2019-02-06 16:15:00.0,BerPreFecMax,0.00328,CHCGILDTO6Y
MA6813400180,h_OCHCTP,13-L1-7,2019-02-06 16:15:00.0,PmdMin,1.73,CHCGILDTO6Y
MA6813400180,h_OCHCTP,13-L1-7,2019-02-06 16:15:00.0,SoPmdAve,3661.16,CHCGILDTO6Y
MA6813400180,h_OCHCTP,13-L1-7,2019-02-06 16:30:00.0,Qmin,8.74,CHCGILDTO6Y
MA6813400180,h_OCHCTP,13-L1-7,2019-02-06 16:30:00.0,PhaseCorrectionAve,-0.122,CHCGILDTO6Y
MA6813400180,h_OCHCTP,13-L1-7,2019-02-06 16:30:00.0,BerPreFecMax,0.00311,CHCGILDTO6Y
MA6813400180,h_OCHCTP,13-L1-7,2019-02-06 16:30:00.0,PmdMin,1.04,CHCGILDTO6Y
MA6813400180,h_OCHCTP,13-L1-7,2019-02-06 16:30:00.0,SoPmdAve,3727.18,CHCGILDTO6Y
MA6813400180,h_OCHCTP,13-L1-7,2019-02-06 16:45:00.0,Qmin,8.71,CHCGILDTO6Y
MA6813400180,h_OCHCTP,13-L1-7,2019-02-06 16:45:00.0,PhaseCorrectionAve,-0.061,CHCGILDTO6Y
MA6813400180,h_OCHCTP,13-L1-7,2019-02-06 16:45:00.0,BerPreFecMax,0.0032,CHCGILDTO6Y
MA6813400180,h_OCHCTP,13-L1-7,2019-02-06 16:45:00.0,PmdMin,0.868,CHCGILDTO6Y
MA6813400180,h_OCHCTP,13-L1-7,2019-02-06 16:45:00.0,SoPmdAve,3700.49,CHCGILDTO6Y
MA6813400180,h_OCHCTP,13-L1-8,2019-02-06 16:15:00.0,Qmin,8.74,CHCGILDTO6Y
MA6813400180,h_OCHCTP,13-L1-8,2019-02-06 16:15:00.0,PhaseCorrectionAve,-0.061,CHCGILDTO6Y
MA6813400180,h_OCHCTP,13-L1-8,2019-02-06 16:15:00.0,BerPreFecMax,0.0031,CHCGILDTO6Y
MA6813400180,h_OCHCTP,13-L1-8,2019-02-06 16:15:00.0,PmdMin,1.4,CHCGILDTO6Y
MA6813400180,h_OCHCTP,13-L1-8,2019-02-06 16:15:00.0,SoPmdAve,3786.69,CHCGILDTO6Y
MA6813400180,h_OCHCTP,13-L1-8,2019-02-06 16:30:00.0,Qmin,8.8,CHCGILDTO6Y
MA6813400180,h_OCHCTP,13-L1-8,2019-02-06 16:30:00.0,PhaseCorrectionAve,-0.122,CHCGILDTO6Y
MA6813400180,h_OCHCTP,13-L1-8,2019-02-06 16:30:00.0,BerPreFecMax,0.00295,CHCGILDTO6Y
MA6813400180,h_OCHCTP,13-L1-8,2019-02-06 16:30:00.0,PmdMin,1.37,CHCGILDTO6Y
MA6813400180,h_OCHCTP,13-L1-8,2019-02-06 16:30:00.0,SoPmdAve,3800.69,CHCGILDTO6Y
MA6813400180,h_OCHCTP,13-L1-8,2019-02-06 16:45:00.0,Qmin,8.79,CHCGILDTO6Y
MA6813400180,h_OCHCTP,13-L1-8,2019-02-06 16:45:00.0,PhaseCorrectionAve,-0.122,CHCGILDTO6Y
MA6813400180,h_OCHCTP,13-L1-8,2019-02-06 16:45:00.0,BerPreFecMax,0.00296,CHCGILDTO6Y
MA6813400180,h_OCHCTP,13-L1-8,2019-02-06 16:45:00.0,PmdMin,1.67,CHCGILDTO6Y
MA6813400180,h_OCHCTP,13-L1-8,2019-02-06 16:45:00.0,SoPmdAve,3888.84,CHCGILDTO6Y
MA6813400180,h_OCHCTP,13-L1-9,2019-02-06 16:15:00.0,Qmin,8.75,CHCGILDTO6Y
MA6813400180,h_OCHCTP,13-L1-9,2019-02-06 16:15:00.0,PhaseCorrectionAve,-0.061,CHCGILDTO6Y
MA6813400180,h_OCHCTP,13-L1-9,2019-02-06 16:15:00.0,BerPreFecMax,0.00307,CHCGILDTO6Y
MA6813400180,h_OCHCTP,13-L1-9,2019-02-06 16:15:00.0,PmdMin,0.322,CHCGILDTO6Y
MA6813400180,h_OCHCTP,13-L1-9,2019-02-06 16:15:00.0,SoPmdAve,3445.48,CHCGILDTO6Y
MA6813400180,h_OCHCTP,13-L1-9,2019-02-06 16:30:00.0,Qmin,8.76,CHCGILDTO6Y
MA6813400180,h_OCHCTP,13-L1-9,2019-02-06 16:30:00.0,PhaseCorrectionAve,-0.183,CHCGILDTO6Y
MA6813400180,h_OCHCTP,13-L1-9,2019-02-06 16:30:00.0,BerPreFecMax,0.00307,CHCGILDTO6Y
MA6813400180,h_OCHCTP,13-L1-9,2019-02-06 16:30:00.0,PmdMin,0.803,CHCGILDTO6Y
MA6813400180,h_OCHCTP,13-L1-9,2019-02-06 16:30:00.0,SoPmdAve,3517.5,CHCGILDTO6Y
MA6813400180,h_OCHCTP,13-L1-9,2019-02-06 16:45:00.0,Qmin,8.72,CHCGILDTO6Y
MA6813400180,h_OCHCTP,13-L1-9,2019-02-06 16:45:00.0,PhaseCorrectionAve,-0.122,CHCGILDTO6Y
MA6813400180,h_OCHCTP,13-L1-9,2019-02-06 16:45:00.0,BerPreFecMax,0.00318,CHCGILDTO6Y
MA6813400180,h_OCHCTP,13-L1-9,2019-02-06 16:45:00.0,PmdMin,1.23,CHCGILDTO6Y
MA6813400180,h_OCHCTP,13-L1-9,2019-02-06 16:45:00.0,SoPmdAve,3529.83,CHCGILDTO6Y
MA6813400180,h_OCHCTP,13-L1-10,2019-02-06 16:15:00.0,Qmin,8.56,CHCGILDTO6Y
MA6813400180,h_OCHCTP,13-L1-10,2019-02-06 16:15:00.0,PhaseCorrectionAve,-0.061,CHCGILDTO6Y
MA6813400180,h_OCHCTP,13-L1-10,2019-02-06 16:15:00.0,BerPreFecMax,0.00369,CHCGILDTO6Y
MA6813400180,h_OCHCTP,13-L1-10,2019-02-06 16:15:00.0,PmdMin,0.47,CHCGILDTO6Y
MA6813400180,h_OCHCTP,13-L1-10,2019-02-06 16:15:00.0,SoPmdAve,3821.36,CHCGILDTO6Y
MA6813400180,h_OCHCTP,13-L1-10,2019-02-06 16:30:00.0,Qmin,8.6,CHCGILDTO6Y
MA6813400180,h_OCHCTP,13-L1-10,2019-02-06 16:30:00.0,PhaseCorrectionAve,-0.183,CHCGILDTO6Y
MA6813400180,h_OCHCTP,13-L1-10,2019-02-06 16:30:00.0,BerPreFecMax,0.00356,CHCGILDTO6Y
MA6813400180,h_OCHCTP,13-L1-10,2019-02-06 16:30:00.0,PmdMin,0.901,CHCGILDTO6Y
MA6813400180,h_OCHCTP,13-L1-10,2019-02-06 16:30:00.0,SoPmdAve,3868.31,CHCGILDTO6Y
MA6813400180,h_OCHCTP,13-L1-10,2019-02-06 16:45:00.0,Qmin,8.61,CHCGILDTO6Y
MA6813400180,h_OCHCTP,13-L1-10,2019-02-06 16:45:00.0,PhaseCorrectionAve,-0.122,CHCGILDTO6Y
MA6813400180,h_OCHCTP,13-L1-10,2019-02-06 16:45:00.0,BerPreFecMax,0.00353,CHCGILDTO6Y
MA6813400180,h_OCHCTP,13-L1-10,2019-02-06 16:45:00.0,PmdMin,1.62,CHCGILDTO6Y
MA6813400180,h_OCHCTP,13-L1-10,2019-02-06 16:45:00.0,SoPmdAve,3879.09,CHCGILDTO6Y
