MA6813400180,h_OCHCTP,11-L1-1,2019-02-01 15:15:00.0,Qmin,9.19,CHCGILDTO6Y
MA6813400180,h_OCHCTP,11-L1-1,2019-02-01 15:15:00.0,PhaseCorrectionAve,1.09e-07,CHCGILDTO6Y
MA6813400180,h_OCHCTP,11-L1-1,2019-02-01 15:15:00.0,BerPreFecMax,0.00199,CHCGILDTO6Y
MA6813400180,h_OCHCTP,11-L1-1,2019-02-01 15:15:00.0,PmdMin,0.999,CHCGILDTO6Y
MA6813400180,h_OCHCTP,11-L1-1,2019-02-01 15:15:00.0,SoPmdAve,3350.3,CHCGILDTO6Y
MA6813400180,h_OCHCTP,11-L1-1,2019-02-01 15:30:00.0,Qmin,9.16,CHCGILDTO6Y
MA6813400180,h_OCHCTP,11-L1-1,2019-02-01 15:30:00.0,PhaseCorrectionAve,1.11e-07,CHCGILDTO6Y
MA6813400180,h_OCHCTP,11-L1-1,2019-02-01 15:30:00.0,BerPreFecMax,0.00205,CHCGILDTO6Y
MA6813400180,h_OCHCTP,11-L1-1,2019-02-01 15:30:00.0,PmdMin,0.887,CHCGILDTO6Y
MA6813400180,h_OCHCTP,11-L1-1,2019-02-01 15:30:00.0,SoPmdAve,3417.19,CHCGILDTO6Y
MA6813400180,h_OCHCTP,11-L1-1,2019-02-01 15:45:00.0,Qmin,9.1,CHCGILDTO6Y
MA6813400180,h_OCHCTP,11-L1-1,2019-02-01 15:45:00.0,PhaseCorrectionAve,-0.0609,CHCGILDTO6Y
MA6813400180,h_OCHCTP,11-L1-1,2019-02-01 15:45:00.0,BerPreFecMax,0.00219,CHCGILDTO6Y
MA6813400180,h_OCHCTP,11-L1-1,2019-02-01 15:45:00.0,PmdMin,0.94,CHCGILDTO6Y
MA6813400180,h_OCHCTP,11-L1-1,2019-02-01 15:45:00.0,SoPmdAve,3387.22,CHCGILDTO6Y
MA6813400180,h_OCHCTP,11-L1-2,2019-02-01 15:15:00.0,Qmin,9.01,CHCGILDTO6Y
MA6813400180,h_OCHCTP,11-L1-2,2019-02-01 15:15:00.0,PhaseCorrectionAve,-0.061,CHCGILDTO6Y
MA6813400180,h_OCHCTP,11-L1-2,2019-02-01 15:15:00.0,BerPreFecMax,0.00239,CHCGILDTO6Y
MA6813400180,h_OCHCTP,11-L1-2,2019-02-01 15:15:00.0,PmdMin,1.07,CHCGILDTO6Y
MA6813400180,h_OCHCTP,11-L1-2,2019-02-01 15:15:00.0,SoPmdAve,3091.36,CHCGILDTO6Y
MA6813400180,h_OCHCTP,11-L1-2,2019-02-01 15:30:00.0,Qmin,9.06,CHCGILDTO6Y
MA6813400180,h_OCHCTP,11-L1-2,2019-02-01 15:30:00.0,PhaseCorrectionAve,3.39e-07,CHCGILDTO6Y
MA6813400180,h_OCHCTP,11-L1-2,2019-02-01 15:30:00.0,BerPreFecMax,0.00228,CHCGILDTO6Y
MA6813400180,h_OCHCTP,11-L1-2,2019-02-01 15:30:00.0,PmdMin,1.18,CHCGILDTO6Y
MA6813400180,h_OCHCTP,11-L1-2,2019-02-01 15:30:00.0,SoPmdAve,3189.96,CHCGILDTO6Y
MA6813400180,h_OCHCTP,11-L1-2,2019-02-01 15:45:00.0,Qmin,8.99,CHCGILDTO6Y
MA6813400180,h_OCHCTP,11-L1-2,2019-02-01 15:45:00.0,PhaseCorrectionAve,-0.0609,CHCGILDTO6Y
MA6813400180,h_OCHCTP,11-L1-2,2019-02-01 15:45:00.0,BerPreFecMax,0.00244,CHCGILDTO6Y
MA6813400180,h_OCHCTP,11-L1-2,2019-02-01 15:45:00.0,PmdMin,1.42,CHCGILDTO6Y
MA6813400180,h_OCHCTP,11-L1-2,2019-02-01 15:45:00.0,SoPmdAve,3172.07,CHCGILDTO6Y
MA6813400180,h_OCHCTP,11-L1-3,2019-02-01 15:15:00.0,Qmin,9.0,CHCGILDTO6Y
MA6813400180,h_OCHCTP,11-L1-3,2019-02-01 15:15:00.0,PhaseCorrectionAve,-0.061,CHCGILDTO6Y
MA6813400180,h_OCHCTP,11-L1-3,2019-02-01 15:15:00.0,BerPreFecMax,0.00241,CHCGILDTO6Y
MA6813400180,h_OCHCTP,11-L1-3,2019-02-01 15:15:00.0,PmdMin,0.84,CHCGILDTO6Y
MA6813400180,h_OCHCTP,11-L1-3,2019-02-01 15:15:00.0,SoPmdAve,2790.79,CHCGILDTO6Y
MA6813400180,h_OCHCTP,11-L1-3,2019-02-01 15:30:00.0,Qmin,8.94,CHCGILDTO6Y
MA6813400180,h_OCHCTP,11-L1-3,2019-02-01 15:30:00.0,PhaseCorrectionAve,-0.0611,CHCGILDTO6Y
MA6813400180,h_OCHCTP,11-L1-3,2019-02-01 15:30:00.0,BerPreFecMax,0.00255,CHCGILDTO6Y
MA6813400180,h_OCHCTP,11-L1-3,2019-02-01 15:30:00.0,PmdMin,1.01,CHCGILDTO6Y
MA6813400180,h_OCHCTP,11-L1-3,2019-02-01 15:30:00.0,SoPmdAve,2796.4,CHCGILDTO6Y
MA6813400180,h_OCHCTP,11-L1-3,2019-02-01 15:45:00.0,Qmin,8.88,CHCGILDTO6Y
MA6813400180,h_OCHCTP,11-L1-3,2019-02-01 15:45:00.0,PhaseCorrectionAve,-0.0609,CHCGILDTO6Y
MA6813400180,h_OCHCTP,11-L1-3,2019-02-01 15:45:00.0,BerPreFecMax,0.00271,CHCGILDTO6Y
MA6813400180,h_OCHCTP,11-L1-3,2019-02-01 15:45:00.0,PmdMin,1.08,CHCGILDTO6Y
MA6813400180,h_OCHCTP,11-L1-3,2019-02-01 15:45:00.0,SoPmdAve,2738.09,CHCGILDTO6Y
MA6813400180,h_OCHCTP,11-L1-4,2019-02-01 15:15:00.0,Qmin,8.83,CHCGILDTO6Y
MA6813400180,h_OCHCTP,11-L1-4,2019-02-01 15:15:00.0,PhaseCorrectionAve,-0.061,CHCGILDTO6Y
MA6813400180,h_OCHCTP,11-L1-4,2019-02-01 15:15:00.0,BerPreFecMax,0.00287,CHCGILDTO6Y
MA6813400180,h_OCHCTP,11-L1-4,2019-02-01 15:15:00.0,PmdMin,0.492,CHCGILDTO6Y
MA6813400180,h_OCHCTP,11-L1-4,2019-02-01 15:15:00.0,SoPmdAve,2993.81,CHCGILDTO6Y
MA6813400180,h_OCHCTP,11-L1-4,2019-02-01 15:30:00.0,Qmin,8.85,CHCGILDTO6Y
MA6813400180,h_OCHCTP,11-L1-4,2019-02-01 15:30:00.0,PhaseCorrectionAve,-0.0611,CHCGILDTO6Y
MA6813400180,h_OCHCTP,11-L1-4,2019-02-01 15:30:00.0,BerPreFecMax,0.0028,CHCGILDTO6Y
MA6813400180,h_OCHCTP,11-L1-4,2019-02-01 15:30:00.0,PmdMin,0.499,CHCGILDTO6Y
MA6813400180,h_OCHCTP,11-L1-4,2019-02-01 15:30:00.0,SoPmdAve,2998.79,CHCGILDTO6Y
MA6813400180,h_OCHCTP,11-L1-4,2019-02-01 15:45:00.0,Qmin,8.73,CHCGILDTO6Y
MA6813400180,h_OCHCTP,11-L1-4,2019-02-01 15:45:00.0,PhaseCorrectionAve,-0.0609,CHCGILDTO6Y
MA6813400180,h_OCHCTP,11-L1-4,2019-02-01 15:45:00.0,BerPreFecMax,0.00316,CHCGILDTO6Y
MA6813400180,h_OCHCTP,11-L1-4,2019-02-01 15:45:00.0,PmdMin,0.961,CHCGILDTO6Y
MA6813400180,h_OCHCTP,11-L1-4,2019-02-01 15:45:00.0,SoPmdAve,2944.56,CHCGILDTO6Y
MA6813400180,h_OCHCTP,11-L1-5,2019-02-01 15:15:00.0,Qmin,8.86,CHCGILDTO6Y
MA6813400180,h_OCHCTP,11-L1-5,2019-02-01 15:15:00.0,PhaseCorrectionAve,-0.061,CHCGILDTO6Y
MA6813400180,h_OCHCTP,11-L1-5,2019-02-01 15:15:00.0,BerPreFecMax,0.00277,CHCGILDTO6Y
MA6813400180,h_OCHCTP,11-L1-5,2019-02-01 15:15:00.0,PmdMin,1.16,CHCGILDTO6Y
MA6813400180,h_OCHCTP,11-L1-5,2019-02-01 15:15:00.0,SoPmdAve,2573.16,CHCGILDTO6Y
MA6813400180,h_OCHCTP,11-L1-5,2019-02-01 15:30:00.0,Qmin,8.9,CHCGILDTO6Y
MA6813400180,h_OCHCTP,11-L1-5,2019-02-01 15:30:00.0,PhaseCorrectionAve,-0.0611,CHCGILDTO6Y
MA6813400180,h_OCHCTP,11-L1-5,2019-02-01 15:30:00.0,BerPreFecMax,0.00267,CHCGILDTO6Y
MA6813400180,h_OCHCTP,11-L1-5,2019-02-01 15:30:00.0,PmdMin,0.787,CHCGILDTO6Y
MA6813400180,h_OCHCTP,11-L1-5,2019-02-01 15:30:00.0,SoPmdAve,2543.14,CHCGILDTO6Y
MA6813400180,h_OCHCTP,11-L1-5,2019-02-01 15:45:00.0,Qmin,8.88,CHCGILDTO6Y
MA6813400180,h_OCHCTP,11-L1-5,2019-02-01 15:45:00.0,PhaseCorrectionAve,-0.0609,CHCGILDTO6Y
MA6813400180,h_OCHCTP,11-L1-5,2019-02-01 15:45:00.0,BerPreFecMax,0.00272,CHCGILDTO6Y
MA6813400180,h_OCHCTP,11-L1-5,2019-02-01 15:45:00.0,PmdMin,0.298,CHCGILDTO6Y
MA6813400180,h_OCHCTP,11-L1-5,2019-02-01 15:45:00.0,SoPmdAve,2620.96,CHCGILDTO6Y
MA6813400180,h_OCHCTP,11-L1-6,2019-02-01 15:15:00.0,Qmin,8.79,CHCGILDTO6Y
MA6813400180,h_OCHCTP,11-L1-6,2019-02-01 15:15:00.0,PhaseCorrectionAve,-0.061,CHCGILDTO6Y
MA6813400180,h_OCHCTP,11-L1-6,2019-02-01 15:15:00.0,BerPreFecMax,0.00298,CHCGILDTO6Y
MA6813400180,h_OCHCTP,11-L1-6,2019-02-01 15:15:00.0,PmdMin,0.634,CHCGILDTO6Y
MA6813400180,h_OCHCTP,11-L1-6,2019-02-01 15:15:00.0,SoPmdAve,2564.39,CHCGILDTO6Y
MA6813400180,h_OCHCTP,11-L1-6,2019-02-01 15:30:00.0,Qmin,8.81,CHCGILDTO6Y
MA6813400180,h_OCHCTP,11-L1-6,2019-02-01 15:30:00.0,PhaseCorrectionAve,-0.122,CHCGILDTO6Y
MA6813400180,h_OCHCTP,11-L1-6,2019-02-01 15:30:00.0,BerPreFecMax,0.00292,CHCGILDTO6Y
MA6813400180,h_OCHCTP,11-L1-6,2019-02-01 15:30:00.0,PmdMin,1.13,CHCGILDTO6Y
MA6813400180,h_OCHCTP,11-L1-6,2019-02-01 15:30:00.0,SoPmdAve,2523.98,CHCGILDTO6Y
MA6813400180,h_OCHCTP,11-L1-6,2019-02-01 15:45:00.0,Qmin,8.79,CHCGILDTO6Y
MA6813400180,h_OCHCTP,11-L1-6,2019-02-01 15:45:00.0,PhaseCorrectionAve,-0.0609,CHCGILDTO6Y
MA6813400180,h_OCHCTP,11-L1-6,2019-02-01 15:45:00.0,BerPreFecMax,0.00296,CHCGILDTO6Y
MA6813400180,h_OCHCTP,11-L1-6,2019-02-01 15:45:00.0,PmdMin,1.11,CHCGILDTO6Y
MA6813400180,h_OCHCTP,11-L1-6,2019-02-01 15:45:00.0,SoPmdAve,2499.66,CHCGILDTO6Y
MA6813400180,h_OCHCTP,11-L1-7,2019-02-01 15:15:00.0,Qmin,8.94,CHCGILDTO6Y
MA6813400180,h_OCHCTP,11-L1-7,2019-02-01 15:15:00.0,PhaseCorrectionAve,-0.122,CHCGILDTO6Y
MA6813400180,h_OCHCTP,11-L1-7,2019-02-01 15:15:00.0,BerPreFecMax,0.00256,CHCGILDTO6Y
MA6813400180,h_OCHCTP,11-L1-7,2019-02-01 15:15:00.0,PmdMin,0.47,CHCGILDTO6Y
MA6813400180,h_OCHCTP,11-L1-7,2019-02-01 15:15:00.0,SoPmdAve,2963.26,CHCGILDTO6Y
MA6813400180,h_OCHCTP,11-L1-7,2019-02-01 15:30:00.0,Qmin,8.94,CHCGILDTO6Y
MA6813400180,h_OCHCTP,11-L1-7,2019-02-01 15:30:00.0,PhaseCorrectionAve,-0.183,CHCGILDTO6Y
MA6813400180,h_OCHCTP,11-L1-7,2019-02-01 15:30:00.0,BerPreFecMax,0.00257,CHCGILDTO6Y
MA6813400180,h_OCHCTP,11-L1-7,2019-02-01 15:30:00.0,PmdMin,0.878,CHCGILDTO6Y
MA6813400180,h_OCHCTP,11-L1-7,2019-02-01 15:30:00.0,SoPmdAve,2937.24,CHCGILDTO6Y
MA6813400180,h_OCHCTP,11-L1-7,2019-02-01 15:45:00.0,Qmin,8.87,CHCGILDTO6Y
MA6813400180,h_OCHCTP,11-L1-7,2019-02-01 15:45:00.0,PhaseCorrectionAve,-0.0609,CHCGILDTO6Y
MA6813400180,h_OCHCTP,11-L1-7,2019-02-01 15:45:00.0,BerPreFecMax,0.00274,CHCGILDTO6Y
MA6813400180,h_OCHCTP,11-L1-7,2019-02-01 15:45:00.0,PmdMin,1.17,CHCGILDTO6Y
MA6813400180,h_OCHCTP,11-L1-7,2019-02-01 15:45:00.0,SoPmdAve,2976.42,CHCGILDTO6Y
MA6813400180,h_OCHCTP,11-L1-8,2019-02-01 15:15:00.0,Qmin,8.98,CHCGILDTO6Y
MA6813400180,h_OCHCTP,11-L1-8,2019-02-01 15:15:00.0,PhaseCorrectionAve,-0.122,CHCGILDTO6Y
MA6813400180,h_OCHCTP,11-L1-8,2019-02-01 15:15:00.0,BerPreFecMax,0.00246,CHCGILDTO6Y
MA6813400180,h_OCHCTP,11-L1-8,2019-02-01 15:15:00.0,PmdMin,0.799,CHCGILDTO6Y
MA6813400180,h_OCHCTP,11-L1-8,2019-02-01 15:15:00.0,SoPmdAve,2995.4,CHCGILDTO6Y
MA6813400180,h_OCHCTP,11-L1-8,2019-02-01 15:30:00.0,Qmin,8.93,CHCGILDTO6Y
MA6813400180,h_OCHCTP,11-L1-8,2019-02-01 15:30:00.0,PhaseCorrectionAve,-0.183,CHCGILDTO6Y
MA6813400180,h_OCHCTP,11-L1-8,2019-02-01 15:30:00.0,BerPreFecMax,0.00258,CHCGILDTO6Y
MA6813400180,h_OCHCTP,11-L1-8,2019-02-01 15:30:00.0,PmdMin,0.498,CHCGILDTO6Y
MA6813400180,h_OCHCTP,11-L1-8,2019-02-01 15:30:00.0,SoPmdAve,3060.35,CHCGILDTO6Y
MA6813400180,h_OCHCTP,11-L1-8,2019-02-01 15:45:00.0,Qmin,8.98,CHCGILDTO6Y
MA6813400180,h_OCHCTP,11-L1-8,2019-02-01 15:45:00.0,PhaseCorrectionAve,-0.122,CHCGILDTO6Y
MA6813400180,h_OCHCTP,11-L1-8,2019-02-01 15:45:00.0,BerPreFecMax,0.00245,CHCGILDTO6Y
MA6813400180,h_OCHCTP,11-L1-8,2019-02-01 15:45:00.0,PmdMin,0.993,CHCGILDTO6Y
MA6813400180,h_OCHCTP,11-L1-8,2019-02-01 15:45:00.0,SoPmdAve,3181.19,CHCGILDTO6Y
MA6813400180,h_OCHCTP,11-L1-9,2019-02-01 15:15:00.0,Qmin,8.86,CHCGILDTO6Y
MA6813400180,h_OCHCTP,11-L1-9,2019-02-01 15:15:00.0,PhaseCorrectionAve,-0.122,CHCGILDTO6Y
MA6813400180,h_OCHCTP,11-L1-9,2019-02-01 15:15:00.0,BerPreFecMax,0.00278,CHCGILDTO6Y
MA6813400180,h_OCHCTP,11-L1-9,2019-02-01 15:15:00.0,PmdMin,1.3,CHCGILDTO6Y
MA6813400180,h_OCHCTP,11-L1-9,2019-02-01 15:15:00.0,SoPmdAve,2988.09,CHCGILDTO6Y
MA6813400180,h_OCHCTP,11-L1-9,2019-02-01 15:30:00.0,Qmin,8.84,CHCGILDTO6Y
MA6813400180,h_OCHCTP,11-L1-9,2019-02-01 15:30:00.0,PhaseCorrectionAve,-0.244,CHCGILDTO6Y
MA6813400180,h_OCHCTP,11-L1-9,2019-02-01 15:30:00.0,BerPreFecMax,0.00284,CHCGILDTO6Y
MA6813400180,h_OCHCTP,11-L1-9,2019-02-01 15:30:00.0,PmdMin,0.19,CHCGILDTO6Y
MA6813400180,h_OCHCTP,11-L1-9,2019-02-01 15:30:00.0,SoPmdAve,2946.48,CHCGILDTO6Y
MA6813400180,h_OCHCTP,11-L1-9,2019-02-01 15:45:00.0,Qmin,8.84,CHCGILDTO6Y
MA6813400180,h_OCHCTP,11-L1-9,2019-02-01 15:45:00.0,PhaseCorrectionAve,-0.122,CHCGILDTO6Y
MA6813400180,h_OCHCTP,11-L1-9,2019-02-01 15:45:00.0,BerPreFecMax,0.00283,CHCGILDTO6Y
MA6813400180,h_OCHCTP,11-L1-9,2019-02-01 15:45:00.0,PmdMin,1.01,CHCGILDTO6Y
MA6813400180,h_OCHCTP,11-L1-9,2019-02-01 15:45:00.0,SoPmdAve,2919.16,CHCGILDTO6Y
MA6813400180,h_OCHCTP,11-L1-10,2019-02-01 15:15:00.0,Qmin,8.96,CHCGILDTO6Y
MA6813400180,h_OCHCTP,11-L1-10,2019-02-01 15:15:00.0,PhaseCorrectionAve,-0.122,CHCGILDTO6Y
MA6813400180,h_OCHCTP,11-L1-10,2019-02-01 15:15:00.0,BerPreFecMax,0.00252,CHCGILDTO6Y
MA6813400180,h_OCHCTP,11-L1-10,2019-02-01 15:15:00.0,PmdMin,0.619,CHCGILDTO6Y
MA6813400180,h_OCHCTP,11-L1-10,2019-02-01 15:15:00.0,SoPmdAve,3054.77,CHCGILDTO6Y
MA6813400180,h_OCHCTP,11-L1-10,2019-02-01 15:30:00.0,Qmin,8.97,CHCGILDTO6Y
MA6813400180,h_OCHCTP,11-L1-10,2019-02-01 15:30:00.0,PhaseCorrectionAve,-0.244,CHCGILDTO6Y
MA6813400180,h_OCHCTP,11-L1-10,2019-02-01 15:30:00.0,BerPreFecMax,0.00248,CHCGILDTO6Y
MA6813400180,h_OCHCTP,11-L1-10,2019-02-01 15:30:00.0,PmdMin,0.716,CHCGILDTO6Y
MA6813400180,h_OCHCTP,11-L1-10,2019-02-01 15:30:00.0,SoPmdAve,3079.55,CHCGILDTO6Y
MA6813400180,h_OCHCTP,11-L1-10,2019-02-01 15:45:00.0,Qmin,8.98,CHCGILDTO6Y
MA6813400180,h_OCHCTP,11-L1-10,2019-02-01 15:45:00.0,PhaseCorrectionAve,-0.122,CHCGILDTO6Y
MA6813400180,h_OCHCTP,11-L1-10,2019-02-01 15:45:00.0,BerPreFecMax,0.00247,CHCGILDTO6Y
MA6813400180,h_OCHCTP,11-L1-10,2019-02-01 15:45:00.0,PmdMin,0.988,CHCGILDTO6Y
MA6813400180,h_OCHCTP,11-L1-10,2019-02-01 15:45:00.0,SoPmdAve,3086.1,CHCGILDTO6Y
MA6813400180,h_OCHCTP,10-L1-1,2019-02-01 15:15:00.0,Qmin,9.47,CHCGILDTO6Y
MA6813400180,h_OCHCTP,10-L1-1,2019-02-01 15:15:00.0,PhaseCorrectionAve,3.86e-07,CHCGILDTO6Y
MA6813400180,h_OCHCTP,10-L1-1,2019-02-01 15:15:00.0,BerPreFecMax,0.00146,CHCGILDTO6Y
MA6813400180,h_OCHCTP,10-L1-1,2019-02-01 15:15:00.0,PmdMin,3.2,CHCGILDTO6Y
MA6813400180,h_OCHCTP,10-L1-1,2019-02-01 15:15:00.0,SoPmdAve,3532.78,CHCGILDTO6Y
MA6813400180,h_OCHCTP,10-L1-1,2019-02-01 15:30:00.0,Qmin,9.49,CHCGILDTO6Y
MA6813400180,h_OCHCTP,10-L1-1,2019-02-01 15:30:00.0,PhaseCorrectionAve,3.83e-07,CHCGILDTO6Y
MA6813400180,h_OCHCTP,10-L1-1,2019-02-01 15:30:00.0,BerPreFecMax,0.00143,CHCGILDTO6Y
MA6813400180,h_OCHCTP,10-L1-1,2019-02-01 15:30:00.0,PmdMin,2.53,CHCGILDTO6Y
MA6813400180,h_OCHCTP,10-L1-1,2019-02-01 15:30:00.0,SoPmdAve,3595.71,CHCGILDTO6Y
MA6813400180,h_OCHCTP,10-L1-1,2019-02-01 15:45:00.0,Qmin,9.47,CHCGILDTO6Y
MA6813400180,h_OCHCTP,10-L1-1,2019-02-01 15:45:00.0,PhaseCorrectionAve,3.93e-07,CHCGILDTO6Y
MA6813400180,h_OCHCTP,10-L1-1,2019-02-01 15:45:00.0,BerPreFecMax,0.00146,CHCGILDTO6Y
MA6813400180,h_OCHCTP,10-L1-1,2019-02-01 15:45:00.0,PmdMin,0.926,CHCGILDTO6Y
MA6813400180,h_OCHCTP,10-L1-1,2019-02-01 15:45:00.0,SoPmdAve,3515.56,CHCGILDTO6Y
MA6813400180,h_OCHCTP,10-L1-2,2019-02-01 15:15:00.0,Qmin,9.18,CHCGILDTO6Y
MA6813400180,h_OCHCTP,10-L1-2,2019-02-01 15:15:00.0,PhaseCorrectionAve,-0.061,CHCGILDTO6Y
MA6813400180,h_OCHCTP,10-L1-2,2019-02-01 15:15:00.0,BerPreFecMax,0.00201,CHCGILDTO6Y
MA6813400180,h_OCHCTP,10-L1-2,2019-02-01 15:15:00.0,PmdMin,2.27,CHCGILDTO6Y
MA6813400180,h_OCHCTP,10-L1-2,2019-02-01 15:15:00.0,SoPmdAve,3314.3,CHCGILDTO6Y
MA6813400180,h_OCHCTP,10-L1-2,2019-02-01 15:30:00.0,Qmin,9.17,CHCGILDTO6Y
MA6813400180,h_OCHCTP,10-L1-2,2019-02-01 15:30:00.0,PhaseCorrectionAve,-0.122,CHCGILDTO6Y
MA6813400180,h_OCHCTP,10-L1-2,2019-02-01 15:30:00.0,BerPreFecMax,0.00202,CHCGILDTO6Y
MA6813400180,h_OCHCTP,10-L1-2,2019-02-01 15:30:00.0,PmdMin,2.36,CHCGILDTO6Y
MA6813400180,h_OCHCTP,10-L1-2,2019-02-01 15:30:00.0,SoPmdAve,3345.34,CHCGILDTO6Y
MA6813400180,h_OCHCTP,10-L1-2,2019-02-01 15:45:00.0,Qmin,9.15,CHCGILDTO6Y
MA6813400180,h_OCHCTP,10-L1-2,2019-02-01 15:45:00.0,PhaseCorrectionAve,-0.061,CHCGILDTO6Y
MA6813400180,h_OCHCTP,10-L1-2,2019-02-01 15:45:00.0,BerPreFecMax,0.00206,CHCGILDTO6Y
MA6813400180,h_OCHCTP,10-L1-2,2019-02-01 15:45:00.0,PmdMin,3.59,CHCGILDTO6Y
MA6813400180,h_OCHCTP,10-L1-2,2019-02-01 15:45:00.0,SoPmdAve,3257.49,CHCGILDTO6Y
MA6813400180,h_OCHCTP,10-L1-3,2019-02-01 15:15:00.0,Qmin,8.9,CHCGILDTO6Y
MA6813400180,h_OCHCTP,10-L1-3,2019-02-01 15:15:00.0,PhaseCorrectionAve,-0.061,CHCGILDTO6Y
MA6813400180,h_OCHCTP,10-L1-3,2019-02-01 15:15:00.0,BerPreFecMax,0.00268,CHCGILDTO6Y
MA6813400180,h_OCHCTP,10-L1-3,2019-02-01 15:15:00.0,PmdMin,3.76,CHCGILDTO6Y
MA6813400180,h_OCHCTP,10-L1-3,2019-02-01 15:15:00.0,SoPmdAve,2868.99,CHCGILDTO6Y
MA6813400180,h_OCHCTP,10-L1-3,2019-02-01 15:30:00.0,Qmin,8.89,CHCGILDTO6Y
MA6813400180,h_OCHCTP,10-L1-3,2019-02-01 15:30:00.0,PhaseCorrectionAve,-0.122,CHCGILDTO6Y
MA6813400180,h_OCHCTP,10-L1-3,2019-02-01 15:30:00.0,BerPreFecMax,0.0027,CHCGILDTO6Y
MA6813400180,h_OCHCTP,10-L1-3,2019-02-01 15:30:00.0,PmdMin,5.19,CHCGILDTO6Y
MA6813400180,h_OCHCTP,10-L1-3,2019-02-01 15:30:00.0,SoPmdAve,2769.9,CHCGILDTO6Y
MA6813400180,h_OCHCTP,10-L1-3,2019-02-01 15:45:00.0,Qmin,8.86,CHCGILDTO6Y
MA6813400180,h_OCHCTP,10-L1-3,2019-02-01 15:45:00.0,PhaseCorrectionAve,-0.061,CHCGILDTO6Y
MA6813400180,h_OCHCTP,10-L1-3,2019-02-01 15:45:00.0,BerPreFecMax,0.00278,CHCGILDTO6Y
MA6813400180,h_OCHCTP,10-L1-3,2019-02-01 15:45:00.0,PmdMin,6.17,CHCGILDTO6Y
MA6813400180,h_OCHCTP,10-L1-3,2019-02-01 15:45:00.0,SoPmdAve,2865.89,CHCGILDTO6Y
MA6813400180,h_OCHCTP,10-L1-4,2019-02-01 15:15:00.0,Qmin,8.28,CHCGILDTO6Y
MA6813400180,h_OCHCTP,10-L1-4,2019-02-01 15:15:00.0,PhaseCorrectionAve,-0.061,CHCGILDTO6Y
MA6813400180,h_OCHCTP,10-L1-4,2019-02-01 15:15:00.0,BerPreFecMax,0.00472,CHCGILDTO6Y
MA6813400180,h_OCHCTP,10-L1-4,2019-02-01 15:15:00.0,PmdMin,0.565,CHCGILDTO6Y
MA6813400180,h_OCHCTP,10-L1-4,2019-02-01 15:15:00.0,SoPmdAve,2987.09,CHCGILDTO6Y
MA6813400180,h_OCHCTP,10-L1-4,2019-02-01 15:30:00.0,Qmin,8.27,CHCGILDTO6Y
MA6813400180,h_OCHCTP,10-L1-4,2019-02-01 15:30:00.0,PhaseCorrectionAve,-0.122,CHCGILDTO6Y
MA6813400180,h_OCHCTP,10-L1-4,2019-02-01 15:30:00.0,BerPreFecMax,0.00476,CHCGILDTO6Y
MA6813400180,h_OCHCTP,10-L1-4,2019-02-01 15:30:00.0,PmdMin,2.08,CHCGILDTO6Y
MA6813400180,h_OCHCTP,10-L1-4,2019-02-01 15:30:00.0,SoPmdAve,3021.83,CHCGILDTO6Y
MA6813400180,h_OCHCTP,10-L1-4,2019-02-01 15:45:00.0,Qmin,8.26,CHCGILDTO6Y
MA6813400180,h_OCHCTP,10-L1-4,2019-02-01 15:45:00.0,PhaseCorrectionAve,-0.061,CHCGILDTO6Y
MA6813400180,h_OCHCTP,10-L1-4,2019-02-01 15:45:00.0,BerPreFecMax,0.00483,CHCGILDTO6Y
MA6813400180,h_OCHCTP,10-L1-4,2019-02-01 15:45:00.0,PmdMin,0.749,CHCGILDTO6Y
MA6813400180,h_OCHCTP,10-L1-4,2019-02-01 15:45:00.0,SoPmdAve,3066.45,CHCGILDTO6Y
MA6813400180,h_OCHCTP,10-L1-5,2019-02-01 15:15:00.0,Qmin,8.45,CHCGILDTO6Y
MA6813400180,h_OCHCTP,10-L1-5,2019-02-01 15:15:00.0,PhaseCorrectionAve,-0.061,CHCGILDTO6Y
MA6813400180,h_OCHCTP,10-L1-5,2019-02-01 15:15:00.0,BerPreFecMax,0.00408,CHCGILDTO6Y
MA6813400180,h_OCHCTP,10-L1-5,2019-02-01 15:15:00.0,PmdMin,1.7,CHCGILDTO6Y
MA6813400180,h_OCHCTP,10-L1-5,2019-02-01 15:15:00.0,SoPmdAve,2797.62,CHCGILDTO6Y
MA6813400180,h_OCHCTP,10-L1-5,2019-02-01 15:30:00.0,Qmin,8.45,CHCGILDTO6Y
MA6813400180,h_OCHCTP,10-L1-5,2019-02-01 15:30:00.0,PhaseCorrectionAve,-0.122,CHCGILDTO6Y
MA6813400180,h_OCHCTP,10-L1-5,2019-02-01 15:30:00.0,BerPreFecMax,0.00408,CHCGILDTO6Y
MA6813400180,h_OCHCTP,10-L1-5,2019-02-01 15:30:00.0,PmdMin,1.34,CHCGILDTO6Y
MA6813400180,h_OCHCTP,10-L1-5,2019-02-01 15:30:00.0,SoPmdAve,2851.6,CHCGILDTO6Y
MA6813400180,h_OCHCTP,10-L1-5,2019-02-01 15:45:00.0,Qmin,8.45,CHCGILDTO6Y
MA6813400180,h_OCHCTP,10-L1-5,2019-02-01 15:45:00.0,PhaseCorrectionAve,-0.061,CHCGILDTO6Y
MA6813400180,h_OCHCTP,10-L1-5,2019-02-01 15:45:00.0,BerPreFecMax,0.00407,CHCGILDTO6Y
MA6813400180,h_OCHCTP,10-L1-5,2019-02-01 15:45:00.0,PmdMin,2.4,CHCGILDTO6Y
MA6813400180,h_OCHCTP,10-L1-5,2019-02-01 15:45:00.0,SoPmdAve,2895.43,CHCGILDTO6Y
MA6813400180,h_OCHCTP,10-L1-6,2019-02-01 15:15:00.0,Qmin,8.69,CHCGILDTO6Y
MA6813400180,h_OCHCTP,10-L1-6,2019-02-01 15:15:00.0,PhaseCorrectionAve,-0.061,CHCGILDTO6Y
MA6813400180,h_OCHCTP,10-L1-6,2019-02-01 15:15:00.0,BerPreFecMax,0.00328,CHCGILDTO6Y
MA6813400180,h_OCHCTP,10-L1-6,2019-02-01 15:15:00.0,PmdMin,1.15,CHCGILDTO6Y
MA6813400180,h_OCHCTP,10-L1-6,2019-02-01 15:15:00.0,SoPmdAve,2780.4,CHCGILDTO6Y
MA6813400180,h_OCHCTP,10-L1-6,2019-02-01 15:30:00.0,Qmin,8.67,CHCGILDTO6Y
MA6813400180,h_OCHCTP,10-L1-6,2019-02-01 15:30:00.0,PhaseCorrectionAve,-0.122,CHCGILDTO6Y
MA6813400180,h_OCHCTP,10-L1-6,2019-02-01 15:30:00.0,BerPreFecMax,0.00333,CHCGILDTO6Y
MA6813400180,h_OCHCTP,10-L1-6,2019-02-01 15:30:00.0,PmdMin,2.98,CHCGILDTO6Y
MA6813400180,h_OCHCTP,10-L1-6,2019-02-01 15:30:00.0,SoPmdAve,2801.25,CHCGILDTO6Y
MA6813400180,h_OCHCTP,10-L1-6,2019-02-01 15:45:00.0,Qmin,8.66,CHCGILDTO6Y
MA6813400180,h_OCHCTP,10-L1-6,2019-02-01 15:45:00.0,PhaseCorrectionAve,-0.122,CHCGILDTO6Y
MA6813400180,h_OCHCTP,10-L1-6,2019-02-01 15:45:00.0,BerPreFecMax,0.00337,CHCGILDTO6Y
MA6813400180,h_OCHCTP,10-L1-6,2019-02-01 15:45:00.0,PmdMin,4.83,CHCGILDTO6Y
MA6813400180,h_OCHCTP,10-L1-6,2019-02-01 15:45:00.0,SoPmdAve,2758.53,CHCGILDTO6Y
MA6813400180,h_OCHCTP,10-L1-7,2019-02-01 15:15:00.0,Qmin,8.8,CHCGILDTO6Y
MA6813400180,h_OCHCTP,10-L1-7,2019-02-01 15:15:00.0,PhaseCorrectionAve,-0.061,CHCGILDTO6Y
MA6813400180,h_OCHCTP,10-L1-7,2019-02-01 15:15:00.0,BerPreFecMax,0.00295,CHCGILDTO6Y
MA6813400180,h_OCHCTP,10-L1-7,2019-02-01 15:15:00.0,PmdMin,0.887,CHCGILDTO6Y
MA6813400180,h_OCHCTP,10-L1-7,2019-02-01 15:15:00.0,SoPmdAve,3511.18,CHCGILDTO6Y
MA6813400180,h_OCHCTP,10-L1-7,2019-02-01 15:30:00.0,Qmin,8.8,CHCGILDTO6Y
MA6813400180,h_OCHCTP,10-L1-7,2019-02-01 15:30:00.0,PhaseCorrectionAve,-0.183,CHCGILDTO6Y
MA6813400180,h_OCHCTP,10-L1-7,2019-02-01 15:30:00.0,BerPreFecMax,0.00293,CHCGILDTO6Y
MA6813400180,h_OCHCTP,10-L1-7,2019-02-01 15:30:00.0,PmdMin,1.16,CHCGILDTO6Y
MA6813400180,h_OCHCTP,10-L1-7,2019-02-01 15:30:00.0,SoPmdAve,3512.4,CHCGILDTO6Y
MA6813400180,h_OCHCTP,10-L1-7,2019-02-01 15:45:00.0,Qmin,8.79,CHCGILDTO6Y
MA6813400180,h_OCHCTP,10-L1-7,2019-02-01 15:45:00.0,PhaseCorrectionAve,-0.122,CHCGILDTO6Y
MA6813400180,h_OCHCTP,10-L1-7,2019-02-01 15:45:00.0,BerPreFecMax,0.00298,CHCGILDTO6Y
MA6813400180,h_OCHCTP,10-L1-7,2019-02-01 15:45:00.0,PmdMin,0.79,CHCGILDTO6Y
MA6813400180,h_OCHCTP,10-L1-7,2019-02-01 15:45:00.0,SoPmdAve,3551.39,CHCGILDTO6Y
MA6813400180,h_OCHCTP,10-L1-8,2019-02-01 15:15:00.0,Qmin,9.3,CHCGILDTO6Y
MA6813400180,h_OCHCTP,10-L1-8,2019-02-01 15:15:00.0,PhaseCorrectionAve,-0.122,CHCGILDTO6Y
MA6813400180,h_OCHCTP,10-L1-8,2019-02-01 15:15:00.0,BerPreFecMax,0.00177,CHCGILDTO6Y
MA6813400180,h_OCHCTP,10-L1-8,2019-02-01 15:15:00.0,PmdMin,0.979,CHCGILDTO6Y
MA6813400180,h_OCHCTP,10-L1-8,2019-02-01 15:15:00.0,SoPmdAve,3332.05,CHCGILDTO6Y
MA6813400180,h_OCHCTP,10-L1-8,2019-02-01 15:30:00.0,Qmin,9.3,CHCGILDTO6Y
MA6813400180,h_OCHCTP,10-L1-8,2019-02-01 15:30:00.0,PhaseCorrectionAve,-0.183,CHCGILDTO6Y
MA6813400180,h_OCHCTP,10-L1-8,2019-02-01 15:30:00.0,BerPreFecMax,0.00177,CHCGILDTO6Y
MA6813400180,h_OCHCTP,10-L1-8,2019-02-01 15:30:00.0,PmdMin,0.67,CHCGILDTO6Y
MA6813400180,h_OCHCTP,10-L1-8,2019-02-01 15:30:00.0,SoPmdAve,3345.26,CHCGILDTO6Y
MA6813400180,h_OCHCTP,10-L1-8,2019-02-01 15:45:00.0,Qmin,9.3,CHCGILDTO6Y
MA6813400180,h_OCHCTP,10-L1-8,2019-02-01 15:45:00.0,PhaseCorrectionAve,-0.122,CHCGILDTO6Y
MA6813400180,h_OCHCTP,10-L1-8,2019-02-01 15:45:00.0,BerPreFecMax,0.00177,CHCGILDTO6Y
MA6813400180,h_OCHCTP,10-L1-8,2019-02-01 15:45:00.0,PmdMin,1.12,CHCGILDTO6Y
MA6813400180,h_OCHCTP,10-L1-8,2019-02-01 15:45:00.0,SoPmdAve,3342.52,CHCGILDTO6Y
MA6813400180,h_OCHCTP,10-L1-9,2019-02-01 15:15:00.0,Qmin,9.32,CHCGILDTO6Y
MA6813400180,h_OCHCTP,10-L1-9,2019-02-01 15:15:00.0,PhaseCorrectionAve,-0.122,CHCGILDTO6Y
MA6813400180,h_OCHCTP,10-L1-9,2019-02-01 15:15:00.0,BerPreFecMax,0.00172,CHCGILDTO6Y
MA6813400180,h_OCHCTP,10-L1-9,2019-02-01 15:15:00.0,PmdMin,1.41,CHCGILDTO6Y
MA6813400180,h_OCHCTP,10-L1-9,2019-02-01 15:15:00.0,SoPmdAve,3309.89,CHCGILDTO6Y
MA6813400180,h_OCHCTP,10-L1-9,2019-02-01 15:30:00.0,Qmin,9.33,CHCGILDTO6Y
MA6813400180,h_OCHCTP,10-L1-9,2019-02-01 15:30:00.0,PhaseCorrectionAve,-0.183,CHCGILDTO6Y
MA6813400180,h_OCHCTP,10-L1-9,2019-02-01 15:30:00.0,BerPreFecMax,0.00171,CHCGILDTO6Y
MA6813400180,h_OCHCTP,10-L1-9,2019-02-01 15:30:00.0,PmdMin,0.817,CHCGILDTO6Y
MA6813400180,h_OCHCTP,10-L1-9,2019-02-01 15:30:00.0,SoPmdAve,3456.79,CHCGILDTO6Y
MA6813400180,h_OCHCTP,10-L1-9,2019-02-01 15:45:00.0,Qmin,9.32,CHCGILDTO6Y
MA6813400180,h_OCHCTP,10-L1-9,2019-02-01 15:45:00.0,PhaseCorrectionAve,-0.122,CHCGILDTO6Y
MA6813400180,h_OCHCTP,10-L1-9,2019-02-01 15:45:00.0,BerPreFecMax,0.00172,CHCGILDTO6Y
MA6813400180,h_OCHCTP,10-L1-9,2019-02-01 15:45:00.0,PmdMin,0.75,CHCGILDTO6Y
MA6813400180,h_OCHCTP,10-L1-9,2019-02-01 15:45:00.0,SoPmdAve,3394.44,CHCGILDTO6Y
MA6813400180,h_OCHCTP,10-L1-10,2019-02-01 15:15:00.0,Qmin,9.36,CHCGILDTO6Y
MA6813400180,h_OCHCTP,10-L1-10,2019-02-01 15:15:00.0,PhaseCorrectionAve,-0.122,CHCGILDTO6Y
MA6813400180,h_OCHCTP,10-L1-10,2019-02-01 15:15:00.0,BerPreFecMax,0.00166,CHCGILDTO6Y
MA6813400180,h_OCHCTP,10-L1-10,2019-02-01 15:15:00.0,PmdMin,2.53,CHCGILDTO6Y
MA6813400180,h_OCHCTP,10-L1-10,2019-02-01 15:15:00.0,SoPmdAve,3415.08,CHCGILDTO6Y
MA6813400180,h_OCHCTP,10-L1-10,2019-02-01 15:30:00.0,Qmin,9.35,CHCGILDTO6Y
MA6813400180,h_OCHCTP,10-L1-10,2019-02-01 15:30:00.0,PhaseCorrectionAve,-0.183,CHCGILDTO6Y
MA6813400180,h_OCHCTP,10-L1-10,2019-02-01 15:30:00.0,BerPreFecMax,0.00168,CHCGILDTO6Y
MA6813400180,h_OCHCTP,10-L1-10,2019-02-01 15:30:00.0,PmdMin,5.42,CHCGILDTO6Y
MA6813400180,h_OCHCTP,10-L1-10,2019-02-01 15:30:00.0,SoPmdAve,3367.48,CHCGILDTO6Y
MA6813400180,h_OCHCTP,10-L1-10,2019-02-01 15:45:00.0,Qmin,9.35,CHCGILDTO6Y
MA6813400180,h_OCHCTP,10-L1-10,2019-02-01 15:45:00.0,PhaseCorrectionAve,-0.122,CHCGILDTO6Y
MA6813400180,h_OCHCTP,10-L1-10,2019-02-01 15:45:00.0,BerPreFecMax,0.00167,CHCGILDTO6Y
MA6813400180,h_OCHCTP,10-L1-10,2019-02-01 15:45:00.0,PmdMin,5.96,CHCGILDTO6Y
MA6813400180,h_OCHCTP,10-L1-10,2019-02-01 15:45:00.0,SoPmdAve,3272.38,CHCGILDTO6Y
MA6813400180,h_OCHCTP,13-L1-1,2019-02-01 15:15:00.0,Qmin,9.19,CHCGILDTO6Y
MA6813400180,h_OCHCTP,13-L1-1,2019-02-01 15:15:00.0,PhaseCorrectionAve,2.24e-07,CHCGILDTO6Y
MA6813400180,h_OCHCTP,13-L1-1,2019-02-01 15:15:00.0,BerPreFecMax,0.00199,CHCGILDTO6Y
MA6813400180,h_OCHCTP,13-L1-1,2019-02-01 15:15:00.0,PmdMin,1.09,CHCGILDTO6Y
MA6813400180,h_OCHCTP,13-L1-1,2019-02-01 15:15:00.0,SoPmdAve,3612.25,CHCGILDTO6Y
MA6813400180,h_OCHCTP,13-L1-1,2019-02-01 15:30:00.0,Qmin,9.16,CHCGILDTO6Y
MA6813400180,h_OCHCTP,13-L1-1,2019-02-01 15:30:00.0,PhaseCorrectionAve,2.33e-07,CHCGILDTO6Y
MA6813400180,h_OCHCTP,13-L1-1,2019-02-01 15:30:00.0,BerPreFecMax,0.00205,CHCGILDTO6Y
MA6813400180,h_OCHCTP,13-L1-1,2019-02-01 15:30:00.0,PmdMin,1.01,CHCGILDTO6Y
MA6813400180,h_OCHCTP,13-L1-1,2019-02-01 15:30:00.0,SoPmdAve,3559.91,CHCGILDTO6Y
MA6813400180,h_OCHCTP,13-L1-1,2019-02-01 15:45:00.0,Qmin,9.1,CHCGILDTO6Y
MA6813400180,h_OCHCTP,13-L1-1,2019-02-01 15:45:00.0,PhaseCorrectionAve,2.58e-07,CHCGILDTO6Y
MA6813400180,h_OCHCTP,13-L1-1,2019-02-01 15:45:00.0,BerPreFecMax,0.00217,CHCGILDTO6Y
MA6813400180,h_OCHCTP,13-L1-1,2019-02-01 15:45:00.0,PmdMin,1.05,CHCGILDTO6Y
MA6813400180,h_OCHCTP,13-L1-1,2019-02-01 15:45:00.0,SoPmdAve,3554.26,CHCGILDTO6Y
MA6813400180,h_OCHCTP,13-L1-2,2019-02-01 15:15:00.0,Qmin,9.1,CHCGILDTO6Y
MA6813400180,h_OCHCTP,13-L1-2,2019-02-01 15:15:00.0,PhaseCorrectionAve,3.76e-07,CHCGILDTO6Y
MA6813400180,h_OCHCTP,13-L1-2,2019-02-01 15:15:00.0,BerPreFecMax,0.00217,CHCGILDTO6Y
MA6813400180,h_OCHCTP,13-L1-2,2019-02-01 15:15:00.0,PmdMin,0.741,CHCGILDTO6Y
MA6813400180,h_OCHCTP,13-L1-2,2019-02-01 15:15:00.0,SoPmdAve,3608.71,CHCGILDTO6Y
MA6813400180,h_OCHCTP,13-L1-2,2019-02-01 15:30:00.0,Qmin,9.15,CHCGILDTO6Y
MA6813400180,h_OCHCTP,13-L1-2,2019-02-01 15:30:00.0,PhaseCorrectionAve,-0.061,CHCGILDTO6Y
MA6813400180,h_OCHCTP,13-L1-2,2019-02-01 15:30:00.0,BerPreFecMax,0.00206,CHCGILDTO6Y
MA6813400180,h_OCHCTP,13-L1-2,2019-02-01 15:30:00.0,PmdMin,0.745,CHCGILDTO6Y
MA6813400180,h_OCHCTP,13-L1-2,2019-02-01 15:30:00.0,SoPmdAve,3548.55,CHCGILDTO6Y
MA6813400180,h_OCHCTP,13-L1-2,2019-02-01 15:45:00.0,Qmin,9.04,CHCGILDTO6Y
MA6813400180,h_OCHCTP,13-L1-2,2019-02-01 15:45:00.0,PhaseCorrectionAve,-0.061,CHCGILDTO6Y
MA6813400180,h_OCHCTP,13-L1-2,2019-02-01 15:45:00.0,BerPreFecMax,0.00233,CHCGILDTO6Y
MA6813400180,h_OCHCTP,13-L1-2,2019-02-01 15:45:00.0,PmdMin,1.38,CHCGILDTO6Y
MA6813400180,h_OCHCTP,13-L1-2,2019-02-01 15:45:00.0,SoPmdAve,3482.79,CHCGILDTO6Y
MA6813400180,h_OCHCTP,13-L1-3,2019-02-01 15:15:00.0,Qmin,9.0,CHCGILDTO6Y
MA6813400180,h_OCHCTP,13-L1-3,2019-02-01 15:15:00.0,PhaseCorrectionAve,4.22e-07,CHCGILDTO6Y
MA6813400180,h_OCHCTP,13-L1-3,2019-02-01 15:15:00.0,BerPreFecMax,0.00241,CHCGILDTO6Y
MA6813400180,h_OCHCTP,13-L1-3,2019-02-01 15:15:00.0,PmdMin,0.781,CHCGILDTO6Y
MA6813400180,h_OCHCTP,13-L1-3,2019-02-01 15:15:00.0,SoPmdAve,2926.92,CHCGILDTO6Y
MA6813400180,h_OCHCTP,13-L1-3,2019-02-01 15:30:00.0,Qmin,8.99,CHCGILDTO6Y
MA6813400180,h_OCHCTP,13-L1-3,2019-02-01 15:30:00.0,PhaseCorrectionAve,-0.061,CHCGILDTO6Y
MA6813400180,h_OCHCTP,13-L1-3,2019-02-01 15:30:00.0,BerPreFecMax,0.00244,CHCGILDTO6Y
MA6813400180,h_OCHCTP,13-L1-3,2019-02-01 15:30:00.0,PmdMin,0.62,CHCGILDTO6Y
MA6813400180,h_OCHCTP,13-L1-3,2019-02-01 15:30:00.0,SoPmdAve,2734.49,CHCGILDTO6Y
MA6813400180,h_OCHCTP,13-L1-3,2019-02-01 15:45:00.0,Qmin,8.86,CHCGILDTO6Y
MA6813400180,h_OCHCTP,13-L1-3,2019-02-01 15:45:00.0,PhaseCorrectionAve,-0.061,CHCGILDTO6Y
MA6813400180,h_OCHCTP,13-L1-3,2019-02-01 15:45:00.0,BerPreFecMax,0.00277,CHCGILDTO6Y
MA6813400180,h_OCHCTP,13-L1-3,2019-02-01 15:45:00.0,PmdMin,0.792,CHCGILDTO6Y
MA6813400180,h_OCHCTP,13-L1-3,2019-02-01 15:45:00.0,SoPmdAve,2883.08,CHCGILDTO6Y
MA6813400180,h_OCHCTP,13-L1-4,2019-02-01 15:15:00.0,Qmin,8.8,CHCGILDTO6Y
MA6813400180,h_OCHCTP,13-L1-4,2019-02-01 15:15:00.0,PhaseCorrectionAve,-0.061,CHCGILDTO6Y
MA6813400180,h_OCHCTP,13-L1-4,2019-02-01 15:15:00.0,BerPreFecMax,0.00295,CHCGILDTO6Y
MA6813400180,h_OCHCTP,13-L1-4,2019-02-01 15:15:00.0,PmdMin,0.998,CHCGILDTO6Y
MA6813400180,h_OCHCTP,13-L1-4,2019-02-01 15:15:00.0,SoPmdAve,3485.33,CHCGILDTO6Y
MA6813400180,h_OCHCTP,13-L1-4,2019-02-01 15:30:00.0,Qmin,8.8,CHCGILDTO6Y
MA6813400180,h_OCHCTP,13-L1-4,2019-02-01 15:30:00.0,PhaseCorrectionAve,-0.122,CHCGILDTO6Y
MA6813400180,h_OCHCTP,13-L1-4,2019-02-01 15:30:00.0,BerPreFecMax,0.00293,CHCGILDTO6Y
MA6813400180,h_OCHCTP,13-L1-4,2019-02-01 15:30:00.0,PmdMin,0.946,CHCGILDTO6Y
MA6813400180,h_OCHCTP,13-L1-4,2019-02-01 15:30:00.0,SoPmdAve,3414.92,CHCGILDTO6Y
MA6813400180,h_OCHCTP,13-L1-4,2019-02-01 15:45:00.0,Qmin,8.6,CHCGILDTO6Y
MA6813400180,h_OCHCTP,13-L1-4,2019-02-01 15:45:00.0,PhaseCorrectionAve,-0.183,CHCGILDTO6Y
MA6813400180,h_OCHCTP,13-L1-4,2019-02-01 15:45:00.0,BerPreFecMax,0.00357,CHCGILDTO6Y
MA6813400180,h_OCHCTP,13-L1-4,2019-02-01 15:45:00.0,PmdMin,0.832,CHCGILDTO6Y
MA6813400180,h_OCHCTP,13-L1-4,2019-02-01 15:45:00.0,SoPmdAve,3442.22,CHCGILDTO6Y
MA6813400180,h_OCHCTP,13-L1-5,2019-02-01 15:15:00.0,Qmin,8.78,CHCGILDTO6Y
MA6813400180,h_OCHCTP,13-L1-5,2019-02-01 15:15:00.0,PhaseCorrectionAve,-0.061,CHCGILDTO6Y
MA6813400180,h_OCHCTP,13-L1-5,2019-02-01 15:15:00.0,BerPreFecMax,0.00301,CHCGILDTO6Y
MA6813400180,h_OCHCTP,13-L1-5,2019-02-01 15:15:00.0,PmdMin,0.698,CHCGILDTO6Y
MA6813400180,h_OCHCTP,13-L1-5,2019-02-01 15:15:00.0,SoPmdAve,2726.49,CHCGILDTO6Y
MA6813400180,h_OCHCTP,13-L1-5,2019-02-01 15:30:00.0,Qmin,8.81,CHCGILDTO6Y
MA6813400180,h_OCHCTP,13-L1-5,2019-02-01 15:30:00.0,PhaseCorrectionAve,-0.183,CHCGILDTO6Y
MA6813400180,h_OCHCTP,13-L1-5,2019-02-01 15:30:00.0,BerPreFecMax,0.00291,CHCGILDTO6Y
MA6813400180,h_OCHCTP,13-L1-5,2019-02-01 15:30:00.0,PmdMin,0.322,CHCGILDTO6Y
MA6813400180,h_OCHCTP,13-L1-5,2019-02-01 15:30:00.0,SoPmdAve,2868.9,CHCGILDTO6Y
MA6813400180,h_OCHCTP,13-L1-5,2019-02-01 15:45:00.0,Qmin,8.76,CHCGILDTO6Y
MA6813400180,h_OCHCTP,13-L1-5,2019-02-01 15:45:00.0,PhaseCorrectionAve,-0.183,CHCGILDTO6Y
MA6813400180,h_OCHCTP,13-L1-5,2019-02-01 15:45:00.0,BerPreFecMax,0.00307,CHCGILDTO6Y
MA6813400180,h_OCHCTP,13-L1-5,2019-02-01 15:45:00.0,PmdMin,0.684,CHCGILDTO6Y
MA6813400180,h_OCHCTP,13-L1-5,2019-02-01 15:45:00.0,SoPmdAve,2777.8,CHCGILDTO6Y
MA6813400180,h_OCHCTP,13-L1-6,2019-02-01 15:15:00.0,Qmin,8.78,CHCGILDTO6Y
MA6813400180,h_OCHCTP,13-L1-6,2019-02-01 15:15:00.0,PhaseCorrectionAve,-0.061,CHCGILDTO6Y
MA6813400180,h_OCHCTP,13-L1-6,2019-02-01 15:15:00.0,BerPreFecMax,0.00301,CHCGILDTO6Y
MA6813400180,h_OCHCTP,13-L1-6,2019-02-01 15:15:00.0,PmdMin,0.741,CHCGILDTO6Y
MA6813400180,h_OCHCTP,13-L1-6,2019-02-01 15:15:00.0,SoPmdAve,3031.83,CHCGILDTO6Y
MA6813400180,h_OCHCTP,13-L1-6,2019-02-01 15:30:00.0,Qmin,8.81,CHCGILDTO6Y
MA6813400180,h_OCHCTP,13-L1-6,2019-02-01 15:30:00.0,PhaseCorrectionAve,-0.183,CHCGILDTO6Y
MA6813400180,h_OCHCTP,13-L1-6,2019-02-01 15:30:00.0,BerPreFecMax,0.00291,CHCGILDTO6Y
MA6813400180,h_OCHCTP,13-L1-6,2019-02-01 15:30:00.0,PmdMin,0.458,CHCGILDTO6Y
MA6813400180,h_OCHCTP,13-L1-6,2019-02-01 15:30:00.0,SoPmdAve,3100.16,CHCGILDTO6Y
MA6813400180,h_OCHCTP,13-L1-6,2019-02-01 15:45:00.0,Qmin,8.81,CHCGILDTO6Y
MA6813400180,h_OCHCTP,13-L1-6,2019-02-01 15:45:00.0,PhaseCorrectionAve,-0.244,CHCGILDTO6Y
MA6813400180,h_OCHCTP,13-L1-6,2019-02-01 15:45:00.0,BerPreFecMax,0.00291,CHCGILDTO6Y
MA6813400180,h_OCHCTP,13-L1-6,2019-02-01 15:45:00.0,PmdMin,0.825,CHCGILDTO6Y
MA6813400180,h_OCHCTP,13-L1-6,2019-02-01 15:45:00.0,SoPmdAve,2987.04,CHCGILDTO6Y
MA6813400180,h_OCHCTP,13-L1-7,2019-02-01 15:15:00.0,Qmin,8.88,CHCGILDTO6Y
MA6813400180,h_OCHCTP,13-L1-7,2019-02-01 15:15:00.0,PhaseCorrectionAve,-0.061,CHCGILDTO6Y
MA6813400180,h_OCHCTP,13-L1-7,2019-02-01 15:15:00.0,BerPreFecMax,0.00273,CHCGILDTO6Y
MA6813400180,h_OCHCTP,13-L1-7,2019-02-01 15:15:00.0,PmdMin,1.06,CHCGILDTO6Y
MA6813400180,h_OCHCTP,13-L1-7,2019-02-01 15:15:00.0,SoPmdAve,3701.68,CHCGILDTO6Y
MA6813400180,h_OCHCTP,13-L1-7,2019-02-01 15:30:00.0,Qmin,8.85,CHCGILDTO6Y
MA6813400180,h_OCHCTP,13-L1-7,2019-02-01 15:30:00.0,PhaseCorrectionAve,-0.183,CHCGILDTO6Y
MA6813400180,h_OCHCTP,13-L1-7,2019-02-01 15:30:00.0,BerPreFecMax,0.0028,CHCGILDTO6Y
MA6813400180,h_OCHCTP,13-L1-7,2019-02-01 15:30:00.0,PmdMin,1.63,CHCGILDTO6Y
MA6813400180,h_OCHCTP,13-L1-7,2019-02-01 15:30:00.0,SoPmdAve,3691.94,CHCGILDTO6Y
MA6813400180,h_OCHCTP,13-L1-7,2019-02-01 15:45:00.0,Qmin,8.81,CHCGILDTO6Y
MA6813400180,h_OCHCTP,13-L1-7,2019-02-01 15:45:00.0,PhaseCorrectionAve,-0.244,CHCGILDTO6Y
MA6813400180,h_OCHCTP,13-L1-7,2019-02-01 15:45:00.0,BerPreFecMax,0.00291,CHCGILDTO6Y
MA6813400180,h_OCHCTP,13-L1-7,2019-02-01 15:45:00.0,PmdMin,1.31,CHCGILDTO6Y
MA6813400180,h_OCHCTP,13-L1-7,2019-02-01 15:45:00.0,SoPmdAve,3733.14,CHCGILDTO6Y
MA6813400180,h_OCHCTP,13-L1-8,2019-02-01 15:15:00.0,Qmin,8.92,CHCGILDTO6Y
MA6813400180,h_OCHCTP,13-L1-8,2019-02-01 15:15:00.0,PhaseCorrectionAve,-0.061,CHCGILDTO6Y
MA6813400180,h_OCHCTP,13-L1-8,2019-02-01 15:15:00.0,BerPreFecMax,0.00261,CHCGILDTO6Y
MA6813400180,h_OCHCTP,13-L1-8,2019-02-01 15:15:00.0,PmdMin,0.701,CHCGILDTO6Y
MA6813400180,h_OCHCTP,13-L1-8,2019-02-01 15:15:00.0,SoPmdAve,3728.5,CHCGILDTO6Y
MA6813400180,h_OCHCTP,13-L1-8,2019-02-01 15:30:00.0,Qmin,8.88,CHCGILDTO6Y
MA6813400180,h_OCHCTP,13-L1-8,2019-02-01 15:30:00.0,PhaseCorrectionAve,-0.244,CHCGILDTO6Y
MA6813400180,h_OCHCTP,13-L1-8,2019-02-01 15:30:00.0,BerPreFecMax,0.00272,CHCGILDTO6Y
MA6813400180,h_OCHCTP,13-L1-8,2019-02-01 15:30:00.0,PmdMin,0.971,CHCGILDTO6Y
MA6813400180,h_OCHCTP,13-L1-8,2019-02-01 15:30:00.0,SoPmdAve,3748.44,CHCGILDTO6Y
MA6813400180,h_OCHCTP,13-L1-8,2019-02-01 15:45:00.0,Qmin,8.9,CHCGILDTO6Y
MA6813400180,h_OCHCTP,13-L1-8,2019-02-01 15:45:00.0,PhaseCorrectionAve,-0.244,CHCGILDTO6Y
MA6813400180,h_OCHCTP,13-L1-8,2019-02-01 15:45:00.0,BerPreFecMax,0.00265,CHCGILDTO6Y
MA6813400180,h_OCHCTP,13-L1-8,2019-02-01 15:45:00.0,PmdMin,1.13,CHCGILDTO6Y
MA6813400180,h_OCHCTP,13-L1-8,2019-02-01 15:45:00.0,SoPmdAve,3814.65,CHCGILDTO6Y
MA6813400180,h_OCHCTP,13-L1-9,2019-02-01 15:15:00.0,Qmin,8.84,CHCGILDTO6Y
MA6813400180,h_OCHCTP,13-L1-9,2019-02-01 15:15:00.0,PhaseCorrectionAve,-0.061,CHCGILDTO6Y
MA6813400180,h_OCHCTP,13-L1-9,2019-02-01 15:15:00.0,BerPreFecMax,0.00282,CHCGILDTO6Y
MA6813400180,h_OCHCTP,13-L1-9,2019-02-01 15:15:00.0,PmdMin,1.23,CHCGILDTO6Y
MA6813400180,h_OCHCTP,13-L1-9,2019-02-01 15:15:00.0,SoPmdAve,3570.15,CHCGILDTO6Y
MA6813400180,h_OCHCTP,13-L1-9,2019-02-01 15:30:00.0,Qmin,8.78,CHCGILDTO6Y
MA6813400180,h_OCHCTP,13-L1-9,2019-02-01 15:30:00.0,PhaseCorrectionAve,-0.244,CHCGILDTO6Y
MA6813400180,h_OCHCTP,13-L1-9,2019-02-01 15:30:00.0,BerPreFecMax,0.00299,CHCGILDTO6Y
MA6813400180,h_OCHCTP,13-L1-9,2019-02-01 15:30:00.0,PmdMin,1.25,CHCGILDTO6Y
MA6813400180,h_OCHCTP,13-L1-9,2019-02-01 15:30:00.0,SoPmdAve,3474.99,CHCGILDTO6Y
MA6813400180,h_OCHCTP,13-L1-9,2019-02-01 15:45:00.0,Qmin,8.82,CHCGILDTO6Y
MA6813400180,h_OCHCTP,13-L1-9,2019-02-01 15:45:00.0,PhaseCorrectionAve,-0.244,CHCGILDTO6Y
MA6813400180,h_OCHCTP,13-L1-9,2019-02-01 15:45:00.0,BerPreFecMax,0.00288,CHCGILDTO6Y
MA6813400180,h_OCHCTP,13-L1-9,2019-02-01 15:45:00.0,PmdMin,0.616,CHCGILDTO6Y
MA6813400180,h_OCHCTP,13-L1-9,2019-02-01 15:45:00.0,SoPmdAve,3535.4,CHCGILDTO6Y
MA6813400180,h_OCHCTP,13-L1-10,2019-02-01 15:15:00.0,Qmin,8.62,CHCGILDTO6Y
MA6813400180,h_OCHCTP,13-L1-10,2019-02-01 15:15:00.0,PhaseCorrectionAve,-0.061,CHCGILDTO6Y
MA6813400180,h_OCHCTP,13-L1-10,2019-02-01 15:15:00.0,BerPreFecMax,0.0035,CHCGILDTO6Y
MA6813400180,h_OCHCTP,13-L1-10,2019-02-01 15:15:00.0,PmdMin,0.717,CHCGILDTO6Y
MA6813400180,h_OCHCTP,13-L1-10,2019-02-01 15:15:00.0,SoPmdAve,3869.91,CHCGILDTO6Y
MA6813400180,h_OCHCTP,13-L1-10,2019-02-01 15:30:00.0,Qmin,8.65,CHCGILDTO6Y
MA6813400180,h_OCHCTP,13-L1-10,2019-02-01 15:30:00.0,PhaseCorrectionAve,-0.244,CHCGILDTO6Y
MA6813400180,h_OCHCTP,13-L1-10,2019-02-01 15:30:00.0,BerPreFecMax,0.0034,CHCGILDTO6Y
MA6813400180,h_OCHCTP,13-L1-10,2019-02-01 15:30:00.0,PmdMin,0.514,CHCGILDTO6Y
MA6813400180,h_OCHCTP,13-L1-10,2019-02-01 15:30:00.0,SoPmdAve,3724.36,CHCGILDTO6Y
MA6813400180,h_OCHCTP,13-L1-10,2019-02-01 15:45:00.0,Qmin,8.73,CHCGILDTO6Y
MA6813400180,h_OCHCTP,13-L1-10,2019-02-01 15:45:00.0,PhaseCorrectionAve,-0.305,CHCGILDTO6Y
MA6813400180,h_OCHCTP,13-L1-10,2019-02-01 15:45:00.0,BerPreFecMax,0.00316,CHCGILDTO6Y
MA6813400180,h_OCHCTP,13-L1-10,2019-02-01 15:45:00.0,PmdMin,0.42,CHCGILDTO6Y
MA6813400180,h_OCHCTP,13-L1-10,2019-02-01 15:45:00.0,SoPmdAve,3807.85,CHCGILDTO6Y
