MA6813400180,h_OCHCTP,11-L1-1,2019-02-05 23:15:00.0,Qmin,9.05,CHCGILDTO6Y
MA6813400180,h_OCHCTP,11-L1-1,2019-02-05 23:15:00.0,PhaseCorrectionAve,-0.061,CHCGILDTO6Y
MA6813400180,h_OCHCTP,11-L1-1,2019-02-05 23:15:00.0,BerPreFecMax,0.00228,CHCGILDTO6Y
MA6813400180,h_OCHCTP,11-L1-1,2019-02-05 23:15:00.0,PmdMin,0.477,CHCGILDTO6Y
MA6813400180,h_OCHCTP,11-L1-1,2019-02-05 23:15:00.0,SoPmdAve,3368.17,CHCGILDTO6Y
MA6813400180,h_OCHCTP,11-L1-1,2019-02-05 23:30:00.0,Qmin,9.04,CHCGILDTO6Y
MA6813400180,h_OCHCTP,11-L1-1,2019-02-05 23:30:00.0,PhaseCorrectionAve,-0.061,CHCGILDTO6Y
MA6813400180,h_OCHCTP,11-L1-1,2019-02-05 23:30:00.0,BerPreFecMax,0.00232,CHCGILDTO6Y
MA6813400180,h_OCHCTP,11-L1-1,2019-02-05 23:30:00.0,PmdMin,0.746,CHCGILDTO6Y
MA6813400180,h_OCHCTP,11-L1-1,2019-02-05 23:30:00.0,SoPmdAve,3363.8,CHCGILDTO6Y
MA6813400180,h_OCHCTP,11-L1-1,2019-02-05 23:45:00.0,Qmin,9.03,CHCGILDTO6Y
MA6813400180,h_OCHCTP,11-L1-1,2019-02-05 23:45:00.0,PhaseCorrectionAve,1.5e-07,CHCGILDTO6Y
MA6813400180,h_OCHCTP,11-L1-1,2019-02-05 23:45:00.0,BerPreFecMax,0.00235,CHCGILDTO6Y
MA6813400180,h_OCHCTP,11-L1-1,2019-02-05 23:45:00.0,PmdMin,0.872,CHCGILDTO6Y
MA6813400180,h_OCHCTP,11-L1-1,2019-02-05 23:45:00.0,SoPmdAve,3345.68,CHCGILDTO6Y
MA6813400180,h_OCHCTP,11-L1-2,2019-02-05 23:15:00.0,Qmin,9.0,CHCGILDTO6Y
MA6813400180,h_OCHCTP,11-L1-2,2019-02-05 23:15:00.0,PhaseCorrectionAve,-0.061,CHCGILDTO6Y
MA6813400180,h_OCHCTP,11-L1-2,2019-02-05 23:15:00.0,BerPreFecMax,0.00242,CHCGILDTO6Y
MA6813400180,h_OCHCTP,11-L1-2,2019-02-05 23:15:00.0,PmdMin,0.853,CHCGILDTO6Y
MA6813400180,h_OCHCTP,11-L1-2,2019-02-05 23:15:00.0,SoPmdAve,3123.89,CHCGILDTO6Y
MA6813400180,h_OCHCTP,11-L1-2,2019-02-05 23:30:00.0,Qmin,9.02,CHCGILDTO6Y
MA6813400180,h_OCHCTP,11-L1-2,2019-02-05 23:30:00.0,PhaseCorrectionAve,-0.183,CHCGILDTO6Y
MA6813400180,h_OCHCTP,11-L1-2,2019-02-05 23:30:00.0,BerPreFecMax,0.00236,CHCGILDTO6Y
MA6813400180,h_OCHCTP,11-L1-2,2019-02-05 23:30:00.0,PmdMin,0.728,CHCGILDTO6Y
MA6813400180,h_OCHCTP,11-L1-2,2019-02-05 23:30:00.0,SoPmdAve,3206.97,CHCGILDTO6Y
MA6813400180,h_OCHCTP,11-L1-2,2019-02-05 23:45:00.0,Qmin,9.08,CHCGILDTO6Y
MA6813400180,h_OCHCTP,11-L1-2,2019-02-05 23:45:00.0,PhaseCorrectionAve,-0.061,CHCGILDTO6Y
MA6813400180,h_OCHCTP,11-L1-2,2019-02-05 23:45:00.0,BerPreFecMax,0.00222,CHCGILDTO6Y
MA6813400180,h_OCHCTP,11-L1-2,2019-02-05 23:45:00.0,PmdMin,0.705,CHCGILDTO6Y
MA6813400180,h_OCHCTP,11-L1-2,2019-02-05 23:45:00.0,SoPmdAve,3209.74,CHCGILDTO6Y
MA6813400180,h_OCHCTP,11-L1-3,2019-02-05 23:15:00.0,Qmin,8.84,CHCGILDTO6Y
MA6813400180,h_OCHCTP,11-L1-3,2019-02-05 23:15:00.0,PhaseCorrectionAve,-0.061,CHCGILDTO6Y
MA6813400180,h_OCHCTP,11-L1-3,2019-02-05 23:15:00.0,BerPreFecMax,0.00284,CHCGILDTO6Y
MA6813400180,h_OCHCTP,11-L1-3,2019-02-05 23:15:00.0,PmdMin,0.435,CHCGILDTO6Y
MA6813400180,h_OCHCTP,11-L1-3,2019-02-05 23:15:00.0,SoPmdAve,2802.42,CHCGILDTO6Y
MA6813400180,h_OCHCTP,11-L1-3,2019-02-05 23:30:00.0,Qmin,8.88,CHCGILDTO6Y
MA6813400180,h_OCHCTP,11-L1-3,2019-02-05 23:30:00.0,PhaseCorrectionAve,-0.183,CHCGILDTO6Y
MA6813400180,h_OCHCTP,11-L1-3,2019-02-05 23:30:00.0,BerPreFecMax,0.00272,CHCGILDTO6Y
MA6813400180,h_OCHCTP,11-L1-3,2019-02-05 23:30:00.0,PmdMin,0.671,CHCGILDTO6Y
MA6813400180,h_OCHCTP,11-L1-3,2019-02-05 23:30:00.0,SoPmdAve,2728.14,CHCGILDTO6Y
MA6813400180,h_OCHCTP,11-L1-3,2019-02-05 23:45:00.0,Qmin,8.99,CHCGILDTO6Y
MA6813400180,h_OCHCTP,11-L1-3,2019-02-05 23:45:00.0,PhaseCorrectionAve,-0.061,CHCGILDTO6Y
MA6813400180,h_OCHCTP,11-L1-3,2019-02-05 23:45:00.0,BerPreFecMax,0.00244,CHCGILDTO6Y
MA6813400180,h_OCHCTP,11-L1-3,2019-02-05 23:45:00.0,PmdMin,0.596,CHCGILDTO6Y
MA6813400180,h_OCHCTP,11-L1-3,2019-02-05 23:45:00.0,SoPmdAve,2730.45,CHCGILDTO6Y
MA6813400180,h_OCHCTP,11-L1-4,2019-02-05 23:15:00.0,Qmin,8.69,CHCGILDTO6Y
MA6813400180,h_OCHCTP,11-L1-4,2019-02-05 23:15:00.0,PhaseCorrectionAve,-0.061,CHCGILDTO6Y
MA6813400180,h_OCHCTP,11-L1-4,2019-02-05 23:15:00.0,BerPreFecMax,0.00326,CHCGILDTO6Y
MA6813400180,h_OCHCTP,11-L1-4,2019-02-05 23:15:00.0,PmdMin,0.546,CHCGILDTO6Y
MA6813400180,h_OCHCTP,11-L1-4,2019-02-05 23:15:00.0,SoPmdAve,2941.85,CHCGILDTO6Y
MA6813400180,h_OCHCTP,11-L1-4,2019-02-05 23:30:00.0,Qmin,8.7,CHCGILDTO6Y
MA6813400180,h_OCHCTP,11-L1-4,2019-02-05 23:30:00.0,PhaseCorrectionAve,-0.183,CHCGILDTO6Y
MA6813400180,h_OCHCTP,11-L1-4,2019-02-05 23:30:00.0,BerPreFecMax,0.00325,CHCGILDTO6Y
MA6813400180,h_OCHCTP,11-L1-4,2019-02-05 23:30:00.0,PmdMin,1.02,CHCGILDTO6Y
MA6813400180,h_OCHCTP,11-L1-4,2019-02-05 23:30:00.0,SoPmdAve,2969.51,CHCGILDTO6Y
MA6813400180,h_OCHCTP,11-L1-4,2019-02-05 23:45:00.0,Qmin,8.77,CHCGILDTO6Y
MA6813400180,h_OCHCTP,11-L1-4,2019-02-05 23:45:00.0,PhaseCorrectionAve,-0.061,CHCGILDTO6Y
MA6813400180,h_OCHCTP,11-L1-4,2019-02-05 23:45:00.0,BerPreFecMax,0.00301,CHCGILDTO6Y
MA6813400180,h_OCHCTP,11-L1-4,2019-02-05 23:45:00.0,PmdMin,0.522,CHCGILDTO6Y
MA6813400180,h_OCHCTP,11-L1-4,2019-02-05 23:45:00.0,SoPmdAve,2890.56,CHCGILDTO6Y
MA6813400180,h_OCHCTP,11-L1-5,2019-02-05 23:15:00.0,Qmin,8.78,CHCGILDTO6Y
MA6813400180,h_OCHCTP,11-L1-5,2019-02-05 23:15:00.0,PhaseCorrectionAve,-0.061,CHCGILDTO6Y
MA6813400180,h_OCHCTP,11-L1-5,2019-02-05 23:15:00.0,BerPreFecMax,0.00299,CHCGILDTO6Y
MA6813400180,h_OCHCTP,11-L1-5,2019-02-05 23:15:00.0,PmdMin,0.534,CHCGILDTO6Y
MA6813400180,h_OCHCTP,11-L1-5,2019-02-05 23:15:00.0,SoPmdAve,2567.51,CHCGILDTO6Y
MA6813400180,h_OCHCTP,11-L1-5,2019-02-05 23:30:00.0,Qmin,8.81,CHCGILDTO6Y
MA6813400180,h_OCHCTP,11-L1-5,2019-02-05 23:30:00.0,PhaseCorrectionAve,-0.183,CHCGILDTO6Y
MA6813400180,h_OCHCTP,11-L1-5,2019-02-05 23:30:00.0,BerPreFecMax,0.00292,CHCGILDTO6Y
MA6813400180,h_OCHCTP,11-L1-5,2019-02-05 23:30:00.0,PmdMin,0.635,CHCGILDTO6Y
MA6813400180,h_OCHCTP,11-L1-5,2019-02-05 23:30:00.0,SoPmdAve,2598.59,CHCGILDTO6Y
MA6813400180,h_OCHCTP,11-L1-5,2019-02-05 23:45:00.0,Qmin,8.86,CHCGILDTO6Y
MA6813400180,h_OCHCTP,11-L1-5,2019-02-05 23:45:00.0,PhaseCorrectionAve,-0.061,CHCGILDTO6Y
MA6813400180,h_OCHCTP,11-L1-5,2019-02-05 23:45:00.0,BerPreFecMax,0.00278,CHCGILDTO6Y
MA6813400180,h_OCHCTP,11-L1-5,2019-02-05 23:45:00.0,PmdMin,0.517,CHCGILDTO6Y
MA6813400180,h_OCHCTP,11-L1-5,2019-02-05 23:45:00.0,SoPmdAve,2499.47,CHCGILDTO6Y
MA6813400180,h_OCHCTP,11-L1-6,2019-02-05 23:15:00.0,Qmin,8.69,CHCGILDTO6Y
MA6813400180,h_OCHCTP,11-L1-6,2019-02-05 23:15:00.0,PhaseCorrectionAve,-0.061,CHCGILDTO6Y
MA6813400180,h_OCHCTP,11-L1-6,2019-02-05 23:15:00.0,BerPreFecMax,0.00327,CHCGILDTO6Y
MA6813400180,h_OCHCTP,11-L1-6,2019-02-05 23:15:00.0,PmdMin,0.69,CHCGILDTO6Y
MA6813400180,h_OCHCTP,11-L1-6,2019-02-05 23:15:00.0,SoPmdAve,2547.95,CHCGILDTO6Y
MA6813400180,h_OCHCTP,11-L1-6,2019-02-05 23:30:00.0,Qmin,8.69,CHCGILDTO6Y
MA6813400180,h_OCHCTP,11-L1-6,2019-02-05 23:30:00.0,PhaseCorrectionAve,-0.183,CHCGILDTO6Y
MA6813400180,h_OCHCTP,11-L1-6,2019-02-05 23:30:00.0,BerPreFecMax,0.00327,CHCGILDTO6Y
MA6813400180,h_OCHCTP,11-L1-6,2019-02-05 23:30:00.0,PmdMin,0.643,CHCGILDTO6Y
MA6813400180,h_OCHCTP,11-L1-6,2019-02-05 23:30:00.0,SoPmdAve,2512.99,CHCGILDTO6Y
MA6813400180,h_OCHCTP,11-L1-6,2019-02-05 23:45:00.0,Qmin,8.79,CHCGILDTO6Y
MA6813400180,h_OCHCTP,11-L1-6,2019-02-05 23:45:00.0,PhaseCorrectionAve,-0.061,CHCGILDTO6Y
MA6813400180,h_OCHCTP,11-L1-6,2019-02-05 23:45:00.0,BerPreFecMax,0.00296,CHCGILDTO6Y
MA6813400180,h_OCHCTP,11-L1-6,2019-02-05 23:45:00.0,PmdMin,0.679,CHCGILDTO6Y
MA6813400180,h_OCHCTP,11-L1-6,2019-02-05 23:45:00.0,SoPmdAve,2475.16,CHCGILDTO6Y
MA6813400180,h_OCHCTP,11-L1-7,2019-02-05 23:15:00.0,Qmin,8.77,CHCGILDTO6Y
MA6813400180,h_OCHCTP,11-L1-7,2019-02-05 23:15:00.0,PhaseCorrectionAve,-0.061,CHCGILDTO6Y
MA6813400180,h_OCHCTP,11-L1-7,2019-02-05 23:15:00.0,BerPreFecMax,0.00301,CHCGILDTO6Y
MA6813400180,h_OCHCTP,11-L1-7,2019-02-05 23:15:00.0,PmdMin,0.714,CHCGILDTO6Y
MA6813400180,h_OCHCTP,11-L1-7,2019-02-05 23:15:00.0,SoPmdAve,3056.26,CHCGILDTO6Y
MA6813400180,h_OCHCTP,11-L1-7,2019-02-05 23:30:00.0,Qmin,8.83,CHCGILDTO6Y
MA6813400180,h_OCHCTP,11-L1-7,2019-02-05 23:30:00.0,PhaseCorrectionAve,-0.183,CHCGILDTO6Y
MA6813400180,h_OCHCTP,11-L1-7,2019-02-05 23:30:00.0,BerPreFecMax,0.00285,CHCGILDTO6Y
MA6813400180,h_OCHCTP,11-L1-7,2019-02-05 23:30:00.0,PmdMin,0.636,CHCGILDTO6Y
MA6813400180,h_OCHCTP,11-L1-7,2019-02-05 23:30:00.0,SoPmdAve,3012.08,CHCGILDTO6Y
MA6813400180,h_OCHCTP,11-L1-7,2019-02-05 23:45:00.0,Qmin,8.86,CHCGILDTO6Y
MA6813400180,h_OCHCTP,11-L1-7,2019-02-05 23:45:00.0,PhaseCorrectionAve,-0.061,CHCGILDTO6Y
MA6813400180,h_OCHCTP,11-L1-7,2019-02-05 23:45:00.0,BerPreFecMax,0.00278,CHCGILDTO6Y
MA6813400180,h_OCHCTP,11-L1-7,2019-02-05 23:45:00.0,PmdMin,0.565,CHCGILDTO6Y
MA6813400180,h_OCHCTP,11-L1-7,2019-02-05 23:45:00.0,SoPmdAve,2961.55,CHCGILDTO6Y
MA6813400180,h_OCHCTP,11-L1-8,2019-02-05 23:15:00.0,Qmin,8.89,CHCGILDTO6Y
MA6813400180,h_OCHCTP,11-L1-8,2019-02-05 23:15:00.0,PhaseCorrectionAve,-0.061,CHCGILDTO6Y
MA6813400180,h_OCHCTP,11-L1-8,2019-02-05 23:15:00.0,BerPreFecMax,0.00269,CHCGILDTO6Y
MA6813400180,h_OCHCTP,11-L1-8,2019-02-05 23:15:00.0,PmdMin,0.633,CHCGILDTO6Y
MA6813400180,h_OCHCTP,11-L1-8,2019-02-05 23:15:00.0,SoPmdAve,3181.98,CHCGILDTO6Y
MA6813400180,h_OCHCTP,11-L1-8,2019-02-05 23:30:00.0,Qmin,8.87,CHCGILDTO6Y
MA6813400180,h_OCHCTP,11-L1-8,2019-02-05 23:30:00.0,PhaseCorrectionAve,-0.183,CHCGILDTO6Y
MA6813400180,h_OCHCTP,11-L1-8,2019-02-05 23:30:00.0,BerPreFecMax,0.00275,CHCGILDTO6Y
MA6813400180,h_OCHCTP,11-L1-8,2019-02-05 23:30:00.0,PmdMin,0.696,CHCGILDTO6Y
MA6813400180,h_OCHCTP,11-L1-8,2019-02-05 23:30:00.0,SoPmdAve,3054.49,CHCGILDTO6Y
MA6813400180,h_OCHCTP,11-L1-8,2019-02-05 23:45:00.0,Qmin,8.82,CHCGILDTO6Y
MA6813400180,h_OCHCTP,11-L1-8,2019-02-05 23:45:00.0,PhaseCorrectionAve,-0.061,CHCGILDTO6Y
MA6813400180,h_OCHCTP,11-L1-8,2019-02-05 23:45:00.0,BerPreFecMax,0.00288,CHCGILDTO6Y
MA6813400180,h_OCHCTP,11-L1-8,2019-02-05 23:45:00.0,PmdMin,0.723,CHCGILDTO6Y
MA6813400180,h_OCHCTP,11-L1-8,2019-02-05 23:45:00.0,SoPmdAve,3124.29,CHCGILDTO6Y
MA6813400180,h_OCHCTP,11-L1-9,2019-02-05 23:15:00.0,Qmin,8.72,CHCGILDTO6Y
MA6813400180,h_OCHCTP,11-L1-9,2019-02-05 23:15:00.0,PhaseCorrectionAve,-0.122,CHCGILDTO6Y
MA6813400180,h_OCHCTP,11-L1-9,2019-02-05 23:15:00.0,BerPreFecMax,0.00318,CHCGILDTO6Y
MA6813400180,h_OCHCTP,11-L1-9,2019-02-05 23:15:00.0,PmdMin,1.56,CHCGILDTO6Y
MA6813400180,h_OCHCTP,11-L1-9,2019-02-05 23:15:00.0,SoPmdAve,2958.6,CHCGILDTO6Y
MA6813400180,h_OCHCTP,11-L1-9,2019-02-05 23:30:00.0,Qmin,8.67,CHCGILDTO6Y
MA6813400180,h_OCHCTP,11-L1-9,2019-02-05 23:30:00.0,PhaseCorrectionAve,-0.244,CHCGILDTO6Y
MA6813400180,h_OCHCTP,11-L1-9,2019-02-05 23:30:00.0,BerPreFecMax,0.00334,CHCGILDTO6Y
MA6813400180,h_OCHCTP,11-L1-9,2019-02-05 23:30:00.0,PmdMin,1.05,CHCGILDTO6Y
MA6813400180,h_OCHCTP,11-L1-9,2019-02-05 23:30:00.0,SoPmdAve,2980.88,CHCGILDTO6Y
MA6813400180,h_OCHCTP,11-L1-9,2019-02-05 23:45:00.0,Qmin,8.79,CHCGILDTO6Y
MA6813400180,h_OCHCTP,11-L1-9,2019-02-05 23:45:00.0,PhaseCorrectionAve,-0.061,CHCGILDTO6Y
MA6813400180,h_OCHCTP,11-L1-9,2019-02-05 23:45:00.0,BerPreFecMax,0.00296,CHCGILDTO6Y
MA6813400180,h_OCHCTP,11-L1-9,2019-02-05 23:45:00.0,PmdMin,0.588,CHCGILDTO6Y
MA6813400180,h_OCHCTP,11-L1-9,2019-02-05 23:45:00.0,SoPmdAve,2986.08,CHCGILDTO6Y
MA6813400180,h_OCHCTP,11-L1-10,2019-02-05 23:15:00.0,Qmin,8.85,CHCGILDTO6Y
MA6813400180,h_OCHCTP,11-L1-10,2019-02-05 23:15:00.0,PhaseCorrectionAve,-0.122,CHCGILDTO6Y
MA6813400180,h_OCHCTP,11-L1-10,2019-02-05 23:15:00.0,BerPreFecMax,0.00279,CHCGILDTO6Y
MA6813400180,h_OCHCTP,11-L1-10,2019-02-05 23:15:00.0,PmdMin,0.589,CHCGILDTO6Y
MA6813400180,h_OCHCTP,11-L1-10,2019-02-05 23:15:00.0,SoPmdAve,3081.24,CHCGILDTO6Y
MA6813400180,h_OCHCTP,11-L1-10,2019-02-05 23:30:00.0,Qmin,8.82,CHCGILDTO6Y
MA6813400180,h_OCHCTP,11-L1-10,2019-02-05 23:30:00.0,PhaseCorrectionAve,-0.244,CHCGILDTO6Y
MA6813400180,h_OCHCTP,11-L1-10,2019-02-05 23:30:00.0,BerPreFecMax,0.00288,CHCGILDTO6Y
MA6813400180,h_OCHCTP,11-L1-10,2019-02-05 23:30:00.0,PmdMin,0.562,CHCGILDTO6Y
MA6813400180,h_OCHCTP,11-L1-10,2019-02-05 23:30:00.0,SoPmdAve,3133.32,CHCGILDTO6Y
MA6813400180,h_OCHCTP,11-L1-10,2019-02-05 23:45:00.0,Qmin,8.71,CHCGILDTO6Y
MA6813400180,h_OCHCTP,11-L1-10,2019-02-05 23:45:00.0,PhaseCorrectionAve,-0.061,CHCGILDTO6Y
MA6813400180,h_OCHCTP,11-L1-10,2019-02-05 23:45:00.0,BerPreFecMax,0.0032,CHCGILDTO6Y
MA6813400180,h_OCHCTP,11-L1-10,2019-02-05 23:45:00.0,PmdMin,0.372,CHCGILDTO6Y
MA6813400180,h_OCHCTP,11-L1-10,2019-02-05 23:45:00.0,SoPmdAve,3116.71,CHCGILDTO6Y
MA6813400180,h_OCHCTP,13-L1-1,2019-02-05 23:15:00.0,Qmin,9.05,CHCGILDTO6Y
MA6813400180,h_OCHCTP,13-L1-1,2019-02-05 23:15:00.0,PhaseCorrectionAve,-0.061,CHCGILDTO6Y
MA6813400180,h_OCHCTP,13-L1-1,2019-02-05 23:15:00.0,BerPreFecMax,0.0023,CHCGILDTO6Y
MA6813400180,h_OCHCTP,13-L1-1,2019-02-05 23:15:00.0,PmdMin,0.866,CHCGILDTO6Y
MA6813400180,h_OCHCTP,13-L1-1,2019-02-05 23:15:00.0,SoPmdAve,3534.77,CHCGILDTO6Y
MA6813400180,h_OCHCTP,13-L1-1,2019-02-05 23:30:00.0,Qmin,9.1,CHCGILDTO6Y
MA6813400180,h_OCHCTP,13-L1-1,2019-02-05 23:30:00.0,PhaseCorrectionAve,2.42e-07,CHCGILDTO6Y
MA6813400180,h_OCHCTP,13-L1-1,2019-02-05 23:30:00.0,BerPreFecMax,0.00217,CHCGILDTO6Y
MA6813400180,h_OCHCTP,13-L1-1,2019-02-05 23:30:00.0,PmdMin,0.546,CHCGILDTO6Y
MA6813400180,h_OCHCTP,13-L1-1,2019-02-05 23:30:00.0,SoPmdAve,3543.45,CHCGILDTO6Y
MA6813400180,h_OCHCTP,13-L1-1,2019-02-05 23:45:00.0,Qmin,9.08,CHCGILDTO6Y
MA6813400180,h_OCHCTP,13-L1-1,2019-02-05 23:45:00.0,PhaseCorrectionAve,2.76e-07,CHCGILDTO6Y
MA6813400180,h_OCHCTP,13-L1-1,2019-02-05 23:45:00.0,BerPreFecMax,0.00222,CHCGILDTO6Y
MA6813400180,h_OCHCTP,13-L1-1,2019-02-05 23:45:00.0,PmdMin,0.78,CHCGILDTO6Y
MA6813400180,h_OCHCTP,13-L1-1,2019-02-05 23:45:00.0,SoPmdAve,3644.3,CHCGILDTO6Y
MA6813400180,h_OCHCTP,13-L1-2,2019-02-05 23:15:00.0,Qmin,9.09,CHCGILDTO6Y
MA6813400180,h_OCHCTP,13-L1-2,2019-02-05 23:15:00.0,PhaseCorrectionAve,-0.061,CHCGILDTO6Y
MA6813400180,h_OCHCTP,13-L1-2,2019-02-05 23:15:00.0,BerPreFecMax,0.0022,CHCGILDTO6Y
MA6813400180,h_OCHCTP,13-L1-2,2019-02-05 23:15:00.0,PmdMin,0.573,CHCGILDTO6Y
MA6813400180,h_OCHCTP,13-L1-2,2019-02-05 23:15:00.0,SoPmdAve,3498.65,CHCGILDTO6Y
MA6813400180,h_OCHCTP,13-L1-2,2019-02-05 23:30:00.0,Qmin,9.11,CHCGILDTO6Y
MA6813400180,h_OCHCTP,13-L1-2,2019-02-05 23:30:00.0,PhaseCorrectionAve,3.75e-07,CHCGILDTO6Y
MA6813400180,h_OCHCTP,13-L1-2,2019-02-05 23:30:00.0,BerPreFecMax,0.00216,CHCGILDTO6Y
MA6813400180,h_OCHCTP,13-L1-2,2019-02-05 23:30:00.0,PmdMin,1.15,CHCGILDTO6Y
MA6813400180,h_OCHCTP,13-L1-2,2019-02-05 23:30:00.0,SoPmdAve,3518.91,CHCGILDTO6Y
MA6813400180,h_OCHCTP,13-L1-2,2019-02-05 23:45:00.0,Qmin,9.15,CHCGILDTO6Y
MA6813400180,h_OCHCTP,13-L1-2,2019-02-05 23:45:00.0,PhaseCorrectionAve,3.7e-07,CHCGILDTO6Y
MA6813400180,h_OCHCTP,13-L1-2,2019-02-05 23:45:00.0,BerPreFecMax,0.00208,CHCGILDTO6Y
MA6813400180,h_OCHCTP,13-L1-2,2019-02-05 23:45:00.0,PmdMin,1.18,CHCGILDTO6Y
MA6813400180,h_OCHCTP,13-L1-2,2019-02-05 23:45:00.0,SoPmdAve,3473.79,CHCGILDTO6Y
MA6813400180,h_OCHCTP,13-L1-3,2019-02-05 23:15:00.0,Qmin,8.82,CHCGILDTO6Y
MA6813400180,h_OCHCTP,13-L1-3,2019-02-05 23:15:00.0,PhaseCorrectionAve,-0.122,CHCGILDTO6Y
MA6813400180,h_OCHCTP,13-L1-3,2019-02-05 23:15:00.0,BerPreFecMax,0.00287,CHCGILDTO6Y
MA6813400180,h_OCHCTP,13-L1-3,2019-02-05 23:15:00.0,PmdMin,0.356,CHCGILDTO6Y
MA6813400180,h_OCHCTP,13-L1-3,2019-02-05 23:15:00.0,SoPmdAve,2892.24,CHCGILDTO6Y
MA6813400180,h_OCHCTP,13-L1-3,2019-02-05 23:30:00.0,Qmin,8.82,CHCGILDTO6Y
MA6813400180,h_OCHCTP,13-L1-3,2019-02-05 23:30:00.0,PhaseCorrectionAve,4.79e-07,CHCGILDTO6Y
MA6813400180,h_OCHCTP,13-L1-3,2019-02-05 23:30:00.0,BerPreFecMax,0.00288,CHCGILDTO6Y
MA6813400180,h_OCHCTP,13-L1-3,2019-02-05 23:30:00.0,PmdMin,1.35,CHCGILDTO6Y
MA6813400180,h_OCHCTP,13-L1-3,2019-02-05 23:30:00.0,SoPmdAve,2885.47,CHCGILDTO6Y
MA6813400180,h_OCHCTP,13-L1-3,2019-02-05 23:45:00.0,Qmin,9.01,CHCGILDTO6Y
MA6813400180,h_OCHCTP,13-L1-3,2019-02-05 23:45:00.0,PhaseCorrectionAve,4.58e-07,CHCGILDTO6Y
MA6813400180,h_OCHCTP,13-L1-3,2019-02-05 23:45:00.0,BerPreFecMax,0.00239,CHCGILDTO6Y
MA6813400180,h_OCHCTP,13-L1-3,2019-02-05 23:45:00.0,PmdMin,1.12,CHCGILDTO6Y
MA6813400180,h_OCHCTP,13-L1-3,2019-02-05 23:45:00.0,SoPmdAve,2904.18,CHCGILDTO6Y
MA6813400180,h_OCHCTP,13-L1-4,2019-02-05 23:15:00.0,Qmin,8.6,CHCGILDTO6Y
MA6813400180,h_OCHCTP,13-L1-4,2019-02-05 23:15:00.0,PhaseCorrectionAve,-0.122,CHCGILDTO6Y
MA6813400180,h_OCHCTP,13-L1-4,2019-02-05 23:15:00.0,BerPreFecMax,0.00355,CHCGILDTO6Y
MA6813400180,h_OCHCTP,13-L1-4,2019-02-05 23:15:00.0,PmdMin,0.792,CHCGILDTO6Y
MA6813400180,h_OCHCTP,13-L1-4,2019-02-05 23:15:00.0,SoPmdAve,3284.08,CHCGILDTO6Y
MA6813400180,h_OCHCTP,13-L1-4,2019-02-05 23:30:00.0,Qmin,8.64,CHCGILDTO6Y
MA6813400180,h_OCHCTP,13-L1-4,2019-02-05 23:30:00.0,PhaseCorrectionAve,6.31e-07,CHCGILDTO6Y
MA6813400180,h_OCHCTP,13-L1-4,2019-02-05 23:30:00.0,BerPreFecMax,0.00343,CHCGILDTO6Y
MA6813400180,h_OCHCTP,13-L1-4,2019-02-05 23:30:00.0,PmdMin,0.574,CHCGILDTO6Y
MA6813400180,h_OCHCTP,13-L1-4,2019-02-05 23:30:00.0,SoPmdAve,3328.02,CHCGILDTO6Y
MA6813400180,h_OCHCTP,13-L1-4,2019-02-05 23:45:00.0,Qmin,8.76,CHCGILDTO6Y
MA6813400180,h_OCHCTP,13-L1-4,2019-02-05 23:45:00.0,PhaseCorrectionAve,-0.061,CHCGILDTO6Y
MA6813400180,h_OCHCTP,13-L1-4,2019-02-05 23:45:00.0,BerPreFecMax,0.00307,CHCGILDTO6Y
MA6813400180,h_OCHCTP,13-L1-4,2019-02-05 23:45:00.0,PmdMin,1.25,CHCGILDTO6Y
MA6813400180,h_OCHCTP,13-L1-4,2019-02-05 23:45:00.0,SoPmdAve,3425.22,CHCGILDTO6Y
MA6813400180,h_OCHCTP,13-L1-5,2019-02-05 23:15:00.0,Qmin,8.65,CHCGILDTO6Y
MA6813400180,h_OCHCTP,13-L1-5,2019-02-05 23:15:00.0,PhaseCorrectionAve,-0.122,CHCGILDTO6Y
MA6813400180,h_OCHCTP,13-L1-5,2019-02-05 23:15:00.0,BerPreFecMax,0.00338,CHCGILDTO6Y
MA6813400180,h_OCHCTP,13-L1-5,2019-02-05 23:15:00.0,PmdMin,0.559,CHCGILDTO6Y
MA6813400180,h_OCHCTP,13-L1-5,2019-02-05 23:15:00.0,SoPmdAve,2915.84,CHCGILDTO6Y
MA6813400180,h_OCHCTP,13-L1-5,2019-02-05 23:30:00.0,Qmin,8.69,CHCGILDTO6Y
MA6813400180,h_OCHCTP,13-L1-5,2019-02-05 23:30:00.0,PhaseCorrectionAve,-0.061,CHCGILDTO6Y
MA6813400180,h_OCHCTP,13-L1-5,2019-02-05 23:30:00.0,BerPreFecMax,0.00328,CHCGILDTO6Y
MA6813400180,h_OCHCTP,13-L1-5,2019-02-05 23:30:00.0,PmdMin,1.06,CHCGILDTO6Y
MA6813400180,h_OCHCTP,13-L1-5,2019-02-05 23:30:00.0,SoPmdAve,2825.94,CHCGILDTO6Y
MA6813400180,h_OCHCTP,13-L1-5,2019-02-05 23:45:00.0,Qmin,8.75,CHCGILDTO6Y
MA6813400180,h_OCHCTP,13-L1-5,2019-02-05 23:45:00.0,PhaseCorrectionAve,-0.061,CHCGILDTO6Y
MA6813400180,h_OCHCTP,13-L1-5,2019-02-05 23:45:00.0,BerPreFecMax,0.00309,CHCGILDTO6Y
MA6813400180,h_OCHCTP,13-L1-5,2019-02-05 23:45:00.0,PmdMin,0.839,CHCGILDTO6Y
MA6813400180,h_OCHCTP,13-L1-5,2019-02-05 23:45:00.0,SoPmdAve,2830.28,CHCGILDTO6Y
MA6813400180,h_OCHCTP,13-L1-6,2019-02-05 23:15:00.0,Qmin,8.71,CHCGILDTO6Y
MA6813400180,h_OCHCTP,13-L1-6,2019-02-05 23:15:00.0,PhaseCorrectionAve,-0.122,CHCGILDTO6Y
MA6813400180,h_OCHCTP,13-L1-6,2019-02-05 23:15:00.0,BerPreFecMax,0.0032,CHCGILDTO6Y
MA6813400180,h_OCHCTP,13-L1-6,2019-02-05 23:15:00.0,PmdMin,0.487,CHCGILDTO6Y
MA6813400180,h_OCHCTP,13-L1-6,2019-02-05 23:15:00.0,SoPmdAve,3060.44,CHCGILDTO6Y
MA6813400180,h_OCHCTP,13-L1-6,2019-02-05 23:30:00.0,Qmin,8.69,CHCGILDTO6Y
MA6813400180,h_OCHCTP,13-L1-6,2019-02-05 23:30:00.0,PhaseCorrectionAve,-0.061,CHCGILDTO6Y
MA6813400180,h_OCHCTP,13-L1-6,2019-02-05 23:30:00.0,BerPreFecMax,0.00327,CHCGILDTO6Y
MA6813400180,h_OCHCTP,13-L1-6,2019-02-05 23:30:00.0,PmdMin,0.81,CHCGILDTO6Y
MA6813400180,h_OCHCTP,13-L1-6,2019-02-05 23:30:00.0,SoPmdAve,2999.98,CHCGILDTO6Y
MA6813400180,h_OCHCTP,13-L1-6,2019-02-05 23:45:00.0,Qmin,8.8,CHCGILDTO6Y
MA6813400180,h_OCHCTP,13-L1-6,2019-02-05 23:45:00.0,PhaseCorrectionAve,-0.122,CHCGILDTO6Y
MA6813400180,h_OCHCTP,13-L1-6,2019-02-05 23:45:00.0,BerPreFecMax,0.00295,CHCGILDTO6Y
MA6813400180,h_OCHCTP,13-L1-6,2019-02-05 23:45:00.0,PmdMin,0.781,CHCGILDTO6Y
MA6813400180,h_OCHCTP,13-L1-6,2019-02-05 23:45:00.0,SoPmdAve,2944.85,CHCGILDTO6Y
MA6813400180,h_OCHCTP,13-L1-7,2019-02-05 23:15:00.0,Qmin,8.65,CHCGILDTO6Y
MA6813400180,h_OCHCTP,13-L1-7,2019-02-05 23:15:00.0,PhaseCorrectionAve,-0.183,CHCGILDTO6Y
MA6813400180,h_OCHCTP,13-L1-7,2019-02-05 23:15:00.0,BerPreFecMax,0.0034,CHCGILDTO6Y
MA6813400180,h_OCHCTP,13-L1-7,2019-02-05 23:15:00.0,PmdMin,0.392,CHCGILDTO6Y
MA6813400180,h_OCHCTP,13-L1-7,2019-02-05 23:15:00.0,SoPmdAve,3744.53,CHCGILDTO6Y
MA6813400180,h_OCHCTP,13-L1-7,2019-02-05 23:30:00.0,Qmin,8.77,CHCGILDTO6Y
MA6813400180,h_OCHCTP,13-L1-7,2019-02-05 23:30:00.0,PhaseCorrectionAve,-0.061,CHCGILDTO6Y
MA6813400180,h_OCHCTP,13-L1-7,2019-02-05 23:30:00.0,BerPreFecMax,0.00302,CHCGILDTO6Y
MA6813400180,h_OCHCTP,13-L1-7,2019-02-05 23:30:00.0,PmdMin,0.573,CHCGILDTO6Y
MA6813400180,h_OCHCTP,13-L1-7,2019-02-05 23:30:00.0,SoPmdAve,3723.89,CHCGILDTO6Y
MA6813400180,h_OCHCTP,13-L1-7,2019-02-05 23:45:00.0,Qmin,8.81,CHCGILDTO6Y
MA6813400180,h_OCHCTP,13-L1-7,2019-02-05 23:45:00.0,PhaseCorrectionAve,-0.122,CHCGILDTO6Y
MA6813400180,h_OCHCTP,13-L1-7,2019-02-05 23:45:00.0,BerPreFecMax,0.00291,CHCGILDTO6Y
MA6813400180,h_OCHCTP,13-L1-7,2019-02-05 23:45:00.0,PmdMin,0.799,CHCGILDTO6Y
MA6813400180,h_OCHCTP,13-L1-7,2019-02-05 23:45:00.0,SoPmdAve,3848.41,CHCGILDTO6Y
MA6813400180,h_OCHCTP,13-L1-8,2019-02-05 23:15:00.0,Qmin,8.79,CHCGILDTO6Y
MA6813400180,h_OCHCTP,13-L1-8,2019-02-05 23:15:00.0,PhaseCorrectionAve,-0.183,CHCGILDTO6Y
MA6813400180,h_OCHCTP,13-L1-8,2019-02-05 23:15:00.0,BerPreFecMax,0.00297,CHCGILDTO6Y
MA6813400180,h_OCHCTP,13-L1-8,2019-02-05 23:15:00.0,PmdMin,0.995,CHCGILDTO6Y
MA6813400180,h_OCHCTP,13-L1-8,2019-02-05 23:15:00.0,SoPmdAve,3772.49,CHCGILDTO6Y
MA6813400180,h_OCHCTP,13-L1-8,2019-02-05 23:30:00.0,Qmin,8.86,CHCGILDTO6Y
MA6813400180,h_OCHCTP,13-L1-8,2019-02-05 23:30:00.0,PhaseCorrectionAve,-0.122,CHCGILDTO6Y
MA6813400180,h_OCHCTP,13-L1-8,2019-02-05 23:30:00.0,BerPreFecMax,0.00277,CHCGILDTO6Y
MA6813400180,h_OCHCTP,13-L1-8,2019-02-05 23:30:00.0,PmdMin,1.18,CHCGILDTO6Y
MA6813400180,h_OCHCTP,13-L1-8,2019-02-05 23:30:00.0,SoPmdAve,3873.79,CHCGILDTO6Y
MA6813400180,h_OCHCTP,13-L1-8,2019-02-05 23:45:00.0,Qmin,8.83,CHCGILDTO6Y
MA6813400180,h_OCHCTP,13-L1-8,2019-02-05 23:45:00.0,PhaseCorrectionAve,-0.183,CHCGILDTO6Y
MA6813400180,h_OCHCTP,13-L1-8,2019-02-05 23:45:00.0,BerPreFecMax,0.00286,CHCGILDTO6Y
MA6813400180,h_OCHCTP,13-L1-8,2019-02-05 23:45:00.0,PmdMin,0.726,CHCGILDTO6Y
MA6813400180,h_OCHCTP,13-L1-8,2019-02-05 23:45:00.0,SoPmdAve,3982.29,CHCGILDTO6Y
MA6813400180,h_OCHCTP,13-L1-9,2019-02-05 23:15:00.0,Qmin,8.66,CHCGILDTO6Y
MA6813400180,h_OCHCTP,13-L1-9,2019-02-05 23:15:00.0,PhaseCorrectionAve,-0.183,CHCGILDTO6Y
MA6813400180,h_OCHCTP,13-L1-9,2019-02-05 23:15:00.0,BerPreFecMax,0.00337,CHCGILDTO6Y
MA6813400180,h_OCHCTP,13-L1-9,2019-02-05 23:15:00.0,PmdMin,1.24,CHCGILDTO6Y
MA6813400180,h_OCHCTP,13-L1-9,2019-02-05 23:15:00.0,SoPmdAve,3570.78,CHCGILDTO6Y
MA6813400180,h_OCHCTP,13-L1-9,2019-02-05 23:30:00.0,Qmin,8.66,CHCGILDTO6Y
MA6813400180,h_OCHCTP,13-L1-9,2019-02-05 23:30:00.0,PhaseCorrectionAve,-0.122,CHCGILDTO6Y
MA6813400180,h_OCHCTP,13-L1-9,2019-02-05 23:30:00.0,BerPreFecMax,0.00336,CHCGILDTO6Y
MA6813400180,h_OCHCTP,13-L1-9,2019-02-05 23:30:00.0,PmdMin,0.903,CHCGILDTO6Y
MA6813400180,h_OCHCTP,13-L1-9,2019-02-05 23:30:00.0,SoPmdAve,3520.22,CHCGILDTO6Y
MA6813400180,h_OCHCTP,13-L1-9,2019-02-05 23:45:00.0,Qmin,8.71,CHCGILDTO6Y
MA6813400180,h_OCHCTP,13-L1-9,2019-02-05 23:45:00.0,PhaseCorrectionAve,-0.183,CHCGILDTO6Y
MA6813400180,h_OCHCTP,13-L1-9,2019-02-05 23:45:00.0,BerPreFecMax,0.0032,CHCGILDTO6Y
MA6813400180,h_OCHCTP,13-L1-9,2019-02-05 23:45:00.0,PmdMin,0.797,CHCGILDTO6Y
MA6813400180,h_OCHCTP,13-L1-9,2019-02-05 23:45:00.0,SoPmdAve,3458.61,CHCGILDTO6Y
MA6813400180,h_OCHCTP,13-L1-10,2019-02-05 23:15:00.0,Qmin,8.58,CHCGILDTO6Y
MA6813400180,h_OCHCTP,13-L1-10,2019-02-05 23:15:00.0,PhaseCorrectionAve,-0.183,CHCGILDTO6Y
MA6813400180,h_OCHCTP,13-L1-10,2019-02-05 23:15:00.0,BerPreFecMax,0.00363,CHCGILDTO6Y
MA6813400180,h_OCHCTP,13-L1-10,2019-02-05 23:15:00.0,PmdMin,0.908,CHCGILDTO6Y
MA6813400180,h_OCHCTP,13-L1-10,2019-02-05 23:15:00.0,SoPmdAve,3866.2,CHCGILDTO6Y
MA6813400180,h_OCHCTP,13-L1-10,2019-02-05 23:30:00.0,Qmin,8.53,CHCGILDTO6Y
MA6813400180,h_OCHCTP,13-L1-10,2019-02-05 23:30:00.0,PhaseCorrectionAve,-0.122,CHCGILDTO6Y
MA6813400180,h_OCHCTP,13-L1-10,2019-02-05 23:30:00.0,BerPreFecMax,0.0038,CHCGILDTO6Y
MA6813400180,h_OCHCTP,13-L1-10,2019-02-05 23:30:00.0,PmdMin,0.902,CHCGILDTO6Y
MA6813400180,h_OCHCTP,13-L1-10,2019-02-05 23:30:00.0,SoPmdAve,3926.31,CHCGILDTO6Y
MA6813400180,h_OCHCTP,13-L1-10,2019-02-05 23:45:00.0,Qmin,8.48,CHCGILDTO6Y
MA6813400180,h_OCHCTP,13-L1-10,2019-02-05 23:45:00.0,PhaseCorrectionAve,-0.183,CHCGILDTO6Y
MA6813400180,h_OCHCTP,13-L1-10,2019-02-05 23:45:00.0,BerPreFecMax,0.00399,CHCGILDTO6Y
MA6813400180,h_OCHCTP,13-L1-10,2019-02-05 23:45:00.0,PmdMin,0.863,CHCGILDTO6Y
MA6813400180,h_OCHCTP,13-L1-10,2019-02-05 23:45:00.0,SoPmdAve,3833.48,CHCGILDTO6Y
MA6813400180,h_OCHCTP,10-L1-1,2019-02-05 23:15:00.0,Qmin,9.45,CHCGILDTO6Y
MA6813400180,h_OCHCTP,10-L1-1,2019-02-05 23:15:00.0,PhaseCorrectionAve,4.49e-07,CHCGILDTO6Y
MA6813400180,h_OCHCTP,10-L1-1,2019-02-05 23:15:00.0,BerPreFecMax,0.0015,CHCGILDTO6Y
MA6813400180,h_OCHCTP,10-L1-1,2019-02-05 23:15:00.0,PmdMin,0.69,CHCGILDTO6Y
MA6813400180,h_OCHCTP,10-L1-1,2019-02-05 23:15:00.0,SoPmdAve,3567.83,CHCGILDTO6Y
MA6813400180,h_OCHCTP,10-L1-1,2019-02-05 23:30:00.0,Qmin,9.49,CHCGILDTO6Y
MA6813400180,h_OCHCTP,10-L1-1,2019-02-05 23:30:00.0,PhaseCorrectionAve,4.33e-07,CHCGILDTO6Y
MA6813400180,h_OCHCTP,10-L1-1,2019-02-05 23:30:00.0,BerPreFecMax,0.00144,CHCGILDTO6Y
MA6813400180,h_OCHCTP,10-L1-1,2019-02-05 23:30:00.0,PmdMin,0.659,CHCGILDTO6Y
MA6813400180,h_OCHCTP,10-L1-1,2019-02-05 23:30:00.0,SoPmdAve,3560.92,CHCGILDTO6Y
MA6813400180,h_OCHCTP,10-L1-1,2019-02-05 23:45:00.0,Qmin,9.48,CHCGILDTO6Y
MA6813400180,h_OCHCTP,10-L1-1,2019-02-05 23:45:00.0,PhaseCorrectionAve,4.41e-07,CHCGILDTO6Y
MA6813400180,h_OCHCTP,10-L1-1,2019-02-05 23:45:00.0,BerPreFecMax,0.00144,CHCGILDTO6Y
MA6813400180,h_OCHCTP,10-L1-1,2019-02-05 23:45:00.0,PmdMin,1.18,CHCGILDTO6Y
MA6813400180,h_OCHCTP,10-L1-1,2019-02-05 23:45:00.0,SoPmdAve,3623.78,CHCGILDTO6Y
MA6813400180,h_OCHCTP,10-L1-2,2019-02-05 23:15:00.0,Qmin,9.17,CHCGILDTO6Y
MA6813400180,h_OCHCTP,10-L1-2,2019-02-05 23:15:00.0,PhaseCorrectionAve,3.31e-07,CHCGILDTO6Y
MA6813400180,h_OCHCTP,10-L1-2,2019-02-05 23:15:00.0,BerPreFecMax,0.00203,CHCGILDTO6Y
MA6813400180,h_OCHCTP,10-L1-2,2019-02-05 23:15:00.0,PmdMin,7.25,CHCGILDTO6Y
MA6813400180,h_OCHCTP,10-L1-2,2019-02-05 23:15:00.0,SoPmdAve,3271.85,CHCGILDTO6Y
MA6813400180,h_OCHCTP,10-L1-2,2019-02-05 23:30:00.0,Qmin,9.17,CHCGILDTO6Y
MA6813400180,h_OCHCTP,10-L1-2,2019-02-05 23:30:00.0,PhaseCorrectionAve,-0.061,CHCGILDTO6Y
MA6813400180,h_OCHCTP,10-L1-2,2019-02-05 23:30:00.0,BerPreFecMax,0.00203,CHCGILDTO6Y
MA6813400180,h_OCHCTP,10-L1-2,2019-02-05 23:30:00.0,PmdMin,2.57,CHCGILDTO6Y
MA6813400180,h_OCHCTP,10-L1-2,2019-02-05 23:30:00.0,SoPmdAve,3181.24,CHCGILDTO6Y
MA6813400180,h_OCHCTP,10-L1-2,2019-02-05 23:45:00.0,Qmin,9.15,CHCGILDTO6Y
MA6813400180,h_OCHCTP,10-L1-2,2019-02-05 23:45:00.0,PhaseCorrectionAve,-0.0611,CHCGILDTO6Y
MA6813400180,h_OCHCTP,10-L1-2,2019-02-05 23:45:00.0,BerPreFecMax,0.00206,CHCGILDTO6Y
MA6813400180,h_OCHCTP,10-L1-2,2019-02-05 23:45:00.0,PmdMin,7.65,CHCGILDTO6Y
MA6813400180,h_OCHCTP,10-L1-2,2019-02-05 23:45:00.0,SoPmdAve,3345.66,CHCGILDTO6Y
MA6813400180,h_OCHCTP,10-L1-3,2019-02-05 23:15:00.0,Qmin,8.89,CHCGILDTO6Y
MA6813400180,h_OCHCTP,10-L1-3,2019-02-05 23:15:00.0,PhaseCorrectionAve,5.72e-07,CHCGILDTO6Y
MA6813400180,h_OCHCTP,10-L1-3,2019-02-05 23:15:00.0,BerPreFecMax,0.00268,CHCGILDTO6Y
MA6813400180,h_OCHCTP,10-L1-3,2019-02-05 23:15:00.0,PmdMin,3.26,CHCGILDTO6Y
MA6813400180,h_OCHCTP,10-L1-3,2019-02-05 23:15:00.0,SoPmdAve,2825.96,CHCGILDTO6Y
MA6813400180,h_OCHCTP,10-L1-3,2019-02-05 23:30:00.0,Qmin,8.91,CHCGILDTO6Y
MA6813400180,h_OCHCTP,10-L1-3,2019-02-05 23:30:00.0,PhaseCorrectionAve,-0.061,CHCGILDTO6Y
MA6813400180,h_OCHCTP,10-L1-3,2019-02-05 23:30:00.0,BerPreFecMax,0.00264,CHCGILDTO6Y
MA6813400180,h_OCHCTP,10-L1-3,2019-02-05 23:30:00.0,PmdMin,1.8,CHCGILDTO6Y
MA6813400180,h_OCHCTP,10-L1-3,2019-02-05 23:30:00.0,SoPmdAve,2832.5,CHCGILDTO6Y
MA6813400180,h_OCHCTP,10-L1-3,2019-02-05 23:45:00.0,Qmin,8.89,CHCGILDTO6Y
MA6813400180,h_OCHCTP,10-L1-3,2019-02-05 23:45:00.0,PhaseCorrectionAve,-0.122,CHCGILDTO6Y
MA6813400180,h_OCHCTP,10-L1-3,2019-02-05 23:45:00.0,BerPreFecMax,0.00269,CHCGILDTO6Y
MA6813400180,h_OCHCTP,10-L1-3,2019-02-05 23:45:00.0,PmdMin,4.88,CHCGILDTO6Y
MA6813400180,h_OCHCTP,10-L1-3,2019-02-05 23:45:00.0,SoPmdAve,2762.61,CHCGILDTO6Y
MA6813400180,h_OCHCTP,10-L1-4,2019-02-05 23:15:00.0,Qmin,8.32,CHCGILDTO6Y
MA6813400180,h_OCHCTP,10-L1-4,2019-02-05 23:15:00.0,PhaseCorrectionAve,2.61e-06,CHCGILDTO6Y
MA6813400180,h_OCHCTP,10-L1-4,2019-02-05 23:15:00.0,BerPreFecMax,0.00459,CHCGILDTO6Y
MA6813400180,h_OCHCTP,10-L1-4,2019-02-05 23:15:00.0,PmdMin,0.851,CHCGILDTO6Y
MA6813400180,h_OCHCTP,10-L1-4,2019-02-05 23:15:00.0,SoPmdAve,2997.45,CHCGILDTO6Y
MA6813400180,h_OCHCTP,10-L1-4,2019-02-05 23:30:00.0,Qmin,8.34,CHCGILDTO6Y
MA6813400180,h_OCHCTP,10-L1-4,2019-02-05 23:30:00.0,PhaseCorrectionAve,-0.061,CHCGILDTO6Y
MA6813400180,h_OCHCTP,10-L1-4,2019-02-05 23:30:00.0,BerPreFecMax,0.00451,CHCGILDTO6Y
MA6813400180,h_OCHCTP,10-L1-4,2019-02-05 23:30:00.0,PmdMin,1.35,CHCGILDTO6Y
MA6813400180,h_OCHCTP,10-L1-4,2019-02-05 23:30:00.0,SoPmdAve,3103.23,CHCGILDTO6Y
MA6813400180,h_OCHCTP,10-L1-4,2019-02-05 23:45:00.0,Qmin,8.34,CHCGILDTO6Y
MA6813400180,h_OCHCTP,10-L1-4,2019-02-05 23:45:00.0,PhaseCorrectionAve,-0.244,CHCGILDTO6Y
MA6813400180,h_OCHCTP,10-L1-4,2019-02-05 23:45:00.0,BerPreFecMax,0.0045,CHCGILDTO6Y
MA6813400180,h_OCHCTP,10-L1-4,2019-02-05 23:45:00.0,PmdMin,1.24,CHCGILDTO6Y
MA6813400180,h_OCHCTP,10-L1-4,2019-02-05 23:45:00.0,SoPmdAve,3080.86,CHCGILDTO6Y
MA6813400180,h_OCHCTP,10-L1-5,2019-02-05 23:15:00.0,Qmin,8.54,CHCGILDTO6Y
MA6813400180,h_OCHCTP,10-L1-5,2019-02-05 23:15:00.0,PhaseCorrectionAve,1.36e-06,CHCGILDTO6Y
MA6813400180,h_OCHCTP,10-L1-5,2019-02-05 23:15:00.0,BerPreFecMax,0.00377,CHCGILDTO6Y
MA6813400180,h_OCHCTP,10-L1-5,2019-02-05 23:15:00.0,PmdMin,1.08,CHCGILDTO6Y
MA6813400180,h_OCHCTP,10-L1-5,2019-02-05 23:15:00.0,SoPmdAve,2840.47,CHCGILDTO6Y
MA6813400180,h_OCHCTP,10-L1-5,2019-02-05 23:30:00.0,Qmin,8.54,CHCGILDTO6Y
MA6813400180,h_OCHCTP,10-L1-5,2019-02-05 23:30:00.0,PhaseCorrectionAve,-0.061,CHCGILDTO6Y
MA6813400180,h_OCHCTP,10-L1-5,2019-02-05 23:30:00.0,BerPreFecMax,0.00377,CHCGILDTO6Y
MA6813400180,h_OCHCTP,10-L1-5,2019-02-05 23:30:00.0,PmdMin,1.19,CHCGILDTO6Y
MA6813400180,h_OCHCTP,10-L1-5,2019-02-05 23:30:00.0,SoPmdAve,2904.22,CHCGILDTO6Y
MA6813400180,h_OCHCTP,10-L1-5,2019-02-05 23:45:00.0,Qmin,8.53,CHCGILDTO6Y
MA6813400180,h_OCHCTP,10-L1-5,2019-02-05 23:45:00.0,PhaseCorrectionAve,-0.244,CHCGILDTO6Y
MA6813400180,h_OCHCTP,10-L1-5,2019-02-05 23:45:00.0,BerPreFecMax,0.0038,CHCGILDTO6Y
MA6813400180,h_OCHCTP,10-L1-5,2019-02-05 23:45:00.0,PmdMin,1.29,CHCGILDTO6Y
MA6813400180,h_OCHCTP,10-L1-5,2019-02-05 23:45:00.0,SoPmdAve,2875.87,CHCGILDTO6Y
MA6813400180,h_OCHCTP,10-L1-6,2019-02-05 23:15:00.0,Qmin,8.76,CHCGILDTO6Y
MA6813400180,h_OCHCTP,10-L1-6,2019-02-05 23:15:00.0,PhaseCorrectionAve,8.88e-07,CHCGILDTO6Y
MA6813400180,h_OCHCTP,10-L1-6,2019-02-05 23:15:00.0,BerPreFecMax,0.00305,CHCGILDTO6Y
MA6813400180,h_OCHCTP,10-L1-6,2019-02-05 23:15:00.0,PmdMin,1.22,CHCGILDTO6Y
MA6813400180,h_OCHCTP,10-L1-6,2019-02-05 23:15:00.0,SoPmdAve,2838.31,CHCGILDTO6Y
MA6813400180,h_OCHCTP,10-L1-6,2019-02-05 23:30:00.0,Qmin,8.76,CHCGILDTO6Y
MA6813400180,h_OCHCTP,10-L1-6,2019-02-05 23:30:00.0,PhaseCorrectionAve,-0.061,CHCGILDTO6Y
MA6813400180,h_OCHCTP,10-L1-6,2019-02-05 23:30:00.0,BerPreFecMax,0.00305,CHCGILDTO6Y
MA6813400180,h_OCHCTP,10-L1-6,2019-02-05 23:30:00.0,PmdMin,1.17,CHCGILDTO6Y
MA6813400180,h_OCHCTP,10-L1-6,2019-02-05 23:30:00.0,SoPmdAve,2830.67,CHCGILDTO6Y
MA6813400180,h_OCHCTP,10-L1-6,2019-02-05 23:45:00.0,Qmin,8.76,CHCGILDTO6Y
MA6813400180,h_OCHCTP,10-L1-6,2019-02-05 23:45:00.0,PhaseCorrectionAve,-0.244,CHCGILDTO6Y
MA6813400180,h_OCHCTP,10-L1-6,2019-02-05 23:45:00.0,BerPreFecMax,0.00307,CHCGILDTO6Y
MA6813400180,h_OCHCTP,10-L1-6,2019-02-05 23:45:00.0,PmdMin,1.08,CHCGILDTO6Y
MA6813400180,h_OCHCTP,10-L1-6,2019-02-05 23:45:00.0,SoPmdAve,2872.19,CHCGILDTO6Y
MA6813400180,h_OCHCTP,10-L1-7,2019-02-05 23:15:00.0,Qmin,8.85,CHCGILDTO6Y
MA6813400180,h_OCHCTP,10-L1-7,2019-02-05 23:15:00.0,PhaseCorrectionAve,5.59e-07,CHCGILDTO6Y
MA6813400180,h_OCHCTP,10-L1-7,2019-02-05 23:15:00.0,BerPreFecMax,0.00279,CHCGILDTO6Y
MA6813400180,h_OCHCTP,10-L1-7,2019-02-05 23:15:00.0,PmdMin,1.99,CHCGILDTO6Y
MA6813400180,h_OCHCTP,10-L1-7,2019-02-05 23:15:00.0,SoPmdAve,3506.6,CHCGILDTO6Y
MA6813400180,h_OCHCTP,10-L1-7,2019-02-05 23:30:00.0,Qmin,8.85,CHCGILDTO6Y
MA6813400180,h_OCHCTP,10-L1-7,2019-02-05 23:30:00.0,PhaseCorrectionAve,-0.122,CHCGILDTO6Y
MA6813400180,h_OCHCTP,10-L1-7,2019-02-05 23:30:00.0,BerPreFecMax,0.0028,CHCGILDTO6Y
MA6813400180,h_OCHCTP,10-L1-7,2019-02-05 23:30:00.0,PmdMin,2.41,CHCGILDTO6Y
MA6813400180,h_OCHCTP,10-L1-7,2019-02-05 23:30:00.0,SoPmdAve,3446.79,CHCGILDTO6Y
MA6813400180,h_OCHCTP,10-L1-7,2019-02-05 23:45:00.0,Qmin,8.85,CHCGILDTO6Y
MA6813400180,h_OCHCTP,10-L1-7,2019-02-05 23:45:00.0,PhaseCorrectionAve,-0.367,CHCGILDTO6Y
MA6813400180,h_OCHCTP,10-L1-7,2019-02-05 23:45:00.0,BerPreFecMax,0.00281,CHCGILDTO6Y
MA6813400180,h_OCHCTP,10-L1-7,2019-02-05 23:45:00.0,PmdMin,1.94,CHCGILDTO6Y
MA6813400180,h_OCHCTP,10-L1-7,2019-02-05 23:45:00.0,SoPmdAve,3505.5,CHCGILDTO6Y
MA6813400180,h_OCHCTP,10-L1-8,2019-02-05 23:15:00.0,Qmin,9.32,CHCGILDTO6Y
MA6813400180,h_OCHCTP,10-L1-8,2019-02-05 23:15:00.0,PhaseCorrectionAve,-0.061,CHCGILDTO6Y
MA6813400180,h_OCHCTP,10-L1-8,2019-02-05 23:15:00.0,BerPreFecMax,0.00172,CHCGILDTO6Y
MA6813400180,h_OCHCTP,10-L1-8,2019-02-05 23:15:00.0,PmdMin,2.38,CHCGILDTO6Y
MA6813400180,h_OCHCTP,10-L1-8,2019-02-05 23:15:00.0,SoPmdAve,3297.53,CHCGILDTO6Y
MA6813400180,h_OCHCTP,10-L1-8,2019-02-05 23:30:00.0,Qmin,9.33,CHCGILDTO6Y
MA6813400180,h_OCHCTP,10-L1-8,2019-02-05 23:30:00.0,PhaseCorrectionAve,-0.122,CHCGILDTO6Y
MA6813400180,h_OCHCTP,10-L1-8,2019-02-05 23:30:00.0,BerPreFecMax,0.0017,CHCGILDTO6Y
MA6813400180,h_OCHCTP,10-L1-8,2019-02-05 23:30:00.0,PmdMin,2.7,CHCGILDTO6Y
MA6813400180,h_OCHCTP,10-L1-8,2019-02-05 23:30:00.0,SoPmdAve,3288.81,CHCGILDTO6Y
MA6813400180,h_OCHCTP,10-L1-8,2019-02-05 23:45:00.0,Qmin,9.32,CHCGILDTO6Y
MA6813400180,h_OCHCTP,10-L1-8,2019-02-05 23:45:00.0,PhaseCorrectionAve,-0.428,CHCGILDTO6Y
MA6813400180,h_OCHCTP,10-L1-8,2019-02-05 23:45:00.0,BerPreFecMax,0.00173,CHCGILDTO6Y
MA6813400180,h_OCHCTP,10-L1-8,2019-02-05 23:45:00.0,PmdMin,1.46,CHCGILDTO6Y
MA6813400180,h_OCHCTP,10-L1-8,2019-02-05 23:45:00.0,SoPmdAve,3398.51,CHCGILDTO6Y
MA6813400180,h_OCHCTP,10-L1-9,2019-02-05 23:15:00.0,Qmin,9.32,CHCGILDTO6Y
MA6813400180,h_OCHCTP,10-L1-9,2019-02-05 23:15:00.0,PhaseCorrectionAve,-0.061,CHCGILDTO6Y
MA6813400180,h_OCHCTP,10-L1-9,2019-02-05 23:15:00.0,BerPreFecMax,0.00172,CHCGILDTO6Y
MA6813400180,h_OCHCTP,10-L1-9,2019-02-05 23:15:00.0,PmdMin,1.68,CHCGILDTO6Y
MA6813400180,h_OCHCTP,10-L1-9,2019-02-05 23:15:00.0,SoPmdAve,3298.49,CHCGILDTO6Y
MA6813400180,h_OCHCTP,10-L1-9,2019-02-05 23:30:00.0,Qmin,9.34,CHCGILDTO6Y
MA6813400180,h_OCHCTP,10-L1-9,2019-02-05 23:30:00.0,PhaseCorrectionAve,-0.122,CHCGILDTO6Y
MA6813400180,h_OCHCTP,10-L1-9,2019-02-05 23:30:00.0,BerPreFecMax,0.0017,CHCGILDTO6Y
MA6813400180,h_OCHCTP,10-L1-9,2019-02-05 23:30:00.0,PmdMin,2.57,CHCGILDTO6Y
MA6813400180,h_OCHCTP,10-L1-9,2019-02-05 23:30:00.0,SoPmdAve,3240.81,CHCGILDTO6Y
MA6813400180,h_OCHCTP,10-L1-9,2019-02-05 23:45:00.0,Qmin,9.35,CHCGILDTO6Y
MA6813400180,h_OCHCTP,10-L1-9,2019-02-05 23:45:00.0,PhaseCorrectionAve,-0.428,CHCGILDTO6Y
MA6813400180,h_OCHCTP,10-L1-9,2019-02-05 23:45:00.0,BerPreFecMax,0.00167,CHCGILDTO6Y
MA6813400180,h_OCHCTP,10-L1-9,2019-02-05 23:45:00.0,PmdMin,2.87,CHCGILDTO6Y
MA6813400180,h_OCHCTP,10-L1-9,2019-02-05 23:45:00.0,SoPmdAve,3184.26,CHCGILDTO6Y
MA6813400180,h_OCHCTP,10-L1-10,2019-02-05 23:15:00.0,Qmin,9.37,CHCGILDTO6Y
MA6813400180,h_OCHCTP,10-L1-10,2019-02-05 23:15:00.0,PhaseCorrectionAve,-0.061,CHCGILDTO6Y
MA6813400180,h_OCHCTP,10-L1-10,2019-02-05 23:15:00.0,BerPreFecMax,0.00164,CHCGILDTO6Y
MA6813400180,h_OCHCTP,10-L1-10,2019-02-05 23:15:00.0,PmdMin,5.93,CHCGILDTO6Y
MA6813400180,h_OCHCTP,10-L1-10,2019-02-05 23:15:00.0,SoPmdAve,3216.07,CHCGILDTO6Y
MA6813400180,h_OCHCTP,10-L1-10,2019-02-05 23:30:00.0,Qmin,9.36,CHCGILDTO6Y
MA6813400180,h_OCHCTP,10-L1-10,2019-02-05 23:30:00.0,PhaseCorrectionAve,-0.122,CHCGILDTO6Y
MA6813400180,h_OCHCTP,10-L1-10,2019-02-05 23:30:00.0,BerPreFecMax,0.00165,CHCGILDTO6Y
MA6813400180,h_OCHCTP,10-L1-10,2019-02-05 23:30:00.0,PmdMin,5.53,CHCGILDTO6Y
MA6813400180,h_OCHCTP,10-L1-10,2019-02-05 23:30:00.0,SoPmdAve,3260.69,CHCGILDTO6Y
MA6813400180,h_OCHCTP,10-L1-10,2019-02-05 23:45:00.0,Qmin,9.36,CHCGILDTO6Y
MA6813400180,h_OCHCTP,10-L1-10,2019-02-05 23:45:00.0,PhaseCorrectionAve,-0.428,CHCGILDTO6Y
MA6813400180,h_OCHCTP,10-L1-10,2019-02-05 23:45:00.0,BerPreFecMax,0.00166,CHCGILDTO6Y
MA6813400180,h_OCHCTP,10-L1-10,2019-02-05 23:45:00.0,PmdMin,5.72,CHCGILDTO6Y
MA6813400180,h_OCHCTP,10-L1-10,2019-02-05 23:45:00.0,SoPmdAve,3263.84,CHCGILDTO6Y
