MA6813400180,h_OCHCTP,11-L1-1,2019-01-23 13:15:00.0,Qmin,9.09,CHCGILDTO6Y
MA6813400180,h_OCHCTP,11-L1-1,2019-01-23 13:15:00.0,PhaseCorrectionAve,1.39e-07,CHCGILDTO6Y
MA6813400180,h_OCHCTP,11-L1-1,2019-01-23 13:15:00.0,BerPreFecMax,0.00219,CHCGILDTO6Y
MA6813400180,h_OCHCTP,11-L1-1,2019-01-23 13:15:00.0,PmdMin,0.68,CHCGILDTO6Y
MA6813400180,h_OCHCTP,11-L1-1,2019-01-23 13:15:00.0,SoPmdAve,3284.34,CHCGILDTO6Y
MA6813400180,h_OCHCTP,11-L1-1,2019-01-23 13:30:00.0,Qmin,9.09,CHCGILDTO6Y
MA6813400180,h_OCHCTP,11-L1-1,2019-01-23 13:30:00.0,PhaseCorrectionAve,1.32e-07,CHCGILDTO6Y
MA6813400180,h_OCHCTP,11-L1-1,2019-01-23 13:30:00.0,BerPreFecMax,0.0022,CHCGILDTO6Y
MA6813400180,h_OCHCTP,11-L1-1,2019-01-23 13:30:00.0,PmdMin,1.08,CHCGILDTO6Y
MA6813400180,h_OCHCTP,11-L1-1,2019-01-23 13:30:00.0,SoPmdAve,3369.67,CHCGILDTO6Y
MA6813400180,h_OCHCTP,11-L1-1,2019-01-23 13:45:00.0,Qmin,9.14,CHCGILDTO6Y
MA6813400180,h_OCHCTP,11-L1-1,2019-01-23 13:45:00.0,PhaseCorrectionAve,-0.122,CHCGILDTO6Y
MA6813400180,h_OCHCTP,11-L1-1,2019-01-23 13:45:00.0,BerPreFecMax,0.0021,CHCGILDTO6Y
MA6813400180,h_OCHCTP,11-L1-1,2019-01-23 13:45:00.0,PmdMin,0.901,CHCGILDTO6Y
MA6813400180,h_OCHCTP,11-L1-1,2019-01-23 13:45:00.0,SoPmdAve,3347.15,CHCGILDTO6Y
MA6813400180,h_OCHCTP,11-L1-2,2019-01-23 13:15:00.0,Qmin,9.04,CHCGILDTO6Y
MA6813400180,h_OCHCTP,11-L1-2,2019-01-23 13:15:00.0,PhaseCorrectionAve,-0.061,CHCGILDTO6Y
MA6813400180,h_OCHCTP,11-L1-2,2019-01-23 13:15:00.0,BerPreFecMax,0.00231,CHCGILDTO6Y
MA6813400180,h_OCHCTP,11-L1-2,2019-01-23 13:15:00.0,PmdMin,1.36,CHCGILDTO6Y
MA6813400180,h_OCHCTP,11-L1-2,2019-01-23 13:15:00.0,SoPmdAve,3134.17,CHCGILDTO6Y
MA6813400180,h_OCHCTP,11-L1-2,2019-01-23 13:30:00.0,Qmin,9.06,CHCGILDTO6Y
MA6813400180,h_OCHCTP,11-L1-2,2019-01-23 13:30:00.0,PhaseCorrectionAve,3.4e-07,CHCGILDTO6Y
MA6813400180,h_OCHCTP,11-L1-2,2019-01-23 13:30:00.0,BerPreFecMax,0.00226,CHCGILDTO6Y
MA6813400180,h_OCHCTP,11-L1-2,2019-01-23 13:30:00.0,PmdMin,1.05,CHCGILDTO6Y
MA6813400180,h_OCHCTP,11-L1-2,2019-01-23 13:30:00.0,SoPmdAve,3049.0,CHCGILDTO6Y
MA6813400180,h_OCHCTP,11-L1-2,2019-01-23 13:45:00.0,Qmin,9.03,CHCGILDTO6Y
MA6813400180,h_OCHCTP,11-L1-2,2019-01-23 13:45:00.0,PhaseCorrectionAve,-0.122,CHCGILDTO6Y
MA6813400180,h_OCHCTP,11-L1-2,2019-01-23 13:45:00.0,BerPreFecMax,0.00233,CHCGILDTO6Y
MA6813400180,h_OCHCTP,11-L1-2,2019-01-23 13:45:00.0,PmdMin,1.43,CHCGILDTO6Y
MA6813400180,h_OCHCTP,11-L1-2,2019-01-23 13:45:00.0,SoPmdAve,3096.96,CHCGILDTO6Y
MA6813400180,h_OCHCTP,11-L1-3,2019-01-23 13:15:00.0,Qmin,8.96,CHCGILDTO6Y
MA6813400180,h_OCHCTP,11-L1-3,2019-01-23 13:15:00.0,PhaseCorrectionAve,-0.061,CHCGILDTO6Y
MA6813400180,h_OCHCTP,11-L1-3,2019-01-23 13:15:00.0,BerPreFecMax,0.0025,CHCGILDTO6Y
MA6813400180,h_OCHCTP,11-L1-3,2019-01-23 13:15:00.0,PmdMin,1.47,CHCGILDTO6Y
MA6813400180,h_OCHCTP,11-L1-3,2019-01-23 13:15:00.0,SoPmdAve,2780.56,CHCGILDTO6Y
MA6813400180,h_OCHCTP,11-L1-3,2019-01-23 13:30:00.0,Qmin,8.96,CHCGILDTO6Y
MA6813400180,h_OCHCTP,11-L1-3,2019-01-23 13:30:00.0,PhaseCorrectionAve,3.6e-07,CHCGILDTO6Y
MA6813400180,h_OCHCTP,11-L1-3,2019-01-23 13:30:00.0,BerPreFecMax,0.00252,CHCGILDTO6Y
MA6813400180,h_OCHCTP,11-L1-3,2019-01-23 13:30:00.0,PmdMin,0.413,CHCGILDTO6Y
MA6813400180,h_OCHCTP,11-L1-3,2019-01-23 13:30:00.0,SoPmdAve,2625.35,CHCGILDTO6Y
MA6813400180,h_OCHCTP,11-L1-3,2019-01-23 13:45:00.0,Qmin,8.93,CHCGILDTO6Y
MA6813400180,h_OCHCTP,11-L1-3,2019-01-23 13:45:00.0,PhaseCorrectionAve,-0.183,CHCGILDTO6Y
MA6813400180,h_OCHCTP,11-L1-3,2019-01-23 13:45:00.0,BerPreFecMax,0.0026,CHCGILDTO6Y
MA6813400180,h_OCHCTP,11-L1-3,2019-01-23 13:45:00.0,PmdMin,0.603,CHCGILDTO6Y
MA6813400180,h_OCHCTP,11-L1-3,2019-01-23 13:45:00.0,SoPmdAve,2686.98,CHCGILDTO6Y
MA6813400180,h_OCHCTP,11-L1-4,2019-01-23 13:15:00.0,Qmin,8.71,CHCGILDTO6Y
MA6813400180,h_OCHCTP,11-L1-4,2019-01-23 13:15:00.0,PhaseCorrectionAve,-0.122,CHCGILDTO6Y
MA6813400180,h_OCHCTP,11-L1-4,2019-01-23 13:15:00.0,BerPreFecMax,0.0032,CHCGILDTO6Y
MA6813400180,h_OCHCTP,11-L1-4,2019-01-23 13:15:00.0,PmdMin,0.846,CHCGILDTO6Y
MA6813400180,h_OCHCTP,11-L1-4,2019-01-23 13:15:00.0,SoPmdAve,3019.55,CHCGILDTO6Y
MA6813400180,h_OCHCTP,11-L1-4,2019-01-23 13:30:00.0,Qmin,8.74,CHCGILDTO6Y
MA6813400180,h_OCHCTP,11-L1-4,2019-01-23 13:30:00.0,PhaseCorrectionAve,5.71e-07,CHCGILDTO6Y
MA6813400180,h_OCHCTP,11-L1-4,2019-01-23 13:30:00.0,BerPreFecMax,0.0031,CHCGILDTO6Y
MA6813400180,h_OCHCTP,11-L1-4,2019-01-23 13:30:00.0,PmdMin,0.413,CHCGILDTO6Y
MA6813400180,h_OCHCTP,11-L1-4,2019-01-23 13:30:00.0,SoPmdAve,2921.38,CHCGILDTO6Y
MA6813400180,h_OCHCTP,11-L1-4,2019-01-23 13:45:00.0,Qmin,8.72,CHCGILDTO6Y
MA6813400180,h_OCHCTP,11-L1-4,2019-01-23 13:45:00.0,PhaseCorrectionAve,-0.183,CHCGILDTO6Y
MA6813400180,h_OCHCTP,11-L1-4,2019-01-23 13:45:00.0,BerPreFecMax,0.00318,CHCGILDTO6Y
MA6813400180,h_OCHCTP,11-L1-4,2019-01-23 13:45:00.0,PmdMin,1.01,CHCGILDTO6Y
MA6813400180,h_OCHCTP,11-L1-4,2019-01-23 13:45:00.0,SoPmdAve,2998.27,CHCGILDTO6Y
MA6813400180,h_OCHCTP,11-L1-5,2019-01-23 13:15:00.0,Qmin,8.8,CHCGILDTO6Y
MA6813400180,h_OCHCTP,11-L1-5,2019-01-23 13:15:00.0,PhaseCorrectionAve,-0.122,CHCGILDTO6Y
MA6813400180,h_OCHCTP,11-L1-5,2019-01-23 13:15:00.0,BerPreFecMax,0.00294,CHCGILDTO6Y
MA6813400180,h_OCHCTP,11-L1-5,2019-01-23 13:15:00.0,PmdMin,1.3,CHCGILDTO6Y
MA6813400180,h_OCHCTP,11-L1-5,2019-01-23 13:15:00.0,SoPmdAve,2546.11,CHCGILDTO6Y
MA6813400180,h_OCHCTP,11-L1-5,2019-01-23 13:30:00.0,Qmin,8.79,CHCGILDTO6Y
MA6813400180,h_OCHCTP,11-L1-5,2019-01-23 13:30:00.0,PhaseCorrectionAve,1.98e-07,CHCGILDTO6Y
MA6813400180,h_OCHCTP,11-L1-5,2019-01-23 13:30:00.0,BerPreFecMax,0.00296,CHCGILDTO6Y
MA6813400180,h_OCHCTP,11-L1-5,2019-01-23 13:30:00.0,PmdMin,1.14,CHCGILDTO6Y
MA6813400180,h_OCHCTP,11-L1-5,2019-01-23 13:30:00.0,SoPmdAve,2623.55,CHCGILDTO6Y
MA6813400180,h_OCHCTP,11-L1-5,2019-01-23 13:45:00.0,Qmin,8.79,CHCGILDTO6Y
MA6813400180,h_OCHCTP,11-L1-5,2019-01-23 13:45:00.0,PhaseCorrectionAve,-0.183,CHCGILDTO6Y
MA6813400180,h_OCHCTP,11-L1-5,2019-01-23 13:45:00.0,BerPreFecMax,0.00298,CHCGILDTO6Y
MA6813400180,h_OCHCTP,11-L1-5,2019-01-23 13:45:00.0,PmdMin,0.988,CHCGILDTO6Y
MA6813400180,h_OCHCTP,11-L1-5,2019-01-23 13:45:00.0,SoPmdAve,2579.34,CHCGILDTO6Y
MA6813400180,h_OCHCTP,11-L1-6,2019-01-23 13:15:00.0,Qmin,8.71,CHCGILDTO6Y
MA6813400180,h_OCHCTP,11-L1-6,2019-01-23 13:15:00.0,PhaseCorrectionAve,-0.122,CHCGILDTO6Y
MA6813400180,h_OCHCTP,11-L1-6,2019-01-23 13:15:00.0,BerPreFecMax,0.0032,CHCGILDTO6Y
MA6813400180,h_OCHCTP,11-L1-6,2019-01-23 13:15:00.0,PmdMin,0.546,CHCGILDTO6Y
MA6813400180,h_OCHCTP,11-L1-6,2019-01-23 13:15:00.0,SoPmdAve,2491.98,CHCGILDTO6Y
MA6813400180,h_OCHCTP,11-L1-6,2019-01-23 13:30:00.0,Qmin,8.72,CHCGILDTO6Y
MA6813400180,h_OCHCTP,11-L1-6,2019-01-23 13:30:00.0,PhaseCorrectionAve,-0.061,CHCGILDTO6Y
MA6813400180,h_OCHCTP,11-L1-6,2019-01-23 13:30:00.0,BerPreFecMax,0.00316,CHCGILDTO6Y
MA6813400180,h_OCHCTP,11-L1-6,2019-01-23 13:30:00.0,PmdMin,0.613,CHCGILDTO6Y
MA6813400180,h_OCHCTP,11-L1-6,2019-01-23 13:30:00.0,SoPmdAve,2549.11,CHCGILDTO6Y
MA6813400180,h_OCHCTP,11-L1-6,2019-01-23 13:45:00.0,Qmin,8.69,CHCGILDTO6Y
MA6813400180,h_OCHCTP,11-L1-6,2019-01-23 13:45:00.0,PhaseCorrectionAve,-0.244,CHCGILDTO6Y
MA6813400180,h_OCHCTP,11-L1-6,2019-01-23 13:45:00.0,BerPreFecMax,0.00325,CHCGILDTO6Y
MA6813400180,h_OCHCTP,11-L1-6,2019-01-23 13:45:00.0,PmdMin,0.919,CHCGILDTO6Y
MA6813400180,h_OCHCTP,11-L1-6,2019-01-23 13:45:00.0,SoPmdAve,2528.69,CHCGILDTO6Y
MA6813400180,h_OCHCTP,11-L1-7,2019-01-23 13:15:00.0,Qmin,8.81,CHCGILDTO6Y
MA6813400180,h_OCHCTP,11-L1-7,2019-01-23 13:15:00.0,PhaseCorrectionAve,-0.122,CHCGILDTO6Y
MA6813400180,h_OCHCTP,11-L1-7,2019-01-23 13:15:00.0,BerPreFecMax,0.0029,CHCGILDTO6Y
MA6813400180,h_OCHCTP,11-L1-7,2019-01-23 13:15:00.0,PmdMin,0.93,CHCGILDTO6Y
MA6813400180,h_OCHCTP,11-L1-7,2019-01-23 13:15:00.0,SoPmdAve,2943.93,CHCGILDTO6Y
MA6813400180,h_OCHCTP,11-L1-7,2019-01-23 13:30:00.0,Qmin,8.78,CHCGILDTO6Y
MA6813400180,h_OCHCTP,11-L1-7,2019-01-23 13:30:00.0,PhaseCorrectionAve,-0.061,CHCGILDTO6Y
MA6813400180,h_OCHCTP,11-L1-7,2019-01-23 13:30:00.0,BerPreFecMax,0.00299,CHCGILDTO6Y
MA6813400180,h_OCHCTP,11-L1-7,2019-01-23 13:30:00.0,PmdMin,1.28,CHCGILDTO6Y
MA6813400180,h_OCHCTP,11-L1-7,2019-01-23 13:30:00.0,SoPmdAve,2987.26,CHCGILDTO6Y
MA6813400180,h_OCHCTP,11-L1-7,2019-01-23 13:45:00.0,Qmin,8.83,CHCGILDTO6Y
MA6813400180,h_OCHCTP,11-L1-7,2019-01-23 13:45:00.0,PhaseCorrectionAve,-0.244,CHCGILDTO6Y
MA6813400180,h_OCHCTP,11-L1-7,2019-01-23 13:45:00.0,BerPreFecMax,0.00287,CHCGILDTO6Y
MA6813400180,h_OCHCTP,11-L1-7,2019-01-23 13:45:00.0,PmdMin,0.932,CHCGILDTO6Y
MA6813400180,h_OCHCTP,11-L1-7,2019-01-23 13:45:00.0,SoPmdAve,2914.55,CHCGILDTO6Y
MA6813400180,h_OCHCTP,11-L1-8,2019-01-23 13:15:00.0,Qmin,8.92,CHCGILDTO6Y
MA6813400180,h_OCHCTP,11-L1-8,2019-01-23 13:15:00.0,PhaseCorrectionAve,-0.183,CHCGILDTO6Y
MA6813400180,h_OCHCTP,11-L1-8,2019-01-23 13:15:00.0,BerPreFecMax,0.0026,CHCGILDTO6Y
MA6813400180,h_OCHCTP,11-L1-8,2019-01-23 13:15:00.0,PmdMin,0.348,CHCGILDTO6Y
MA6813400180,h_OCHCTP,11-L1-8,2019-01-23 13:15:00.0,SoPmdAve,3051.01,CHCGILDTO6Y
MA6813400180,h_OCHCTP,11-L1-8,2019-01-23 13:30:00.0,Qmin,8.93,CHCGILDTO6Y
MA6813400180,h_OCHCTP,11-L1-8,2019-01-23 13:30:00.0,PhaseCorrectionAve,-0.061,CHCGILDTO6Y
MA6813400180,h_OCHCTP,11-L1-8,2019-01-23 13:30:00.0,BerPreFecMax,0.00259,CHCGILDTO6Y
MA6813400180,h_OCHCTP,11-L1-8,2019-01-23 13:30:00.0,PmdMin,0.331,CHCGILDTO6Y
MA6813400180,h_OCHCTP,11-L1-8,2019-01-23 13:30:00.0,SoPmdAve,3066.92,CHCGILDTO6Y
MA6813400180,h_OCHCTP,11-L1-8,2019-01-23 13:45:00.0,Qmin,8.98,CHCGILDTO6Y
MA6813400180,h_OCHCTP,11-L1-8,2019-01-23 13:45:00.0,PhaseCorrectionAve,-0.244,CHCGILDTO6Y
MA6813400180,h_OCHCTP,11-L1-8,2019-01-23 13:45:00.0,BerPreFecMax,0.00247,CHCGILDTO6Y
MA6813400180,h_OCHCTP,11-L1-8,2019-01-23 13:45:00.0,PmdMin,0.743,CHCGILDTO6Y
MA6813400180,h_OCHCTP,11-L1-8,2019-01-23 13:45:00.0,SoPmdAve,3147.39,CHCGILDTO6Y
MA6813400180,h_OCHCTP,11-L1-9,2019-01-23 13:15:00.0,Qmin,8.9,CHCGILDTO6Y
MA6813400180,h_OCHCTP,11-L1-9,2019-01-23 13:15:00.0,PhaseCorrectionAve,-0.183,CHCGILDTO6Y
MA6813400180,h_OCHCTP,11-L1-9,2019-01-23 13:15:00.0,BerPreFecMax,0.00267,CHCGILDTO6Y
MA6813400180,h_OCHCTP,11-L1-9,2019-01-23 13:15:00.0,PmdMin,0.625,CHCGILDTO6Y
MA6813400180,h_OCHCTP,11-L1-9,2019-01-23 13:15:00.0,SoPmdAve,3079.94,CHCGILDTO6Y
MA6813400180,h_OCHCTP,11-L1-9,2019-01-23 13:30:00.0,Qmin,8.93,CHCGILDTO6Y
MA6813400180,h_OCHCTP,11-L1-9,2019-01-23 13:30:00.0,PhaseCorrectionAve,-0.061,CHCGILDTO6Y
MA6813400180,h_OCHCTP,11-L1-9,2019-01-23 13:30:00.0,BerPreFecMax,0.00259,CHCGILDTO6Y
MA6813400180,h_OCHCTP,11-L1-9,2019-01-23 13:30:00.0,PmdMin,1.18,CHCGILDTO6Y
MA6813400180,h_OCHCTP,11-L1-9,2019-01-23 13:30:00.0,SoPmdAve,3073.32,CHCGILDTO6Y
MA6813400180,h_OCHCTP,11-L1-9,2019-01-23 13:45:00.0,Qmin,8.95,CHCGILDTO6Y
MA6813400180,h_OCHCTP,11-L1-9,2019-01-23 13:45:00.0,PhaseCorrectionAve,-0.305,CHCGILDTO6Y
MA6813400180,h_OCHCTP,11-L1-9,2019-01-23 13:45:00.0,BerPreFecMax,0.00252,CHCGILDTO6Y
MA6813400180,h_OCHCTP,11-L1-9,2019-01-23 13:45:00.0,PmdMin,0.633,CHCGILDTO6Y
MA6813400180,h_OCHCTP,11-L1-9,2019-01-23 13:45:00.0,SoPmdAve,3147.78,CHCGILDTO6Y
MA6813400180,h_OCHCTP,11-L1-10,2019-01-23 13:15:00.0,Qmin,9.05,CHCGILDTO6Y
MA6813400180,h_OCHCTP,11-L1-10,2019-01-23 13:15:00.0,PhaseCorrectionAve,-0.183,CHCGILDTO6Y
MA6813400180,h_OCHCTP,11-L1-10,2019-01-23 13:15:00.0,BerPreFecMax,0.00229,CHCGILDTO6Y
MA6813400180,h_OCHCTP,11-L1-10,2019-01-23 13:15:00.0,PmdMin,0.424,CHCGILDTO6Y
MA6813400180,h_OCHCTP,11-L1-10,2019-01-23 13:15:00.0,SoPmdAve,3123.69,CHCGILDTO6Y
MA6813400180,h_OCHCTP,11-L1-10,2019-01-23 13:30:00.0,Qmin,9.07,CHCGILDTO6Y
MA6813400180,h_OCHCTP,11-L1-10,2019-01-23 13:30:00.0,PhaseCorrectionAve,-0.061,CHCGILDTO6Y
MA6813400180,h_OCHCTP,11-L1-10,2019-01-23 13:30:00.0,BerPreFecMax,0.00225,CHCGILDTO6Y
MA6813400180,h_OCHCTP,11-L1-10,2019-01-23 13:30:00.0,PmdMin,0.881,CHCGILDTO6Y
MA6813400180,h_OCHCTP,11-L1-10,2019-01-23 13:30:00.0,SoPmdAve,3056.91,CHCGILDTO6Y
MA6813400180,h_OCHCTP,11-L1-10,2019-01-23 13:45:00.0,Qmin,9.09,CHCGILDTO6Y
MA6813400180,h_OCHCTP,11-L1-10,2019-01-23 13:45:00.0,PhaseCorrectionAve,-0.305,CHCGILDTO6Y
MA6813400180,h_OCHCTP,11-L1-10,2019-01-23 13:45:00.0,BerPreFecMax,0.00221,CHCGILDTO6Y
MA6813400180,h_OCHCTP,11-L1-10,2019-01-23 13:45:00.0,PmdMin,0.418,CHCGILDTO6Y
MA6813400180,h_OCHCTP,11-L1-10,2019-01-23 13:45:00.0,SoPmdAve,3063.02,CHCGILDTO6Y
MA6813400180,h_OCHCTP,10-L1-1,2019-01-23 13:15:00.0,Qmin,9.53,CHCGILDTO6Y
MA6813400180,h_OCHCTP,10-L1-1,2019-01-23 13:15:00.0,PhaseCorrectionAve,5.18e-07,CHCGILDTO6Y
MA6813400180,h_OCHCTP,10-L1-1,2019-01-23 13:15:00.0,BerPreFecMax,0.00137,CHCGILDTO6Y
MA6813400180,h_OCHCTP,10-L1-1,2019-01-23 13:15:00.0,PmdMin,1.31,CHCGILDTO6Y
MA6813400180,h_OCHCTP,10-L1-1,2019-01-23 13:15:00.0,SoPmdAve,3255.66,CHCGILDTO6Y
MA6813400180,h_OCHCTP,10-L1-1,2019-01-23 13:30:00.0,Qmin,9.51,CHCGILDTO6Y
MA6813400180,h_OCHCTP,10-L1-1,2019-01-23 13:30:00.0,PhaseCorrectionAve,5.25e-07,CHCGILDTO6Y
MA6813400180,h_OCHCTP,10-L1-1,2019-01-23 13:30:00.0,BerPreFecMax,0.00141,CHCGILDTO6Y
MA6813400180,h_OCHCTP,10-L1-1,2019-01-23 13:30:00.0,PmdMin,2.61,CHCGILDTO6Y
MA6813400180,h_OCHCTP,10-L1-1,2019-01-23 13:30:00.0,SoPmdAve,3320.66,CHCGILDTO6Y
MA6813400180,h_OCHCTP,10-L1-1,2019-01-23 13:45:00.0,Qmin,9.52,CHCGILDTO6Y
MA6813400180,h_OCHCTP,10-L1-1,2019-01-23 13:45:00.0,PhaseCorrectionAve,5.4e-07,CHCGILDTO6Y
MA6813400180,h_OCHCTP,10-L1-1,2019-01-23 13:45:00.0,BerPreFecMax,0.00138,CHCGILDTO6Y
MA6813400180,h_OCHCTP,10-L1-1,2019-01-23 13:45:00.0,PmdMin,1.26,CHCGILDTO6Y
MA6813400180,h_OCHCTP,10-L1-1,2019-01-23 13:45:00.0,SoPmdAve,3423.69,CHCGILDTO6Y
MA6813400180,h_OCHCTP,10-L1-2,2019-01-23 13:15:00.0,Qmin,9.23,CHCGILDTO6Y
MA6813400180,h_OCHCTP,10-L1-2,2019-01-23 13:15:00.0,PhaseCorrectionAve,3.47e-07,CHCGILDTO6Y
MA6813400180,h_OCHCTP,10-L1-2,2019-01-23 13:15:00.0,BerPreFecMax,0.0019,CHCGILDTO6Y
MA6813400180,h_OCHCTP,10-L1-2,2019-01-23 13:15:00.0,PmdMin,0.771,CHCGILDTO6Y
MA6813400180,h_OCHCTP,10-L1-2,2019-01-23 13:15:00.0,SoPmdAve,3308.65,CHCGILDTO6Y
MA6813400180,h_OCHCTP,10-L1-2,2019-01-23 13:30:00.0,Qmin,9.23,CHCGILDTO6Y
MA6813400180,h_OCHCTP,10-L1-2,2019-01-23 13:30:00.0,PhaseCorrectionAve,3.2e-07,CHCGILDTO6Y
MA6813400180,h_OCHCTP,10-L1-2,2019-01-23 13:30:00.0,BerPreFecMax,0.0019,CHCGILDTO6Y
MA6813400180,h_OCHCTP,10-L1-2,2019-01-23 13:30:00.0,PmdMin,1.04,CHCGILDTO6Y
MA6813400180,h_OCHCTP,10-L1-2,2019-01-23 13:30:00.0,SoPmdAve,3401.95,CHCGILDTO6Y
MA6813400180,h_OCHCTP,10-L1-2,2019-01-23 13:45:00.0,Qmin,9.24,CHCGILDTO6Y
MA6813400180,h_OCHCTP,10-L1-2,2019-01-23 13:45:00.0,PhaseCorrectionAve,3.25e-07,CHCGILDTO6Y
MA6813400180,h_OCHCTP,10-L1-2,2019-01-23 13:45:00.0,BerPreFecMax,0.00188,CHCGILDTO6Y
MA6813400180,h_OCHCTP,10-L1-2,2019-01-23 13:45:00.0,PmdMin,1.12,CHCGILDTO6Y
MA6813400180,h_OCHCTP,10-L1-2,2019-01-23 13:45:00.0,SoPmdAve,3428.5,CHCGILDTO6Y
MA6813400180,h_OCHCTP,10-L1-3,2019-01-23 13:15:00.0,Qmin,9.04,CHCGILDTO6Y
MA6813400180,h_OCHCTP,10-L1-3,2019-01-23 13:15:00.0,PhaseCorrectionAve,4.59e-07,CHCGILDTO6Y
MA6813400180,h_OCHCTP,10-L1-3,2019-01-23 13:15:00.0,BerPreFecMax,0.00231,CHCGILDTO6Y
MA6813400180,h_OCHCTP,10-L1-3,2019-01-23 13:15:00.0,PmdMin,0.643,CHCGILDTO6Y
MA6813400180,h_OCHCTP,10-L1-3,2019-01-23 13:15:00.0,SoPmdAve,2888.89,CHCGILDTO6Y
MA6813400180,h_OCHCTP,10-L1-3,2019-01-23 13:30:00.0,Qmin,9.03,CHCGILDTO6Y
MA6813400180,h_OCHCTP,10-L1-3,2019-01-23 13:30:00.0,PhaseCorrectionAve,4.76e-07,CHCGILDTO6Y
MA6813400180,h_OCHCTP,10-L1-3,2019-01-23 13:30:00.0,BerPreFecMax,0.00233,CHCGILDTO6Y
MA6813400180,h_OCHCTP,10-L1-3,2019-01-23 13:30:00.0,PmdMin,0.779,CHCGILDTO6Y
MA6813400180,h_OCHCTP,10-L1-3,2019-01-23 13:30:00.0,SoPmdAve,2862.33,CHCGILDTO6Y
MA6813400180,h_OCHCTP,10-L1-3,2019-01-23 13:45:00.0,Qmin,9.04,CHCGILDTO6Y
MA6813400180,h_OCHCTP,10-L1-3,2019-01-23 13:45:00.0,PhaseCorrectionAve,4.78e-07,CHCGILDTO6Y
MA6813400180,h_OCHCTP,10-L1-3,2019-01-23 13:45:00.0,BerPreFecMax,0.00231,CHCGILDTO6Y
MA6813400180,h_OCHCTP,10-L1-3,2019-01-23 13:45:00.0,PmdMin,1.38,CHCGILDTO6Y
MA6813400180,h_OCHCTP,10-L1-3,2019-01-23 13:45:00.0,SoPmdAve,2911.99,CHCGILDTO6Y
MA6813400180,h_OCHCTP,10-L1-4,2019-01-23 13:15:00.0,Qmin,8.51,CHCGILDTO6Y
MA6813400180,h_OCHCTP,10-L1-4,2019-01-23 13:15:00.0,PhaseCorrectionAve,1.62e-06,CHCGILDTO6Y
MA6813400180,h_OCHCTP,10-L1-4,2019-01-23 13:15:00.0,BerPreFecMax,0.00387,CHCGILDTO6Y
MA6813400180,h_OCHCTP,10-L1-4,2019-01-23 13:15:00.0,PmdMin,2.74,CHCGILDTO6Y
MA6813400180,h_OCHCTP,10-L1-4,2019-01-23 13:15:00.0,SoPmdAve,3069.74,CHCGILDTO6Y
MA6813400180,h_OCHCTP,10-L1-4,2019-01-23 13:30:00.0,Qmin,8.49,CHCGILDTO6Y
MA6813400180,h_OCHCTP,10-L1-4,2019-01-23 13:30:00.0,PhaseCorrectionAve,-0.122,CHCGILDTO6Y
MA6813400180,h_OCHCTP,10-L1-4,2019-01-23 13:30:00.0,BerPreFecMax,0.00392,CHCGILDTO6Y
MA6813400180,h_OCHCTP,10-L1-4,2019-01-23 13:30:00.0,PmdMin,2.2,CHCGILDTO6Y
MA6813400180,h_OCHCTP,10-L1-4,2019-01-23 13:30:00.0,SoPmdAve,3067.88,CHCGILDTO6Y
MA6813400180,h_OCHCTP,10-L1-4,2019-01-23 13:45:00.0,Qmin,8.5,CHCGILDTO6Y
MA6813400180,h_OCHCTP,10-L1-4,2019-01-23 13:45:00.0,PhaseCorrectionAve,-0.061,CHCGILDTO6Y
MA6813400180,h_OCHCTP,10-L1-4,2019-01-23 13:45:00.0,BerPreFecMax,0.0039,CHCGILDTO6Y
MA6813400180,h_OCHCTP,10-L1-4,2019-01-23 13:45:00.0,PmdMin,4.8,CHCGILDTO6Y
MA6813400180,h_OCHCTP,10-L1-4,2019-01-23 13:45:00.0,SoPmdAve,3015.46,CHCGILDTO6Y
MA6813400180,h_OCHCTP,10-L1-5,2019-01-23 13:15:00.0,Qmin,8.67,CHCGILDTO6Y
MA6813400180,h_OCHCTP,10-L1-5,2019-01-23 13:15:00.0,PhaseCorrectionAve,9.49e-07,CHCGILDTO6Y
MA6813400180,h_OCHCTP,10-L1-5,2019-01-23 13:15:00.0,BerPreFecMax,0.00332,CHCGILDTO6Y
MA6813400180,h_OCHCTP,10-L1-5,2019-01-23 13:15:00.0,PmdMin,2.87,CHCGILDTO6Y
MA6813400180,h_OCHCTP,10-L1-5,2019-01-23 13:15:00.0,SoPmdAve,2790.71,CHCGILDTO6Y
MA6813400180,h_OCHCTP,10-L1-5,2019-01-23 13:30:00.0,Qmin,8.68,CHCGILDTO6Y
MA6813400180,h_OCHCTP,10-L1-5,2019-01-23 13:30:00.0,PhaseCorrectionAve,-0.122,CHCGILDTO6Y
MA6813400180,h_OCHCTP,10-L1-5,2019-01-23 13:30:00.0,BerPreFecMax,0.00329,CHCGILDTO6Y
MA6813400180,h_OCHCTP,10-L1-5,2019-01-23 13:30:00.0,PmdMin,4.06,CHCGILDTO6Y
MA6813400180,h_OCHCTP,10-L1-5,2019-01-23 13:30:00.0,SoPmdAve,2838.17,CHCGILDTO6Y
MA6813400180,h_OCHCTP,10-L1-5,2019-01-23 13:45:00.0,Qmin,8.68,CHCGILDTO6Y
MA6813400180,h_OCHCTP,10-L1-5,2019-01-23 13:45:00.0,PhaseCorrectionAve,-0.061,CHCGILDTO6Y
MA6813400180,h_OCHCTP,10-L1-5,2019-01-23 13:45:00.0,BerPreFecMax,0.0033,CHCGILDTO6Y
MA6813400180,h_OCHCTP,10-L1-5,2019-01-23 13:45:00.0,PmdMin,4.84,CHCGILDTO6Y
MA6813400180,h_OCHCTP,10-L1-5,2019-01-23 13:45:00.0,SoPmdAve,2781.22,CHCGILDTO6Y
MA6813400180,h_OCHCTP,10-L1-6,2019-01-23 13:15:00.0,Qmin,8.89,CHCGILDTO6Y
MA6813400180,h_OCHCTP,10-L1-6,2019-01-23 13:15:00.0,PhaseCorrectionAve,7.19e-07,CHCGILDTO6Y
MA6813400180,h_OCHCTP,10-L1-6,2019-01-23 13:15:00.0,BerPreFecMax,0.0027,CHCGILDTO6Y
MA6813400180,h_OCHCTP,10-L1-6,2019-01-23 13:15:00.0,PmdMin,1.33,CHCGILDTO6Y
MA6813400180,h_OCHCTP,10-L1-6,2019-01-23 13:15:00.0,SoPmdAve,2723.69,CHCGILDTO6Y
MA6813400180,h_OCHCTP,10-L1-6,2019-01-23 13:30:00.0,Qmin,8.88,CHCGILDTO6Y
MA6813400180,h_OCHCTP,10-L1-6,2019-01-23 13:30:00.0,PhaseCorrectionAve,-0.183,CHCGILDTO6Y
MA6813400180,h_OCHCTP,10-L1-6,2019-01-23 13:30:00.0,BerPreFecMax,0.00273,CHCGILDTO6Y
MA6813400180,h_OCHCTP,10-L1-6,2019-01-23 13:30:00.0,PmdMin,1.79,CHCGILDTO6Y
MA6813400180,h_OCHCTP,10-L1-6,2019-01-23 13:30:00.0,SoPmdAve,2801.79,CHCGILDTO6Y
MA6813400180,h_OCHCTP,10-L1-6,2019-01-23 13:45:00.0,Qmin,8.87,CHCGILDTO6Y
MA6813400180,h_OCHCTP,10-L1-6,2019-01-23 13:45:00.0,PhaseCorrectionAve,-0.122,CHCGILDTO6Y
MA6813400180,h_OCHCTP,10-L1-6,2019-01-23 13:45:00.0,BerPreFecMax,0.00275,CHCGILDTO6Y
MA6813400180,h_OCHCTP,10-L1-6,2019-01-23 13:45:00.0,PmdMin,1.9,CHCGILDTO6Y
MA6813400180,h_OCHCTP,10-L1-6,2019-01-23 13:45:00.0,SoPmdAve,2759.43,CHCGILDTO6Y
MA6813400180,h_OCHCTP,10-L1-7,2019-01-23 13:15:00.0,Qmin,8.96,CHCGILDTO6Y
MA6813400180,h_OCHCTP,10-L1-7,2019-01-23 13:15:00.0,PhaseCorrectionAve,4.46e-07,CHCGILDTO6Y
MA6813400180,h_OCHCTP,10-L1-7,2019-01-23 13:15:00.0,BerPreFecMax,0.00252,CHCGILDTO6Y
MA6813400180,h_OCHCTP,10-L1-7,2019-01-23 13:15:00.0,PmdMin,2.02,CHCGILDTO6Y
MA6813400180,h_OCHCTP,10-L1-7,2019-01-23 13:15:00.0,SoPmdAve,3457.65,CHCGILDTO6Y
MA6813400180,h_OCHCTP,10-L1-7,2019-01-23 13:30:00.0,Qmin,8.94,CHCGILDTO6Y
MA6813400180,h_OCHCTP,10-L1-7,2019-01-23 13:30:00.0,PhaseCorrectionAve,-0.183,CHCGILDTO6Y
MA6813400180,h_OCHCTP,10-L1-7,2019-01-23 13:30:00.0,BerPreFecMax,0.00255,CHCGILDTO6Y
MA6813400180,h_OCHCTP,10-L1-7,2019-01-23 13:30:00.0,PmdMin,3.26,CHCGILDTO6Y
MA6813400180,h_OCHCTP,10-L1-7,2019-01-23 13:30:00.0,SoPmdAve,3386.36,CHCGILDTO6Y
MA6813400180,h_OCHCTP,10-L1-7,2019-01-23 13:45:00.0,Qmin,8.94,CHCGILDTO6Y
MA6813400180,h_OCHCTP,10-L1-7,2019-01-23 13:45:00.0,PhaseCorrectionAve,-0.183,CHCGILDTO6Y
MA6813400180,h_OCHCTP,10-L1-7,2019-01-23 13:45:00.0,BerPreFecMax,0.00258,CHCGILDTO6Y
MA6813400180,h_OCHCTP,10-L1-7,2019-01-23 13:45:00.0,PmdMin,1.17,CHCGILDTO6Y
MA6813400180,h_OCHCTP,10-L1-7,2019-01-23 13:45:00.0,SoPmdAve,3387.69,CHCGILDTO6Y
MA6813400180,h_OCHCTP,10-L1-8,2019-01-23 13:15:00.0,Qmin,9.34,CHCGILDTO6Y
MA6813400180,h_OCHCTP,10-L1-8,2019-01-23 13:15:00.0,PhaseCorrectionAve,1.45e-06,CHCGILDTO6Y
MA6813400180,h_OCHCTP,10-L1-8,2019-01-23 13:15:00.0,BerPreFecMax,0.00168,CHCGILDTO6Y
MA6813400180,h_OCHCTP,10-L1-8,2019-01-23 13:15:00.0,PmdMin,0.724,CHCGILDTO6Y
MA6813400180,h_OCHCTP,10-L1-8,2019-01-23 13:15:00.0,SoPmdAve,3559.1,CHCGILDTO6Y
MA6813400180,h_OCHCTP,10-L1-8,2019-01-23 13:30:00.0,Qmin,9.35,CHCGILDTO6Y
MA6813400180,h_OCHCTP,10-L1-8,2019-01-23 13:30:00.0,PhaseCorrectionAve,-0.183,CHCGILDTO6Y
MA6813400180,h_OCHCTP,10-L1-8,2019-01-23 13:30:00.0,BerPreFecMax,0.00168,CHCGILDTO6Y
MA6813400180,h_OCHCTP,10-L1-8,2019-01-23 13:30:00.0,PmdMin,0.705,CHCGILDTO6Y
MA6813400180,h_OCHCTP,10-L1-8,2019-01-23 13:30:00.0,SoPmdAve,3423.81,CHCGILDTO6Y
MA6813400180,h_OCHCTP,10-L1-8,2019-01-23 13:45:00.0,Qmin,9.34,CHCGILDTO6Y
MA6813400180,h_OCHCTP,10-L1-8,2019-01-23 13:45:00.0,PhaseCorrectionAve,-0.244,CHCGILDTO6Y
MA6813400180,h_OCHCTP,10-L1-8,2019-01-23 13:45:00.0,BerPreFecMax,0.00169,CHCGILDTO6Y
MA6813400180,h_OCHCTP,10-L1-8,2019-01-23 13:45:00.0,PmdMin,1.29,CHCGILDTO6Y
MA6813400180,h_OCHCTP,10-L1-8,2019-01-23 13:45:00.0,SoPmdAve,3533.59,CHCGILDTO6Y
MA6813400180,h_OCHCTP,10-L1-9,2019-01-23 13:15:00.0,Qmin,9.36,CHCGILDTO6Y
MA6813400180,h_OCHCTP,10-L1-9,2019-01-23 13:15:00.0,PhaseCorrectionAve,-0.061,CHCGILDTO6Y
MA6813400180,h_OCHCTP,10-L1-9,2019-01-23 13:15:00.0,BerPreFecMax,0.00166,CHCGILDTO6Y
MA6813400180,h_OCHCTP,10-L1-9,2019-01-23 13:15:00.0,PmdMin,0.868,CHCGILDTO6Y
MA6813400180,h_OCHCTP,10-L1-9,2019-01-23 13:15:00.0,SoPmdAve,3463.62,CHCGILDTO6Y
MA6813400180,h_OCHCTP,10-L1-9,2019-01-23 13:30:00.0,Qmin,9.35,CHCGILDTO6Y
MA6813400180,h_OCHCTP,10-L1-9,2019-01-23 13:30:00.0,PhaseCorrectionAve,-0.244,CHCGILDTO6Y
MA6813400180,h_OCHCTP,10-L1-9,2019-01-23 13:30:00.0,BerPreFecMax,0.00168,CHCGILDTO6Y
MA6813400180,h_OCHCTP,10-L1-9,2019-01-23 13:30:00.0,PmdMin,1.1,CHCGILDTO6Y
MA6813400180,h_OCHCTP,10-L1-9,2019-01-23 13:30:00.0,SoPmdAve,3435.18,CHCGILDTO6Y
MA6813400180,h_OCHCTP,10-L1-9,2019-01-23 13:45:00.0,Qmin,9.35,CHCGILDTO6Y
MA6813400180,h_OCHCTP,10-L1-9,2019-01-23 13:45:00.0,PhaseCorrectionAve,-0.244,CHCGILDTO6Y
MA6813400180,h_OCHCTP,10-L1-9,2019-01-23 13:45:00.0,BerPreFecMax,0.00168,CHCGILDTO6Y
MA6813400180,h_OCHCTP,10-L1-9,2019-01-23 13:45:00.0,PmdMin,1.56,CHCGILDTO6Y
MA6813400180,h_OCHCTP,10-L1-9,2019-01-23 13:45:00.0,SoPmdAve,3371.57,CHCGILDTO6Y
MA6813400180,h_OCHCTP,10-L1-10,2019-01-23 13:15:00.0,Qmin,9.4,CHCGILDTO6Y
MA6813400180,h_OCHCTP,10-L1-10,2019-01-23 13:15:00.0,PhaseCorrectionAve,-0.061,CHCGILDTO6Y
MA6813400180,h_OCHCTP,10-L1-10,2019-01-23 13:15:00.0,BerPreFecMax,0.00158,CHCGILDTO6Y
MA6813400180,h_OCHCTP,10-L1-10,2019-01-23 13:15:00.0,PmdMin,3.74,CHCGILDTO6Y
MA6813400180,h_OCHCTP,10-L1-10,2019-01-23 13:15:00.0,SoPmdAve,3198.88,CHCGILDTO6Y
MA6813400180,h_OCHCTP,10-L1-10,2019-01-23 13:30:00.0,Qmin,9.4,CHCGILDTO6Y
MA6813400180,h_OCHCTP,10-L1-10,2019-01-23 13:30:00.0,PhaseCorrectionAve,-0.305,CHCGILDTO6Y
MA6813400180,h_OCHCTP,10-L1-10,2019-01-23 13:30:00.0,BerPreFecMax,0.00159,CHCGILDTO6Y
MA6813400180,h_OCHCTP,10-L1-10,2019-01-23 13:30:00.0,PmdMin,3.23,CHCGILDTO6Y
MA6813400180,h_OCHCTP,10-L1-10,2019-01-23 13:30:00.0,SoPmdAve,3256.72,CHCGILDTO6Y
MA6813400180,h_OCHCTP,10-L1-10,2019-01-23 13:45:00.0,Qmin,9.39,CHCGILDTO6Y
MA6813400180,h_OCHCTP,10-L1-10,2019-01-23 13:45:00.0,PhaseCorrectionAve,-0.305,CHCGILDTO6Y
MA6813400180,h_OCHCTP,10-L1-10,2019-01-23 13:45:00.0,BerPreFecMax,0.00161,CHCGILDTO6Y
MA6813400180,h_OCHCTP,10-L1-10,2019-01-23 13:45:00.0,PmdMin,7.67,CHCGILDTO6Y
MA6813400180,h_OCHCTP,10-L1-10,2019-01-23 13:45:00.0,SoPmdAve,3352.57,CHCGILDTO6Y
MA6813400180,h_OCHCTP,13-L1-1,2019-01-23 13:15:00.0,Qmin,9.13,CHCGILDTO6Y
MA6813400180,h_OCHCTP,13-L1-1,2019-01-23 13:15:00.0,PhaseCorrectionAve,2.64e-07,CHCGILDTO6Y
MA6813400180,h_OCHCTP,13-L1-1,2019-01-23 13:15:00.0,BerPreFecMax,0.00212,CHCGILDTO6Y
MA6813400180,h_OCHCTP,13-L1-1,2019-01-23 13:15:00.0,PmdMin,0.859,CHCGILDTO6Y
MA6813400180,h_OCHCTP,13-L1-1,2019-01-23 13:15:00.0,SoPmdAve,3694.94,CHCGILDTO6Y
MA6813400180,h_OCHCTP,13-L1-1,2019-01-23 13:30:00.0,Qmin,9.16,CHCGILDTO6Y
MA6813400180,h_OCHCTP,13-L1-1,2019-01-23 13:30:00.0,PhaseCorrectionAve,2.5e-07,CHCGILDTO6Y
MA6813400180,h_OCHCTP,13-L1-1,2019-01-23 13:30:00.0,BerPreFecMax,0.00205,CHCGILDTO6Y
MA6813400180,h_OCHCTP,13-L1-1,2019-01-23 13:30:00.0,PmdMin,0.548,CHCGILDTO6Y
MA6813400180,h_OCHCTP,13-L1-1,2019-01-23 13:30:00.0,SoPmdAve,3478.7,CHCGILDTO6Y
MA6813400180,h_OCHCTP,13-L1-1,2019-01-23 13:45:00.0,Qmin,9.16,CHCGILDTO6Y
MA6813400180,h_OCHCTP,13-L1-1,2019-01-23 13:45:00.0,PhaseCorrectionAve,-0.0609,CHCGILDTO6Y
MA6813400180,h_OCHCTP,13-L1-1,2019-01-23 13:45:00.0,BerPreFecMax,0.00204,CHCGILDTO6Y
MA6813400180,h_OCHCTP,13-L1-1,2019-01-23 13:45:00.0,PmdMin,0.706,CHCGILDTO6Y
MA6813400180,h_OCHCTP,13-L1-1,2019-01-23 13:45:00.0,SoPmdAve,3600.81,CHCGILDTO6Y
MA6813400180,h_OCHCTP,13-L1-2,2019-01-23 13:15:00.0,Qmin,9.12,CHCGILDTO6Y
MA6813400180,h_OCHCTP,13-L1-2,2019-01-23 13:15:00.0,PhaseCorrectionAve,3.32e-07,CHCGILDTO6Y
MA6813400180,h_OCHCTP,13-L1-2,2019-01-23 13:15:00.0,BerPreFecMax,0.00213,CHCGILDTO6Y
MA6813400180,h_OCHCTP,13-L1-2,2019-01-23 13:15:00.0,PmdMin,1.72,CHCGILDTO6Y
MA6813400180,h_OCHCTP,13-L1-2,2019-01-23 13:15:00.0,SoPmdAve,3566.83,CHCGILDTO6Y
MA6813400180,h_OCHCTP,13-L1-2,2019-01-23 13:30:00.0,Qmin,9.12,CHCGILDTO6Y
MA6813400180,h_OCHCTP,13-L1-2,2019-01-23 13:30:00.0,PhaseCorrectionAve,-0.0611,CHCGILDTO6Y
MA6813400180,h_OCHCTP,13-L1-2,2019-01-23 13:30:00.0,BerPreFecMax,0.00213,CHCGILDTO6Y
MA6813400180,h_OCHCTP,13-L1-2,2019-01-23 13:30:00.0,PmdMin,0.764,CHCGILDTO6Y
MA6813400180,h_OCHCTP,13-L1-2,2019-01-23 13:30:00.0,SoPmdAve,3533.3,CHCGILDTO6Y
MA6813400180,h_OCHCTP,13-L1-2,2019-01-23 13:45:00.0,Qmin,9.12,CHCGILDTO6Y
MA6813400180,h_OCHCTP,13-L1-2,2019-01-23 13:45:00.0,PhaseCorrectionAve,-0.0609,CHCGILDTO6Y
MA6813400180,h_OCHCTP,13-L1-2,2019-01-23 13:45:00.0,BerPreFecMax,0.00213,CHCGILDTO6Y
MA6813400180,h_OCHCTP,13-L1-2,2019-01-23 13:45:00.0,PmdMin,0.328,CHCGILDTO6Y
MA6813400180,h_OCHCTP,13-L1-2,2019-01-23 13:45:00.0,SoPmdAve,3562.61,CHCGILDTO6Y
MA6813400180,h_OCHCTP,13-L1-3,2019-01-23 13:15:00.0,Qmin,8.96,CHCGILDTO6Y
MA6813400180,h_OCHCTP,13-L1-3,2019-01-23 13:15:00.0,PhaseCorrectionAve,-0.061,CHCGILDTO6Y
MA6813400180,h_OCHCTP,13-L1-3,2019-01-23 13:15:00.0,BerPreFecMax,0.00252,CHCGILDTO6Y
MA6813400180,h_OCHCTP,13-L1-3,2019-01-23 13:15:00.0,PmdMin,0.462,CHCGILDTO6Y
MA6813400180,h_OCHCTP,13-L1-3,2019-01-23 13:15:00.0,SoPmdAve,2916.49,CHCGILDTO6Y
MA6813400180,h_OCHCTP,13-L1-3,2019-01-23 13:30:00.0,Qmin,8.95,CHCGILDTO6Y
MA6813400180,h_OCHCTP,13-L1-3,2019-01-23 13:30:00.0,PhaseCorrectionAve,-0.122,CHCGILDTO6Y
MA6813400180,h_OCHCTP,13-L1-3,2019-01-23 13:30:00.0,BerPreFecMax,0.00254,CHCGILDTO6Y
MA6813400180,h_OCHCTP,13-L1-3,2019-01-23 13:30:00.0,PmdMin,0.789,CHCGILDTO6Y
MA6813400180,h_OCHCTP,13-L1-3,2019-01-23 13:30:00.0,SoPmdAve,2999.13,CHCGILDTO6Y
MA6813400180,h_OCHCTP,13-L1-3,2019-01-23 13:45:00.0,Qmin,8.91,CHCGILDTO6Y
MA6813400180,h_OCHCTP,13-L1-3,2019-01-23 13:45:00.0,PhaseCorrectionAve,-0.0609,CHCGILDTO6Y
MA6813400180,h_OCHCTP,13-L1-3,2019-01-23 13:45:00.0,BerPreFecMax,0.00263,CHCGILDTO6Y
MA6813400180,h_OCHCTP,13-L1-3,2019-01-23 13:45:00.0,PmdMin,0.143,CHCGILDTO6Y
MA6813400180,h_OCHCTP,13-L1-3,2019-01-23 13:45:00.0,SoPmdAve,2971.57,CHCGILDTO6Y
MA6813400180,h_OCHCTP,13-L1-4,2019-01-23 13:15:00.0,Qmin,8.69,CHCGILDTO6Y
MA6813400180,h_OCHCTP,13-L1-4,2019-01-23 13:15:00.0,PhaseCorrectionAve,-0.061,CHCGILDTO6Y
MA6813400180,h_OCHCTP,13-L1-4,2019-01-23 13:15:00.0,BerPreFecMax,0.00328,CHCGILDTO6Y
MA6813400180,h_OCHCTP,13-L1-4,2019-01-23 13:15:00.0,PmdMin,0.979,CHCGILDTO6Y
MA6813400180,h_OCHCTP,13-L1-4,2019-01-23 13:15:00.0,SoPmdAve,3444.79,CHCGILDTO6Y
MA6813400180,h_OCHCTP,13-L1-4,2019-01-23 13:30:00.0,Qmin,8.68,CHCGILDTO6Y
MA6813400180,h_OCHCTP,13-L1-4,2019-01-23 13:30:00.0,PhaseCorrectionAve,-0.183,CHCGILDTO6Y
MA6813400180,h_OCHCTP,13-L1-4,2019-01-23 13:30:00.0,BerPreFecMax,0.00329,CHCGILDTO6Y
MA6813400180,h_OCHCTP,13-L1-4,2019-01-23 13:30:00.0,PmdMin,0.471,CHCGILDTO6Y
MA6813400180,h_OCHCTP,13-L1-4,2019-01-23 13:30:00.0,SoPmdAve,3431.71,CHCGILDTO6Y
MA6813400180,h_OCHCTP,13-L1-4,2019-01-23 13:45:00.0,Qmin,8.67,CHCGILDTO6Y
MA6813400180,h_OCHCTP,13-L1-4,2019-01-23 13:45:00.0,PhaseCorrectionAve,-0.122,CHCGILDTO6Y
MA6813400180,h_OCHCTP,13-L1-4,2019-01-23 13:45:00.0,BerPreFecMax,0.00333,CHCGILDTO6Y
MA6813400180,h_OCHCTP,13-L1-4,2019-01-23 13:45:00.0,PmdMin,0.416,CHCGILDTO6Y
MA6813400180,h_OCHCTP,13-L1-4,2019-01-23 13:45:00.0,SoPmdAve,3437.23,CHCGILDTO6Y
MA6813400180,h_OCHCTP,13-L1-5,2019-01-23 13:15:00.0,Qmin,8.66,CHCGILDTO6Y
MA6813400180,h_OCHCTP,13-L1-5,2019-01-23 13:15:00.0,PhaseCorrectionAve,-0.061,CHCGILDTO6Y
MA6813400180,h_OCHCTP,13-L1-5,2019-01-23 13:15:00.0,BerPreFecMax,0.00335,CHCGILDTO6Y
MA6813400180,h_OCHCTP,13-L1-5,2019-01-23 13:15:00.0,PmdMin,0.886,CHCGILDTO6Y
MA6813400180,h_OCHCTP,13-L1-5,2019-01-23 13:15:00.0,SoPmdAve,2867.91,CHCGILDTO6Y
MA6813400180,h_OCHCTP,13-L1-5,2019-01-23 13:30:00.0,Qmin,8.66,CHCGILDTO6Y
MA6813400180,h_OCHCTP,13-L1-5,2019-01-23 13:30:00.0,PhaseCorrectionAve,-0.183,CHCGILDTO6Y
MA6813400180,h_OCHCTP,13-L1-5,2019-01-23 13:30:00.0,BerPreFecMax,0.00337,CHCGILDTO6Y
MA6813400180,h_OCHCTP,13-L1-5,2019-01-23 13:30:00.0,PmdMin,0.584,CHCGILDTO6Y
MA6813400180,h_OCHCTP,13-L1-5,2019-01-23 13:30:00.0,SoPmdAve,2849.12,CHCGILDTO6Y
MA6813400180,h_OCHCTP,13-L1-5,2019-01-23 13:45:00.0,Qmin,8.65,CHCGILDTO6Y
MA6813400180,h_OCHCTP,13-L1-5,2019-01-23 13:45:00.0,PhaseCorrectionAve,-0.122,CHCGILDTO6Y
MA6813400180,h_OCHCTP,13-L1-5,2019-01-23 13:45:00.0,BerPreFecMax,0.00338,CHCGILDTO6Y
MA6813400180,h_OCHCTP,13-L1-5,2019-01-23 13:45:00.0,PmdMin,0.383,CHCGILDTO6Y
MA6813400180,h_OCHCTP,13-L1-5,2019-01-23 13:45:00.0,SoPmdAve,2817.35,CHCGILDTO6Y
MA6813400180,h_OCHCTP,13-L1-6,2019-01-23 13:15:00.0,Qmin,8.73,CHCGILDTO6Y
MA6813400180,h_OCHCTP,13-L1-6,2019-01-23 13:15:00.0,PhaseCorrectionAve,-0.061,CHCGILDTO6Y
MA6813400180,h_OCHCTP,13-L1-6,2019-01-23 13:15:00.0,BerPreFecMax,0.00313,CHCGILDTO6Y
MA6813400180,h_OCHCTP,13-L1-6,2019-01-23 13:15:00.0,PmdMin,0.574,CHCGILDTO6Y
MA6813400180,h_OCHCTP,13-L1-6,2019-01-23 13:15:00.0,SoPmdAve,3089.18,CHCGILDTO6Y
MA6813400180,h_OCHCTP,13-L1-6,2019-01-23 13:30:00.0,Qmin,8.74,CHCGILDTO6Y
MA6813400180,h_OCHCTP,13-L1-6,2019-01-23 13:30:00.0,PhaseCorrectionAve,-0.244,CHCGILDTO6Y
MA6813400180,h_OCHCTP,13-L1-6,2019-01-23 13:30:00.0,BerPreFecMax,0.00312,CHCGILDTO6Y
MA6813400180,h_OCHCTP,13-L1-6,2019-01-23 13:30:00.0,PmdMin,1.1,CHCGILDTO6Y
MA6813400180,h_OCHCTP,13-L1-6,2019-01-23 13:30:00.0,SoPmdAve,3012.4,CHCGILDTO6Y
MA6813400180,h_OCHCTP,13-L1-6,2019-01-23 13:45:00.0,Qmin,8.71,CHCGILDTO6Y
MA6813400180,h_OCHCTP,13-L1-6,2019-01-23 13:45:00.0,PhaseCorrectionAve,-0.122,CHCGILDTO6Y
MA6813400180,h_OCHCTP,13-L1-6,2019-01-23 13:45:00.0,BerPreFecMax,0.00321,CHCGILDTO6Y
MA6813400180,h_OCHCTP,13-L1-6,2019-01-23 13:45:00.0,PmdMin,0.297,CHCGILDTO6Y
MA6813400180,h_OCHCTP,13-L1-6,2019-01-23 13:45:00.0,SoPmdAve,3073.27,CHCGILDTO6Y
MA6813400180,h_OCHCTP,13-L1-7,2019-01-23 13:15:00.0,Qmin,8.73,CHCGILDTO6Y
MA6813400180,h_OCHCTP,13-L1-7,2019-01-23 13:15:00.0,PhaseCorrectionAve,-0.061,CHCGILDTO6Y
MA6813400180,h_OCHCTP,13-L1-7,2019-01-23 13:15:00.0,BerPreFecMax,0.00314,CHCGILDTO6Y
MA6813400180,h_OCHCTP,13-L1-7,2019-01-23 13:15:00.0,PmdMin,0.239,CHCGILDTO6Y
MA6813400180,h_OCHCTP,13-L1-7,2019-01-23 13:15:00.0,SoPmdAve,3714.24,CHCGILDTO6Y
MA6813400180,h_OCHCTP,13-L1-7,2019-01-23 13:30:00.0,Qmin,8.73,CHCGILDTO6Y
MA6813400180,h_OCHCTP,13-L1-7,2019-01-23 13:30:00.0,PhaseCorrectionAve,-0.244,CHCGILDTO6Y
MA6813400180,h_OCHCTP,13-L1-7,2019-01-23 13:30:00.0,BerPreFecMax,0.00313,CHCGILDTO6Y
MA6813400180,h_OCHCTP,13-L1-7,2019-01-23 13:30:00.0,PmdMin,0.533,CHCGILDTO6Y
MA6813400180,h_OCHCTP,13-L1-7,2019-01-23 13:30:00.0,SoPmdAve,3659.8,CHCGILDTO6Y
MA6813400180,h_OCHCTP,13-L1-7,2019-01-23 13:45:00.0,Qmin,8.76,CHCGILDTO6Y
MA6813400180,h_OCHCTP,13-L1-7,2019-01-23 13:45:00.0,PhaseCorrectionAve,-0.183,CHCGILDTO6Y
MA6813400180,h_OCHCTP,13-L1-7,2019-01-23 13:45:00.0,BerPreFecMax,0.00305,CHCGILDTO6Y
MA6813400180,h_OCHCTP,13-L1-7,2019-01-23 13:45:00.0,PmdMin,0.371,CHCGILDTO6Y
MA6813400180,h_OCHCTP,13-L1-7,2019-01-23 13:45:00.0,SoPmdAve,3730.66,CHCGILDTO6Y
MA6813400180,h_OCHCTP,13-L1-8,2019-01-23 13:15:00.0,Qmin,8.84,CHCGILDTO6Y
MA6813400180,h_OCHCTP,13-L1-8,2019-01-23 13:15:00.0,PhaseCorrectionAve,-0.061,CHCGILDTO6Y
MA6813400180,h_OCHCTP,13-L1-8,2019-01-23 13:15:00.0,BerPreFecMax,0.00283,CHCGILDTO6Y
MA6813400180,h_OCHCTP,13-L1-8,2019-01-23 13:15:00.0,PmdMin,1.77,CHCGILDTO6Y
MA6813400180,h_OCHCTP,13-L1-8,2019-01-23 13:15:00.0,SoPmdAve,3818.83,CHCGILDTO6Y
MA6813400180,h_OCHCTP,13-L1-8,2019-01-23 13:30:00.0,Qmin,8.87,CHCGILDTO6Y
MA6813400180,h_OCHCTP,13-L1-8,2019-01-23 13:30:00.0,PhaseCorrectionAve,-0.306,CHCGILDTO6Y
MA6813400180,h_OCHCTP,13-L1-8,2019-01-23 13:30:00.0,BerPreFecMax,0.00274,CHCGILDTO6Y
MA6813400180,h_OCHCTP,13-L1-8,2019-01-23 13:30:00.0,PmdMin,0.77,CHCGILDTO6Y
MA6813400180,h_OCHCTP,13-L1-8,2019-01-23 13:30:00.0,SoPmdAve,3879.44,CHCGILDTO6Y
MA6813400180,h_OCHCTP,13-L1-8,2019-01-23 13:45:00.0,Qmin,8.92,CHCGILDTO6Y
MA6813400180,h_OCHCTP,13-L1-8,2019-01-23 13:45:00.0,PhaseCorrectionAve,-0.244,CHCGILDTO6Y
MA6813400180,h_OCHCTP,13-L1-8,2019-01-23 13:45:00.0,BerPreFecMax,0.00261,CHCGILDTO6Y
MA6813400180,h_OCHCTP,13-L1-8,2019-01-23 13:45:00.0,PmdMin,1.56,CHCGILDTO6Y
MA6813400180,h_OCHCTP,13-L1-8,2019-01-23 13:45:00.0,SoPmdAve,3827.61,CHCGILDTO6Y
MA6813400180,h_OCHCTP,13-L1-9,2019-01-23 13:15:00.0,Qmin,8.85,CHCGILDTO6Y
MA6813400180,h_OCHCTP,13-L1-9,2019-01-23 13:15:00.0,PhaseCorrectionAve,-0.061,CHCGILDTO6Y
MA6813400180,h_OCHCTP,13-L1-9,2019-01-23 13:15:00.0,BerPreFecMax,0.00281,CHCGILDTO6Y
MA6813400180,h_OCHCTP,13-L1-9,2019-01-23 13:15:00.0,PmdMin,0.734,CHCGILDTO6Y
MA6813400180,h_OCHCTP,13-L1-9,2019-01-23 13:15:00.0,SoPmdAve,3549.51,CHCGILDTO6Y
MA6813400180,h_OCHCTP,13-L1-9,2019-01-23 13:30:00.0,Qmin,8.88,CHCGILDTO6Y
MA6813400180,h_OCHCTP,13-L1-9,2019-01-23 13:30:00.0,PhaseCorrectionAve,-0.367,CHCGILDTO6Y
MA6813400180,h_OCHCTP,13-L1-9,2019-01-23 13:30:00.0,BerPreFecMax,0.00272,CHCGILDTO6Y
MA6813400180,h_OCHCTP,13-L1-9,2019-01-23 13:30:00.0,PmdMin,1.07,CHCGILDTO6Y
MA6813400180,h_OCHCTP,13-L1-9,2019-01-23 13:30:00.0,SoPmdAve,3458.98,CHCGILDTO6Y
MA6813400180,h_OCHCTP,13-L1-9,2019-01-23 13:45:00.0,Qmin,8.91,CHCGILDTO6Y
MA6813400180,h_OCHCTP,13-L1-9,2019-01-23 13:45:00.0,PhaseCorrectionAve,-0.244,CHCGILDTO6Y
MA6813400180,h_OCHCTP,13-L1-9,2019-01-23 13:45:00.0,BerPreFecMax,0.00264,CHCGILDTO6Y
MA6813400180,h_OCHCTP,13-L1-9,2019-01-23 13:45:00.0,PmdMin,0.968,CHCGILDTO6Y
MA6813400180,h_OCHCTP,13-L1-9,2019-01-23 13:45:00.0,SoPmdAve,3455.36,CHCGILDTO6Y
MA6813400180,h_OCHCTP,13-L1-10,2019-01-23 13:15:00.0,Qmin,8.78,CHCGILDTO6Y
MA6813400180,h_OCHCTP,13-L1-10,2019-01-23 13:15:00.0,PhaseCorrectionAve,-0.061,CHCGILDTO6Y
MA6813400180,h_OCHCTP,13-L1-10,2019-01-23 13:15:00.0,BerPreFecMax,0.003,CHCGILDTO6Y
MA6813400180,h_OCHCTP,13-L1-10,2019-01-23 13:15:00.0,PmdMin,0.995,CHCGILDTO6Y
MA6813400180,h_OCHCTP,13-L1-10,2019-01-23 13:15:00.0,SoPmdAve,3644.13,CHCGILDTO6Y
MA6813400180,h_OCHCTP,13-L1-10,2019-01-23 13:30:00.0,Qmin,8.81,CHCGILDTO6Y
MA6813400180,h_OCHCTP,13-L1-10,2019-01-23 13:30:00.0,PhaseCorrectionAve,-0.367,CHCGILDTO6Y
MA6813400180,h_OCHCTP,13-L1-10,2019-01-23 13:30:00.0,BerPreFecMax,0.00292,CHCGILDTO6Y
MA6813400180,h_OCHCTP,13-L1-10,2019-01-23 13:30:00.0,PmdMin,0.827,CHCGILDTO6Y
MA6813400180,h_OCHCTP,13-L1-10,2019-01-23 13:30:00.0,SoPmdAve,3726.86,CHCGILDTO6Y
MA6813400180,h_OCHCTP,13-L1-10,2019-01-23 13:45:00.0,Qmin,8.81,CHCGILDTO6Y
MA6813400180,h_OCHCTP,13-L1-10,2019-01-23 13:45:00.0,PhaseCorrectionAve,-0.244,CHCGILDTO6Y
MA6813400180,h_OCHCTP,13-L1-10,2019-01-23 13:45:00.0,BerPreFecMax,0.00291,CHCGILDTO6Y
MA6813400180,h_OCHCTP,13-L1-10,2019-01-23 13:45:00.0,PmdMin,0.722,CHCGILDTO6Y
MA6813400180,h_OCHCTP,13-L1-10,2019-01-23 13:45:00.0,SoPmdAve,3672.02,CHCGILDTO6Y
