MA6813400180,h_OCHCTP,11-L1-1,2019-01-25 07:15:00.0,Qmin,9.13,CHCGILDTO6Y
MA6813400180,h_OCHCTP,11-L1-1,2019-01-25 07:15:00.0,PhaseCorrectionAve,1.19e-07,CHCGILDTO6Y
MA6813400180,h_OCHCTP,11-L1-1,2019-01-25 07:15:00.0,BerPreFecMax,0.00211,CHCGILDTO6Y
MA6813400180,h_OCHCTP,11-L1-1,2019-01-25 07:15:00.0,PmdMin,1.13,CHCGILDTO6Y
MA6813400180,h_OCHCTP,11-L1-1,2019-01-25 07:15:00.0,SoPmdAve,3357.6,CHCGILDTO6Y
MA6813400180,h_OCHCTP,11-L1-1,2019-01-25 07:30:00.0,Qmin,9.08,CHCGILDTO6Y
MA6813400180,h_OCHCTP,11-L1-1,2019-01-25 07:30:00.0,PhaseCorrectionAve,1.25e-07,CHCGILDTO6Y
MA6813400180,h_OCHCTP,11-L1-1,2019-01-25 07:30:00.0,BerPreFecMax,0.00223,CHCGILDTO6Y
MA6813400180,h_OCHCTP,11-L1-1,2019-01-25 07:30:00.0,PmdMin,0.828,CHCGILDTO6Y
MA6813400180,h_OCHCTP,11-L1-1,2019-01-25 07:30:00.0,SoPmdAve,3371.34,CHCGILDTO6Y
MA6813400180,h_OCHCTP,11-L1-1,2019-01-25 07:45:00.0,Qmin,9.12,CHCGILDTO6Y
MA6813400180,h_OCHCTP,11-L1-1,2019-01-25 07:45:00.0,PhaseCorrectionAve,1.18e-07,CHCGILDTO6Y
MA6813400180,h_OCHCTP,11-L1-1,2019-01-25 07:45:00.0,BerPreFecMax,0.00214,CHCGILDTO6Y
MA6813400180,h_OCHCTP,11-L1-1,2019-01-25 07:45:00.0,PmdMin,1.34,CHCGILDTO6Y
MA6813400180,h_OCHCTP,11-L1-1,2019-01-25 07:45:00.0,SoPmdAve,3392.27,CHCGILDTO6Y
MA6813400180,h_OCHCTP,11-L1-2,2019-01-25 07:15:00.0,Qmin,9.06,CHCGILDTO6Y
MA6813400180,h_OCHCTP,11-L1-2,2019-01-25 07:15:00.0,PhaseCorrectionAve,3.53e-07,CHCGILDTO6Y
MA6813400180,h_OCHCTP,11-L1-2,2019-01-25 07:15:00.0,BerPreFecMax,0.00228,CHCGILDTO6Y
MA6813400180,h_OCHCTP,11-L1-2,2019-01-25 07:15:00.0,PmdMin,0.92,CHCGILDTO6Y
MA6813400180,h_OCHCTP,11-L1-2,2019-01-25 07:15:00.0,SoPmdAve,3312.65,CHCGILDTO6Y
MA6813400180,h_OCHCTP,11-L1-2,2019-01-25 07:30:00.0,Qmin,9.06,CHCGILDTO6Y
MA6813400180,h_OCHCTP,11-L1-2,2019-01-25 07:30:00.0,PhaseCorrectionAve,3.7e-07,CHCGILDTO6Y
MA6813400180,h_OCHCTP,11-L1-2,2019-01-25 07:30:00.0,BerPreFecMax,0.00228,CHCGILDTO6Y
MA6813400180,h_OCHCTP,11-L1-2,2019-01-25 07:30:00.0,PmdMin,0.553,CHCGILDTO6Y
MA6813400180,h_OCHCTP,11-L1-2,2019-01-25 07:30:00.0,SoPmdAve,3175.8,CHCGILDTO6Y
MA6813400180,h_OCHCTP,11-L1-2,2019-01-25 07:45:00.0,Qmin,9.07,CHCGILDTO6Y
MA6813400180,h_OCHCTP,11-L1-2,2019-01-25 07:45:00.0,PhaseCorrectionAve,-0.061,CHCGILDTO6Y
MA6813400180,h_OCHCTP,11-L1-2,2019-01-25 07:45:00.0,BerPreFecMax,0.00225,CHCGILDTO6Y
MA6813400180,h_OCHCTP,11-L1-2,2019-01-25 07:45:00.0,PmdMin,1.03,CHCGILDTO6Y
MA6813400180,h_OCHCTP,11-L1-2,2019-01-25 07:45:00.0,SoPmdAve,3130.93,CHCGILDTO6Y
MA6813400180,h_OCHCTP,11-L1-3,2019-01-25 07:15:00.0,Qmin,8.96,CHCGILDTO6Y
MA6813400180,h_OCHCTP,11-L1-3,2019-01-25 07:15:00.0,PhaseCorrectionAve,3.48e-07,CHCGILDTO6Y
MA6813400180,h_OCHCTP,11-L1-3,2019-01-25 07:15:00.0,BerPreFecMax,0.00252,CHCGILDTO6Y
MA6813400180,h_OCHCTP,11-L1-3,2019-01-25 07:15:00.0,PmdMin,0.646,CHCGILDTO6Y
MA6813400180,h_OCHCTP,11-L1-3,2019-01-25 07:15:00.0,SoPmdAve,2701.8,CHCGILDTO6Y
MA6813400180,h_OCHCTP,11-L1-3,2019-01-25 07:30:00.0,Qmin,8.93,CHCGILDTO6Y
MA6813400180,h_OCHCTP,11-L1-3,2019-01-25 07:30:00.0,PhaseCorrectionAve,3.61e-07,CHCGILDTO6Y
MA6813400180,h_OCHCTP,11-L1-3,2019-01-25 07:30:00.0,BerPreFecMax,0.00258,CHCGILDTO6Y
MA6813400180,h_OCHCTP,11-L1-3,2019-01-25 07:30:00.0,PmdMin,0.318,CHCGILDTO6Y
MA6813400180,h_OCHCTP,11-L1-3,2019-01-25 07:30:00.0,SoPmdAve,2728.84,CHCGILDTO6Y
MA6813400180,h_OCHCTP,11-L1-3,2019-01-25 07:45:00.0,Qmin,8.96,CHCGILDTO6Y
MA6813400180,h_OCHCTP,11-L1-3,2019-01-25 07:45:00.0,PhaseCorrectionAve,-0.061,CHCGILDTO6Y
MA6813400180,h_OCHCTP,11-L1-3,2019-01-25 07:45:00.0,BerPreFecMax,0.00252,CHCGILDTO6Y
MA6813400180,h_OCHCTP,11-L1-3,2019-01-25 07:45:00.0,PmdMin,0.452,CHCGILDTO6Y
MA6813400180,h_OCHCTP,11-L1-3,2019-01-25 07:45:00.0,SoPmdAve,2669.52,CHCGILDTO6Y
MA6813400180,h_OCHCTP,11-L1-4,2019-01-25 07:15:00.0,Qmin,8.77,CHCGILDTO6Y
MA6813400180,h_OCHCTP,11-L1-4,2019-01-25 07:15:00.0,PhaseCorrectionAve,4.92e-07,CHCGILDTO6Y
MA6813400180,h_OCHCTP,11-L1-4,2019-01-25 07:15:00.0,BerPreFecMax,0.00303,CHCGILDTO6Y
MA6813400180,h_OCHCTP,11-L1-4,2019-01-25 07:15:00.0,PmdMin,0.434,CHCGILDTO6Y
MA6813400180,h_OCHCTP,11-L1-4,2019-01-25 07:15:00.0,SoPmdAve,3001.54,CHCGILDTO6Y
MA6813400180,h_OCHCTP,11-L1-4,2019-01-25 07:30:00.0,Qmin,8.74,CHCGILDTO6Y
MA6813400180,h_OCHCTP,11-L1-4,2019-01-25 07:30:00.0,PhaseCorrectionAve,-0.122,CHCGILDTO6Y
MA6813400180,h_OCHCTP,11-L1-4,2019-01-25 07:30:00.0,BerPreFecMax,0.00312,CHCGILDTO6Y
MA6813400180,h_OCHCTP,11-L1-4,2019-01-25 07:30:00.0,PmdMin,0.524,CHCGILDTO6Y
MA6813400180,h_OCHCTP,11-L1-4,2019-01-25 07:30:00.0,SoPmdAve,2906.17,CHCGILDTO6Y
MA6813400180,h_OCHCTP,11-L1-4,2019-01-25 07:45:00.0,Qmin,8.77,CHCGILDTO6Y
MA6813400180,h_OCHCTP,11-L1-4,2019-01-25 07:45:00.0,PhaseCorrectionAve,-0.061,CHCGILDTO6Y
MA6813400180,h_OCHCTP,11-L1-4,2019-01-25 07:45:00.0,BerPreFecMax,0.00303,CHCGILDTO6Y
MA6813400180,h_OCHCTP,11-L1-4,2019-01-25 07:45:00.0,PmdMin,0.545,CHCGILDTO6Y
MA6813400180,h_OCHCTP,11-L1-4,2019-01-25 07:45:00.0,SoPmdAve,2945.18,CHCGILDTO6Y
MA6813400180,h_OCHCTP,11-L1-5,2019-01-25 07:15:00.0,Qmin,8.87,CHCGILDTO6Y
MA6813400180,h_OCHCTP,11-L1-5,2019-01-25 07:15:00.0,PhaseCorrectionAve,1.57e-07,CHCGILDTO6Y
MA6813400180,h_OCHCTP,11-L1-5,2019-01-25 07:15:00.0,BerPreFecMax,0.00276,CHCGILDTO6Y
MA6813400180,h_OCHCTP,11-L1-5,2019-01-25 07:15:00.0,PmdMin,0.681,CHCGILDTO6Y
MA6813400180,h_OCHCTP,11-L1-5,2019-01-25 07:15:00.0,SoPmdAve,2488.26,CHCGILDTO6Y
MA6813400180,h_OCHCTP,11-L1-5,2019-01-25 07:30:00.0,Qmin,8.85,CHCGILDTO6Y
MA6813400180,h_OCHCTP,11-L1-5,2019-01-25 07:30:00.0,PhaseCorrectionAve,-0.183,CHCGILDTO6Y
MA6813400180,h_OCHCTP,11-L1-5,2019-01-25 07:30:00.0,BerPreFecMax,0.00281,CHCGILDTO6Y
MA6813400180,h_OCHCTP,11-L1-5,2019-01-25 07:30:00.0,PmdMin,1.13,CHCGILDTO6Y
MA6813400180,h_OCHCTP,11-L1-5,2019-01-25 07:30:00.0,SoPmdAve,2583.44,CHCGILDTO6Y
MA6813400180,h_OCHCTP,11-L1-5,2019-01-25 07:45:00.0,Qmin,8.87,CHCGILDTO6Y
MA6813400180,h_OCHCTP,11-L1-5,2019-01-25 07:45:00.0,PhaseCorrectionAve,-0.061,CHCGILDTO6Y
MA6813400180,h_OCHCTP,11-L1-5,2019-01-25 07:45:00.0,BerPreFecMax,0.00275,CHCGILDTO6Y
MA6813400180,h_OCHCTP,11-L1-5,2019-01-25 07:45:00.0,PmdMin,0.799,CHCGILDTO6Y
MA6813400180,h_OCHCTP,11-L1-5,2019-01-25 07:45:00.0,SoPmdAve,2515.5,CHCGILDTO6Y
MA6813400180,h_OCHCTP,11-L1-6,2019-01-25 07:15:00.0,Qmin,8.79,CHCGILDTO6Y
MA6813400180,h_OCHCTP,11-L1-6,2019-01-25 07:15:00.0,PhaseCorrectionAve,4.4e-07,CHCGILDTO6Y
MA6813400180,h_OCHCTP,11-L1-6,2019-01-25 07:15:00.0,BerPreFecMax,0.00297,CHCGILDTO6Y
MA6813400180,h_OCHCTP,11-L1-6,2019-01-25 07:15:00.0,PmdMin,0.52,CHCGILDTO6Y
MA6813400180,h_OCHCTP,11-L1-6,2019-01-25 07:15:00.0,SoPmdAve,2439.94,CHCGILDTO6Y
MA6813400180,h_OCHCTP,11-L1-6,2019-01-25 07:30:00.0,Qmin,8.85,CHCGILDTO6Y
MA6813400180,h_OCHCTP,11-L1-6,2019-01-25 07:30:00.0,PhaseCorrectionAve,-0.183,CHCGILDTO6Y
MA6813400180,h_OCHCTP,11-L1-6,2019-01-25 07:30:00.0,BerPreFecMax,0.00281,CHCGILDTO6Y
MA6813400180,h_OCHCTP,11-L1-6,2019-01-25 07:30:00.0,PmdMin,0.753,CHCGILDTO6Y
MA6813400180,h_OCHCTP,11-L1-6,2019-01-25 07:30:00.0,SoPmdAve,2488.57,CHCGILDTO6Y
MA6813400180,h_OCHCTP,11-L1-6,2019-01-25 07:45:00.0,Qmin,8.82,CHCGILDTO6Y
MA6813400180,h_OCHCTP,11-L1-6,2019-01-25 07:45:00.0,PhaseCorrectionAve,-0.061,CHCGILDTO6Y
MA6813400180,h_OCHCTP,11-L1-6,2019-01-25 07:45:00.0,BerPreFecMax,0.00289,CHCGILDTO6Y
MA6813400180,h_OCHCTP,11-L1-6,2019-01-25 07:45:00.0,PmdMin,0.518,CHCGILDTO6Y
MA6813400180,h_OCHCTP,11-L1-6,2019-01-25 07:45:00.0,SoPmdAve,2538.0,CHCGILDTO6Y
MA6813400180,h_OCHCTP,11-L1-7,2019-01-25 07:15:00.0,Qmin,8.89,CHCGILDTO6Y
MA6813400180,h_OCHCTP,11-L1-7,2019-01-25 07:15:00.0,PhaseCorrectionAve,2.6e-07,CHCGILDTO6Y
MA6813400180,h_OCHCTP,11-L1-7,2019-01-25 07:15:00.0,BerPreFecMax,0.00269,CHCGILDTO6Y
MA6813400180,h_OCHCTP,11-L1-7,2019-01-25 07:15:00.0,PmdMin,0.807,CHCGILDTO6Y
MA6813400180,h_OCHCTP,11-L1-7,2019-01-25 07:15:00.0,SoPmdAve,3057.58,CHCGILDTO6Y
MA6813400180,h_OCHCTP,11-L1-7,2019-01-25 07:30:00.0,Qmin,8.91,CHCGILDTO6Y
MA6813400180,h_OCHCTP,11-L1-7,2019-01-25 07:30:00.0,PhaseCorrectionAve,-0.183,CHCGILDTO6Y
MA6813400180,h_OCHCTP,11-L1-7,2019-01-25 07:30:00.0,BerPreFecMax,0.00263,CHCGILDTO6Y
MA6813400180,h_OCHCTP,11-L1-7,2019-01-25 07:30:00.0,PmdMin,0.268,CHCGILDTO6Y
MA6813400180,h_OCHCTP,11-L1-7,2019-01-25 07:30:00.0,SoPmdAve,3008.59,CHCGILDTO6Y
MA6813400180,h_OCHCTP,11-L1-7,2019-01-25 07:45:00.0,Qmin,8.91,CHCGILDTO6Y
MA6813400180,h_OCHCTP,11-L1-7,2019-01-25 07:45:00.0,PhaseCorrectionAve,-0.061,CHCGILDTO6Y
MA6813400180,h_OCHCTP,11-L1-7,2019-01-25 07:45:00.0,BerPreFecMax,0.00263,CHCGILDTO6Y
MA6813400180,h_OCHCTP,11-L1-7,2019-01-25 07:45:00.0,PmdMin,0.956,CHCGILDTO6Y
MA6813400180,h_OCHCTP,11-L1-7,2019-01-25 07:45:00.0,SoPmdAve,3023.05,CHCGILDTO6Y
MA6813400180,h_OCHCTP,11-L1-8,2019-01-25 07:15:00.0,Qmin,9.0,CHCGILDTO6Y
MA6813400180,h_OCHCTP,11-L1-8,2019-01-25 07:15:00.0,PhaseCorrectionAve,-0.061,CHCGILDTO6Y
MA6813400180,h_OCHCTP,11-L1-8,2019-01-25 07:15:00.0,BerPreFecMax,0.00242,CHCGILDTO6Y
MA6813400180,h_OCHCTP,11-L1-8,2019-01-25 07:15:00.0,PmdMin,0.961,CHCGILDTO6Y
MA6813400180,h_OCHCTP,11-L1-8,2019-01-25 07:15:00.0,SoPmdAve,3042.56,CHCGILDTO6Y
MA6813400180,h_OCHCTP,11-L1-8,2019-01-25 07:30:00.0,Qmin,8.99,CHCGILDTO6Y
MA6813400180,h_OCHCTP,11-L1-8,2019-01-25 07:30:00.0,PhaseCorrectionAve,-0.183,CHCGILDTO6Y
MA6813400180,h_OCHCTP,11-L1-8,2019-01-25 07:30:00.0,BerPreFecMax,0.00244,CHCGILDTO6Y
MA6813400180,h_OCHCTP,11-L1-8,2019-01-25 07:30:00.0,PmdMin,0.697,CHCGILDTO6Y
MA6813400180,h_OCHCTP,11-L1-8,2019-01-25 07:30:00.0,SoPmdAve,3172.97,CHCGILDTO6Y
MA6813400180,h_OCHCTP,11-L1-8,2019-01-25 07:45:00.0,Qmin,8.96,CHCGILDTO6Y
MA6813400180,h_OCHCTP,11-L1-8,2019-01-25 07:45:00.0,PhaseCorrectionAve,-0.122,CHCGILDTO6Y
MA6813400180,h_OCHCTP,11-L1-8,2019-01-25 07:45:00.0,BerPreFecMax,0.0025,CHCGILDTO6Y
MA6813400180,h_OCHCTP,11-L1-8,2019-01-25 07:45:00.0,PmdMin,0.752,CHCGILDTO6Y
MA6813400180,h_OCHCTP,11-L1-8,2019-01-25 07:45:00.0,SoPmdAve,3148.6,CHCGILDTO6Y
MA6813400180,h_OCHCTP,11-L1-9,2019-01-25 07:15:00.0,Qmin,8.93,CHCGILDTO6Y
MA6813400180,h_OCHCTP,11-L1-9,2019-01-25 07:15:00.0,PhaseCorrectionAve,-0.061,CHCGILDTO6Y
MA6813400180,h_OCHCTP,11-L1-9,2019-01-25 07:15:00.0,BerPreFecMax,0.00258,CHCGILDTO6Y
MA6813400180,h_OCHCTP,11-L1-9,2019-01-25 07:15:00.0,PmdMin,0.994,CHCGILDTO6Y
MA6813400180,h_OCHCTP,11-L1-9,2019-01-25 07:15:00.0,SoPmdAve,3103.95,CHCGILDTO6Y
MA6813400180,h_OCHCTP,11-L1-9,2019-01-25 07:30:00.0,Qmin,8.86,CHCGILDTO6Y
MA6813400180,h_OCHCTP,11-L1-9,2019-01-25 07:30:00.0,PhaseCorrectionAve,-0.183,CHCGILDTO6Y
MA6813400180,h_OCHCTP,11-L1-9,2019-01-25 07:30:00.0,BerPreFecMax,0.00278,CHCGILDTO6Y
MA6813400180,h_OCHCTP,11-L1-9,2019-01-25 07:30:00.0,PmdMin,1.2,CHCGILDTO6Y
MA6813400180,h_OCHCTP,11-L1-9,2019-01-25 07:30:00.0,SoPmdAve,3104.02,CHCGILDTO6Y
MA6813400180,h_OCHCTP,11-L1-9,2019-01-25 07:45:00.0,Qmin,8.91,CHCGILDTO6Y
MA6813400180,h_OCHCTP,11-L1-9,2019-01-25 07:45:00.0,PhaseCorrectionAve,-0.122,CHCGILDTO6Y
MA6813400180,h_OCHCTP,11-L1-9,2019-01-25 07:45:00.0,BerPreFecMax,0.00263,CHCGILDTO6Y
MA6813400180,h_OCHCTP,11-L1-9,2019-01-25 07:45:00.0,PmdMin,1.02,CHCGILDTO6Y
MA6813400180,h_OCHCTP,11-L1-9,2019-01-25 07:45:00.0,SoPmdAve,3078.64,CHCGILDTO6Y
MA6813400180,h_OCHCTP,11-L1-10,2019-01-25 07:15:00.0,Qmin,9.04,CHCGILDTO6Y
MA6813400180,h_OCHCTP,11-L1-10,2019-01-25 07:15:00.0,PhaseCorrectionAve,-0.061,CHCGILDTO6Y
MA6813400180,h_OCHCTP,11-L1-10,2019-01-25 07:15:00.0,BerPreFecMax,0.00232,CHCGILDTO6Y
MA6813400180,h_OCHCTP,11-L1-10,2019-01-25 07:15:00.0,PmdMin,0.233,CHCGILDTO6Y
MA6813400180,h_OCHCTP,11-L1-10,2019-01-25 07:15:00.0,SoPmdAve,3021.64,CHCGILDTO6Y
MA6813400180,h_OCHCTP,11-L1-10,2019-01-25 07:30:00.0,Qmin,9.03,CHCGILDTO6Y
MA6813400180,h_OCHCTP,11-L1-10,2019-01-25 07:30:00.0,PhaseCorrectionAve,-0.183,CHCGILDTO6Y
MA6813400180,h_OCHCTP,11-L1-10,2019-01-25 07:30:00.0,BerPreFecMax,0.00233,CHCGILDTO6Y
MA6813400180,h_OCHCTP,11-L1-10,2019-01-25 07:30:00.0,PmdMin,1.01,CHCGILDTO6Y
MA6813400180,h_OCHCTP,11-L1-10,2019-01-25 07:30:00.0,SoPmdAve,2998.27,CHCGILDTO6Y
MA6813400180,h_OCHCTP,11-L1-10,2019-01-25 07:45:00.0,Qmin,8.97,CHCGILDTO6Y
MA6813400180,h_OCHCTP,11-L1-10,2019-01-25 07:45:00.0,PhaseCorrectionAve,-0.122,CHCGILDTO6Y
MA6813400180,h_OCHCTP,11-L1-10,2019-01-25 07:45:00.0,BerPreFecMax,0.00249,CHCGILDTO6Y
MA6813400180,h_OCHCTP,11-L1-10,2019-01-25 07:45:00.0,PmdMin,1.19,CHCGILDTO6Y
MA6813400180,h_OCHCTP,11-L1-10,2019-01-25 07:45:00.0,SoPmdAve,3067.07,CHCGILDTO6Y
MA6813400180,h_OCHCTP,13-L1-1,2019-01-25 07:15:00.0,Qmin,9.15,CHCGILDTO6Y
MA6813400180,h_OCHCTP,13-L1-1,2019-01-25 07:15:00.0,PhaseCorrectionAve,2.33e-07,CHCGILDTO6Y
MA6813400180,h_OCHCTP,13-L1-1,2019-01-25 07:15:00.0,BerPreFecMax,0.00208,CHCGILDTO6Y
MA6813400180,h_OCHCTP,13-L1-1,2019-01-25 07:15:00.0,PmdMin,0.755,CHCGILDTO6Y
MA6813400180,h_OCHCTP,13-L1-1,2019-01-25 07:15:00.0,SoPmdAve,3537.53,CHCGILDTO6Y
MA6813400180,h_OCHCTP,13-L1-1,2019-01-25 07:30:00.0,Qmin,9.12,CHCGILDTO6Y
MA6813400180,h_OCHCTP,13-L1-1,2019-01-25 07:30:00.0,PhaseCorrectionAve,2.43e-07,CHCGILDTO6Y
MA6813400180,h_OCHCTP,13-L1-1,2019-01-25 07:30:00.0,BerPreFecMax,0.00214,CHCGILDTO6Y
MA6813400180,h_OCHCTP,13-L1-1,2019-01-25 07:30:00.0,PmdMin,1.61,CHCGILDTO6Y
MA6813400180,h_OCHCTP,13-L1-1,2019-01-25 07:30:00.0,SoPmdAve,3655.87,CHCGILDTO6Y
MA6813400180,h_OCHCTP,13-L1-1,2019-01-25 07:45:00.0,Qmin,9.14,CHCGILDTO6Y
MA6813400180,h_OCHCTP,13-L1-1,2019-01-25 07:45:00.0,PhaseCorrectionAve,-0.061,CHCGILDTO6Y
MA6813400180,h_OCHCTP,13-L1-1,2019-01-25 07:45:00.0,BerPreFecMax,0.00209,CHCGILDTO6Y
MA6813400180,h_OCHCTP,13-L1-1,2019-01-25 07:45:00.0,PmdMin,1.1,CHCGILDTO6Y
MA6813400180,h_OCHCTP,13-L1-1,2019-01-25 07:45:00.0,SoPmdAve,3605.11,CHCGILDTO6Y
MA6813400180,h_OCHCTP,13-L1-2,2019-01-25 07:15:00.0,Qmin,9.12,CHCGILDTO6Y
MA6813400180,h_OCHCTP,13-L1-2,2019-01-25 07:15:00.0,PhaseCorrectionAve,-0.061,CHCGILDTO6Y
MA6813400180,h_OCHCTP,13-L1-2,2019-01-25 07:15:00.0,BerPreFecMax,0.00214,CHCGILDTO6Y
MA6813400180,h_OCHCTP,13-L1-2,2019-01-25 07:15:00.0,PmdMin,1.6,CHCGILDTO6Y
MA6813400180,h_OCHCTP,13-L1-2,2019-01-25 07:15:00.0,SoPmdAve,3614.74,CHCGILDTO6Y
MA6813400180,h_OCHCTP,13-L1-2,2019-01-25 07:30:00.0,Qmin,9.12,CHCGILDTO6Y
MA6813400180,h_OCHCTP,13-L1-2,2019-01-25 07:30:00.0,PhaseCorrectionAve,3.08e-07,CHCGILDTO6Y
MA6813400180,h_OCHCTP,13-L1-2,2019-01-25 07:30:00.0,BerPreFecMax,0.00214,CHCGILDTO6Y
MA6813400180,h_OCHCTP,13-L1-2,2019-01-25 07:30:00.0,PmdMin,2.02,CHCGILDTO6Y
MA6813400180,h_OCHCTP,13-L1-2,2019-01-25 07:30:00.0,SoPmdAve,3556.12,CHCGILDTO6Y
MA6813400180,h_OCHCTP,13-L1-2,2019-01-25 07:45:00.0,Qmin,9.13,CHCGILDTO6Y
MA6813400180,h_OCHCTP,13-L1-2,2019-01-25 07:45:00.0,PhaseCorrectionAve,-0.122,CHCGILDTO6Y
MA6813400180,h_OCHCTP,13-L1-2,2019-01-25 07:45:00.0,BerPreFecMax,0.00211,CHCGILDTO6Y
MA6813400180,h_OCHCTP,13-L1-2,2019-01-25 07:45:00.0,PmdMin,1.35,CHCGILDTO6Y
MA6813400180,h_OCHCTP,13-L1-2,2019-01-25 07:45:00.0,SoPmdAve,3566.57,CHCGILDTO6Y
MA6813400180,h_OCHCTP,13-L1-3,2019-01-25 07:15:00.0,Qmin,8.94,CHCGILDTO6Y
MA6813400180,h_OCHCTP,13-L1-3,2019-01-25 07:15:00.0,PhaseCorrectionAve,-0.122,CHCGILDTO6Y
MA6813400180,h_OCHCTP,13-L1-3,2019-01-25 07:15:00.0,BerPreFecMax,0.00255,CHCGILDTO6Y
MA6813400180,h_OCHCTP,13-L1-3,2019-01-25 07:15:00.0,PmdMin,0.629,CHCGILDTO6Y
MA6813400180,h_OCHCTP,13-L1-3,2019-01-25 07:15:00.0,SoPmdAve,2990.2,CHCGILDTO6Y
MA6813400180,h_OCHCTP,13-L1-3,2019-01-25 07:30:00.0,Qmin,8.93,CHCGILDTO6Y
MA6813400180,h_OCHCTP,13-L1-3,2019-01-25 07:30:00.0,PhaseCorrectionAve,4.67e-07,CHCGILDTO6Y
MA6813400180,h_OCHCTP,13-L1-3,2019-01-25 07:30:00.0,BerPreFecMax,0.00258,CHCGILDTO6Y
MA6813400180,h_OCHCTP,13-L1-3,2019-01-25 07:30:00.0,PmdMin,1.27,CHCGILDTO6Y
MA6813400180,h_OCHCTP,13-L1-3,2019-01-25 07:30:00.0,SoPmdAve,3067.61,CHCGILDTO6Y
MA6813400180,h_OCHCTP,13-L1-3,2019-01-25 07:45:00.0,Qmin,8.92,CHCGILDTO6Y
MA6813400180,h_OCHCTP,13-L1-3,2019-01-25 07:45:00.0,PhaseCorrectionAve,-0.122,CHCGILDTO6Y
MA6813400180,h_OCHCTP,13-L1-3,2019-01-25 07:45:00.0,BerPreFecMax,0.00261,CHCGILDTO6Y
MA6813400180,h_OCHCTP,13-L1-3,2019-01-25 07:45:00.0,PmdMin,1.47,CHCGILDTO6Y
MA6813400180,h_OCHCTP,13-L1-3,2019-01-25 07:45:00.0,SoPmdAve,3016.35,CHCGILDTO6Y
MA6813400180,h_OCHCTP,13-L1-4,2019-01-25 07:15:00.0,Qmin,8.72,CHCGILDTO6Y
MA6813400180,h_OCHCTP,13-L1-4,2019-01-25 07:15:00.0,PhaseCorrectionAve,-0.183,CHCGILDTO6Y
MA6813400180,h_OCHCTP,13-L1-4,2019-01-25 07:15:00.0,BerPreFecMax,0.00317,CHCGILDTO6Y
MA6813400180,h_OCHCTP,13-L1-4,2019-01-25 07:15:00.0,PmdMin,0.874,CHCGILDTO6Y
MA6813400180,h_OCHCTP,13-L1-4,2019-01-25 07:15:00.0,SoPmdAve,3395.87,CHCGILDTO6Y
MA6813400180,h_OCHCTP,13-L1-4,2019-01-25 07:30:00.0,Qmin,8.68,CHCGILDTO6Y
MA6813400180,h_OCHCTP,13-L1-4,2019-01-25 07:30:00.0,PhaseCorrectionAve,5.21e-07,CHCGILDTO6Y
MA6813400180,h_OCHCTP,13-L1-4,2019-01-25 07:30:00.0,BerPreFecMax,0.0033,CHCGILDTO6Y
MA6813400180,h_OCHCTP,13-L1-4,2019-01-25 07:30:00.0,PmdMin,1.07,CHCGILDTO6Y
MA6813400180,h_OCHCTP,13-L1-4,2019-01-25 07:30:00.0,SoPmdAve,3473.65,CHCGILDTO6Y
MA6813400180,h_OCHCTP,13-L1-4,2019-01-25 07:45:00.0,Qmin,8.72,CHCGILDTO6Y
MA6813400180,h_OCHCTP,13-L1-4,2019-01-25 07:45:00.0,PhaseCorrectionAve,-0.122,CHCGILDTO6Y
MA6813400180,h_OCHCTP,13-L1-4,2019-01-25 07:45:00.0,BerPreFecMax,0.00319,CHCGILDTO6Y
MA6813400180,h_OCHCTP,13-L1-4,2019-01-25 07:45:00.0,PmdMin,1.21,CHCGILDTO6Y
MA6813400180,h_OCHCTP,13-L1-4,2019-01-25 07:45:00.0,SoPmdAve,3459.41,CHCGILDTO6Y
MA6813400180,h_OCHCTP,13-L1-5,2019-01-25 07:15:00.0,Qmin,8.75,CHCGILDTO6Y
MA6813400180,h_OCHCTP,13-L1-5,2019-01-25 07:15:00.0,PhaseCorrectionAve,-0.183,CHCGILDTO6Y
MA6813400180,h_OCHCTP,13-L1-5,2019-01-25 07:15:00.0,BerPreFecMax,0.00309,CHCGILDTO6Y
MA6813400180,h_OCHCTP,13-L1-5,2019-01-25 07:15:00.0,PmdMin,0.648,CHCGILDTO6Y
MA6813400180,h_OCHCTP,13-L1-5,2019-01-25 07:15:00.0,SoPmdAve,2790.66,CHCGILDTO6Y
MA6813400180,h_OCHCTP,13-L1-5,2019-01-25 07:30:00.0,Qmin,8.75,CHCGILDTO6Y
MA6813400180,h_OCHCTP,13-L1-5,2019-01-25 07:30:00.0,PhaseCorrectionAve,-0.061,CHCGILDTO6Y
MA6813400180,h_OCHCTP,13-L1-5,2019-01-25 07:30:00.0,BerPreFecMax,0.00308,CHCGILDTO6Y
MA6813400180,h_OCHCTP,13-L1-5,2019-01-25 07:30:00.0,PmdMin,0.732,CHCGILDTO6Y
MA6813400180,h_OCHCTP,13-L1-5,2019-01-25 07:30:00.0,SoPmdAve,2837.62,CHCGILDTO6Y
MA6813400180,h_OCHCTP,13-L1-5,2019-01-25 07:45:00.0,Qmin,8.74,CHCGILDTO6Y
MA6813400180,h_OCHCTP,13-L1-5,2019-01-25 07:45:00.0,PhaseCorrectionAve,-0.183,CHCGILDTO6Y
MA6813400180,h_OCHCTP,13-L1-5,2019-01-25 07:45:00.0,BerPreFecMax,0.0031,CHCGILDTO6Y
MA6813400180,h_OCHCTP,13-L1-5,2019-01-25 07:45:00.0,PmdMin,0.532,CHCGILDTO6Y
MA6813400180,h_OCHCTP,13-L1-5,2019-01-25 07:45:00.0,SoPmdAve,2951.0,CHCGILDTO6Y
MA6813400180,h_OCHCTP,13-L1-6,2019-01-25 07:15:00.0,Qmin,8.81,CHCGILDTO6Y
MA6813400180,h_OCHCTP,13-L1-6,2019-01-25 07:15:00.0,PhaseCorrectionAve,-0.183,CHCGILDTO6Y
MA6813400180,h_OCHCTP,13-L1-6,2019-01-25 07:15:00.0,BerPreFecMax,0.0029,CHCGILDTO6Y
MA6813400180,h_OCHCTP,13-L1-6,2019-01-25 07:15:00.0,PmdMin,1.2,CHCGILDTO6Y
MA6813400180,h_OCHCTP,13-L1-6,2019-01-25 07:15:00.0,SoPmdAve,3037.89,CHCGILDTO6Y
MA6813400180,h_OCHCTP,13-L1-6,2019-01-25 07:30:00.0,Qmin,8.88,CHCGILDTO6Y
MA6813400180,h_OCHCTP,13-L1-6,2019-01-25 07:30:00.0,PhaseCorrectionAve,-0.061,CHCGILDTO6Y
MA6813400180,h_OCHCTP,13-L1-6,2019-01-25 07:30:00.0,BerPreFecMax,0.00272,CHCGILDTO6Y
MA6813400180,h_OCHCTP,13-L1-6,2019-01-25 07:30:00.0,PmdMin,0.615,CHCGILDTO6Y
MA6813400180,h_OCHCTP,13-L1-6,2019-01-25 07:30:00.0,SoPmdAve,2988.24,CHCGILDTO6Y
MA6813400180,h_OCHCTP,13-L1-6,2019-01-25 07:45:00.0,Qmin,8.85,CHCGILDTO6Y
MA6813400180,h_OCHCTP,13-L1-6,2019-01-25 07:45:00.0,PhaseCorrectionAve,-0.244,CHCGILDTO6Y
MA6813400180,h_OCHCTP,13-L1-6,2019-01-25 07:45:00.0,BerPreFecMax,0.0028,CHCGILDTO6Y
MA6813400180,h_OCHCTP,13-L1-6,2019-01-25 07:45:00.0,PmdMin,0.829,CHCGILDTO6Y
MA6813400180,h_OCHCTP,13-L1-6,2019-01-25 07:45:00.0,SoPmdAve,3015.1,CHCGILDTO6Y
MA6813400180,h_OCHCTP,13-L1-7,2019-01-25 07:15:00.0,Qmin,8.79,CHCGILDTO6Y
MA6813400180,h_OCHCTP,13-L1-7,2019-01-25 07:15:00.0,PhaseCorrectionAve,-0.183,CHCGILDTO6Y
MA6813400180,h_OCHCTP,13-L1-7,2019-01-25 07:15:00.0,BerPreFecMax,0.00297,CHCGILDTO6Y
MA6813400180,h_OCHCTP,13-L1-7,2019-01-25 07:15:00.0,PmdMin,1.11,CHCGILDTO6Y
MA6813400180,h_OCHCTP,13-L1-7,2019-01-25 07:15:00.0,SoPmdAve,3772.14,CHCGILDTO6Y
MA6813400180,h_OCHCTP,13-L1-7,2019-01-25 07:30:00.0,Qmin,8.85,CHCGILDTO6Y
MA6813400180,h_OCHCTP,13-L1-7,2019-01-25 07:30:00.0,PhaseCorrectionAve,-0.122,CHCGILDTO6Y
MA6813400180,h_OCHCTP,13-L1-7,2019-01-25 07:30:00.0,BerPreFecMax,0.0028,CHCGILDTO6Y
MA6813400180,h_OCHCTP,13-L1-7,2019-01-25 07:30:00.0,PmdMin,0.639,CHCGILDTO6Y
MA6813400180,h_OCHCTP,13-L1-7,2019-01-25 07:30:00.0,SoPmdAve,3761.05,CHCGILDTO6Y
MA6813400180,h_OCHCTP,13-L1-7,2019-01-25 07:45:00.0,Qmin,8.85,CHCGILDTO6Y
MA6813400180,h_OCHCTP,13-L1-7,2019-01-25 07:45:00.0,PhaseCorrectionAve,-0.244,CHCGILDTO6Y
MA6813400180,h_OCHCTP,13-L1-7,2019-01-25 07:45:00.0,BerPreFecMax,0.0028,CHCGILDTO6Y
MA6813400180,h_OCHCTP,13-L1-7,2019-01-25 07:45:00.0,PmdMin,1.19,CHCGILDTO6Y
MA6813400180,h_OCHCTP,13-L1-7,2019-01-25 07:45:00.0,SoPmdAve,3739.24,CHCGILDTO6Y
MA6813400180,h_OCHCTP,13-L1-8,2019-01-25 07:15:00.0,Qmin,8.91,CHCGILDTO6Y
MA6813400180,h_OCHCTP,13-L1-8,2019-01-25 07:15:00.0,PhaseCorrectionAve,-0.183,CHCGILDTO6Y
MA6813400180,h_OCHCTP,13-L1-8,2019-01-25 07:15:00.0,BerPreFecMax,0.00265,CHCGILDTO6Y
MA6813400180,h_OCHCTP,13-L1-8,2019-01-25 07:15:00.0,PmdMin,0.483,CHCGILDTO6Y
MA6813400180,h_OCHCTP,13-L1-8,2019-01-25 07:15:00.0,SoPmdAve,3891.83,CHCGILDTO6Y
MA6813400180,h_OCHCTP,13-L1-8,2019-01-25 07:30:00.0,Qmin,8.92,CHCGILDTO6Y
MA6813400180,h_OCHCTP,13-L1-8,2019-01-25 07:30:00.0,PhaseCorrectionAve,-0.122,CHCGILDTO6Y
MA6813400180,h_OCHCTP,13-L1-8,2019-01-25 07:30:00.0,BerPreFecMax,0.0026,CHCGILDTO6Y
MA6813400180,h_OCHCTP,13-L1-8,2019-01-25 07:30:00.0,PmdMin,1.32,CHCGILDTO6Y
MA6813400180,h_OCHCTP,13-L1-8,2019-01-25 07:30:00.0,SoPmdAve,3832.28,CHCGILDTO6Y
MA6813400180,h_OCHCTP,13-L1-8,2019-01-25 07:45:00.0,Qmin,8.92,CHCGILDTO6Y
MA6813400180,h_OCHCTP,13-L1-8,2019-01-25 07:45:00.0,PhaseCorrectionAve,-0.305,CHCGILDTO6Y
MA6813400180,h_OCHCTP,13-L1-8,2019-01-25 07:45:00.0,BerPreFecMax,0.00261,CHCGILDTO6Y
MA6813400180,h_OCHCTP,13-L1-8,2019-01-25 07:45:00.0,PmdMin,0.718,CHCGILDTO6Y
MA6813400180,h_OCHCTP,13-L1-8,2019-01-25 07:45:00.0,SoPmdAve,3779.66,CHCGILDTO6Y
MA6813400180,h_OCHCTP,13-L1-9,2019-01-25 07:15:00.0,Qmin,8.89,CHCGILDTO6Y
MA6813400180,h_OCHCTP,13-L1-9,2019-01-25 07:15:00.0,PhaseCorrectionAve,-0.183,CHCGILDTO6Y
MA6813400180,h_OCHCTP,13-L1-9,2019-01-25 07:15:00.0,BerPreFecMax,0.00271,CHCGILDTO6Y
MA6813400180,h_OCHCTP,13-L1-9,2019-01-25 07:15:00.0,PmdMin,1.28,CHCGILDTO6Y
MA6813400180,h_OCHCTP,13-L1-9,2019-01-25 07:15:00.0,SoPmdAve,3507.64,CHCGILDTO6Y
MA6813400180,h_OCHCTP,13-L1-9,2019-01-25 07:30:00.0,Qmin,8.84,CHCGILDTO6Y
MA6813400180,h_OCHCTP,13-L1-9,2019-01-25 07:30:00.0,PhaseCorrectionAve,-0.183,CHCGILDTO6Y
MA6813400180,h_OCHCTP,13-L1-9,2019-01-25 07:30:00.0,BerPreFecMax,0.00283,CHCGILDTO6Y
MA6813400180,h_OCHCTP,13-L1-9,2019-01-25 07:30:00.0,PmdMin,0.821,CHCGILDTO6Y
MA6813400180,h_OCHCTP,13-L1-9,2019-01-25 07:30:00.0,SoPmdAve,3496.13,CHCGILDTO6Y
MA6813400180,h_OCHCTP,13-L1-9,2019-01-25 07:45:00.0,Qmin,8.85,CHCGILDTO6Y
MA6813400180,h_OCHCTP,13-L1-9,2019-01-25 07:45:00.0,PhaseCorrectionAve,-0.305,CHCGILDTO6Y
MA6813400180,h_OCHCTP,13-L1-9,2019-01-25 07:45:00.0,BerPreFecMax,0.00279,CHCGILDTO6Y
MA6813400180,h_OCHCTP,13-L1-9,2019-01-25 07:45:00.0,PmdMin,1.11,CHCGILDTO6Y
MA6813400180,h_OCHCTP,13-L1-9,2019-01-25 07:45:00.0,SoPmdAve,3566.52,CHCGILDTO6Y
MA6813400180,h_OCHCTP,13-L1-10,2019-01-25 07:15:00.0,Qmin,8.77,CHCGILDTO6Y
MA6813400180,h_OCHCTP,13-L1-10,2019-01-25 07:15:00.0,PhaseCorrectionAve,-0.183,CHCGILDTO6Y
MA6813400180,h_OCHCTP,13-L1-10,2019-01-25 07:15:00.0,BerPreFecMax,0.00301,CHCGILDTO6Y
MA6813400180,h_OCHCTP,13-L1-10,2019-01-25 07:15:00.0,PmdMin,1.54,CHCGILDTO6Y
MA6813400180,h_OCHCTP,13-L1-10,2019-01-25 07:15:00.0,SoPmdAve,3726.19,CHCGILDTO6Y
MA6813400180,h_OCHCTP,13-L1-10,2019-01-25 07:30:00.0,Qmin,8.74,CHCGILDTO6Y
MA6813400180,h_OCHCTP,13-L1-10,2019-01-25 07:30:00.0,PhaseCorrectionAve,-0.244,CHCGILDTO6Y
MA6813400180,h_OCHCTP,13-L1-10,2019-01-25 07:30:00.0,BerPreFecMax,0.00312,CHCGILDTO6Y
MA6813400180,h_OCHCTP,13-L1-10,2019-01-25 07:30:00.0,PmdMin,2.05,CHCGILDTO6Y
MA6813400180,h_OCHCTP,13-L1-10,2019-01-25 07:30:00.0,SoPmdAve,3748.36,CHCGILDTO6Y
MA6813400180,h_OCHCTP,13-L1-10,2019-01-25 07:45:00.0,Qmin,8.72,CHCGILDTO6Y
MA6813400180,h_OCHCTP,13-L1-10,2019-01-25 07:45:00.0,PhaseCorrectionAve,-0.305,CHCGILDTO6Y
MA6813400180,h_OCHCTP,13-L1-10,2019-01-25 07:45:00.0,BerPreFecMax,0.00318,CHCGILDTO6Y
MA6813400180,h_OCHCTP,13-L1-10,2019-01-25 07:45:00.0,PmdMin,0.836,CHCGILDTO6Y
MA6813400180,h_OCHCTP,13-L1-10,2019-01-25 07:45:00.0,SoPmdAve,3679.07,CHCGILDTO6Y
MA6813400180,h_OCHCTP,10-L1-1,2019-01-25 07:15:00.0,Qmin,9.43,CHCGILDTO6Y
MA6813400180,h_OCHCTP,10-L1-1,2019-01-25 07:15:00.0,PhaseCorrectionAve,3.5e-07,CHCGILDTO6Y
MA6813400180,h_OCHCTP,10-L1-1,2019-01-25 07:15:00.0,BerPreFecMax,0.00153,CHCGILDTO6Y
MA6813400180,h_OCHCTP,10-L1-1,2019-01-25 07:15:00.0,PmdMin,1.38,CHCGILDTO6Y
MA6813400180,h_OCHCTP,10-L1-1,2019-01-25 07:15:00.0,SoPmdAve,3223.69,CHCGILDTO6Y
MA6813400180,h_OCHCTP,10-L1-1,2019-01-25 07:30:00.0,Qmin,9.44,CHCGILDTO6Y
MA6813400180,h_OCHCTP,10-L1-1,2019-01-25 07:30:00.0,PhaseCorrectionAve,3.46e-07,CHCGILDTO6Y
MA6813400180,h_OCHCTP,10-L1-1,2019-01-25 07:30:00.0,BerPreFecMax,0.00152,CHCGILDTO6Y
MA6813400180,h_OCHCTP,10-L1-1,2019-01-25 07:30:00.0,PmdMin,1.48,CHCGILDTO6Y
MA6813400180,h_OCHCTP,10-L1-1,2019-01-25 07:30:00.0,SoPmdAve,3277.53,CHCGILDTO6Y
MA6813400180,h_OCHCTP,10-L1-1,2019-01-25 07:45:00.0,Qmin,9.42,CHCGILDTO6Y
MA6813400180,h_OCHCTP,10-L1-1,2019-01-25 07:45:00.0,PhaseCorrectionAve,3.33e-07,CHCGILDTO6Y
MA6813400180,h_OCHCTP,10-L1-1,2019-01-25 07:45:00.0,BerPreFecMax,0.00154,CHCGILDTO6Y
MA6813400180,h_OCHCTP,10-L1-1,2019-01-25 07:45:00.0,PmdMin,1.53,CHCGILDTO6Y
MA6813400180,h_OCHCTP,10-L1-1,2019-01-25 07:45:00.0,SoPmdAve,3334.09,CHCGILDTO6Y
MA6813400180,h_OCHCTP,10-L1-2,2019-01-25 07:15:00.0,Qmin,9.1,CHCGILDTO6Y
MA6813400180,h_OCHCTP,10-L1-2,2019-01-25 07:15:00.0,PhaseCorrectionAve,-0.061,CHCGILDTO6Y
MA6813400180,h_OCHCTP,10-L1-2,2019-01-25 07:15:00.0,BerPreFecMax,0.00219,CHCGILDTO6Y
MA6813400180,h_OCHCTP,10-L1-2,2019-01-25 07:15:00.0,PmdMin,0.78,CHCGILDTO6Y
MA6813400180,h_OCHCTP,10-L1-2,2019-01-25 07:15:00.0,SoPmdAve,3497.05,CHCGILDTO6Y
MA6813400180,h_OCHCTP,10-L1-2,2019-01-25 07:30:00.0,Qmin,9.11,CHCGILDTO6Y
MA6813400180,h_OCHCTP,10-L1-2,2019-01-25 07:30:00.0,PhaseCorrectionAve,-0.061,CHCGILDTO6Y
MA6813400180,h_OCHCTP,10-L1-2,2019-01-25 07:30:00.0,BerPreFecMax,0.00217,CHCGILDTO6Y
MA6813400180,h_OCHCTP,10-L1-2,2019-01-25 07:30:00.0,PmdMin,0.642,CHCGILDTO6Y
MA6813400180,h_OCHCTP,10-L1-2,2019-01-25 07:30:00.0,SoPmdAve,3410.37,CHCGILDTO6Y
MA6813400180,h_OCHCTP,10-L1-2,2019-01-25 07:45:00.0,Qmin,9.1,CHCGILDTO6Y
MA6813400180,h_OCHCTP,10-L1-2,2019-01-25 07:45:00.0,PhaseCorrectionAve,3.25e-07,CHCGILDTO6Y
MA6813400180,h_OCHCTP,10-L1-2,2019-01-25 07:45:00.0,BerPreFecMax,0.00219,CHCGILDTO6Y
MA6813400180,h_OCHCTP,10-L1-2,2019-01-25 07:45:00.0,PmdMin,0.28,CHCGILDTO6Y
MA6813400180,h_OCHCTP,10-L1-2,2019-01-25 07:45:00.0,SoPmdAve,3471.4,CHCGILDTO6Y
MA6813400180,h_OCHCTP,10-L1-3,2019-01-25 07:15:00.0,Qmin,8.8,CHCGILDTO6Y
MA6813400180,h_OCHCTP,10-L1-3,2019-01-25 07:15:00.0,PhaseCorrectionAve,-0.061,CHCGILDTO6Y
MA6813400180,h_OCHCTP,10-L1-3,2019-01-25 07:15:00.0,BerPreFecMax,0.00293,CHCGILDTO6Y
MA6813400180,h_OCHCTP,10-L1-3,2019-01-25 07:15:00.0,PmdMin,2.97,CHCGILDTO6Y
MA6813400180,h_OCHCTP,10-L1-3,2019-01-25 07:15:00.0,SoPmdAve,2800.71,CHCGILDTO6Y
MA6813400180,h_OCHCTP,10-L1-3,2019-01-25 07:30:00.0,Qmin,8.81,CHCGILDTO6Y
MA6813400180,h_OCHCTP,10-L1-3,2019-01-25 07:30:00.0,PhaseCorrectionAve,-0.061,CHCGILDTO6Y
MA6813400180,h_OCHCTP,10-L1-3,2019-01-25 07:30:00.0,BerPreFecMax,0.00291,CHCGILDTO6Y
MA6813400180,h_OCHCTP,10-L1-3,2019-01-25 07:30:00.0,PmdMin,3.15,CHCGILDTO6Y
MA6813400180,h_OCHCTP,10-L1-3,2019-01-25 07:30:00.0,SoPmdAve,2828.59,CHCGILDTO6Y
MA6813400180,h_OCHCTP,10-L1-3,2019-01-25 07:45:00.0,Qmin,8.79,CHCGILDTO6Y
MA6813400180,h_OCHCTP,10-L1-3,2019-01-25 07:45:00.0,PhaseCorrectionAve,6.52e-07,CHCGILDTO6Y
MA6813400180,h_OCHCTP,10-L1-3,2019-01-25 07:45:00.0,BerPreFecMax,0.00296,CHCGILDTO6Y
MA6813400180,h_OCHCTP,10-L1-3,2019-01-25 07:45:00.0,PmdMin,1.62,CHCGILDTO6Y
MA6813400180,h_OCHCTP,10-L1-3,2019-01-25 07:45:00.0,SoPmdAve,2886.33,CHCGILDTO6Y
MA6813400180,h_OCHCTP,10-L1-4,2019-01-25 07:15:00.0,Qmin,8.17,CHCGILDTO6Y
MA6813400180,h_OCHCTP,10-L1-4,2019-01-25 07:15:00.0,PhaseCorrectionAve,-0.061,CHCGILDTO6Y
MA6813400180,h_OCHCTP,10-L1-4,2019-01-25 07:15:00.0,BerPreFecMax,0.00519,CHCGILDTO6Y
MA6813400180,h_OCHCTP,10-L1-4,2019-01-25 07:15:00.0,PmdMin,3.29,CHCGILDTO6Y
MA6813400180,h_OCHCTP,10-L1-4,2019-01-25 07:15:00.0,SoPmdAve,3049.96,CHCGILDTO6Y
MA6813400180,h_OCHCTP,10-L1-4,2019-01-25 07:30:00.0,Qmin,8.18,CHCGILDTO6Y
MA6813400180,h_OCHCTP,10-L1-4,2019-01-25 07:30:00.0,PhaseCorrectionAve,-0.061,CHCGILDTO6Y
MA6813400180,h_OCHCTP,10-L1-4,2019-01-25 07:30:00.0,BerPreFecMax,0.00519,CHCGILDTO6Y
MA6813400180,h_OCHCTP,10-L1-4,2019-01-25 07:30:00.0,PmdMin,2.15,CHCGILDTO6Y
MA6813400180,h_OCHCTP,10-L1-4,2019-01-25 07:30:00.0,SoPmdAve,3066.52,CHCGILDTO6Y
MA6813400180,h_OCHCTP,10-L1-4,2019-01-25 07:45:00.0,Qmin,8.15,CHCGILDTO6Y
MA6813400180,h_OCHCTP,10-L1-4,2019-01-25 07:45:00.0,PhaseCorrectionAve,4.55e-06,CHCGILDTO6Y
MA6813400180,h_OCHCTP,10-L1-4,2019-01-25 07:45:00.0,BerPreFecMax,0.00528,CHCGILDTO6Y
MA6813400180,h_OCHCTP,10-L1-4,2019-01-25 07:45:00.0,PmdMin,0.917,CHCGILDTO6Y
MA6813400180,h_OCHCTP,10-L1-4,2019-01-25 07:45:00.0,SoPmdAve,3024.85,CHCGILDTO6Y
MA6813400180,h_OCHCTP,10-L1-5,2019-01-25 07:15:00.0,Qmin,8.36,CHCGILDTO6Y
MA6813400180,h_OCHCTP,10-L1-5,2019-01-25 07:15:00.0,PhaseCorrectionAve,-0.122,CHCGILDTO6Y
MA6813400180,h_OCHCTP,10-L1-5,2019-01-25 07:15:00.0,BerPreFecMax,0.00444,CHCGILDTO6Y
MA6813400180,h_OCHCTP,10-L1-5,2019-01-25 07:15:00.0,PmdMin,1.26,CHCGILDTO6Y
MA6813400180,h_OCHCTP,10-L1-5,2019-01-25 07:15:00.0,SoPmdAve,2801.9,CHCGILDTO6Y
MA6813400180,h_OCHCTP,10-L1-5,2019-01-25 07:30:00.0,Qmin,8.36,CHCGILDTO6Y
MA6813400180,h_OCHCTP,10-L1-5,2019-01-25 07:30:00.0,PhaseCorrectionAve,-0.061,CHCGILDTO6Y
MA6813400180,h_OCHCTP,10-L1-5,2019-01-25 07:30:00.0,BerPreFecMax,0.00441,CHCGILDTO6Y
MA6813400180,h_OCHCTP,10-L1-5,2019-01-25 07:30:00.0,PmdMin,1.92,CHCGILDTO6Y
MA6813400180,h_OCHCTP,10-L1-5,2019-01-25 07:30:00.0,SoPmdAve,2888.98,CHCGILDTO6Y
MA6813400180,h_OCHCTP,10-L1-5,2019-01-25 07:45:00.0,Qmin,8.35,CHCGILDTO6Y
MA6813400180,h_OCHCTP,10-L1-5,2019-01-25 07:45:00.0,PhaseCorrectionAve,1.92e-06,CHCGILDTO6Y
MA6813400180,h_OCHCTP,10-L1-5,2019-01-25 07:45:00.0,BerPreFecMax,0.00446,CHCGILDTO6Y
MA6813400180,h_OCHCTP,10-L1-5,2019-01-25 07:45:00.0,PmdMin,2.49,CHCGILDTO6Y
MA6813400180,h_OCHCTP,10-L1-5,2019-01-25 07:45:00.0,SoPmdAve,2844.48,CHCGILDTO6Y
MA6813400180,h_OCHCTP,10-L1-6,2019-01-25 07:15:00.0,Qmin,8.61,CHCGILDTO6Y
MA6813400180,h_OCHCTP,10-L1-6,2019-01-25 07:15:00.0,PhaseCorrectionAve,-0.122,CHCGILDTO6Y
MA6813400180,h_OCHCTP,10-L1-6,2019-01-25 07:15:00.0,BerPreFecMax,0.00353,CHCGILDTO6Y
MA6813400180,h_OCHCTP,10-L1-6,2019-01-25 07:15:00.0,PmdMin,3.8,CHCGILDTO6Y
MA6813400180,h_OCHCTP,10-L1-6,2019-01-25 07:15:00.0,SoPmdAve,2764.06,CHCGILDTO6Y
MA6813400180,h_OCHCTP,10-L1-6,2019-01-25 07:30:00.0,Qmin,8.59,CHCGILDTO6Y
MA6813400180,h_OCHCTP,10-L1-6,2019-01-25 07:30:00.0,PhaseCorrectionAve,-0.122,CHCGILDTO6Y
MA6813400180,h_OCHCTP,10-L1-6,2019-01-25 07:30:00.0,BerPreFecMax,0.00357,CHCGILDTO6Y
MA6813400180,h_OCHCTP,10-L1-6,2019-01-25 07:30:00.0,PmdMin,2.56,CHCGILDTO6Y
MA6813400180,h_OCHCTP,10-L1-6,2019-01-25 07:30:00.0,SoPmdAve,2794.75,CHCGILDTO6Y
MA6813400180,h_OCHCTP,10-L1-6,2019-01-25 07:45:00.0,Qmin,8.59,CHCGILDTO6Y
MA6813400180,h_OCHCTP,10-L1-6,2019-01-25 07:45:00.0,PhaseCorrectionAve,1.26e-06,CHCGILDTO6Y
MA6813400180,h_OCHCTP,10-L1-6,2019-01-25 07:45:00.0,BerPreFecMax,0.00359,CHCGILDTO6Y
MA6813400180,h_OCHCTP,10-L1-6,2019-01-25 07:45:00.0,PmdMin,2.75,CHCGILDTO6Y
MA6813400180,h_OCHCTP,10-L1-6,2019-01-25 07:45:00.0,SoPmdAve,2807.49,CHCGILDTO6Y
MA6813400180,h_OCHCTP,10-L1-7,2019-01-25 07:15:00.0,Qmin,8.71,CHCGILDTO6Y
MA6813400180,h_OCHCTP,10-L1-7,2019-01-25 07:15:00.0,PhaseCorrectionAve,-0.183,CHCGILDTO6Y
MA6813400180,h_OCHCTP,10-L1-7,2019-01-25 07:15:00.0,BerPreFecMax,0.0032,CHCGILDTO6Y
MA6813400180,h_OCHCTP,10-L1-7,2019-01-25 07:15:00.0,PmdMin,4.17,CHCGILDTO6Y
MA6813400180,h_OCHCTP,10-L1-7,2019-01-25 07:15:00.0,SoPmdAve,3474.29,CHCGILDTO6Y
MA6813400180,h_OCHCTP,10-L1-7,2019-01-25 07:30:00.0,Qmin,8.71,CHCGILDTO6Y
MA6813400180,h_OCHCTP,10-L1-7,2019-01-25 07:30:00.0,PhaseCorrectionAve,-0.122,CHCGILDTO6Y
MA6813400180,h_OCHCTP,10-L1-7,2019-01-25 07:30:00.0,BerPreFecMax,0.0032,CHCGILDTO6Y
MA6813400180,h_OCHCTP,10-L1-7,2019-01-25 07:30:00.0,PmdMin,5.21,CHCGILDTO6Y
MA6813400180,h_OCHCTP,10-L1-7,2019-01-25 07:30:00.0,SoPmdAve,3476.57,CHCGILDTO6Y
MA6813400180,h_OCHCTP,10-L1-7,2019-01-25 07:45:00.0,Qmin,8.7,CHCGILDTO6Y
MA6813400180,h_OCHCTP,10-L1-7,2019-01-25 07:45:00.0,PhaseCorrectionAve,7.46e-07,CHCGILDTO6Y
MA6813400180,h_OCHCTP,10-L1-7,2019-01-25 07:45:00.0,BerPreFecMax,0.00322,CHCGILDTO6Y
MA6813400180,h_OCHCTP,10-L1-7,2019-01-25 07:45:00.0,PmdMin,3.53,CHCGILDTO6Y
MA6813400180,h_OCHCTP,10-L1-7,2019-01-25 07:45:00.0,SoPmdAve,3423.14,CHCGILDTO6Y
MA6813400180,h_OCHCTP,10-L1-8,2019-01-25 07:15:00.0,Qmin,9.29,CHCGILDTO6Y
MA6813400180,h_OCHCTP,10-L1-8,2019-01-25 07:15:00.0,PhaseCorrectionAve,-0.244,CHCGILDTO6Y
MA6813400180,h_OCHCTP,10-L1-8,2019-01-25 07:15:00.0,BerPreFecMax,0.00179,CHCGILDTO6Y
MA6813400180,h_OCHCTP,10-L1-8,2019-01-25 07:15:00.0,PmdMin,1.76,CHCGILDTO6Y
MA6813400180,h_OCHCTP,10-L1-8,2019-01-25 07:15:00.0,SoPmdAve,3382.12,CHCGILDTO6Y
MA6813400180,h_OCHCTP,10-L1-8,2019-01-25 07:30:00.0,Qmin,9.29,CHCGILDTO6Y
MA6813400180,h_OCHCTP,10-L1-8,2019-01-25 07:30:00.0,PhaseCorrectionAve,-0.122,CHCGILDTO6Y
MA6813400180,h_OCHCTP,10-L1-8,2019-01-25 07:30:00.0,BerPreFecMax,0.00179,CHCGILDTO6Y
MA6813400180,h_OCHCTP,10-L1-8,2019-01-25 07:30:00.0,PmdMin,1.72,CHCGILDTO6Y
MA6813400180,h_OCHCTP,10-L1-8,2019-01-25 07:30:00.0,SoPmdAve,3392.53,CHCGILDTO6Y
MA6813400180,h_OCHCTP,10-L1-8,2019-01-25 07:45:00.0,Qmin,9.28,CHCGILDTO6Y
MA6813400180,h_OCHCTP,10-L1-8,2019-01-25 07:45:00.0,PhaseCorrectionAve,8.75e-07,CHCGILDTO6Y
MA6813400180,h_OCHCTP,10-L1-8,2019-01-25 07:45:00.0,BerPreFecMax,0.00179,CHCGILDTO6Y
MA6813400180,h_OCHCTP,10-L1-8,2019-01-25 07:45:00.0,PmdMin,1.51,CHCGILDTO6Y
MA6813400180,h_OCHCTP,10-L1-8,2019-01-25 07:45:00.0,SoPmdAve,3484.11,CHCGILDTO6Y
MA6813400180,h_OCHCTP,10-L1-9,2019-01-25 07:15:00.0,Qmin,9.32,CHCGILDTO6Y
MA6813400180,h_OCHCTP,10-L1-9,2019-01-25 07:15:00.0,PhaseCorrectionAve,-0.366,CHCGILDTO6Y
MA6813400180,h_OCHCTP,10-L1-9,2019-01-25 07:15:00.0,BerPreFecMax,0.00173,CHCGILDTO6Y
MA6813400180,h_OCHCTP,10-L1-9,2019-01-25 07:15:00.0,PmdMin,1.46,CHCGILDTO6Y
MA6813400180,h_OCHCTP,10-L1-9,2019-01-25 07:15:00.0,SoPmdAve,3378.39,CHCGILDTO6Y
MA6813400180,h_OCHCTP,10-L1-9,2019-01-25 07:30:00.0,Qmin,9.32,CHCGILDTO6Y
MA6813400180,h_OCHCTP,10-L1-9,2019-01-25 07:30:00.0,PhaseCorrectionAve,-0.122,CHCGILDTO6Y
MA6813400180,h_OCHCTP,10-L1-9,2019-01-25 07:30:00.0,BerPreFecMax,0.00172,CHCGILDTO6Y
MA6813400180,h_OCHCTP,10-L1-9,2019-01-25 07:30:00.0,PmdMin,1.32,CHCGILDTO6Y
MA6813400180,h_OCHCTP,10-L1-9,2019-01-25 07:30:00.0,SoPmdAve,3382.83,CHCGILDTO6Y
MA6813400180,h_OCHCTP,10-L1-9,2019-01-25 07:45:00.0,Qmin,9.33,CHCGILDTO6Y
MA6813400180,h_OCHCTP,10-L1-9,2019-01-25 07:45:00.0,PhaseCorrectionAve,-0.0611,CHCGILDTO6Y
MA6813400180,h_OCHCTP,10-L1-9,2019-01-25 07:45:00.0,BerPreFecMax,0.00171,CHCGILDTO6Y
MA6813400180,h_OCHCTP,10-L1-9,2019-01-25 07:45:00.0,PmdMin,0.611,CHCGILDTO6Y
MA6813400180,h_OCHCTP,10-L1-9,2019-01-25 07:45:00.0,SoPmdAve,3399.45,CHCGILDTO6Y
MA6813400180,h_OCHCTP,10-L1-10,2019-01-25 07:15:00.0,Qmin,9.39,CHCGILDTO6Y
MA6813400180,h_OCHCTP,10-L1-10,2019-01-25 07:15:00.0,PhaseCorrectionAve,-0.366,CHCGILDTO6Y
MA6813400180,h_OCHCTP,10-L1-10,2019-01-25 07:15:00.0,BerPreFecMax,0.0016,CHCGILDTO6Y
MA6813400180,h_OCHCTP,10-L1-10,2019-01-25 07:15:00.0,PmdMin,1.48,CHCGILDTO6Y
MA6813400180,h_OCHCTP,10-L1-10,2019-01-25 07:15:00.0,SoPmdAve,3184.13,CHCGILDTO6Y
MA6813400180,h_OCHCTP,10-L1-10,2019-01-25 07:30:00.0,Qmin,9.4,CHCGILDTO6Y
MA6813400180,h_OCHCTP,10-L1-10,2019-01-25 07:30:00.0,PhaseCorrectionAve,-0.183,CHCGILDTO6Y
MA6813400180,h_OCHCTP,10-L1-10,2019-01-25 07:30:00.0,BerPreFecMax,0.00159,CHCGILDTO6Y
MA6813400180,h_OCHCTP,10-L1-10,2019-01-25 07:30:00.0,PmdMin,1.17,CHCGILDTO6Y
MA6813400180,h_OCHCTP,10-L1-10,2019-01-25 07:30:00.0,SoPmdAve,3257.77,CHCGILDTO6Y
MA6813400180,h_OCHCTP,10-L1-10,2019-01-25 07:45:00.0,Qmin,9.39,CHCGILDTO6Y
MA6813400180,h_OCHCTP,10-L1-10,2019-01-25 07:45:00.0,PhaseCorrectionAve,-0.0611,CHCGILDTO6Y
MA6813400180,h_OCHCTP,10-L1-10,2019-01-25 07:45:00.0,BerPreFecMax,0.0016,CHCGILDTO6Y
MA6813400180,h_OCHCTP,10-L1-10,2019-01-25 07:45:00.0,PmdMin,1.09,CHCGILDTO6Y
MA6813400180,h_OCHCTP,10-L1-10,2019-01-25 07:45:00.0,SoPmdAve,3268.19,CHCGILDTO6Y
