MA6813400180,h_OCHCTP,11-L1-1,2019-01-25 06:15:00.0,Qmin,9.14,CHCGILDTO6Y
MA6813400180,h_OCHCTP,11-L1-1,2019-01-25 06:15:00.0,PhaseCorrectionAve,1.07e-07,CHCGILDTO6Y
MA6813400180,h_OCHCTP,11-L1-1,2019-01-25 06:15:00.0,BerPreFecMax,0.00209,CHCGILDTO6Y
MA6813400180,h_OCHCTP,11-L1-1,2019-01-25 06:15:00.0,PmdMin,1.5,CHCGILDTO6Y
MA6813400180,h_OCHCTP,11-L1-1,2019-01-25 06:15:00.0,SoPmdAve,3415.86,CHCGILDTO6Y
MA6813400180,h_OCHCTP,11-L1-1,2019-01-25 06:30:00.0,Qmin,9.18,CHCGILDTO6Y
MA6813400180,h_OCHCTP,11-L1-1,2019-01-25 06:30:00.0,PhaseCorrectionAve,1.01e-07,CHCGILDTO6Y
MA6813400180,h_OCHCTP,11-L1-1,2019-01-25 06:30:00.0,BerPreFecMax,0.00201,CHCGILDTO6Y
MA6813400180,h_OCHCTP,11-L1-1,2019-01-25 06:30:00.0,PmdMin,1.26,CHCGILDTO6Y
MA6813400180,h_OCHCTP,11-L1-1,2019-01-25 06:30:00.0,SoPmdAve,3364.47,CHCGILDTO6Y
MA6813400180,h_OCHCTP,11-L1-1,2019-01-25 06:45:00.0,Qmin,9.18,CHCGILDTO6Y
MA6813400180,h_OCHCTP,11-L1-1,2019-01-25 06:45:00.0,PhaseCorrectionAve,9.9e-08,CHCGILDTO6Y
MA6813400180,h_OCHCTP,11-L1-1,2019-01-25 06:45:00.0,BerPreFecMax,0.00202,CHCGILDTO6Y
MA6813400180,h_OCHCTP,11-L1-1,2019-01-25 06:45:00.0,PmdMin,0.434,CHCGILDTO6Y
MA6813400180,h_OCHCTP,11-L1-1,2019-01-25 06:45:00.0,SoPmdAve,3452.93,CHCGILDTO6Y
MA6813400180,h_OCHCTP,11-L1-2,2019-01-25 06:15:00.0,Qmin,9.07,CHCGILDTO6Y
MA6813400180,h_OCHCTP,11-L1-2,2019-01-25 06:15:00.0,PhaseCorrectionAve,3e-07,CHCGILDTO6Y
MA6813400180,h_OCHCTP,11-L1-2,2019-01-25 06:15:00.0,BerPreFecMax,0.00224,CHCGILDTO6Y
MA6813400180,h_OCHCTP,11-L1-2,2019-01-25 06:15:00.0,PmdMin,1.1,CHCGILDTO6Y
MA6813400180,h_OCHCTP,11-L1-2,2019-01-25 06:15:00.0,SoPmdAve,3147.47,CHCGILDTO6Y
MA6813400180,h_OCHCTP,11-L1-2,2019-01-25 06:30:00.0,Qmin,9.08,CHCGILDTO6Y
MA6813400180,h_OCHCTP,11-L1-2,2019-01-25 06:30:00.0,PhaseCorrectionAve,-0.061,CHCGILDTO6Y
MA6813400180,h_OCHCTP,11-L1-2,2019-01-25 06:30:00.0,BerPreFecMax,0.00222,CHCGILDTO6Y
MA6813400180,h_OCHCTP,11-L1-2,2019-01-25 06:30:00.0,PmdMin,0.707,CHCGILDTO6Y
MA6813400180,h_OCHCTP,11-L1-2,2019-01-25 06:30:00.0,SoPmdAve,3210.51,CHCGILDTO6Y
MA6813400180,h_OCHCTP,11-L1-2,2019-01-25 06:45:00.0,Qmin,9.1,CHCGILDTO6Y
MA6813400180,h_OCHCTP,11-L1-2,2019-01-25 06:45:00.0,PhaseCorrectionAve,-0.061,CHCGILDTO6Y
MA6813400180,h_OCHCTP,11-L1-2,2019-01-25 06:45:00.0,BerPreFecMax,0.00218,CHCGILDTO6Y
MA6813400180,h_OCHCTP,11-L1-2,2019-01-25 06:45:00.0,PmdMin,0.243,CHCGILDTO6Y
MA6813400180,h_OCHCTP,11-L1-2,2019-01-25 06:45:00.0,SoPmdAve,3072.31,CHCGILDTO6Y
MA6813400180,h_OCHCTP,11-L1-3,2019-01-25 06:15:00.0,Qmin,9.0,CHCGILDTO6Y
MA6813400180,h_OCHCTP,11-L1-3,2019-01-25 06:15:00.0,PhaseCorrectionAve,3.04e-07,CHCGILDTO6Y
MA6813400180,h_OCHCTP,11-L1-3,2019-01-25 06:15:00.0,BerPreFecMax,0.00242,CHCGILDTO6Y
MA6813400180,h_OCHCTP,11-L1-3,2019-01-25 06:15:00.0,PmdMin,0.722,CHCGILDTO6Y
MA6813400180,h_OCHCTP,11-L1-3,2019-01-25 06:15:00.0,SoPmdAve,2742.73,CHCGILDTO6Y
MA6813400180,h_OCHCTP,11-L1-3,2019-01-25 06:30:00.0,Qmin,8.98,CHCGILDTO6Y
MA6813400180,h_OCHCTP,11-L1-3,2019-01-25 06:30:00.0,PhaseCorrectionAve,-0.122,CHCGILDTO6Y
MA6813400180,h_OCHCTP,11-L1-3,2019-01-25 06:30:00.0,BerPreFecMax,0.00246,CHCGILDTO6Y
MA6813400180,h_OCHCTP,11-L1-3,2019-01-25 06:30:00.0,PmdMin,0.324,CHCGILDTO6Y
MA6813400180,h_OCHCTP,11-L1-3,2019-01-25 06:30:00.0,SoPmdAve,2715.45,CHCGILDTO6Y
MA6813400180,h_OCHCTP,11-L1-3,2019-01-25 06:45:00.0,Qmin,9.01,CHCGILDTO6Y
MA6813400180,h_OCHCTP,11-L1-3,2019-01-25 06:45:00.0,PhaseCorrectionAve,-0.061,CHCGILDTO6Y
MA6813400180,h_OCHCTP,11-L1-3,2019-01-25 06:45:00.0,BerPreFecMax,0.0024,CHCGILDTO6Y
MA6813400180,h_OCHCTP,11-L1-3,2019-01-25 06:45:00.0,PmdMin,0.517,CHCGILDTO6Y
MA6813400180,h_OCHCTP,11-L1-3,2019-01-25 06:45:00.0,SoPmdAve,2654.34,CHCGILDTO6Y
MA6813400180,h_OCHCTP,11-L1-4,2019-01-25 06:15:00.0,Qmin,8.78,CHCGILDTO6Y
MA6813400180,h_OCHCTP,11-L1-4,2019-01-25 06:15:00.0,PhaseCorrectionAve,4.59e-07,CHCGILDTO6Y
MA6813400180,h_OCHCTP,11-L1-4,2019-01-25 06:15:00.0,BerPreFecMax,0.00298,CHCGILDTO6Y
MA6813400180,h_OCHCTP,11-L1-4,2019-01-25 06:15:00.0,PmdMin,0.817,CHCGILDTO6Y
MA6813400180,h_OCHCTP,11-L1-4,2019-01-25 06:15:00.0,SoPmdAve,3000.33,CHCGILDTO6Y
MA6813400180,h_OCHCTP,11-L1-4,2019-01-25 06:30:00.0,Qmin,8.81,CHCGILDTO6Y
MA6813400180,h_OCHCTP,11-L1-4,2019-01-25 06:30:00.0,PhaseCorrectionAve,-0.122,CHCGILDTO6Y
MA6813400180,h_OCHCTP,11-L1-4,2019-01-25 06:30:00.0,BerPreFecMax,0.00293,CHCGILDTO6Y
MA6813400180,h_OCHCTP,11-L1-4,2019-01-25 06:30:00.0,PmdMin,0.713,CHCGILDTO6Y
MA6813400180,h_OCHCTP,11-L1-4,2019-01-25 06:30:00.0,SoPmdAve,2926.75,CHCGILDTO6Y
MA6813400180,h_OCHCTP,11-L1-4,2019-01-25 06:45:00.0,Qmin,8.78,CHCGILDTO6Y
MA6813400180,h_OCHCTP,11-L1-4,2019-01-25 06:45:00.0,PhaseCorrectionAve,-0.122,CHCGILDTO6Y
MA6813400180,h_OCHCTP,11-L1-4,2019-01-25 06:45:00.0,BerPreFecMax,0.003,CHCGILDTO6Y
MA6813400180,h_OCHCTP,11-L1-4,2019-01-25 06:45:00.0,PmdMin,1.23,CHCGILDTO6Y
MA6813400180,h_OCHCTP,11-L1-4,2019-01-25 06:45:00.0,SoPmdAve,2961.72,CHCGILDTO6Y
MA6813400180,h_OCHCTP,11-L1-5,2019-01-25 06:15:00.0,Qmin,8.86,CHCGILDTO6Y
MA6813400180,h_OCHCTP,11-L1-5,2019-01-25 06:15:00.0,PhaseCorrectionAve,-0.061,CHCGILDTO6Y
MA6813400180,h_OCHCTP,11-L1-5,2019-01-25 06:15:00.0,BerPreFecMax,0.00277,CHCGILDTO6Y
MA6813400180,h_OCHCTP,11-L1-5,2019-01-25 06:15:00.0,PmdMin,0.743,CHCGILDTO6Y
MA6813400180,h_OCHCTP,11-L1-5,2019-01-25 06:15:00.0,SoPmdAve,2611.41,CHCGILDTO6Y
MA6813400180,h_OCHCTP,11-L1-5,2019-01-25 06:30:00.0,Qmin,8.88,CHCGILDTO6Y
MA6813400180,h_OCHCTP,11-L1-5,2019-01-25 06:30:00.0,PhaseCorrectionAve,-0.122,CHCGILDTO6Y
MA6813400180,h_OCHCTP,11-L1-5,2019-01-25 06:30:00.0,BerPreFecMax,0.00271,CHCGILDTO6Y
MA6813400180,h_OCHCTP,11-L1-5,2019-01-25 06:30:00.0,PmdMin,1.15,CHCGILDTO6Y
MA6813400180,h_OCHCTP,11-L1-5,2019-01-25 06:30:00.0,SoPmdAve,2529.58,CHCGILDTO6Y
MA6813400180,h_OCHCTP,11-L1-5,2019-01-25 06:45:00.0,Qmin,8.87,CHCGILDTO6Y
MA6813400180,h_OCHCTP,11-L1-5,2019-01-25 06:45:00.0,PhaseCorrectionAve,-0.122,CHCGILDTO6Y
MA6813400180,h_OCHCTP,11-L1-5,2019-01-25 06:45:00.0,BerPreFecMax,0.00275,CHCGILDTO6Y
MA6813400180,h_OCHCTP,11-L1-5,2019-01-25 06:45:00.0,PmdMin,1.08,CHCGILDTO6Y
MA6813400180,h_OCHCTP,11-L1-5,2019-01-25 06:45:00.0,SoPmdAve,2589.01,CHCGILDTO6Y
MA6813400180,h_OCHCTP,11-L1-6,2019-01-25 06:15:00.0,Qmin,8.83,CHCGILDTO6Y
MA6813400180,h_OCHCTP,11-L1-6,2019-01-25 06:15:00.0,PhaseCorrectionAve,-0.061,CHCGILDTO6Y
MA6813400180,h_OCHCTP,11-L1-6,2019-01-25 06:15:00.0,BerPreFecMax,0.00285,CHCGILDTO6Y
MA6813400180,h_OCHCTP,11-L1-6,2019-01-25 06:15:00.0,PmdMin,0.704,CHCGILDTO6Y
MA6813400180,h_OCHCTP,11-L1-6,2019-01-25 06:15:00.0,SoPmdAve,2504.82,CHCGILDTO6Y
MA6813400180,h_OCHCTP,11-L1-6,2019-01-25 06:30:00.0,Qmin,8.83,CHCGILDTO6Y
MA6813400180,h_OCHCTP,11-L1-6,2019-01-25 06:30:00.0,PhaseCorrectionAve,-0.122,CHCGILDTO6Y
MA6813400180,h_OCHCTP,11-L1-6,2019-01-25 06:30:00.0,BerPreFecMax,0.00286,CHCGILDTO6Y
MA6813400180,h_OCHCTP,11-L1-6,2019-01-25 06:30:00.0,PmdMin,0.806,CHCGILDTO6Y
MA6813400180,h_OCHCTP,11-L1-6,2019-01-25 06:30:00.0,SoPmdAve,2496.6,CHCGILDTO6Y
MA6813400180,h_OCHCTP,11-L1-6,2019-01-25 06:45:00.0,Qmin,8.83,CHCGILDTO6Y
MA6813400180,h_OCHCTP,11-L1-6,2019-01-25 06:45:00.0,PhaseCorrectionAve,-0.122,CHCGILDTO6Y
MA6813400180,h_OCHCTP,11-L1-6,2019-01-25 06:45:00.0,BerPreFecMax,0.00285,CHCGILDTO6Y
MA6813400180,h_OCHCTP,11-L1-6,2019-01-25 06:45:00.0,PmdMin,0.595,CHCGILDTO6Y
MA6813400180,h_OCHCTP,11-L1-6,2019-01-25 06:45:00.0,SoPmdAve,2496.85,CHCGILDTO6Y
MA6813400180,h_OCHCTP,11-L1-7,2019-01-25 06:15:00.0,Qmin,8.87,CHCGILDTO6Y
MA6813400180,h_OCHCTP,11-L1-7,2019-01-25 06:15:00.0,PhaseCorrectionAve,-0.061,CHCGILDTO6Y
MA6813400180,h_OCHCTP,11-L1-7,2019-01-25 06:15:00.0,BerPreFecMax,0.00273,CHCGILDTO6Y
MA6813400180,h_OCHCTP,11-L1-7,2019-01-25 06:15:00.0,PmdMin,0.692,CHCGILDTO6Y
MA6813400180,h_OCHCTP,11-L1-7,2019-01-25 06:15:00.0,SoPmdAve,2957.03,CHCGILDTO6Y
MA6813400180,h_OCHCTP,11-L1-7,2019-01-25 06:30:00.0,Qmin,8.91,CHCGILDTO6Y
MA6813400180,h_OCHCTP,11-L1-7,2019-01-25 06:30:00.0,PhaseCorrectionAve,-0.122,CHCGILDTO6Y
MA6813400180,h_OCHCTP,11-L1-7,2019-01-25 06:30:00.0,BerPreFecMax,0.00264,CHCGILDTO6Y
MA6813400180,h_OCHCTP,11-L1-7,2019-01-25 06:30:00.0,PmdMin,0.525,CHCGILDTO6Y
MA6813400180,h_OCHCTP,11-L1-7,2019-01-25 06:30:00.0,SoPmdAve,2996.71,CHCGILDTO6Y
MA6813400180,h_OCHCTP,11-L1-7,2019-01-25 06:45:00.0,Qmin,8.92,CHCGILDTO6Y
MA6813400180,h_OCHCTP,11-L1-7,2019-01-25 06:45:00.0,PhaseCorrectionAve,-0.122,CHCGILDTO6Y
MA6813400180,h_OCHCTP,11-L1-7,2019-01-25 06:45:00.0,BerPreFecMax,0.00263,CHCGILDTO6Y
MA6813400180,h_OCHCTP,11-L1-7,2019-01-25 06:45:00.0,PmdMin,0.866,CHCGILDTO6Y
MA6813400180,h_OCHCTP,11-L1-7,2019-01-25 06:45:00.0,SoPmdAve,3013.69,CHCGILDTO6Y
MA6813400180,h_OCHCTP,11-L1-8,2019-01-25 06:15:00.0,Qmin,8.92,CHCGILDTO6Y
MA6813400180,h_OCHCTP,11-L1-8,2019-01-25 06:15:00.0,PhaseCorrectionAve,-0.122,CHCGILDTO6Y
MA6813400180,h_OCHCTP,11-L1-8,2019-01-25 06:15:00.0,BerPreFecMax,0.00262,CHCGILDTO6Y
MA6813400180,h_OCHCTP,11-L1-8,2019-01-25 06:15:00.0,PmdMin,0.626,CHCGILDTO6Y
MA6813400180,h_OCHCTP,11-L1-8,2019-01-25 06:15:00.0,SoPmdAve,3131.2,CHCGILDTO6Y
MA6813400180,h_OCHCTP,11-L1-8,2019-01-25 06:30:00.0,Qmin,9.0,CHCGILDTO6Y
MA6813400180,h_OCHCTP,11-L1-8,2019-01-25 06:30:00.0,PhaseCorrectionAve,-0.122,CHCGILDTO6Y
MA6813400180,h_OCHCTP,11-L1-8,2019-01-25 06:30:00.0,BerPreFecMax,0.00241,CHCGILDTO6Y
MA6813400180,h_OCHCTP,11-L1-8,2019-01-25 06:30:00.0,PmdMin,0.672,CHCGILDTO6Y
MA6813400180,h_OCHCTP,11-L1-8,2019-01-25 06:30:00.0,SoPmdAve,3037.15,CHCGILDTO6Y
MA6813400180,h_OCHCTP,11-L1-8,2019-01-25 06:45:00.0,Qmin,9.03,CHCGILDTO6Y
MA6813400180,h_OCHCTP,11-L1-8,2019-01-25 06:45:00.0,PhaseCorrectionAve,-0.122,CHCGILDTO6Y
MA6813400180,h_OCHCTP,11-L1-8,2019-01-25 06:45:00.0,BerPreFecMax,0.00233,CHCGILDTO6Y
MA6813400180,h_OCHCTP,11-L1-8,2019-01-25 06:45:00.0,PmdMin,0.778,CHCGILDTO6Y
MA6813400180,h_OCHCTP,11-L1-8,2019-01-25 06:45:00.0,SoPmdAve,3068.39,CHCGILDTO6Y
MA6813400180,h_OCHCTP,11-L1-9,2019-01-25 06:15:00.0,Qmin,8.89,CHCGILDTO6Y
MA6813400180,h_OCHCTP,11-L1-9,2019-01-25 06:15:00.0,PhaseCorrectionAve,-0.183,CHCGILDTO6Y
MA6813400180,h_OCHCTP,11-L1-9,2019-01-25 06:15:00.0,BerPreFecMax,0.0027,CHCGILDTO6Y
MA6813400180,h_OCHCTP,11-L1-9,2019-01-25 06:15:00.0,PmdMin,0.512,CHCGILDTO6Y
MA6813400180,h_OCHCTP,11-L1-9,2019-01-25 06:15:00.0,SoPmdAve,3109.85,CHCGILDTO6Y
MA6813400180,h_OCHCTP,11-L1-9,2019-01-25 06:30:00.0,Qmin,8.96,CHCGILDTO6Y
MA6813400180,h_OCHCTP,11-L1-9,2019-01-25 06:30:00.0,PhaseCorrectionAve,-0.122,CHCGILDTO6Y
MA6813400180,h_OCHCTP,11-L1-9,2019-01-25 06:30:00.0,BerPreFecMax,0.00251,CHCGILDTO6Y
MA6813400180,h_OCHCTP,11-L1-9,2019-01-25 06:30:00.0,PmdMin,0.934,CHCGILDTO6Y
MA6813400180,h_OCHCTP,11-L1-9,2019-01-25 06:30:00.0,SoPmdAve,3081.08,CHCGILDTO6Y
MA6813400180,h_OCHCTP,11-L1-9,2019-01-25 06:45:00.0,Qmin,8.94,CHCGILDTO6Y
MA6813400180,h_OCHCTP,11-L1-9,2019-01-25 06:45:00.0,PhaseCorrectionAve,-0.122,CHCGILDTO6Y
MA6813400180,h_OCHCTP,11-L1-9,2019-01-25 06:45:00.0,BerPreFecMax,0.00257,CHCGILDTO6Y
MA6813400180,h_OCHCTP,11-L1-9,2019-01-25 06:45:00.0,PmdMin,0.875,CHCGILDTO6Y
MA6813400180,h_OCHCTP,11-L1-9,2019-01-25 06:45:00.0,SoPmdAve,3144.25,CHCGILDTO6Y
MA6813400180,h_OCHCTP,11-L1-10,2019-01-25 06:15:00.0,Qmin,9.02,CHCGILDTO6Y
MA6813400180,h_OCHCTP,11-L1-10,2019-01-25 06:15:00.0,PhaseCorrectionAve,-0.183,CHCGILDTO6Y
MA6813400180,h_OCHCTP,11-L1-10,2019-01-25 06:15:00.0,BerPreFecMax,0.00236,CHCGILDTO6Y
MA6813400180,h_OCHCTP,11-L1-10,2019-01-25 06:15:00.0,PmdMin,0.68,CHCGILDTO6Y
MA6813400180,h_OCHCTP,11-L1-10,2019-01-25 06:15:00.0,SoPmdAve,3115.52,CHCGILDTO6Y
MA6813400180,h_OCHCTP,11-L1-10,2019-01-25 06:30:00.0,Qmin,8.97,CHCGILDTO6Y
MA6813400180,h_OCHCTP,11-L1-10,2019-01-25 06:30:00.0,PhaseCorrectionAve,-0.183,CHCGILDTO6Y
MA6813400180,h_OCHCTP,11-L1-10,2019-01-25 06:30:00.0,BerPreFecMax,0.00248,CHCGILDTO6Y
MA6813400180,h_OCHCTP,11-L1-10,2019-01-25 06:30:00.0,PmdMin,1.19,CHCGILDTO6Y
MA6813400180,h_OCHCTP,11-L1-10,2019-01-25 06:30:00.0,SoPmdAve,3111.19,CHCGILDTO6Y
MA6813400180,h_OCHCTP,11-L1-10,2019-01-25 06:45:00.0,Qmin,8.98,CHCGILDTO6Y
MA6813400180,h_OCHCTP,11-L1-10,2019-01-25 06:45:00.0,PhaseCorrectionAve,-0.183,CHCGILDTO6Y
MA6813400180,h_OCHCTP,11-L1-10,2019-01-25 06:45:00.0,BerPreFecMax,0.00247,CHCGILDTO6Y
MA6813400180,h_OCHCTP,11-L1-10,2019-01-25 06:45:00.0,PmdMin,1.01,CHCGILDTO6Y
MA6813400180,h_OCHCTP,11-L1-10,2019-01-25 06:45:00.0,SoPmdAve,3086.99,CHCGILDTO6Y
MA6813400180,h_OCHCTP,10-L1-1,2019-01-25 06:15:00.0,Qmin,9.41,CHCGILDTO6Y
MA6813400180,h_OCHCTP,10-L1-1,2019-01-25 06:15:00.0,PhaseCorrectionAve,3.42e-07,CHCGILDTO6Y
MA6813400180,h_OCHCTP,10-L1-1,2019-01-25 06:15:00.0,BerPreFecMax,0.00156,CHCGILDTO6Y
MA6813400180,h_OCHCTP,10-L1-1,2019-01-25 06:15:00.0,PmdMin,2.11,CHCGILDTO6Y
MA6813400180,h_OCHCTP,10-L1-1,2019-01-25 06:15:00.0,SoPmdAve,3321.5,CHCGILDTO6Y
MA6813400180,h_OCHCTP,10-L1-1,2019-01-25 06:30:00.0,Qmin,9.4,CHCGILDTO6Y
MA6813400180,h_OCHCTP,10-L1-1,2019-01-25 06:30:00.0,PhaseCorrectionAve,3.5e-07,CHCGILDTO6Y
MA6813400180,h_OCHCTP,10-L1-1,2019-01-25 06:30:00.0,BerPreFecMax,0.00157,CHCGILDTO6Y
MA6813400180,h_OCHCTP,10-L1-1,2019-01-25 06:30:00.0,PmdMin,1.8,CHCGILDTO6Y
MA6813400180,h_OCHCTP,10-L1-1,2019-01-25 06:30:00.0,SoPmdAve,3301.64,CHCGILDTO6Y
MA6813400180,h_OCHCTP,10-L1-1,2019-01-25 06:45:00.0,Qmin,9.42,CHCGILDTO6Y
MA6813400180,h_OCHCTP,10-L1-1,2019-01-25 06:45:00.0,PhaseCorrectionAve,-0.061,CHCGILDTO6Y
MA6813400180,h_OCHCTP,10-L1-1,2019-01-25 06:45:00.0,BerPreFecMax,0.00154,CHCGILDTO6Y
MA6813400180,h_OCHCTP,10-L1-1,2019-01-25 06:45:00.0,PmdMin,1.84,CHCGILDTO6Y
MA6813400180,h_OCHCTP,10-L1-1,2019-01-25 06:45:00.0,SoPmdAve,3258.75,CHCGILDTO6Y
MA6813400180,h_OCHCTP,10-L1-2,2019-01-25 06:15:00.0,Qmin,9.09,CHCGILDTO6Y
MA6813400180,h_OCHCTP,10-L1-2,2019-01-25 06:15:00.0,PhaseCorrectionAve,3.43e-07,CHCGILDTO6Y
MA6813400180,h_OCHCTP,10-L1-2,2019-01-25 06:15:00.0,BerPreFecMax,0.00221,CHCGILDTO6Y
MA6813400180,h_OCHCTP,10-L1-2,2019-01-25 06:15:00.0,PmdMin,0.798,CHCGILDTO6Y
MA6813400180,h_OCHCTP,10-L1-2,2019-01-25 06:15:00.0,SoPmdAve,3386.17,CHCGILDTO6Y
MA6813400180,h_OCHCTP,10-L1-2,2019-01-25 06:30:00.0,Qmin,9.09,CHCGILDTO6Y
MA6813400180,h_OCHCTP,10-L1-2,2019-01-25 06:30:00.0,PhaseCorrectionAve,3.48e-07,CHCGILDTO6Y
MA6813400180,h_OCHCTP,10-L1-2,2019-01-25 06:30:00.0,BerPreFecMax,0.0022,CHCGILDTO6Y
MA6813400180,h_OCHCTP,10-L1-2,2019-01-25 06:30:00.0,PmdMin,0.842,CHCGILDTO6Y
MA6813400180,h_OCHCTP,10-L1-2,2019-01-25 06:30:00.0,SoPmdAve,3477.54,CHCGILDTO6Y
MA6813400180,h_OCHCTP,10-L1-2,2019-01-25 06:45:00.0,Qmin,9.09,CHCGILDTO6Y
MA6813400180,h_OCHCTP,10-L1-2,2019-01-25 06:45:00.0,PhaseCorrectionAve,-0.061,CHCGILDTO6Y
MA6813400180,h_OCHCTP,10-L1-2,2019-01-25 06:45:00.0,BerPreFecMax,0.00221,CHCGILDTO6Y
MA6813400180,h_OCHCTP,10-L1-2,2019-01-25 06:45:00.0,PmdMin,0.574,CHCGILDTO6Y
MA6813400180,h_OCHCTP,10-L1-2,2019-01-25 06:45:00.0,SoPmdAve,3460.18,CHCGILDTO6Y
MA6813400180,h_OCHCTP,10-L1-3,2019-01-25 06:15:00.0,Qmin,8.79,CHCGILDTO6Y
MA6813400180,h_OCHCTP,10-L1-3,2019-01-25 06:15:00.0,PhaseCorrectionAve,-0.122,CHCGILDTO6Y
MA6813400180,h_OCHCTP,10-L1-3,2019-01-25 06:15:00.0,BerPreFecMax,0.00296,CHCGILDTO6Y
MA6813400180,h_OCHCTP,10-L1-3,2019-01-25 06:15:00.0,PmdMin,2.65,CHCGILDTO6Y
MA6813400180,h_OCHCTP,10-L1-3,2019-01-25 06:15:00.0,SoPmdAve,2763.6,CHCGILDTO6Y
MA6813400180,h_OCHCTP,10-L1-3,2019-01-25 06:30:00.0,Qmin,8.78,CHCGILDTO6Y
MA6813400180,h_OCHCTP,10-L1-3,2019-01-25 06:30:00.0,PhaseCorrectionAve,6.41e-07,CHCGILDTO6Y
MA6813400180,h_OCHCTP,10-L1-3,2019-01-25 06:30:00.0,BerPreFecMax,0.00298,CHCGILDTO6Y
MA6813400180,h_OCHCTP,10-L1-3,2019-01-25 06:30:00.0,PmdMin,2.24,CHCGILDTO6Y
MA6813400180,h_OCHCTP,10-L1-3,2019-01-25 06:30:00.0,SoPmdAve,2844.74,CHCGILDTO6Y
MA6813400180,h_OCHCTP,10-L1-3,2019-01-25 06:45:00.0,Qmin,8.79,CHCGILDTO6Y
MA6813400180,h_OCHCTP,10-L1-3,2019-01-25 06:45:00.0,PhaseCorrectionAve,-0.061,CHCGILDTO6Y
MA6813400180,h_OCHCTP,10-L1-3,2019-01-25 06:45:00.0,BerPreFecMax,0.00296,CHCGILDTO6Y
MA6813400180,h_OCHCTP,10-L1-3,2019-01-25 06:45:00.0,PmdMin,2.2,CHCGILDTO6Y
MA6813400180,h_OCHCTP,10-L1-3,2019-01-25 06:45:00.0,SoPmdAve,2898.59,CHCGILDTO6Y
MA6813400180,h_OCHCTP,10-L1-4,2019-01-25 06:15:00.0,Qmin,8.17,CHCGILDTO6Y
MA6813400180,h_OCHCTP,10-L1-4,2019-01-25 06:15:00.0,PhaseCorrectionAve,-0.122,CHCGILDTO6Y
MA6813400180,h_OCHCTP,10-L1-4,2019-01-25 06:15:00.0,BerPreFecMax,0.00522,CHCGILDTO6Y
MA6813400180,h_OCHCTP,10-L1-4,2019-01-25 06:15:00.0,PmdMin,2.08,CHCGILDTO6Y
MA6813400180,h_OCHCTP,10-L1-4,2019-01-25 06:15:00.0,SoPmdAve,3045.81,CHCGILDTO6Y
MA6813400180,h_OCHCTP,10-L1-4,2019-01-25 06:30:00.0,Qmin,8.18,CHCGILDTO6Y
MA6813400180,h_OCHCTP,10-L1-4,2019-01-25 06:30:00.0,PhaseCorrectionAve,4.06e-06,CHCGILDTO6Y
MA6813400180,h_OCHCTP,10-L1-4,2019-01-25 06:30:00.0,BerPreFecMax,0.00517,CHCGILDTO6Y
MA6813400180,h_OCHCTP,10-L1-4,2019-01-25 06:30:00.0,PmdMin,2.89,CHCGILDTO6Y
MA6813400180,h_OCHCTP,10-L1-4,2019-01-25 06:30:00.0,SoPmdAve,3073.34,CHCGILDTO6Y
MA6813400180,h_OCHCTP,10-L1-4,2019-01-25 06:45:00.0,Qmin,8.14,CHCGILDTO6Y
MA6813400180,h_OCHCTP,10-L1-4,2019-01-25 06:45:00.0,PhaseCorrectionAve,-0.061,CHCGILDTO6Y
MA6813400180,h_OCHCTP,10-L1-4,2019-01-25 06:45:00.0,BerPreFecMax,0.00535,CHCGILDTO6Y
MA6813400180,h_OCHCTP,10-L1-4,2019-01-25 06:45:00.0,PmdMin,1.89,CHCGILDTO6Y
MA6813400180,h_OCHCTP,10-L1-4,2019-01-25 06:45:00.0,SoPmdAve,3073.61,CHCGILDTO6Y
MA6813400180,h_OCHCTP,10-L1-5,2019-01-25 06:15:00.0,Qmin,8.37,CHCGILDTO6Y
MA6813400180,h_OCHCTP,10-L1-5,2019-01-25 06:15:00.0,PhaseCorrectionAve,-0.244,CHCGILDTO6Y
MA6813400180,h_OCHCTP,10-L1-5,2019-01-25 06:15:00.0,BerPreFecMax,0.00439,CHCGILDTO6Y
MA6813400180,h_OCHCTP,10-L1-5,2019-01-25 06:15:00.0,PmdMin,0.853,CHCGILDTO6Y
MA6813400180,h_OCHCTP,10-L1-5,2019-01-25 06:15:00.0,SoPmdAve,2948.38,CHCGILDTO6Y
MA6813400180,h_OCHCTP,10-L1-5,2019-01-25 06:30:00.0,Qmin,8.35,CHCGILDTO6Y
MA6813400180,h_OCHCTP,10-L1-5,2019-01-25 06:30:00.0,PhaseCorrectionAve,2.09e-06,CHCGILDTO6Y
MA6813400180,h_OCHCTP,10-L1-5,2019-01-25 06:30:00.0,BerPreFecMax,0.00447,CHCGILDTO6Y
MA6813400180,h_OCHCTP,10-L1-5,2019-01-25 06:30:00.0,PmdMin,1.14,CHCGILDTO6Y
MA6813400180,h_OCHCTP,10-L1-5,2019-01-25 06:30:00.0,SoPmdAve,2917.39,CHCGILDTO6Y
MA6813400180,h_OCHCTP,10-L1-5,2019-01-25 06:45:00.0,Qmin,8.36,CHCGILDTO6Y
MA6813400180,h_OCHCTP,10-L1-5,2019-01-25 06:45:00.0,PhaseCorrectionAve,-0.061,CHCGILDTO6Y
MA6813400180,h_OCHCTP,10-L1-5,2019-01-25 06:45:00.0,BerPreFecMax,0.00443,CHCGILDTO6Y
MA6813400180,h_OCHCTP,10-L1-5,2019-01-25 06:45:00.0,PmdMin,1.76,CHCGILDTO6Y
MA6813400180,h_OCHCTP,10-L1-5,2019-01-25 06:45:00.0,SoPmdAve,2812.49,CHCGILDTO6Y
MA6813400180,h_OCHCTP,10-L1-6,2019-01-25 06:15:00.0,Qmin,8.58,CHCGILDTO6Y
MA6813400180,h_OCHCTP,10-L1-6,2019-01-25 06:15:00.0,PhaseCorrectionAve,-0.244,CHCGILDTO6Y
MA6813400180,h_OCHCTP,10-L1-6,2019-01-25 06:15:00.0,BerPreFecMax,0.00362,CHCGILDTO6Y
MA6813400180,h_OCHCTP,10-L1-6,2019-01-25 06:15:00.0,PmdMin,2.51,CHCGILDTO6Y
MA6813400180,h_OCHCTP,10-L1-6,2019-01-25 06:15:00.0,SoPmdAve,2841.36,CHCGILDTO6Y
MA6813400180,h_OCHCTP,10-L1-6,2019-01-25 06:30:00.0,Qmin,8.59,CHCGILDTO6Y
MA6813400180,h_OCHCTP,10-L1-6,2019-01-25 06:30:00.0,PhaseCorrectionAve,-0.061,CHCGILDTO6Y
MA6813400180,h_OCHCTP,10-L1-6,2019-01-25 06:30:00.0,BerPreFecMax,0.0036,CHCGILDTO6Y
MA6813400180,h_OCHCTP,10-L1-6,2019-01-25 06:30:00.0,PmdMin,2.64,CHCGILDTO6Y
MA6813400180,h_OCHCTP,10-L1-6,2019-01-25 06:30:00.0,SoPmdAve,2835.48,CHCGILDTO6Y
MA6813400180,h_OCHCTP,10-L1-6,2019-01-25 06:45:00.0,Qmin,8.61,CHCGILDTO6Y
MA6813400180,h_OCHCTP,10-L1-6,2019-01-25 06:45:00.0,PhaseCorrectionAve,-0.122,CHCGILDTO6Y
MA6813400180,h_OCHCTP,10-L1-6,2019-01-25 06:45:00.0,BerPreFecMax,0.00352,CHCGILDTO6Y
MA6813400180,h_OCHCTP,10-L1-6,2019-01-25 06:45:00.0,PmdMin,2.45,CHCGILDTO6Y
MA6813400180,h_OCHCTP,10-L1-6,2019-01-25 06:45:00.0,SoPmdAve,2801.2,CHCGILDTO6Y
MA6813400180,h_OCHCTP,10-L1-7,2019-01-25 06:15:00.0,Qmin,8.69,CHCGILDTO6Y
MA6813400180,h_OCHCTP,10-L1-7,2019-01-25 06:15:00.0,PhaseCorrectionAve,-0.244,CHCGILDTO6Y
MA6813400180,h_OCHCTP,10-L1-7,2019-01-25 06:15:00.0,BerPreFecMax,0.00326,CHCGILDTO6Y
MA6813400180,h_OCHCTP,10-L1-7,2019-01-25 06:15:00.0,PmdMin,3.17,CHCGILDTO6Y
MA6813400180,h_OCHCTP,10-L1-7,2019-01-25 06:15:00.0,SoPmdAve,3479.72,CHCGILDTO6Y
MA6813400180,h_OCHCTP,10-L1-7,2019-01-25 06:30:00.0,Qmin,8.7,CHCGILDTO6Y
MA6813400180,h_OCHCTP,10-L1-7,2019-01-25 06:30:00.0,PhaseCorrectionAve,-0.061,CHCGILDTO6Y
MA6813400180,h_OCHCTP,10-L1-7,2019-01-25 06:30:00.0,BerPreFecMax,0.00324,CHCGILDTO6Y
MA6813400180,h_OCHCTP,10-L1-7,2019-01-25 06:30:00.0,PmdMin,1.8,CHCGILDTO6Y
MA6813400180,h_OCHCTP,10-L1-7,2019-01-25 06:30:00.0,SoPmdAve,3420.34,CHCGILDTO6Y
MA6813400180,h_OCHCTP,10-L1-7,2019-01-25 06:45:00.0,Qmin,8.7,CHCGILDTO6Y
MA6813400180,h_OCHCTP,10-L1-7,2019-01-25 06:45:00.0,PhaseCorrectionAve,-0.183,CHCGILDTO6Y
MA6813400180,h_OCHCTP,10-L1-7,2019-01-25 06:45:00.0,BerPreFecMax,0.00322,CHCGILDTO6Y
MA6813400180,h_OCHCTP,10-L1-7,2019-01-25 06:45:00.0,PmdMin,4.45,CHCGILDTO6Y
MA6813400180,h_OCHCTP,10-L1-7,2019-01-25 06:45:00.0,SoPmdAve,3353.87,CHCGILDTO6Y
MA6813400180,h_OCHCTP,10-L1-8,2019-01-25 06:15:00.0,Qmin,9.28,CHCGILDTO6Y
MA6813400180,h_OCHCTP,10-L1-8,2019-01-25 06:15:00.0,PhaseCorrectionAve,-0.244,CHCGILDTO6Y
MA6813400180,h_OCHCTP,10-L1-8,2019-01-25 06:15:00.0,BerPreFecMax,0.0018,CHCGILDTO6Y
MA6813400180,h_OCHCTP,10-L1-8,2019-01-25 06:15:00.0,PmdMin,1.04,CHCGILDTO6Y
MA6813400180,h_OCHCTP,10-L1-8,2019-01-25 06:15:00.0,SoPmdAve,3338.79,CHCGILDTO6Y
MA6813400180,h_OCHCTP,10-L1-8,2019-01-25 06:30:00.0,Qmin,9.27,CHCGILDTO6Y
MA6813400180,h_OCHCTP,10-L1-8,2019-01-25 06:30:00.0,PhaseCorrectionAve,-0.061,CHCGILDTO6Y
MA6813400180,h_OCHCTP,10-L1-8,2019-01-25 06:30:00.0,BerPreFecMax,0.00181,CHCGILDTO6Y
MA6813400180,h_OCHCTP,10-L1-8,2019-01-25 06:30:00.0,PmdMin,1.82,CHCGILDTO6Y
MA6813400180,h_OCHCTP,10-L1-8,2019-01-25 06:30:00.0,SoPmdAve,3389.4,CHCGILDTO6Y
MA6813400180,h_OCHCTP,10-L1-8,2019-01-25 06:45:00.0,Qmin,9.26,CHCGILDTO6Y
MA6813400180,h_OCHCTP,10-L1-8,2019-01-25 06:45:00.0,PhaseCorrectionAve,-0.183,CHCGILDTO6Y
MA6813400180,h_OCHCTP,10-L1-8,2019-01-25 06:45:00.0,BerPreFecMax,0.00184,CHCGILDTO6Y
MA6813400180,h_OCHCTP,10-L1-8,2019-01-25 06:45:00.0,PmdMin,1.29,CHCGILDTO6Y
MA6813400180,h_OCHCTP,10-L1-8,2019-01-25 06:45:00.0,SoPmdAve,3347.33,CHCGILDTO6Y
MA6813400180,h_OCHCTP,10-L1-9,2019-01-25 06:15:00.0,Qmin,9.31,CHCGILDTO6Y
MA6813400180,h_OCHCTP,10-L1-9,2019-01-25 06:15:00.0,PhaseCorrectionAve,-0.244,CHCGILDTO6Y
MA6813400180,h_OCHCTP,10-L1-9,2019-01-25 06:15:00.0,BerPreFecMax,0.00174,CHCGILDTO6Y
MA6813400180,h_OCHCTP,10-L1-9,2019-01-25 06:15:00.0,PmdMin,1.19,CHCGILDTO6Y
MA6813400180,h_OCHCTP,10-L1-9,2019-01-25 06:15:00.0,SoPmdAve,3446.52,CHCGILDTO6Y
MA6813400180,h_OCHCTP,10-L1-9,2019-01-25 06:30:00.0,Qmin,9.31,CHCGILDTO6Y
MA6813400180,h_OCHCTP,10-L1-9,2019-01-25 06:30:00.0,PhaseCorrectionAve,-0.061,CHCGILDTO6Y
MA6813400180,h_OCHCTP,10-L1-9,2019-01-25 06:30:00.0,BerPreFecMax,0.00175,CHCGILDTO6Y
MA6813400180,h_OCHCTP,10-L1-9,2019-01-25 06:30:00.0,PmdMin,0.519,CHCGILDTO6Y
MA6813400180,h_OCHCTP,10-L1-9,2019-01-25 06:30:00.0,SoPmdAve,3502.03,CHCGILDTO6Y
MA6813400180,h_OCHCTP,10-L1-9,2019-01-25 06:45:00.0,Qmin,9.3,CHCGILDTO6Y
MA6813400180,h_OCHCTP,10-L1-9,2019-01-25 06:45:00.0,PhaseCorrectionAve,-0.244,CHCGILDTO6Y
MA6813400180,h_OCHCTP,10-L1-9,2019-01-25 06:45:00.0,BerPreFecMax,0.00176,CHCGILDTO6Y
MA6813400180,h_OCHCTP,10-L1-9,2019-01-25 06:45:00.0,PmdMin,1.37,CHCGILDTO6Y
MA6813400180,h_OCHCTP,10-L1-9,2019-01-25 06:45:00.0,SoPmdAve,3450.14,CHCGILDTO6Y
MA6813400180,h_OCHCTP,10-L1-10,2019-01-25 06:15:00.0,Qmin,9.38,CHCGILDTO6Y
MA6813400180,h_OCHCTP,10-L1-10,2019-01-25 06:15:00.0,PhaseCorrectionAve,-0.244,CHCGILDTO6Y
MA6813400180,h_OCHCTP,10-L1-10,2019-01-25 06:15:00.0,BerPreFecMax,0.00161,CHCGILDTO6Y
MA6813400180,h_OCHCTP,10-L1-10,2019-01-25 06:15:00.0,PmdMin,2.07,CHCGILDTO6Y
MA6813400180,h_OCHCTP,10-L1-10,2019-01-25 06:15:00.0,SoPmdAve,3216.41,CHCGILDTO6Y
MA6813400180,h_OCHCTP,10-L1-10,2019-01-25 06:30:00.0,Qmin,9.38,CHCGILDTO6Y
MA6813400180,h_OCHCTP,10-L1-10,2019-01-25 06:30:00.0,PhaseCorrectionAve,-0.122,CHCGILDTO6Y
MA6813400180,h_OCHCTP,10-L1-10,2019-01-25 06:30:00.0,BerPreFecMax,0.00162,CHCGILDTO6Y
MA6813400180,h_OCHCTP,10-L1-10,2019-01-25 06:30:00.0,PmdMin,3.56,CHCGILDTO6Y
MA6813400180,h_OCHCTP,10-L1-10,2019-01-25 06:30:00.0,SoPmdAve,3229.93,CHCGILDTO6Y
MA6813400180,h_OCHCTP,10-L1-10,2019-01-25 06:45:00.0,Qmin,9.38,CHCGILDTO6Y
MA6813400180,h_OCHCTP,10-L1-10,2019-01-25 06:45:00.0,PhaseCorrectionAve,-0.244,CHCGILDTO6Y
MA6813400180,h_OCHCTP,10-L1-10,2019-01-25 06:45:00.0,BerPreFecMax,0.00162,CHCGILDTO6Y
MA6813400180,h_OCHCTP,10-L1-10,2019-01-25 06:45:00.0,PmdMin,1.25,CHCGILDTO6Y
MA6813400180,h_OCHCTP,10-L1-10,2019-01-25 06:45:00.0,SoPmdAve,3238.68,CHCGILDTO6Y
MA6813400180,h_OCHCTP,13-L1-1,2019-01-25 06:15:00.0,Qmin,9.16,CHCGILDTO6Y
MA6813400180,h_OCHCTP,13-L1-1,2019-01-25 06:15:00.0,PhaseCorrectionAve,2.2e-07,CHCGILDTO6Y
MA6813400180,h_OCHCTP,13-L1-1,2019-01-25 06:15:00.0,BerPreFecMax,0.00204,CHCGILDTO6Y
MA6813400180,h_OCHCTP,13-L1-1,2019-01-25 06:15:00.0,PmdMin,0.762,CHCGILDTO6Y
MA6813400180,h_OCHCTP,13-L1-1,2019-01-25 06:15:00.0,SoPmdAve,3628.37,CHCGILDTO6Y
MA6813400180,h_OCHCTP,13-L1-1,2019-01-25 06:30:00.0,Qmin,9.15,CHCGILDTO6Y
MA6813400180,h_OCHCTP,13-L1-1,2019-01-25 06:30:00.0,PhaseCorrectionAve,2.06e-07,CHCGILDTO6Y
MA6813400180,h_OCHCTP,13-L1-1,2019-01-25 06:30:00.0,BerPreFecMax,0.00207,CHCGILDTO6Y
MA6813400180,h_OCHCTP,13-L1-1,2019-01-25 06:30:00.0,PmdMin,1.69,CHCGILDTO6Y
MA6813400180,h_OCHCTP,13-L1-1,2019-01-25 06:30:00.0,SoPmdAve,3637.94,CHCGILDTO6Y
MA6813400180,h_OCHCTP,13-L1-1,2019-01-25 06:45:00.0,Qmin,9.17,CHCGILDTO6Y
MA6813400180,h_OCHCTP,13-L1-1,2019-01-25 06:45:00.0,PhaseCorrectionAve,2.03e-07,CHCGILDTO6Y
MA6813400180,h_OCHCTP,13-L1-1,2019-01-25 06:45:00.0,BerPreFecMax,0.00203,CHCGILDTO6Y
MA6813400180,h_OCHCTP,13-L1-1,2019-01-25 06:45:00.0,PmdMin,1.15,CHCGILDTO6Y
MA6813400180,h_OCHCTP,13-L1-1,2019-01-25 06:45:00.0,SoPmdAve,3622.08,CHCGILDTO6Y
MA6813400180,h_OCHCTP,13-L1-2,2019-01-25 06:15:00.0,Qmin,9.15,CHCGILDTO6Y
MA6813400180,h_OCHCTP,13-L1-2,2019-01-25 06:15:00.0,PhaseCorrectionAve,-0.061,CHCGILDTO6Y
MA6813400180,h_OCHCTP,13-L1-2,2019-01-25 06:15:00.0,BerPreFecMax,0.00207,CHCGILDTO6Y
MA6813400180,h_OCHCTP,13-L1-2,2019-01-25 06:15:00.0,PmdMin,0.936,CHCGILDTO6Y
MA6813400180,h_OCHCTP,13-L1-2,2019-01-25 06:15:00.0,SoPmdAve,3498.36,CHCGILDTO6Y
MA6813400180,h_OCHCTP,13-L1-2,2019-01-25 06:30:00.0,Qmin,9.17,CHCGILDTO6Y
MA6813400180,h_OCHCTP,13-L1-2,2019-01-25 06:30:00.0,PhaseCorrectionAve,-0.061,CHCGILDTO6Y
MA6813400180,h_OCHCTP,13-L1-2,2019-01-25 06:30:00.0,BerPreFecMax,0.00202,CHCGILDTO6Y
MA6813400180,h_OCHCTP,13-L1-2,2019-01-25 06:30:00.0,PmdMin,1.22,CHCGILDTO6Y
MA6813400180,h_OCHCTP,13-L1-2,2019-01-25 06:30:00.0,SoPmdAve,3515.05,CHCGILDTO6Y
MA6813400180,h_OCHCTP,13-L1-2,2019-01-25 06:45:00.0,Qmin,9.19,CHCGILDTO6Y
MA6813400180,h_OCHCTP,13-L1-2,2019-01-25 06:45:00.0,PhaseCorrectionAve,2.59e-07,CHCGILDTO6Y
MA6813400180,h_OCHCTP,13-L1-2,2019-01-25 06:45:00.0,BerPreFecMax,0.00199,CHCGILDTO6Y
MA6813400180,h_OCHCTP,13-L1-2,2019-01-25 06:45:00.0,PmdMin,1.34,CHCGILDTO6Y
MA6813400180,h_OCHCTP,13-L1-2,2019-01-25 06:45:00.0,SoPmdAve,3504.88,CHCGILDTO6Y
MA6813400180,h_OCHCTP,13-L1-3,2019-01-25 06:15:00.0,Qmin,8.98,CHCGILDTO6Y
MA6813400180,h_OCHCTP,13-L1-3,2019-01-25 06:15:00.0,PhaseCorrectionAve,-0.122,CHCGILDTO6Y
MA6813400180,h_OCHCTP,13-L1-3,2019-01-25 06:15:00.0,BerPreFecMax,0.00247,CHCGILDTO6Y
MA6813400180,h_OCHCTP,13-L1-3,2019-01-25 06:15:00.0,PmdMin,1.16,CHCGILDTO6Y
MA6813400180,h_OCHCTP,13-L1-3,2019-01-25 06:15:00.0,SoPmdAve,3004.09,CHCGILDTO6Y
MA6813400180,h_OCHCTP,13-L1-3,2019-01-25 06:30:00.0,Qmin,8.96,CHCGILDTO6Y
MA6813400180,h_OCHCTP,13-L1-3,2019-01-25 06:30:00.0,PhaseCorrectionAve,-0.061,CHCGILDTO6Y
MA6813400180,h_OCHCTP,13-L1-3,2019-01-25 06:30:00.0,BerPreFecMax,0.00251,CHCGILDTO6Y
MA6813400180,h_OCHCTP,13-L1-3,2019-01-25 06:30:00.0,PmdMin,0.105,CHCGILDTO6Y
MA6813400180,h_OCHCTP,13-L1-3,2019-01-25 06:30:00.0,SoPmdAve,2980.7,CHCGILDTO6Y
MA6813400180,h_OCHCTP,13-L1-3,2019-01-25 06:45:00.0,Qmin,9.0,CHCGILDTO6Y
MA6813400180,h_OCHCTP,13-L1-3,2019-01-25 06:45:00.0,PhaseCorrectionAve,4.25e-07,CHCGILDTO6Y
MA6813400180,h_OCHCTP,13-L1-3,2019-01-25 06:45:00.0,BerPreFecMax,0.00242,CHCGILDTO6Y
MA6813400180,h_OCHCTP,13-L1-3,2019-01-25 06:45:00.0,PmdMin,0.92,CHCGILDTO6Y
MA6813400180,h_OCHCTP,13-L1-3,2019-01-25 06:45:00.0,SoPmdAve,3005.94,CHCGILDTO6Y
MA6813400180,h_OCHCTP,13-L1-4,2019-01-25 06:15:00.0,Qmin,8.73,CHCGILDTO6Y
MA6813400180,h_OCHCTP,13-L1-4,2019-01-25 06:15:00.0,PhaseCorrectionAve,-0.122,CHCGILDTO6Y
MA6813400180,h_OCHCTP,13-L1-4,2019-01-25 06:15:00.0,BerPreFecMax,0.00313,CHCGILDTO6Y
MA6813400180,h_OCHCTP,13-L1-4,2019-01-25 06:15:00.0,PmdMin,0.906,CHCGILDTO6Y
MA6813400180,h_OCHCTP,13-L1-4,2019-01-25 06:15:00.0,SoPmdAve,3371.86,CHCGILDTO6Y
MA6813400180,h_OCHCTP,13-L1-4,2019-01-25 06:30:00.0,Qmin,8.75,CHCGILDTO6Y
MA6813400180,h_OCHCTP,13-L1-4,2019-01-25 06:30:00.0,PhaseCorrectionAve,-0.061,CHCGILDTO6Y
MA6813400180,h_OCHCTP,13-L1-4,2019-01-25 06:30:00.0,BerPreFecMax,0.00309,CHCGILDTO6Y
MA6813400180,h_OCHCTP,13-L1-4,2019-01-25 06:30:00.0,PmdMin,1.46,CHCGILDTO6Y
MA6813400180,h_OCHCTP,13-L1-4,2019-01-25 06:30:00.0,SoPmdAve,3377.85,CHCGILDTO6Y
MA6813400180,h_OCHCTP,13-L1-4,2019-01-25 06:45:00.0,Qmin,8.76,CHCGILDTO6Y
MA6813400180,h_OCHCTP,13-L1-4,2019-01-25 06:45:00.0,PhaseCorrectionAve,4.62e-07,CHCGILDTO6Y
MA6813400180,h_OCHCTP,13-L1-4,2019-01-25 06:45:00.0,BerPreFecMax,0.00307,CHCGILDTO6Y
MA6813400180,h_OCHCTP,13-L1-4,2019-01-25 06:45:00.0,PmdMin,1.08,CHCGILDTO6Y
MA6813400180,h_OCHCTP,13-L1-4,2019-01-25 06:45:00.0,SoPmdAve,3334.59,CHCGILDTO6Y
MA6813400180,h_OCHCTP,13-L1-5,2019-01-25 06:15:00.0,Qmin,8.76,CHCGILDTO6Y
MA6813400180,h_OCHCTP,13-L1-5,2019-01-25 06:15:00.0,PhaseCorrectionAve,-0.122,CHCGILDTO6Y
MA6813400180,h_OCHCTP,13-L1-5,2019-01-25 06:15:00.0,BerPreFecMax,0.00306,CHCGILDTO6Y
MA6813400180,h_OCHCTP,13-L1-5,2019-01-25 06:15:00.0,PmdMin,0.443,CHCGILDTO6Y
MA6813400180,h_OCHCTP,13-L1-5,2019-01-25 06:15:00.0,SoPmdAve,2874.22,CHCGILDTO6Y
MA6813400180,h_OCHCTP,13-L1-5,2019-01-25 06:30:00.0,Qmin,8.77,CHCGILDTO6Y
MA6813400180,h_OCHCTP,13-L1-5,2019-01-25 06:30:00.0,PhaseCorrectionAve,-0.122,CHCGILDTO6Y
MA6813400180,h_OCHCTP,13-L1-5,2019-01-25 06:30:00.0,BerPreFecMax,0.00303,CHCGILDTO6Y
MA6813400180,h_OCHCTP,13-L1-5,2019-01-25 06:30:00.0,PmdMin,0.449,CHCGILDTO6Y
MA6813400180,h_OCHCTP,13-L1-5,2019-01-25 06:30:00.0,SoPmdAve,2876.32,CHCGILDTO6Y
MA6813400180,h_OCHCTP,13-L1-5,2019-01-25 06:45:00.0,Qmin,8.75,CHCGILDTO6Y
MA6813400180,h_OCHCTP,13-L1-5,2019-01-25 06:45:00.0,PhaseCorrectionAve,2.78e-07,CHCGILDTO6Y
MA6813400180,h_OCHCTP,13-L1-5,2019-01-25 06:45:00.0,BerPreFecMax,0.00308,CHCGILDTO6Y
MA6813400180,h_OCHCTP,13-L1-5,2019-01-25 06:45:00.0,PmdMin,0.79,CHCGILDTO6Y
MA6813400180,h_OCHCTP,13-L1-5,2019-01-25 06:45:00.0,SoPmdAve,2895.8,CHCGILDTO6Y
MA6813400180,h_OCHCTP,13-L1-6,2019-01-25 06:15:00.0,Qmin,8.85,CHCGILDTO6Y
MA6813400180,h_OCHCTP,13-L1-6,2019-01-25 06:15:00.0,PhaseCorrectionAve,-0.122,CHCGILDTO6Y
MA6813400180,h_OCHCTP,13-L1-6,2019-01-25 06:15:00.0,BerPreFecMax,0.00279,CHCGILDTO6Y
MA6813400180,h_OCHCTP,13-L1-6,2019-01-25 06:15:00.0,PmdMin,0.6,CHCGILDTO6Y
MA6813400180,h_OCHCTP,13-L1-6,2019-01-25 06:15:00.0,SoPmdAve,3018.33,CHCGILDTO6Y
MA6813400180,h_OCHCTP,13-L1-6,2019-01-25 06:30:00.0,Qmin,8.86,CHCGILDTO6Y
MA6813400180,h_OCHCTP,13-L1-6,2019-01-25 06:30:00.0,PhaseCorrectionAve,-0.122,CHCGILDTO6Y
MA6813400180,h_OCHCTP,13-L1-6,2019-01-25 06:30:00.0,BerPreFecMax,0.00277,CHCGILDTO6Y
MA6813400180,h_OCHCTP,13-L1-6,2019-01-25 06:30:00.0,PmdMin,1.05,CHCGILDTO6Y
MA6813400180,h_OCHCTP,13-L1-6,2019-01-25 06:30:00.0,SoPmdAve,2980.53,CHCGILDTO6Y
MA6813400180,h_OCHCTP,13-L1-6,2019-01-25 06:45:00.0,Qmin,8.85,CHCGILDTO6Y
MA6813400180,h_OCHCTP,13-L1-6,2019-01-25 06:45:00.0,PhaseCorrectionAve,-0.061,CHCGILDTO6Y
MA6813400180,h_OCHCTP,13-L1-6,2019-01-25 06:45:00.0,BerPreFecMax,0.00282,CHCGILDTO6Y
MA6813400180,h_OCHCTP,13-L1-6,2019-01-25 06:45:00.0,PmdMin,0.849,CHCGILDTO6Y
MA6813400180,h_OCHCTP,13-L1-6,2019-01-25 06:45:00.0,SoPmdAve,3025.51,CHCGILDTO6Y
MA6813400180,h_OCHCTP,13-L1-7,2019-01-25 06:15:00.0,Qmin,8.82,CHCGILDTO6Y
MA6813400180,h_OCHCTP,13-L1-7,2019-01-25 06:15:00.0,PhaseCorrectionAve,-0.122,CHCGILDTO6Y
MA6813400180,h_OCHCTP,13-L1-7,2019-01-25 06:15:00.0,BerPreFecMax,0.00289,CHCGILDTO6Y
MA6813400180,h_OCHCTP,13-L1-7,2019-01-25 06:15:00.0,PmdMin,0.854,CHCGILDTO6Y
MA6813400180,h_OCHCTP,13-L1-7,2019-01-25 06:15:00.0,SoPmdAve,3706.45,CHCGILDTO6Y
MA6813400180,h_OCHCTP,13-L1-7,2019-01-25 06:30:00.0,Qmin,8.85,CHCGILDTO6Y
MA6813400180,h_OCHCTP,13-L1-7,2019-01-25 06:30:00.0,PhaseCorrectionAve,-0.183,CHCGILDTO6Y
MA6813400180,h_OCHCTP,13-L1-7,2019-01-25 06:30:00.0,BerPreFecMax,0.00281,CHCGILDTO6Y
MA6813400180,h_OCHCTP,13-L1-7,2019-01-25 06:30:00.0,PmdMin,1.21,CHCGILDTO6Y
MA6813400180,h_OCHCTP,13-L1-7,2019-01-25 06:30:00.0,SoPmdAve,3687.61,CHCGILDTO6Y
MA6813400180,h_OCHCTP,13-L1-7,2019-01-25 06:45:00.0,Qmin,8.85,CHCGILDTO6Y
MA6813400180,h_OCHCTP,13-L1-7,2019-01-25 06:45:00.0,PhaseCorrectionAve,-0.061,CHCGILDTO6Y
MA6813400180,h_OCHCTP,13-L1-7,2019-01-25 06:45:00.0,BerPreFecMax,0.00279,CHCGILDTO6Y
MA6813400180,h_OCHCTP,13-L1-7,2019-01-25 06:45:00.0,PmdMin,0.915,CHCGILDTO6Y
MA6813400180,h_OCHCTP,13-L1-7,2019-01-25 06:45:00.0,SoPmdAve,3802.01,CHCGILDTO6Y
MA6813400180,h_OCHCTP,13-L1-8,2019-01-25 06:15:00.0,Qmin,8.87,CHCGILDTO6Y
MA6813400180,h_OCHCTP,13-L1-8,2019-01-25 06:15:00.0,PhaseCorrectionAve,-0.122,CHCGILDTO6Y
MA6813400180,h_OCHCTP,13-L1-8,2019-01-25 06:15:00.0,BerPreFecMax,0.00274,CHCGILDTO6Y
MA6813400180,h_OCHCTP,13-L1-8,2019-01-25 06:15:00.0,PmdMin,0.524,CHCGILDTO6Y
MA6813400180,h_OCHCTP,13-L1-8,2019-01-25 06:15:00.0,SoPmdAve,3938.56,CHCGILDTO6Y
MA6813400180,h_OCHCTP,13-L1-8,2019-01-25 06:30:00.0,Qmin,8.96,CHCGILDTO6Y
MA6813400180,h_OCHCTP,13-L1-8,2019-01-25 06:30:00.0,PhaseCorrectionAve,-0.183,CHCGILDTO6Y
MA6813400180,h_OCHCTP,13-L1-8,2019-01-25 06:30:00.0,BerPreFecMax,0.0025,CHCGILDTO6Y
MA6813400180,h_OCHCTP,13-L1-8,2019-01-25 06:30:00.0,PmdMin,0.708,CHCGILDTO6Y
MA6813400180,h_OCHCTP,13-L1-8,2019-01-25 06:30:00.0,SoPmdAve,3789.63,CHCGILDTO6Y
MA6813400180,h_OCHCTP,13-L1-8,2019-01-25 06:45:00.0,Qmin,8.97,CHCGILDTO6Y
MA6813400180,h_OCHCTP,13-L1-8,2019-01-25 06:45:00.0,PhaseCorrectionAve,-0.122,CHCGILDTO6Y
MA6813400180,h_OCHCTP,13-L1-8,2019-01-25 06:45:00.0,BerPreFecMax,0.0025,CHCGILDTO6Y
MA6813400180,h_OCHCTP,13-L1-8,2019-01-25 06:45:00.0,PmdMin,0.437,CHCGILDTO6Y
MA6813400180,h_OCHCTP,13-L1-8,2019-01-25 06:45:00.0,SoPmdAve,3858.15,CHCGILDTO6Y
MA6813400180,h_OCHCTP,13-L1-9,2019-01-25 06:15:00.0,Qmin,8.86,CHCGILDTO6Y
MA6813400180,h_OCHCTP,13-L1-9,2019-01-25 06:15:00.0,PhaseCorrectionAve,-0.122,CHCGILDTO6Y
MA6813400180,h_OCHCTP,13-L1-9,2019-01-25 06:15:00.0,BerPreFecMax,0.00277,CHCGILDTO6Y
MA6813400180,h_OCHCTP,13-L1-9,2019-01-25 06:15:00.0,PmdMin,0.823,CHCGILDTO6Y
MA6813400180,h_OCHCTP,13-L1-9,2019-01-25 06:15:00.0,SoPmdAve,3549.74,CHCGILDTO6Y
MA6813400180,h_OCHCTP,13-L1-9,2019-01-25 06:30:00.0,Qmin,8.93,CHCGILDTO6Y
MA6813400180,h_OCHCTP,13-L1-9,2019-01-25 06:30:00.0,PhaseCorrectionAve,-0.244,CHCGILDTO6Y
MA6813400180,h_OCHCTP,13-L1-9,2019-01-25 06:30:00.0,BerPreFecMax,0.00258,CHCGILDTO6Y
MA6813400180,h_OCHCTP,13-L1-9,2019-01-25 06:30:00.0,PmdMin,1.01,CHCGILDTO6Y
MA6813400180,h_OCHCTP,13-L1-9,2019-01-25 06:30:00.0,SoPmdAve,3582.67,CHCGILDTO6Y
MA6813400180,h_OCHCTP,13-L1-9,2019-01-25 06:45:00.0,Qmin,8.91,CHCGILDTO6Y
MA6813400180,h_OCHCTP,13-L1-9,2019-01-25 06:45:00.0,PhaseCorrectionAve,-0.122,CHCGILDTO6Y
MA6813400180,h_OCHCTP,13-L1-9,2019-01-25 06:45:00.0,BerPreFecMax,0.00265,CHCGILDTO6Y
MA6813400180,h_OCHCTP,13-L1-9,2019-01-25 06:45:00.0,PmdMin,1.2,CHCGILDTO6Y
MA6813400180,h_OCHCTP,13-L1-9,2019-01-25 06:45:00.0,SoPmdAve,3530.9,CHCGILDTO6Y
MA6813400180,h_OCHCTP,13-L1-10,2019-01-25 06:15:00.0,Qmin,8.72,CHCGILDTO6Y
MA6813400180,h_OCHCTP,13-L1-10,2019-01-25 06:15:00.0,PhaseCorrectionAve,-0.122,CHCGILDTO6Y
MA6813400180,h_OCHCTP,13-L1-10,2019-01-25 06:15:00.0,BerPreFecMax,0.00318,CHCGILDTO6Y
MA6813400180,h_OCHCTP,13-L1-10,2019-01-25 06:15:00.0,PmdMin,1.05,CHCGILDTO6Y
MA6813400180,h_OCHCTP,13-L1-10,2019-01-25 06:15:00.0,SoPmdAve,3623.64,CHCGILDTO6Y
MA6813400180,h_OCHCTP,13-L1-10,2019-01-25 06:30:00.0,Qmin,8.73,CHCGILDTO6Y
MA6813400180,h_OCHCTP,13-L1-10,2019-01-25 06:30:00.0,PhaseCorrectionAve,-0.244,CHCGILDTO6Y
MA6813400180,h_OCHCTP,13-L1-10,2019-01-25 06:30:00.0,BerPreFecMax,0.00314,CHCGILDTO6Y
MA6813400180,h_OCHCTP,13-L1-10,2019-01-25 06:30:00.0,PmdMin,0.713,CHCGILDTO6Y
MA6813400180,h_OCHCTP,13-L1-10,2019-01-25 06:30:00.0,SoPmdAve,3679.42,CHCGILDTO6Y
MA6813400180,h_OCHCTP,13-L1-10,2019-01-25 06:45:00.0,Qmin,8.71,CHCGILDTO6Y
MA6813400180,h_OCHCTP,13-L1-10,2019-01-25 06:45:00.0,PhaseCorrectionAve,-0.122,CHCGILDTO6Y
MA6813400180,h_OCHCTP,13-L1-10,2019-01-25 06:45:00.0,BerPreFecMax,0.00322,CHCGILDTO6Y
MA6813400180,h_OCHCTP,13-L1-10,2019-01-25 06:45:00.0,PmdMin,1.35,CHCGILDTO6Y
MA6813400180,h_OCHCTP,13-L1-10,2019-01-25 06:45:00.0,SoPmdAve,3624.1,CHCGILDTO6Y
